bandplan FCC
analog_gain 42
digital_gain 18
9816
-23256
-24684
8868
23780
-16580
-4976
32764
-1216
-32768
-25640
3152
28692
4840
7624
19136
-14456
-17128
-13128
-20960
-2620
32764
32764
-6308
-31908
-16748
-8076
-10208
9332
28320
22884
-4736
-19860
-12464
-5768
-6280
-13732
8336
32764
32764
-11884
-32768
-32768
9368
32764
20456
5764
6128
-13060
-32768
-10496
20080
13644
-7496
-4440
11568
12680
-2900
-19508
-13616
5640
13016
1688
11704
9220
-32768
-26268
32764
31760
-26924
-14460
7088
-24844
-14340
32764
32764
-25548
-32740
-1256
76
-3560
25212
7020
-32768
10236
32764
-8832
-26668
9304
-11308
-32768
16600
32764
25288
-32768
-32200
644
-6836
-8296
17408
32512
10452
-15624
-19716
-5472
7024
-5316
-21316
10248
32764
19036
-30588
-32768
-2156
-5220
10612
32764
8716
-16044
-15852
-9488
-17128
3676
32764
7940
-30020
-1608
22556
408
-30028
-14212
18968
5372
18292
17956
-14300
-23700
-27432
-1412
23856
32764
18196
-27468
-32768
5128
17080
-7944
-10296
16644
20160
-5452
-9872
-3100
-13340
-11668
-10812
28180
32764
392
-32768
-32768
-6108
32764
24264
-6372
8384
-588
-20760
-32768
-5324
21744
20652
9264
2212
8264
-1104
-27068
-32768
-7940
32764
32764
-1060
-32768
-25040
-7360
-6944
4532
27892
19012
-8792
-7760
-3928
-18088
-3592
12712
-3460
6988
26856
2604
-32768
-24820
21868
21716
188
-820
1012
-13808
-18028
6160
25396
17736
-12768
-30144
-14724
30484
25236
-32768
-12984
32764
9824
-32768
-6304
14332
-24056
-7052
32764
32764
-17388
-32768
-19828
-16032
11012
9768
1884
32764
29412
-30952
-32768
-7904
-4296
-28188
11952
32764
32764
-16396
-32768
-32768
-28500
-16600
32764
32764
26120
-29276
-32768
-26540
-12864
6932
21812
18196
15984
16292
-7324
-32768
-32768
-6780
18408
32764
24036
8976
-12964
-32768
-32768
-1524
32764
30516
1792
-15508
-14532
5940
612
-13096
-14408
16312
27156
1152
3464
-15492
-31328
-10876
17216
32764
15308
-19000
-27752
-5448
16156
2168
-8844
8468
19044
-8224
-27712
-2488
24328
10128
-31148
8396
32764
-13552
-32768
-29296
12040
32764
16252
-13832
-3784
-1172
-14692
-32768
-8596
32764
32764
-3104
-21384
-7776
-13788
-32716
-12608
32764
32764
13336
-28784
-32768
-11348
4892
-9012
-3060
32764
32764
720
-32768
-32768
-21956
4812
28540
21476
17180
22300
-10332
-32768
-32768
26612
32108
-4248
6516
31528
5212
-32768
-32768
8188
25796
456
-13176
12820
32764
19020
-32768
-32768
18980
32764
-4884
-32768
27536
24060
-32768
-29956
15568
25748
-9792
-26108
13288
32764
-22192
-32768
14848
32764
11180
-32180
-21732
-23116
-1516
32764
32348
-8280
-10952
-12452
-32768
-17584
28816
32764
13732
-16992
-13564
-4768
-11412
-21492
-14476
31788
32764
16032
-29908
-32768
-9884
-5780
-23152
24852
32764
23636
-32768
-32768
-6160
11468
-13336
-2188
32764
32764
14564
-32768
-32768
-9700
9572
-4988
32764
32764
15096
-32768
-32768
-15108
28564
32764
25596
-7124
-10116
-8
-11648
-29452
-4328
32764
12948
-19344
940
27892
-1192
-32768
-22156
3448
32764
28760
-32768
-32768
15084
31468
10692
-25520
4168
9420
-32164
-13412
32764
30528
-18712
-25328
2924
17784
3316
-20412
-26224
2300
32764
32748
-10760
-30008
-19956
-17296
-15668
22756
32764
24068
-31684
-32768
-4616
7472
-27740
-23044
32764
32764
19608
-31936
-32768
-32016
-16104
-2736
32764
32764
31056
-30292
-32768
-29600
3888
18680
15068
776
1164
30812
13124
-19044
-28516
-32768
-26696
32308
32764
32764
-11840
-32768
-32768
-16736
32764
32764
-5788
-10180
29832
22456
-32768
-32768
32764
32764
-22884
-1824
32764
-18128
-32768
-14480
32764
31228
3272
-2844
-28920
-32560
11240
32764
18644
-12824
-23380
-16868
-5748
16164
26828
4464
-15208
788
1424
-8880
-12200
-12260
-10248
22504
32764
16748
-32768
-32768
-5208
6760
9852
32764
32764
-27676
-32768
-17840
-11404
-13208
5496
32764
30224
1220
-6552
-32768
-32768
-16988
5372
32764
32764
27588
-28784
-32768
-32768
7728
23024
29400
17796
-7124
-8528
5216
-4148
-19668
-28984
-18360
32764
32764
1336
-32768
-32768
2532
22832
-6860
16644
32088
-7804
-32768
-12492
23904
16584
-12144
-26308
3180
27056
14612
-8328
-24956
-4256
19156
5536
-12852
-2312
1832
-14560
844
32764
30276
-19324
-32768
-22964
26348
17148
3536
17224
13756
-6708
-18636
-19460
-20848
3568
18904
14532
21548
22172
-8148
-32768
-32768
-9068
32764
32764
16956
-19928
-21396
-3060
-8968
1440
3624
-30660
-7100
32764
32764
-17232
-32768
-32768
-32768
22692
32764
32764
-11692
-27868
-12936
-32768
-32768
32764
32764
-528
-27568
18144
-6368
-32768
-32216
500
32764
32764
20312
-31124
-32768
-16996
10504
11508
12848
19540
1144
-28688
-14040
27140
29060
-21704
-32768
-3412
32764
24952
-9648
-23764
-10088
30648
10588
-32768
-11356
32764
1580
-32768
19872
32764
3328
-32768
-32768
13076
25948
32764
32764
-7692
-15420
-26848
-32768
-6172
12340
32764
22772
6044
15720
-9080
-32768
-32768
-3708
32764
32764
21196
-24932
-32768
-23360
-14416
-1600
20016
25184
31424
-3924
-23436
2044
-19076
-32768
-14640
24172
32764
28776
-28064
-32768
-20436
-7928
-8824
19992
32764
10676
-31788
-14828
26832
12996
-32768
-32768
27800
32764
13472
-24788
-22876
1280
7820
-5492
-6920
16464
17104
-15340
-32768
15752
32764
7576
-32768
-32768
32764
26900
-22760
-5348
30168
18724
-20396
-32768
-6440
18164
-1032
-14928
26748
32764
-580
-32768
-32768
9284
32764
32764
-32768
-32768
29248
32764
-21692
-32768
11812
10064
-32768
724
32764
32764
-32768
-32768
-32768
2716
32764
32764
-12192
-12172
11096
-32768
-32768
18548
32764
14656
-19428
22104
29624
-30616
-32768
-32768
32764
32764
18476
-19212
-25620
-15244
-11832
-13732
10760
32764
20056
-29884
-28944
32764
29192
-32768
-32768
19804
26920
12292
1096
-20588
-15372
19496
10844
-18768
2304
15184
-32768
-29520
32764
32764
-29420
-32768
-32768
32764
32764
-5372
-1824
9776
1720
-30580
-32768
-5456
32764
32216
-16820
-7680
32764
11540
-32768
-32768
14788
32764
32764
-32768
-2932
22716
-28796
-32768
-17588
32764
32764
-29420
-11904
32764
31772
-32768
-32768
-30104
32764
32764
2664
-14788
156
-9488
-28852
-26348
14624
32764
7024
-25080
2372
32764
4608
-32768
-32768
32764
32764
5848
-30232
-3860
-11004
-20256
7160
20316
12156
-960
-25776
-22752
32764
32764
-32768
-32768
2216
32764
18136
-32768
-19060
20616
21684
-16276
-27652
8936
22364
-12544
-32324
32764
32764
-32768
-32768
10356
32764
26460
-32768
-28564
-5192
-140
13288
11672
22076
21932
-32768
-32768
32764
32764
-3504
-32768
-32768
16736
30888
17828
-1508
-12
12120
-1788
-29092
-29776
9240
27476
-1168
-10160
32764
32764
-32768
-32768
-14676
32764
32764
-21192
-23164
11812
1884
-28008
-31108
9840
32764
12152
-32768
4212
32764
-12644
-32768
-28992
32764
32764
-25120
-32768
-2188
32764
-1764
-32768
-8744
22584
17016
-31844
-11396
32764
32308
-32768
-32768
3816
32764
18664
-25692
1756
21848
-3952
-32768
-22520
18788
26768
-12788
-11584
32764
26688
-16412
-32768
-31356
32764
30640
-18124
-10972
5252
23796
-5504
-32524
1460
15580
-14040
-32768
29952
32764
4164
-32768
-32768
31636
32764
-6340
-26432
18240
28756
-14524
-32768
-17560
26844
18724
-15736
2332
32764
17308
-32768
-32768
-2632
32764
32764
-29376
-24040
16096
-16308
-32768
-9760
32764
32764
-22360
-32768
28124
32764
-32768
-32768
-6824
32764
32764
-29604
-26684
11168
17308
-21908
-18648
7044
-3540
-4712
25088
32764
12196
-12296
-32768
-32768
31848
32764
32764
-32332
-32768
-1740
32764
-6324
-32768
28304
32764
-32768
-32768
32764
32764
-32768
-32768
12144
32764
3004
-32768
5556
32764
4180
-32276
-28364
11416
22128
-10144
-22472
32764
32764
-32768
-32768
-30308
32764
32764
-32768
-6296
32764
-9224
-32768
-16304
22480
21664
4072
-17928
2668
32764
1120
-32768
-32768
23864
32764
-14824
-32768
6520
26508
10236
-25632
-19936
22372
7864
-32768
-13532
32764
32764
-32768
-32768
-5028
32764
19976
-32768
-7372
25764
11688
-32768
-32768
32764
32764
-32768
-32768
25928
32764
-10208
-32768
-26692
32764
32764
-32768
-32768
4960
25972
2368
-12052
9160
24036
-18004
-32768
5268
32764
30828
-32768
-32768
27524
32764
-580
-32768
1024
21416
-6576
-31540
1212
32764
-5516
-32768
-3000
32764
32764
-32768
-32768
-22880
32764
32764
-11324
-11956
11892
652
-32768
-30224
12640
32764
-284
-26904
21752
32764
-17756
-32768
-32768
32764
32764
-11868
-32768
-23720
32764
32764
-32768
-29588
32764
5420
-32768
4164
32764
28828
-32768
-32768
32764
32764
-23704
-32768
32764
13620
-30908
-12384
15872
20936
1312
-26568
-18384
32764
32764
-32768
-32768
-5964
32764
32764
-32768
-32768
14700
20140
-15692
-12168
16464
16980
-23280
-32768
20876
32764
16468
-32768
-32768
32604
32764
-12296
-32768
23416
32764
-24160
-32768
11904
32764
88
-32768
-19040
32764
32764
-32768
-32768
32764
32764
-8996
-32768
-7768
31620
4392
-19708
-924
25284
8080
-32768
-32768
32764
32764
-7276
-32768
-32768
32764
27556
-10152
-10632
13816
16412
-32768
-25704
29800
23568
1984
-19112
25432
32764
-27620
-32768
-32768
32764
32764
-4948
-32768
-1668
5400
-26296
-26444
20808
32764
12020
-32768
-30304
32764
32764
-32768
-32768
22360
32764
21988
-32768
-32768
20032
30236
-540
-18096
10104
10328
-32768
-22824
32764
32764
-32768
-32768
12092
32764
12704
-32768
-16896
32764
17240
-25432
-23096
13544
25124
-17440
-32768
26356
32764
-8056
-32768
-32768
32764
32764
-30292
-32768
17972
-2340
-31496
27576
29084
-32768
-12416
32764
27180
15580
-11456
-32768
-32768
32764
32764
28932
-32768
-19532
25292
-11812
-32768
-10372
32764
32764
-23716
-32768
32764
32764
-32768
-32768
4468
32764
32764
-32768
-32768
20392
19288
-21580
-28924
32484
32764
-32768
-25568
32764
32764
-32768
-32768
7192
32764
30224
-11508
-30128
11248
840
-32768
-8196
18948
32764
19764
-32768
-14544
32764
12436
-32768
-32768
32764
32764
6992
-32768
-24076
9468
4000
-10528
5136
32764
5096
-32768
-32672
32764
32764
-32768
-32768
13724
32764
11028
-31300
-17400
32764
25204
-32768
-32768
-272
21236
-6880
-13300
32764
32764
-20260
-32768
-32768
32764
32764
6464
-18560
-1024
4104
-17752
-23140
3556
19100
-3232
-16392
32764
32764
-25612
-32768
-32768
32764
32764
2228
-30148
-3444
-6300
-32768
-15748
25020
32764
9412
-25388
-20828
29200
27296
-32768
-32768
5312
32764
32764
-32476
-32768
6144
14112
-8200
-10780
29532
2712
-32768
6572
32764
32764
-32768
-32768
-6936
12272
32764
32764
-32768
-13572
32764
9812
-32768
-30236
32764
-4620
-25004
32764
32764
-8420
-32768
-32768
8372
32764
23628
-1856
540
12984
-4700
-26416
-20000
2284
4368
-2696
23876
32764
7548
-32768
-32768
5996
32764
21120
-1600
2404
-9276
-5224
-14812
-20672
2752
32664
-1020
-22376
32764
31196
-29032
-32768
-32768
32764
32764
7800
-488
-5008
-11860
-29668
-23828
5480
23344
20576
8816
7544
5032
-8316
-32768
-32768
17764
32764
29696
-8088
-17380
-14688
-21556
-24172
32764
32764
5312
-16476
-32768
14152
32764
-16408
-24820
4900
24800
12024
-16032
-20976
-6372
14076
13628
6076
-2188
-11044
-14896
-6948
15468
26136
9280
-21788
-28288
-3408
17032
10596
1156
1808
6472
496
-15832
-3580
-5544
-20032
13208
32764
13380
-17608
-10272
-14316
-23764
-10692
28388
32764
9328
-8984
-20768
-22580
-11940
9124
14052
14148
8840
1072
-4444
-13544
-12440
-7728
4572
10740
22360
17484
-32768
-32768
32764
32764
-23264
-30164
14672
8916
-14880
-14484
-13712
32764
32764
-17592
-32768
-7404
14568
-27548
1948
32764
28156
-19892
-25624
-17284
-10256
6652
10376
9184
14680
12524
-11612
-24780
-13240
420
12672
16904
5960
-2796
-5236
-5496
-7984
-8772
3784
6920
12532
15884
-10632
-10564
-5488
-16216
-3296
14100
7560
25204
12152
-20288
-16992
-32768
-4724
32764
18872
16472
8200
-19780
-26264
-25680
-5448
24268
32764
18412
-9188
-21800
-22964
-7872
8696
10824
11968
11248
1700
-11520
-12956
-4132
-20336
2584
32764
18460
-7108
-30876
-32768
9068
21132
8796
22636
7308
-14888
-25564
-17668
1440
16756
20720
9524
-2132
-14372
-12328
-9708
1892
11760
10704
7996
-2260
-11188
-12156
-2228
5904
7784
5148
3172
-1520
-8296
316
-2000
-16500
-1576
30864
15236
-11832
-11004
-8848
-14008
-1484
21484
14592
1192
-5716
-6304
-14484
-7600
7208
13908
10820
-5456
-4744
-7692
-996
-244
1816
7112
3124
-3060
-5056
19856
-27688
-32768
32764
32764
-16284
-32768
7372
28764
-32768
-32768
32764
32764
-29988
-32768
6280
2628
-32768
2920
32764
30824
-14348
-15760
-12928
-18172
-14372
5476
19096
26084
12344
-15140
-20512
-11952
-1320
3184
11784
9284
6880
-2820
-7396
-8276
-9544
2352
768
11388
22384
-6568
-17284
-7948
-3692
-3240
-5596
32764
23464
-20060
-20928
-30632
5456
25264
-696
14700
19436
-4260
-25420
-28400
-14376
15392
32764
23692
-2004
-20184
-22076
-15700
3580
17236
14776
3492
-2180
-3544
-4244
-9132
-7016
-16984
21120
32764
-6840
-15784
-32768
-25004
23752
20236
15332
16192
-6228
-24416
-21692
-6408
9900
16588
11376
5432
3228
-8876
-19352
-13964
4088
16464
11572
4760
-1736
-10344
-10116
-6492
7840
13148
988
-8848
-2044
9108
7364
-9344
-29628
1588
32764
13364
-11080
-5336
-1988
-16032
-10308
10692
23212
7316
-7392
-12916
-7552
3096
2476
4112
1692
1848
-2720
-136
-2084
-3556
-528
9308
3564
-4332
-5732
3844
11508
-32768
-16248
32764
32764
-32768
-31012
32764
-22172
-32768
32764
32764
-5372
-32768
-1168
18408
-32768
-17920
32764
32764
-2792
-19148
-20440
-19128
-9620
5664
16748
19520
11528
-816
-11688
-17356
-17100
-740
11100
12780
17208
10300
-13708
-22452
-10524
2584
3448
11244
23396
-924
-12872
-12756
-12992
-15736
22084
32764
-5432
-9680
-23184
-22532
10608
1572
13224
29536
7012
-15100
-28364
-21000
-1076
22028
29252
11920
-9336
-24748
-17516
996
7600
14300
9468
4860
-5336
-12344
-4816
-7268
-2848
-7412
23648
32764
-7048
-24404
-32768
-29080
32476
29964
14116
14292
-9392
-22772
-21240
-10008
5160
19496
19072
8288
-4544
-16624
-11416
-10360
1424
15368
16928
8380
-15308
-15764
-3048
2472
6400
7328
1844
-3816
232
-2400
3340
-508
-17756
-8288
20684
26712
-3544
-18188
-12568
-5240
-708
11764
14720
5272
-5956
-12912
-6896
272
6276
2916
284
176
10196
3376
-15208
-14860
2228
14376
704
8828
736
-5620
2292
-11200
-32768
-372
32764
32316
-32768
-32136
-10020
-32016
4840
32764
32764
-32768
-32768
-8692
-8804
-5224
32764
32764
5660
-26412
-25884
-16340
-8068
6640
19312
25208
10416
-10408
-17508
-18980
-9336
3368
17352
19692
9392
-5148
-19508
-15552
-5592
6948
13072
14504
8492
-12088
-15500
3412
-14964
-15444
32764
23860
-10296
-18284
-31612
2832
16496
-716
20572
19940
-7108
-24076
-27636
-4836
11344
21916
19608
7500
-10300
-22468
-14376
-6072
14696
12188
4036
244
3388
7260
-13652
-21136
-7224
-2944
28048
32764
-8588
-18664
-32768
-24632
30296
20696
16228
10476
-11756
-21920
-15008
-1320
4292
12668
14988
10828
-4328
-14668
-18660
-12584
10500
24480
13496
-3076
-13580
-13748
-6768
4024
12228
9696
20
-4200
-5056
-5296
976
-548
-1684
2996
6408
4552
160
-3952
-7216
-10048
720
15836
8920
-5948
-10160
1340
2468
-2476
132
2140
-216
572
2044
1136
484
-5836
-3900
-4052
4880
14780
224
-10608
3068
7344
-17452
-19156
3640
32764
32764
-10876
-32768
-27176
-15960
11956
32764
32764
392
-32768
-32768
-23172
16996
32764
32632
10740
-13368
-29188
-22604
-5112
820
19788
18316
12736
5692
-12096
-20876
-24004
-6440
20796
25896
13028
-3964
-15716
-15932
-9000
1052
16564
22240
-6112
-11752
-10980
-20400
28756
17528
-6824
3588
-26552
-4280
9772
-8832
16788
24820
456
-23704
-21164
-3940
3208
15896
19668
9516
-16516
-18916
-2568
5096
1300
1620
8924
2484
-1744
-1552
-2788
-5756
-7708
712
-7240
22848
32764
-15888
-24716
-31040
-16536
29416
21924
13876
14256
-8608
-25588
-22992
-8436
5044
18512
22788
16844
292
-23816
-28796
-11608
13596
18064
10180
8468
-6128
-10572
-5488
-6004
-176
5244
4732
4268
3672
3252
-6732
-14040
-3056
5808
6404
4048
7584
-812
-11636
-6796
-80
2560
4740
5568
1564
-3188
808
-4832
-9632
1000
9704
8384
-516
-4972
-5712
-2052
-1660
-900
8668
11184
-9736
-12320
9156
13496
-7420
-19520
-7168
3656
29492
27416
-9840
-32768
-32768
-3704
32764
32764
11608
-24044
-32768
-22892
12408
30304
15676
144
-6560
-7564
-10468
-4088
-3636
4900
6484
10812
10808
-5172
-10040
-14916
-11720
8352
20096
8196
-1268
-4472
-8828
-8100
-11732
12876
26092
-5832
-10624
-21504
14996
26748
-18400
-5744
-16868
3732
28952
-8320
-6192
10844
1376
-14084
-14244
3232
8976
11108
5656
-4144
-6124
-6160
-2180
660
5968
-1432
-2292
8192
5512
-4568
-6260
-6880
-488
2368
5596
-9636
6080
32764
-6476
-17692
-30784
-20876
31504
23176
5556
13096
-2588
-26448
-26964
-1676
12528
17704
19512
3944
-8656
-18532
-18272
-2416
14372
20052
5696
-5452
-9168
-7532
-7136
164
10956
7780
4276
-4808
-5904
-120
-2832
-5736
-2168
6624
10576
5320
-32
-6096
-9232
-11088
-2020
11056
13628
8768
-5600
-8696
-10812
-4128
4544
4856
7108
6580
-1156
-9292
-1324
-928
-8856
-1772
15072
10496
-7608
-8004
4152
1352
-220
-2572
-10928
-8984
11024
32732
8688
-23308
-27996
-15040
15828
29844
16452
-8156
-24268
-15140
1532
17088
10232
-2024
-6952
-1064
4084
-1872
-6772
-3072
2636
1468
11960
5288
-6244
-8920
-9904
-3252
12212
11220
2604
-6208
-2600
-3924
-16784
12772
19628
-5256
-25808
3136
32764
3596
-25136
-27800
-5508
30340
13104
-3860
5408
-1528
-8576
-12380
-9248
400
14740
13772
3676
-2864
-9196
-6736
-5048
-4504
8588
9072
5928
-3112
-3300
-2008
-4780
-4212
2068
4152
4308
-11208
2904
29336
-6192
-10816
-21880
-18604
21892
13996
308
18072
8272
-16792
-25508
-15116
3796
17748
16800
11108
1704
-17016
-16676
-9292
5264
14308
12072
-692
-6924
-2208
-3512
-3808
-5464
6172
11492
-140
-416
-948
-4596
-8148
-6664
5044
12288
8184
5416
-5916
-16820
-8520
620
4380
11752
13132
1764
-10028
-14152
-6048
1392
6756
8980
5452
1384
-6396
-7888
-5340
2448
4240
3892
4848
-7556
-2272
5624
308
-2800
4424
-192
-11892
-9100
11372
16444
-1216
-8028
-1592
4536
-3252
-5436
-5952
-1600
7028
11632
6348
-1628
-9612
-11244
-3468
5960
10072
2408
-4320
-4188
3416
1928
-480
-4772
288
1504
-4748
4952
4088
1672
-4636
-3404
2212
-11360
10024
20176
-24652
-6056
27176
-2492
-5528
-21228
-18124
26540
15996
1360
9256
-5740
-19240
-11784
-744
4344
8512
12612
8244
-1340
-12208
-10576
-3368
1112
3624
4384
3744
6096
3172
-7444
-7788
-3108
320
5384
-2204
4224
-7912
5480
25940
-8304
-12852
-22968
-15188
27368
16540
212
12592
-772
-18376
-18484
-11284
6072
15916
19904
14148
-7772
-20664
-18588
-5596
10180
13628
12420
4496
-8456
-10244
-6864
-640
2396
3296
5256
8264
1204
-5792
-11000
-9796
5392
6360
4176
6760
11356
-2840
-19652
-18280
1592
13016
11480
13824
-1332
-9276
-12468
-7964
-292
5036
11184
6244
-1140
-2236
-2480
-4976
-11132
1316
14672
5704
-7268
-7304
8552
2544
-4708
-216
1828
-4604
-8556
1336
5700
5312
7792
10532
-1924
-19068
-20236
-8968
10920
23620
23268
3864
-16184
-25464
-17360
5500
14948
15116
7836
-1512
-8708
-8092
-3372
-3812
-416
5504
8296
5476
1672
-4712
-9152
-4932
1060
3388
-8972
14832
22300
-31600
6004
11948
-9336
7408
-32768
-5268
32764
9260
14200
3892
-25908
-30912
-5964
19008
18804
14556
2032
-11128
-16924
-8072
2880
9160
3564
1528
4796
-684
-4752
-7440
592
2168
1400
5068
-224
-1400
-4656
-17284
14848
32572
-5868
-14860
-29108
-14680
29320
14824
7900
9232
-9788
-15532
-17272
-6272
10332
17080
13652
3360
-7892
-15236
-10892
-4596
6728
14704
17380
-1224
-17520
-11412
-5128
6176
7016
7708
5044
-2904
-4824
-4468
-3112
-6168
4592
3100
-1224
7792
13672
4024
-18748
-20240
-4872
6624
14636
18552
6696
-12896
-15512
-10124
80
7128
8008
4400
4536
4264
-8752
-10656
-13532
6924
17036
3104
-2864
-3928
4220
-6624
-7704
5076
9884
5676
-9436
-13924
-11996
1460
29128
32764
6760
-32768
-32768
-26276
19664
32764
32764
9560
-29536
-32768
-25384
-3284
20020
32764
18892
-3700
-12684
-17076
-13520
-4900
152
13368
27960
5340
-11104
-13408
-13676
-1964
5004
4272
-1608
5356
17096
11668
-9632
-21876
-11808
-13372
2100
24804
17284
11172
10336
-15896
-32768
-29124
-1996
30048
32764
18744
-3632
-27180
-30560
-5340
11912
14612
11204
4916
-4380
-6560
-7240
-824
-3072
-2396
5884
11884
7840
-4724
-20004
-19776
28172
21552
-2220
-13108
-31548
7972
19368
-2216
14616
7392
-12244
-17776
-11828
3296
12872
16732
4888
-6448
-5536
-10920
-10508
1172
10500
14064
6336
-5432
-8840
-7584
-6456
1292
7384
9764
8004
-2460
-12484
-7340
3000
120
2748
5056
-4928
480
9776
10056
-8860
-22212
-9380
5404
14572
20920
8000
-15732
-17924
-8980
1200
6912
10980
9236
-912
-4956
-5688
-8460
-5092
7152
8612
1964
-904
1400
156
-11080
-6044
6964
10656
10880
192
-20316
-32768
-7356
32764
32764
20276
-32768
-32768
-32768
20180
32764
32764
12832
-25444
-32768
-32768
-7992
22176
30412
20092
6684
-3724
-20008
-22040
-18612
-1508
26372
29160
13928
-10964
-22772
-14508
-6704
3680
12076
7984
-14852
20476
32764
-18212
-20212
-32768
-22988
28296
27436
24056
21932
-15056
-31772
-29928
-18496
6368
32764
32764
3628
-20376
-29904
-17228
1820
13468
13248
8388
2892
204
-10724
-13196
536
3880
-1292
1588
13692
2848
-1288
-18756
-9852
29892
2452
-7024
-17196
-23380
29484
22616
-8820
2928
-772
-11316
-16840
-6292
9780
13976
18104
1156
-9876
-13120
-11292
-3068
4020
16364
12356
1744
-14868
-9712
-3468
852
9232
4836
3744
-4996
-3304
-2352
840
2976
-3016
1456
-2932
-4004
3624
11052
9888
-4328
-17092
-16772
-352
14596
17284
8608
-1296
-15832
-11888
-6676
236
15064
13696
2084
-9572
-7932
-4372
560
5476
-128
2400
1016
-1316
4796
-2516
-11460
-1904
13652
12432
2244
-19172
-30952
-18048
32764
32764
21816
-32768
-32768
-32768
16128
32764
32764
20784
-25956
-32768
-32768
-272
24088
29208
15160
5988
2148
-20940
-23668
-14124
852
21228
17412
8556
3360
-11352
-11988
-9992
-7768
8120
10276
-16860
21984
32764
-13256
-19964
-32768
-20004
32764
23652
1500
16456
496
-17512
-26280
-25860
-492
30632
32764
14136
-17836
-32768
-23448
4088
14832
19504
8956
-2028
-7068
-5672
-3680
2176
392
-11908
-52
11316
9792
6992
-21324
-1956
22232
-4884
-5888
-23740
-11600
31436
12432
-4264
10176
-4568
-13500
-14452
-7088
4228
14864
20208
4120
-11332
-18644
-4308
-1340
4796
12120
8156
1784
-8084
-10760
-6576
2096
6084
7744
3048
1032
-976
-9524
-4780
524
4124
5136
-2636
-7856
3144
16004
13132
-11548
-27648
-12052
7040
17128
17992
6440
-4616
-14592
-16184
-6632
5204
18024
7724
1236
-2608
-10816
-6084
3532
2196
-3512
4908
912
352
4732
3876
-10140
-15256
10972
23848
2496
-28588
-26956
-10236
32764
32764
17188
-32768
-32768
-32768
21012
32764
32764
16768
-21236
-32768
-32768
-10452
19144
29828
22820
12784
-772
-25956
-31692
-13424
9512
24580
18996
6712
-1604
-15516
-16328
-5532
396
10852
3280
-12572
23320
32088
-18292
-25360
-28856
-12320
32764
19644
1092
13604
4176
-19536
-23272
-18876
1788
22116
26148
11964
-3836
-17204
-23468
-6456
6024
13640
8680
320
-1012
-3024
1524
1028
-1284
-12544
-10604
8300
16460
10596
-17312
-3356
22368
-9412
-8892
-10840
-21940
20448
21340
6928
13992
-9724
-26400
-18764
-3712
17176
22616
10696
-6928
-9956
-6728
-5512
-4004
-532
10296
7648
5768
1044
-9876
-8568
-6280
3060
7696
3732
6880
-8
-6672
-6940
-1764
1268
4592
-3316
-4164
8872
13740
6160
-17220
-16116
-6624
156
15140
15880
5116
-4668
-7052
-11456
-7172
2232
1828
6980
11044
7516
-4972
-17508
-7952
4304
10204
4048
628
-3412
-2044
-2372
-4544
6000
7956
8076
-13248
-20128
-4684
6112
32764
25484
-16556
-32768
-30608
-4816
24664
32764
13088
-8212
-17896
-13444
-9264
-3420
7280
8548
14848
10952
-7356
-15108
-8672
-8680
7188
17288
-216
-4488
3456
-2036
-6140
708
-2428
5488
-4616
-8492
15820
3428
10652
1716
-27624
-13880
-11208
18364
32764
6156
1324
-15196
-27368
-18172
7476
19600
19360
12780
-6968
-17220
-17528
200
9796
7500
656
-4312
6216
-1284
-3936
5284
-92
-5260
-10216
1548
4864
10196
-5172
-3688
23940
-4448
-14312
-14768
-24224
10060
32764
20092
-932
-11272
-25344
-24504
1356
20044
23064
11668
-4704
-16972
-16304
-356
5276
4212
7612
6292
1372
-4092
-11164
-7080
1824
6036
2284
6456
7612
-5632
-8736
-6180
1800
6164
-2264
-2800
-1824
7432
13260
3592
-12672
-21596
672
8156
7216
5668
5492
384
-9356
-6360
-4536
-376
8936
5576
744
-3512
-5884
3808
3932
-5192
-4308
4264
-1552
1092
7424
564
-6856
-2796
4320
236
-3516
-5212
-5992
3416
23728
20320
-9476
-32768
-29184
4612
31928
29916
5096
-16872
-22772
-13280
2880
13432
15908
-752
-12628
3812
5292
-2508
-10548
-6996
5040
5748
4360
8784
6928
-10168
-17128
-4860
4692
9912
-4848
-3428
26144
-5196
-1912
1320
-27920
-10436
1364
12644
32764
15008
-22736
-27356
-16484
-412
12816
21828
7008
648
-3752
-15000
-13096
1120
10140
7308
6592
-4128
-8036
-2128
-604
7008
6212
-1744
-7652
-6812
-2588
8684
1376
-4764
18760
10532
-6324
-30192
-32416
18088
32764
20336
-4020
-21844
-22752
-11172
7460
20952
17436
1560
-9360
-14436
-12100
4516
6164
3964
4476
8568
2240
-15272
-10428
-172
9436
8956
368
-6532
-4812
-796
1608
8772
6472
-4480
-14392
-12260
8236
15816
15204
-1860
-23344
-17524
7444
20668
10672
-4180
-11856
-5156
-5748
-248
6404
16672
7860
-12528
-17080
-7812
9716
9224
5112
3408
-596
-9072
-14252
844
12484
8416
4848
-2536
-13544
-12940
7520
17456
-544
-13348
-6528
10528
15844
4752
-16464
-21772
-4276
17880
22892
1152
-15140
-14396
-604
8020
11720
-1272
-8904
-5456
1476
10364
3204
-3428
-3592
-7568
-5852
10256
13052
-1228
-8980
-3300
1452
-552
-10904
2128
28556
4316
-23764
-10256
-2460
15080
14396
-23304
-9416
24284
17756
-15852
-18656
-1304
3236
2664
5408
11140
372
-8404
-12876
-1564
11924
10632
-2640
-16864
-5968
11448
13152
-984
-11516
-1412
4112
-500
-3912
4712
-1516
-12968
15572
18304
-1300
-22384
-32768
7376
32764
20848
-24344
-32768
-11836
14060
14460
15724
3012
-10752
-13136
-3108
2364
7028
7296
-5432
-4468
200
460
2792
-440
-3852
1640
7972
1140
-6276
-7976
-6092
7236
12140
10148
-5956
-24456
-10748
20428
25180
4252
-24384
-27504
5432
21264
19396
-7884
-14032
-4192
2396
6644
-4040
2740
196
-2164
-4
-2172
-488
2364
4436
1096
1040
-3736
-6516
-6900
4300
11316
3796
4816
-5312
-24468
-8152
28632
26744
-13324
-32768
-8616
32764
21836
-11120
-30956
-8852
28720
15080
-8620
-16684
-5912
-736
5276
20624
21476
-14924
-32768
-19660
23244
32764
9488
-7448
-9296
-20436
-14084
7116
18612
13768
3656
-11012
-14164
-4176
-8864
13244
27628
6608
-28952
-27584
7528
31556
24776
-25436
-32768
2072
32764
13220
-20400
-11488
8312
6720
-6632
-4668
7088
3248
-7496
-1760
7156
6756
756
-17780
-12744
14792
15684
8828
-9768
-14632
-3836
-776
4272
9712
1080
-8084
13308
8320
-4996
-21220
-31184
2068
32764
32764
-11840
-32768
-22852
4168
10332
10484
10476
3756
-4592
-11092
-8532
1516
6648
2756
940
2840
-1276
-1004
-5828
-2340
3368
2008
1588
-1416
1868
2012
-512
-480
-1548
-7720
-12624
6988
26356
15396
-13088
-29864
-14928
10064
24584
13648
-6800
-12068
-8080
-3556
4640
6276
4236
452
-1548
-3820
-4060
-144
2244
2172
3328
1480
-668
-7068
-6768
6928
6488
2736
620
-8528
-18900
4732
32764
19556
-28792
-32768
2360
32764
30092
-17244
-32768
-21068
27564
28032
4896
-14560
-15420
-1992
5292
8404
6500
-6664
-11964
632
10928
12808
-4492
-19192
-10080
8324
18864
4780
-7576
-5088
-3736
-2292
296
-252
-5732
14572
18816
312
-23724
-32768
11208
32764
27856
-17236
-32768
-14360
32764
29528
-4108
-18984
-6032
2460
-3036
-1452
5240
10504
-2928
-4060
2832
1408
-2772
-12796
-12972
12980
26008
8248
-9212
-18444
-9600
-2068
4404
11780
8144
-7056
2060
13524
-2344
-16996
-30532
-10468
32764
32764
324
-32692
-30768
-1072
11724
13496
12552
4076
-10212
-13444
-5800
2516
10900
5392
1172
-3260
-4668
-4728
-4200
1352
9312
10276
-2892
-9004
-7844
-160
6968
8128
2456
-10444
-17824
4348
26444
14504
-13428
-23996
-12200
3656
21652
17088
-3576
-14800
-6620
1460
-2032
336
4508
5404
1308
-1280
-2600
-4208
-460
-1516
3956
6252
-2564
-6328
-2404
6772
5884
-8
-9296
-14008
2692
25744
18976
-11988
-32768
-27696
32764
32764
9768
-32768
-32768
-10364
32764
32764
7644
-19460
-22116
-5244
8672
8620
1180
-5392
-5584
8384
12152
1160
-14152
-19008
-1392
21052
19036
-6340
-11068
-8428
-5008
4944
8276
2512
-11280
6444
16528
-1812
-11028
-29620
-17264
32764
32764
-4224
-32376
-32768
-6260
32764
32764
4220
-17660
-17940
-4648
684
2464
7248
2984
-84
3564
3316
-4080
-8372
-12340
-1692
16716
15164
2648
-8720
-14476
-9588
164
10836
14664
-8004
3252
13172
-6724
-15224
-29980
-10420
32764
32764
-788
-32768
-32768
-2696
17492
14428
12364
7652
-6380
-14796
-12092
-1540
10976
4452
4580
1468
-1712
-3948
-6832
-2780
3676
8512
2360
-3412
-7504
736
8828
3984
-4884
-11760
-12708
6492
25552
14044
-8384
-22700
-14920
4780
16496
8816
-4696
-7408
1284
4428
1812
-3540
-6956
-1552
3492
5604
976
-1516
-2228
-296
372
2844
2088
-6200
-2524
5184
244
-7112
-5444
3036
21264
18728
-6892
-32768
-32768
1412
32764
32764
4088
-32768
-32768
-12844
26104
32764
19584
-16132
-28196
-8292
5932
6804
4180
-2168
-744
4128
7096
-244
-8884
-15728
-4440
19120
15308
628
-9656
-15336
-3876
4904
13492
2392
-12204
8608
10104
-6028
-15556
-16768
-2024
26300
32328
4624
-17132
-32768
-32768
12192
32764
26020
-17728
-22876
-13492
-13884
-3972
20484
22740
920
-11940
-5264
-2328
-4600
-1320
1864
4032
10684
2320
-5268
-7240
-7508
-3112
5228
10480
-3808
4480
19312
-1768
-27048
-31148
-6632
32764
32764
-2716
-23180
-17136
-9268
-5676
7284
17788
13892
-4856
-9296
-6132
-5292
1584
4096
2844
4476
1300
-3932
-6388
-7992
6200
13220
5008
-5540
-11624
-6432
5144
10384
2212
-3940
-12520
-460
18496
8292
-7932
-15280
-11776
4440
18504
13544
-5256
-16284
-9596
7220
8992
468
-2028
-2828
1556
2128
-2376
-2268
72
-1532
1968
7336
1256
-6740
-1856
5328
-5952
-12940
-196
22304
17900
-4864
-15456
-22268
-14628
8908
32764
31544
-11088
-32768
-26288
1680
24692
29804
11224
-19264
-26712
-7992
6900
13052
8224
-616
-5724
0
4396
140
-10016
-11348
848
14204
19136
-516
-12388
-16492
-7860
7244
17684
9400
-20756
48
17784
-988
-12028
-19368
-524
17220
4572
12436
16008
-8932
-32768
-31804
15940
32764
11096
-12908
-5748
-5396
-12448
-6340
11136
11736
392
-1376
3336
-4424
-10236
-3368
2288
6832
7732
6568
-5424
-10264
-5880
-3604
2196
-3512
19060
32544
-5248
-32768
-32768
984
32764
32764
-144
-16192
-14188
-16848
-9208
8376
20664
15676
1768
-9236
-18756
-14832
6476
15120
8732
3296
-580
-5216
-16488
-8180
11156
15556
5828
-9296
-8172
-3752
5368
7212
-200
-3928
-16544
220
25984
15596
-9820
-26852
-19184
9568
26584
16400
-6028
-19352
-9632
940
8772
12132
-412
-15936
-5424
11524
7372
-384
-5728
-4808
-1420
3712
6140
-2724
-40
1596
-11912
-8476
12080
27108
3992
-20700
-21140
-15748
10696
28064
17680
-284
-16656
-16392
-7936
-7776
10000
26388
13496
-11132
-16780
-5952
-3820
836
8308
6160
1484
4824
1776
-9136
-15628
-5532
9816
15612
10736
-3192
-12516
-14680
-1492
8564
8660
3360
-7432
7476
12536
-15960
-16912
-5384
4664
18680
2344
6056
20072
-14528
-32768
-23460
24248
32764
19336
-15384
-24540
-12564
-3284
3572
10788
13292
3628
-7836
-9832
420
-112
-4712
5576
5732
6088
4224
-14452
-14620
-352
15944
7868
-10316
13164
13852
-14852
-31276
-18772
21012
32764
18660
-17688
-29360
-12820
6372
10436
8968
8108
-1356
-8832
-9096
-3960
3680
11224
6500
-2384
-10024
-5636
4764
-348
2452
6160
-1204
-4856
-4112
1068
4084
4956
4284
-6996
-12388
-8484
9820
21256
8380
-8916
-17104
-18488
-1892
27104
28976
-4284
-32688
-22308
8468
22572
13560
252
-11708
-11340
-6088
972
12640
6052
-152
-2404
-7764
708
7576
-1312
-11052
-9180
6624
15068
15760
-688
-15752
-10396
-16716
-9920
23472
32252
12016
-12488
-30384
-19944
-44
12204
27180
20992
-9644
-27924
-14984
5456
10704
6728
1652
-5396
-2728
12524
8964
-14036
-26512
-4388
22844
26324
3124
-19808
-19248
-8092
11228
14800
9952
-7984
-7416
5312
920
-3380
-17352
-7304
18512
13788
-2184
11076
4988
-17724
-24520
-20464
12536
32764
21640
-4496
-18116
-24816
-11424
13180
19604
3520
-4592
-1108
-4144
-436
-1644
-712
-1040
-6712
14040
17304
-5448
-26408
-14556
13288
14568
10932
6444
2500
-22944
-32768
-1428
32764
32764
-6784
-25072
-20120
-4724
8188
8236
5280
8640
4612
-4916
-15388
-13544
8408
14268
4144
-6984
-420
7264
-7644
-11464
1576
13760
6032
-7864
-5296
-192
3148
3280
-5728
-7140
4084
13376
6792
-12152
-5752
744
-8712
-1748
13880
15784
-4672
-14908
-6160
5260
3944
-1188
1340
1628
-4772
-2988
8684
10480
-7480
-19528
664
18400
10544
-11912
-20104
-4896
18508
22756
4460
-16372
-26980
-5908
23688
11412
-17524
-8376
23928
29044
-13796
-32768
-18836
21128
22608
11568
11364
-3896
-28536
-26308
10968
27840
13368
-7844
-17932
-7100
8304
16148
3544
-18860
-18592
10716
27064
6016
-21240
-14940
7952
9028
-2796
-600
3832
2312
1372
32
-9024
-17344
3016
27000
19048
-17640
-32768
3912
27808
10464
-9816
-16404
-8200
6480
16884
10708
-3964
-19384
-13080
3272
11272
15068
10348
-4724
-23120
-18004
6916
22212
9512
-8484
-6196
5016
-1568
-10096
-4676
1484
13152
14116
5492
-22164
-30208
7584
31628
12308
-13856
-7676
-3216
-6896
-1096
9668
14792
-3680
-14144
-1380
4276
1412
3176
1104
-9640
-5568
13852
14508
-8296
-19052
-4652
7684
7864
6172
4416
-232
-12344
-9792
1436
320
5068
9808
5524
-852
-2880
-5644
-13668
-7424
10792
16272
3356
-5900
-3828
1556
-5348
-7340
4208
8524
3572
-2636
-8100
-6544
5844
13668
6284
-7396
-8536
-7708
-13920
-4000
29108
32764
-2832
-32768
-31624
5824
27800
15796
-9248
-22740
348
31224
21044
-20832
-32768
-16692
17872
31108
19052
204
-17284
-26112
-6748
14128
13816
-140
-4820
-1056
2192
6688
496
-11428
-12064
4464
14844
2020
-7556
-148
8480
104
-12352
-5000
1276
7672
12852
924
-13192
-15144
3716
19404
6092
-7928
-11684
-12196
6708
23300
16680
-11900
-32768
-17844
27480
32764
8264
-14336
-26204
-19504
12420
31216
7592
-15712
-15840
-4040
6292
10728
9668
292
-13168
-10972
3072
9156
380
-10796
4256
12328
8868
1928
-19092
-20100
-1140
16028
16900
4316
-9020
-7700
1696
-3512
-4784
6680
5516
2272
-4700
-9156
-904
7980
11404
-1600
-9452
-4452
-1244
-1396
996
10608
10264
-7636
-13708
-2784
6420
8608
2488
-11860
-13164
9188
23272
10288
-13856
-28516
-15720
13368
24708
19144
2660
-17724
-22800
-13800
6328
23576
15340
-3876
-14408
-9068
5824
7240
-4576
-5408
2112
7992
312
-6436
-2192
-1732
9328
9288
-7044
-16112
-3672
8980
9108
10068
-4544
-16924
-6312
11924
13012
-6552
-19384
-840
24824
14584
-11088
-22684
-15856
9208
22116
10736
-4836
-8788
-4480
-4928
-888
6236
-40
-6496
3880
15524
8588
-11244
-19148
-10980
6124
17560
9960
-7316
-10068
6876
13732
-1288
-21384
-23064
2252
24528
25752
10112
-13388
-29408
-19984
9796
26208
16428
-14840
-28160
3448
30348
13716
-14256
-21472
-14552
760
16356
22868
12688
-15128
-25160
-12272
8184
20660
9696
-8508
-13928
-1396
13796
7012
-14944
-12556
5004
20752
9364
-22316
-15100
10244
16416
84
-9592
-3840
-1304
3636
-1384
1320
15352
1880
-15356
-17112
-3840
14756
16468
5976
-4704
-8324
-7140
-7108
-3632
8684
13576
2688
-9904
-5500
9024
9688
-5024
-20140
-13636
6652
20032
19648
8628
-12700
-28848
-20216
6220
28676
17956
-6016
-13748
-6428
4424
5524
-4624
-12564
-2368
12952
10264
5064
1940
-10388
-17032
-5612
12628
8944
-5336
-4904
8788
15796
2768
-17856
-25196
-6668
17016
25320
10084
-14908
-20548
672
18020
8096
-12792
-20948
-3296
16188
19284
11292
-4844
-20676
-24316
-1312
19988
16160
5592
-2436
-5988
-7980
-9180
-5668
5028
12028
6228
272
804
1908
-5484
-13736
-11988
2712
14296
11556
10964
5748
-10344
-26232
-22248
7056
30324
21448
-6104
-17004
-5756
860
-644
852
4660
208
-12556
-3004
19948
19100
-6384
-24480
-18244
3492
25200
9248
-9380
-6596
2388
8472
-5768
-12964
-2596
6976
6916
5200
6564
-1180
-19960
-14524
10240
26060
13720
-27352
-30040
7544
32764
22496
-16156
-32768
-18224
10832
22436
15704
7056
-5692
-22208
-17828
476
16404
18088
-700
-14236
-5612
14948
11200
-16864
-23476
-1612
18220
17148
3720
-880
-5844
-14896
-14572
-1996
18408
19240
1968
-13300
-9296
7248
5548
-13008
-14700
7200
18220
8096
-1292
-2776
-7756
-12072
-6144
8128
16072
1900
-11092
-4020
8224
14812
1592
-27360
-32540
9612
32764
27764
-14448
-32548
-19992
4488
18372
9880
2952
828
-16260
-16852
12988
32764
8492
-32768
-32768
5076
32764
28240
-11652
-23544
-15444
-2856
9900
10720
1128
-4424
-1548
2640
10912
1964
-16096
-21168
-2096
23332
20244
4184
-10772
-15848
-12496
-12
11860
12528
2608
-6644
-6996
-1708
12436
8152
-18616
-23140
4964
24856
15660
1264
-8816
-19692
-16100
10080
24128
5476
-17884
-14140
8436
17688
10460
-4200
-21144
-19472
3420
15988
13680
7292
832
-8124
-14760
-12516
3516
18892
8004
-9892
-11300
1720
19664
13756
-18164
-23536
-12340
4628
26720
25588
4920
-24104
-32768
-6100
26176
23300
-2896
-24224
-5092
18000
18832
-4140
-32768
-18764
17448
28744
9824
-7236
-8448
-11620
-12824
-108
14536
18124
3560
-18508
-16184
13492
20944
-5004
-28236
-11272
23232
20684
-4688
-10200
-844
-5428
-8540
2560
12656
12492
-5244
-20144
-5800
16724
19632
-4852
-27932
-17848
13940
28644
12400
-3964
-11752
-25024
-23260
14976
32764
16672
-32768
-32768
6016
32764
17888
-32768
-32768
11948
32764
2404
-17188
10376
18796
-12744
-32768
-14956
28780
29468
-7308
-22300
376
24924
8420
-27248
-32768
1344
32764
27960
-5908
-18244
-14484
-10468
3000
13868
10276
-12
-7940
-6336
9296
12680
-10052
-29160
-6692
27560
25328
-2368
-17104
-9640
-5108
-708
6888
10148
2704
-5284
-8720
-3756
11732
17912
656
-30212
-28388
7564
32764
28944
-3720
-24028
-26348
-9972
15480
23600
4416
-15412
-9384
7720
21664
5784
-30464
-31248
8296
32764
18324
-5696
-13944
-9372
-3328
2992
2536
-7808
-1004
13208
12296
2668
-4176
-9960
-19368
-12828
11716
20580
15524
7428
-5872
-21524
-28628
-2652
29956
28432
-4224
-28344
-12540
19308
24224
-9956
-32768
-13328
24524
29068
6236
-11380
-17744
-16340
-3932
18140
23420
3140
-21152
-21964
8484
30188
10120
-24440
-30680
-1024
28392
22724
292
-9920
-12828
-15316
-10380
11624
25572
8668
-7104
-9032
-10408
-3048
5336
5852
4588
-8720
-11260
9408
20828
4732
-17504
-21000
-2332
24676
17124
-22112
-31580
9024
32764
29092
-32768
-32768
-21612
32764
32764
2184
-23024
-10604
-4020
-9716
-3612
7320
14692
6632
-4416
-3372
5552
-1608
-19924
-16852
9456
29148
17500
-7380
-14944
-13232
-11936
-32
18196
23608
-1968
-24788
-14912
13032
26576
2404
-26712
-25648
6596
30728
18720
-5792
-16560
-15696
-2836
11904
9128
-4436
-10460
2280
16036
13504
-4752
-24304
-24788
1620
29784
24160
-3508
-13456
-6212
-9296
-9172
4104
15344
12328
-8040
-13796
-2408
17260
15656
-13548
-22272
-20660
4592
32764
30540
-360
-32768
-32768
-3128
29552
23360
-5520
-20384
276
21560
7384
-20684
-32768
-212
32764
24700
-1620
-13856
-14072
-15044
-4760
13064
21108
8388
-11304
-13496
1868
9580
-3772
-16328
-4276
16580
19188
-1284
-13136
-5068
-5308
-5632
5176
11368
5584
-4284
-7432
-352
10284
6844
-16996
-25480
5848
29300
16216
268
-9612
-25784
-24176
11556
32764
18904
-25836
-32768
5296
32764
15264
-23828
-32768
-3324
32764
32764
-14620
-32768
-10112
24036
23700
-6988
-25516
-12056
15568
18140
1628
-1740
-2860
-16996
-13240
8220
20180
10640
-4236
-3452
-10340
-13860
-2304
11688
11932
3704
-2132
-2396
2368
-2408
-16168
-17620
7500
31516
22776
-9688
-25092
-16280
-1336
8452
15176
9724
-6196
-9880
-4948
8860
9648
-12480
-18388
1080
26076
18608
-14520
-21140
-5932
7308
8840
4968
-2588
-5960
2240
-12
2524
7672
-6208
-19268
-5220
18432
19648
-1652
-13248
-4200
404
-10612
-8352
18584
22312
2132
-25256
-24880
17572
30404
-5056
-27516
-9688
18512
17524
-2032
-6820
-11932
-5452
6660
5876
4596
-4212
-6464
2716
12492
9156
-15248
-26072
-4888
20908
24244
1016
-8976
-6204
-11088
-10792
224
18700
14288
-5868
-9712
2856
8856
-10628
-22108
-1652
18596
21376
6192
-10792
-12936
-12980
-6692
7328
17612
11816
-5672
-9596
-4668
1960
7728
-11036
-23164
7416
32764
24836
-24892
-32768
-11404
19068
18052
3936
-2428
-2512
956
-1560
3316
-200
-25896
-17484
26032
32764
10604
-32768
-32768
2708
16336
6372
2452
3120
3504
-108
-14916
-11972
14040
16428
-7440
-18764
1152
21196
4516
-13332
-4904
3964
-2192
-5240
6864
5780
-3096
-4252
-3060
14592
14240
-20080
-32768
28
32764
19496
-6872
-8976
-6480
-15904
-4944
17996
11640
-1832
-6460
-2428
-128
8656
3284
-22156
-15132
13596
30656
9300
-16524
-15172
-9228
-2884
5328
13252
16024
1236
-18716
-13372
8800
7808
-10860
-4348
12524
9816
-10148
2820
22708
-19552
-32768
5440
32764
20056
-19780
-20716
-8196
7516
19068
-5484
-25420
-1204
26052
15076
-10876
-11668
-4376
-760
-1068
1136
6036
8492
632
-12416
-804
14360
-2828
-20936
-6568
15796
17380
1336
-8188
-6456
-5748
-6084
3420
13688
12332
-9360
-27388
-3720
32764
23620
-23744
-32768
-2292
27820
15016
-6212
-3860
-2120
-8052
-2336
3144
1172
4180
3712
-4280
4984
10444
-16468
-23352
1940
24496
19224
-3884
-12028
-13932
-10560
8872
15372
-156
-4084
1768
-2328
-2748
9884
3652
-21788
-17736
16496
27052
5304
-9376
-11064
-12108
-7184
10028
16528
6876
-4300
-17372
-9360
20912
16372
-21836
-26620
11228
32764
5420
-17104
-8708
-5004
-6448
11120
15792
-4208
-8600
-2636
-6316
2272
28792
2792
-32768
-20384
28224
32764
-9020
-21196
-7984
380
8856
8780
4788
292
-15564
-27296
10520
32764
8108
-32768
-23700
14624
16164
252
10808
6108
-15540
-17960
-3608
13916
12576
3584
-9432
-13500
3884
24964
11120
-32768
-32768
30760
32764
-4600
-32060
-7892
-1076
-8024
6588
21388
6660
-18540
-15628
14576
20372
-11012
-27832
-1040
25296
13640
-10888
-8492
2256
-6004
-4088
6448
3024
5608
2964
-14448
-7032
23240
11644
-29428
-23948
17824
31272
2828
-16120
-8244
-4380
-3400
3572
10392
9560
-1208
-14448
-10364
14184
14472
-15388
-20424
12020
26180
-4972
-21168
4104
13292
-5964
-9120
576
4120
3816
-4024
-6792
12792
24368
-8580
-32768
-18052
32764
32764
-17812
-21340
12332
12508
-11656
-19568
-2364
17484
16408
-9388
-12460
18548
10108
-29328
-29544
14836
32764
9804
-25172
-17428
1500
8888
1872
-4124
3124
7212
-1100
-12624
2068
19872
-5876
-30112
-4476
32764
18556
-29740
-17776
16520
8996
-10684
-5556
8180
5412
-7012
-8568
16264
22032
-17716
-32768
-11052
32764
32764
-7096
-17004
-2908
-17000
-24340
16288
32764
8356
-22060
-16004
-10200
3696
25832
6288
-25240
-13300
18372
14856
-11888
-3148
7932
-1836
-16172
1028
27168
-7332
-32768
10324
32764
5008
-32768
-24976
10144
17392
14792
6400
-3004
-8228
-14644
-9996
4064
13904
12024
1872
-7448
-9344
628
8252
-9756
-17340
10728
28864
4352
-20872
-8468
1108
-1728
5260
7648
-1448
-5884
-4260
5404
17916
1636
-28020
-24024
15064
32764
8036
-11716
-10232
-6632
-7520
-784
9308
7996
6248
888
-7720
-5796
5552
-1844
-21608
-5868
30888
31032
-13172
-30620
-7784
6740
2488
2272
9720
4252
-2176
-3620
-4948
-4068
-844
-600
3024
8004
4860
-1964
-2796
-7320
-13280
4824
19996
5644
-13020
-8304
3972
856
1800
13520
744
-25548
-16596
19088
28928
-3320
-15244
-28
-2248
-9100
28
6828
3296
4784
8776
1176
-11964
-16032
-7680
6136
18688
17596
-3944
-18184
-10064
-356
8128
10192
-3796
-7488
-7272
10416
23144
-5028
-31252
-10520
24436
3168
-9016
17972
8224
-20156
-13956
2604
3044
12108
9832
-8040
-13548
808
11800
6496
-8240
-18576
-2104
12180
23456
16756
-23872
-32768
-2976
32764
15076
-14832
2116
2644
-23844
-23828
24624
32764
-2196
-32768
-18840
13416
17704
-1244
3652
9016
-13204
-23316
-1640
15312
11564
5556
-1832
384
1924
-18644
-26392
4016
32764
22716
-13752
-15196
-7312
-8480
-2808
9600
10204
7736
2488
-11552
-19120
7080
25964
-2920
-24180
-12632
16932
16992
-2388
3600
120
-14452
-15048
-2272
13104
16284
6160
-7860
-3348
2640
-13964
-19608
6404
28500
13628
-7944
-9468
-4084
-11864
-12228
6688
22712
24436
-2620
-32768
-28912
19508
32764
-7352
-21172
3856
20632
-3380
-22120
948
16088
2044
-10140
-5220
4860
8520
-2204
-7996
8332
10544
-13980
-21840
5548
23392
4640
-12172
6680
16192
-21584
-32768
3688
32764
23504
-20924
-27460
-5660
22620
10748
-19864
-19436
18372
27940
-9116
-22920
-9840
24868
31088
-26328
-32768
17972
32764
-12712
-32768
25420
24184
-32768
-32768
17076
32764
13780
-9988
-12376
-13628
-8708
-4
11212
14740
5844
-16932
-12812
23144
16744
-32768
-26900
22608
24216
5988
-5788
-8456
-10624
-8416
5292
7932
7356
11056
-3912
-23532
-6944
21216
12032
-14900
-15060
7248
16052
-1176
-6124
1460
-4212
-6500
2216
9268
4404
-5388
-9876
-8548
17800
29344
-13392
-32768
-11272
29152
21944
-2856
556
-4560
-20248
-14828
9672
23516
12860
-11836
-19448
7800
20228
-10684
-28332
-4784
25100
20456
-4284
-6364
-6128
-10976
-6056
4060
11552
11004
0
-16024
-14484
18456
29008
-9388
-32768
-23704
24292
32764
15504
-9972
-26920
-25404
-2976
18404
18764
11012
-2776
-12388
-4504
1056
-14744
-10024
18560
24740
360
-13952
-5088
-3944
-9348
-2356
12324
19608
7068
-19160
-29372
-5852
32764
32764
-4352
-32768
-32768
17352
32764
9196
-5180
-3516
-15540
-16896
2092
19768
8740
-9468
2820
12056
-3436
-32768
-12940
32764
32764
-32768
-32768
32764
23208
-32768
-6168
32764
9292
-25396
-18316
-3804
15660
32764
3688
-32768
-24704
14860
28168
6704
-9172
-9724
1360
13732
-13808
-31748
15272
32764
-8392
-17168
25128
8788
-32768
-28964
29392
32764
7016
-7988
-9076
-17000
-12260
1880
13284
20612
9672
-18128
-27144
4432
29204
4500
-25032
-13792
18784
20880
-13284
-14936
7984
4668
-4236
212
6600
-568
-11844
-11840
13684
32692
-1372
-32768
-22368
18260
26528
3256
-3556
-4164
-10976
-7320
2676
6836
7084
1736
-9856
-7040
15740
17976
-15480
-29664
-5776
24892
20608
-7812
-6068
24
-10484
-8660
6520
18472
8164
-23676
-24532
25256
32764
-8120
-32768
-23680
21364
24568
5156
4656
1356
-16180
-22996
-872
18740
17348
-3000
-20428
-2484
26684
10772
-28300
-29920
7460
32764
13704
-9308
-6664
-7508
-15112
-11560
17344
32764
5728
-32768
-28652
29024
29920
-14316
-18520
2928
9804
72
-4468
1416
6328
1680
-6428
-8848
-1724
7904
-5872
-924
32728
12936
-32768
-30992
9724
12664
16632
17616
-5388
-18060
-5632
1008
-9580
-2956
18272
18100
-9804
-13116
7552
1876
-23000
-3980
32136
15524
-32768
-16580
32104
8252
-17536
2136
9436
-12020
-12448
2104
4768
15936
24068
-6584
-32768
-21864
9404
23204
13292
6812
2992
-15972
-26892
-9460
17772
26760
7044
-15896
-9552
6624
-408
-17512
-6056
20620
21640
-7204
-18108
2300
4772
-10448
-6220
9528
15388
3068
-13696
-17256
6704
28920
2468
-26496
-16868
4356
11684
10312
15228
11536
-17060
-32768
-17504
26448
32764
6064
-18224
-12028
9980
3496
-19716
-11864
15784
19436
4236
-6316
-9864
-13996
-2468
19440
16920
-3720
-19108
-21032
-5288
29528
32764
-5228
-32768
-23352
10640
16576
6400
8500
6696
-10108
-19200
-4740
10196
7664
-2128
-5660
8828
18972
-5804
-30420
-15976
7792
24988
27084
1472
-28900
-28512
-60
16468
16188
14900
1376
-25376
-27348
13636
29452
4564
-10916
-15296
-4016
2012
8432
11192
-2688
1492
7020
-16764
-29820
10628
31068
-7152
236
29580
-7532
-32768
-22900
22488
22880
9592
11100
4044
-19300
-31760
-14584
9052
32764
32764
-27328
-32768
-2960
32764
8060
-15536
5344
3236
-20540
-9044
25256
14396
-14048
-11892
2304
5120
32
-7460
-7168
13636
26108
-1208
-28804
-22528
1840
18480
14744
11988
8536
-17756
-32768
-10728
21200
29116
11244
-17988
-22960
7360
20552
-6408
-19596
-5900
11692
12056
3436
10404
-832
-30404
-18996
20756
24448
-960
-21400
-9968
28504
25592
-22100
-32768
-11544
29272
28656
1724
-2640
-8760
-23976
-10296
17372
18776
1548
-9648
-9360
5264
14488
-7576
-23368
-1712
24504
19548
-14904
-23348
6112
11268
-6864
-292
9880
3112
-6384
-14868
-7024
19812
24256
-6508
-25476
-14392
7152
9904
4948
16320
8780
-22208
-24644
2604
17712
6924
-11080
-4708
21188
22000
-19556
-32768
-11728
11404
21856
19124
9172
-9352
-23588
-24180
-516
20468
28692
10936
-27304
-24720
10912
24556
-10584
-30124
13744
32764
-10500
-32768
4168
32764
-2688
-16152
17052
3144
-28516
-21328
10204
25512
28096
11556
-30588
-32768
-13780
11656
32764
32764
-4580
-32768
-32768
32248
24528
1344
11528
-9244
-27900
4204
26008
220
-23768
-9756
16496
14972
3640
-3496
-16016
-14300
4960
21560
10936
-10824
-19212
-9496
15792
27552
6652
-24344
-31884
-6368
21508
24484
18100
180
-30268
-31284
5832
29056
11684
-11600
-16368
1336
25276
15808
-18508
-32768
-11620
18732
14636
10792
18988
-1164
-28224
-28636
-2428
18812
18916
9704
-5656
-7192
3644
-4532
-16048
-10276
12312
18860
2476
4632
2164
-17016
-24768
-2928
22260
24104
6384
-19912
-21412
4712
17076
-8
-9948
-4004
4700
3568
4936
8036
-7484
-15792
-1248
11948
5384
-4244
-7956
-5656
11920
22432
-228
-27808
-24640
7812
27472
11000
-6916
-8384
3516
5288
-13612
-15808
9144
10116
-6088
14320
24600
-10916
-32768
-18344
11808
20500
13752
12188
-2996
-25832
-21184
6216
20704
2848
-9672
10368
18908
-10012
-29020
-5672
10740
-4028
18540
25892
-15812
-26768
-5424
12084
6892
5392
0
-7536
-11924
-12260
27580
32764
-17484
-32768
-15980
32764
23900
7072
6180
-19304
-32768
-740
29520
13416
-12252
-8908
-3472
-1752
15512
15860
-10108
-26452
-10980
16848
18524
892
-2380
-4792
-4664
-2328
-288
1332
-2372
-1500
-2592
11628
25524
-372
-32768
-31612
10700
32764
10408
-8416
-4700
-6312
-3644
2408
-2084
-3168
6864
-2480
-11604
16940
30624
-5576
-32768
-30844
14876
32632
13228
4832
-8652
-19148
-11032
1416
6572
8684
4356
-5556
6140
14820
-6820
-27428
-24476
8556
32764
24820
6704
-19852
-32768
-16576
14712
23052
13448
1624
-15452
-13692
13288
15900
-13568
-29268
-3052
32132
20980
-8400
-14888
-8868
224
5732
-132
-5392
4508
5536
-3620
6536
10076
-10912
-15080
-2596
-1096
3212
15696
13080
-4860
-3944
-5292
-22812
-12648
22508
26668
-7892
-11848
17452
5352
-29200
-27508
11360
32764
3876
-16512
11080
22916
-19684
-32768
-4740
32064
16672
10212
7696
-8292
-20788
-20836
-4644
9288
25572
18636
-4436
-20524
-20620
15552
29180
-19184
-32768
13476
32764
-4840
-2860
20408
-13916
-32768
-14552
32764
32764
2452
-13116
-8112
-7272
-2840
1464
-1820
1388
12312
2336
-8420
6976
10832
-15744
-28288
-2720
32764
24672
-11892
-18432
-8744
2900
6464
2584
1280
804
-4940
-10024
9132
23612
172
-32768
-22044
23588
32764
-6344
-28232
-5608
17860
21200
-236
-29128
-22332
8868
16044
13516
21360
5404
-32768
-32768
5484
32764
16604
-9592
-2172
4968
-4772
-15660
-12136
4844
12628
5480
-1776
15064
18724
-20132
-32768
-15928
32764
32764
-8368
-12264
1804
708
-8192
-12720
-6828
11484
22324
-364
-11224
9692
3112
-27056
-19680
20604
30452
-2920
-17344
-1920
8792
4204
-16940
-19864
24572
32764
-25060
-32768
25096
32764
-19652
-31720
-1960
13632
11164
-788
3156
2964
-4628
-9356
-8116
-1752
10560
11444
-5940
-3312
14980
-9100
-13576
13352
-7844
-22660
5580
32064
12852
-940
-5972
-32768
-23152
16756
30152
1664
-12328
19580
7660
-32768
516
12336
-28932
-17416
32764
32764
-13892
-12672
-12988
-28056
-9748
24552
23552
-5856
4956
17580
-10924
-32768
-18908
14300
25308
7100
1340
2076
-2392
-8492
-17208
-14000
9556
25288
7932
-1976
5424
-4072
-28860
-28672
15200
32764
17312
-23660
-21280
2808
8432
-7276
-12348
1904
22640
18816
-12696
-18088
-636
-5852
-11704
12460
32764
7836
-29664
-21708
7852
15952
5432
-6512
-5628
1716
3316
-8344
-3468
24032
13692
-23700
-30472
4056
29708
8944
-14340
-7396
2868
9124
4472
-8844
-11436
372
3488
-1048
13416
17820
-8372
-28316
-13584
15116
13500
-744
7296
8944
-3788
-19172
-18416
-1288
21232
20492
-7348
-10588
12508
5196
-26112
-21156
6720
22432
28204
3052
-31928
-15040
15744
1192
-21416
11580
29424
-9316
-19836
14348
18512
-22992
-32328
4428
32764
14164
-19692
-9064
3740
6156
-1872
-16208
-19976
32240
32764
-32768
-32768
27488
28528
-32228
-14116
26072
5896
-15800
180
15812
-1292
-7708
-17312
-11228
32764
27008
-32768
-32768
32764
30432
-32768
-12552
17856
3244
-10380
-4184
10608
4188
996
-3168
-11572
-5580
9224
6116
-7944
7248
24168
-5136
-32768
-21972
16668
28456
2976
-3144
-2648
3864
-592
-20480
-21836
3288
27900
21468
12232
2336
-26192
-32768
-22164
23852
32764
17368
-1100
-9612
-21848
-23344
-14460
9424
29596
30848
5036
-25920
-19716
-56
-8840
-13700
16064
32764
16500
-25420
-27656
-9768
8804
18372
7824
-8572
-8612
2164
2728
6868
6996
-13500
-23972
-4680
31560
32720
-7332
-28936
-27580
-1788
25060
24972
2792
-21356
-13012
108
724
16120
15512
-9264
-27584
-6828
21724
11732
-5332
-5332
-2576
2272
9056
1132
-17388
-14128
-1992
8164
32764
32764
-32768
-32768
-11564
32764
26256
20900
13232
-24896
-32768
-9252
18384
11840
-4468
-5088
8292
14432
10388
-10132
-32768
-19752
13528
32764
5768
-23604
23212
14280
-32768
-32768
32764
32764
-24388
-14388
12628
17428
-1248
-22348
-26380
-3116
16264
26204
32764
-4332
-32768
-32768
31336
19388
-4100
32764
13208
-32768
-31764
23784
22936
-21600
-14196
21528
29132
-5388
-25912
-13076
-92
7444
12212
9240
-2316
-10424
-7468
-5828
12992
17168
-9956
-13180
-2420
1928
5352
260
1512
7808
6816
-5840
-17384
-10364
1472
7484
9324
25824
19128
-25156
-32768
-30512
27584
32764
29984
-8616
-31748
-32768
-15344
13720
23316
19384
7056
-9028
-15636
-4788
7652
-10584
-16868
10424
30788
10804
-17724
-11764
-260
-1264
-4828
-3536
2712
10600
16360
4864
-7880
-14160
-17412
-12152
6048
29668
26276
-4332
-22956
-19016
-4932
6196
10084
11196
1648
-4256
-10912
-5512
16240
11220
-16648
-20304
7136
25468
-1452
-16100
-3104
-3480
17044
28136
-17380
-32768
-4092
23636
8028
16176
20356
-21608
-32768
-8960
23500
16840
-2212
3320
7376
-9336
-14932
-8676
7004
8408
4124
4240
4996
-5352
-24200
13676
24424
-24992
-19432
22376
15204
-20216
3864
26316
-12232
-24228
-5696
9888
-8096
11000
32764
-1824
-32768
-30344
32764
15080
-1652
30880
4576
-31696
-21424
5596
6288
-3308
10544
17348
4524
-11208
-13136
-8564
-6764
5052
19060
13232
-3332
-15608
-6704
-880
-432
7136
5804
7828
632
-21576
-10700
9340
11072
9120
6744
-1796
-17932
-15684
-5444
11148
20848
20328
1236
-24740
-30056
-14560
16800
32764
25112
-5936
-30716
-30960
-4608
17652
20060
9548
4328
-4376
-10500
-13768
-12144
3216
15024
16444
7488
-6240
-16248
-10976
5388
5132
-388
-3512
1056
10648
12284
3780
-14592
-23144
-13292
8232
20748
22804
5032
-14704
-16252
-11076
-4456
8240
13632
9856
-1008
-8220
-3296
-1972
-3572
-4500
3596
11316
7448
-1632
-11460
-9352
-1636
-4268
22488
29596
-16832
-32768
-8948
26056
9268
5792
12368
-10096
-20832
-7656
9252
4116
-2708
8992
16780
-1604
-19928
-14012
-460
7180
10448
14360
976
-14912
-25284
14276
32764
-19228
-32768
14508
28892
-14192
-4388
19736
-6124
-23856
-3680
14808
-10532
8776
32764
-8224
-32768
-15404
32764
5228
-8264
23716
10144
-19736
-23268
1040
3116
2596
13256
10652
2284
-11960
-11912
-3204
-2072
4628
11532
6704
-4216
-6004
-236
-1632
-5968
-3008
7720
14520
6844
-20248
-13500
2892
2008
13576
15752
1220
-22056
-17524
1480
5508
20596
20024
-10068
-27016
-21272
5072
26252
24268
3772
-21372
-25980
-8348
10836
16652
11160
2424
-9204
-4660
3912
-8336
-16344
-1676
17808
20832
4676
-10928
-14716
-9268
5136
6200
-540
-6764
1364
12136
15712
4152
-17936
-25876
-14116
11468
27244
19764
-1428
-12964
-18480
-9912
2284
12604
8008
-880
-272
560
-200
-2376
-6600
-8760
3880
13196
8932
-2348
-9624
-9308
-3580
-5556
21016
32764
-15212
-32768
-10548
23680
12508
6984
8088
-8188
-18188
-5416
9232
548
-4416
6256
16300
1216
-15908
-9508
-3176
5116
5908
8632
5556
-3908
-18424
-16964
32764
25172
-32768
-24676
25072
13248
-22372
12832
23084
-21292
-22948
4160
2992
17608
32764
-19592
-32768
-1100
32764
-2656
-8584
23088
-576
-21208
-9684
8868
1124
-2660
6528
9788
856
-9852
-3088
-3296
-6752
3336
14200
7128
-6996
-4844
-2260
-3332
-96
-1788
3748
10512
8196
-13692
-14668
4120
3076
2032
12264
10820
-12516
-18752
-6072
9652
15692
6812
-11876
-17972
264
18792
17636
-1800
-19364
-19820
-3232
11640
18260
12972
-5068
-17144
-8544
4688
9256
-1264
-7588
-2924
5768
12148
808
-6252
-9456
-2788
10780
4168
-10716
-12244
1812
19268
22016
2264
-26384
-27852
-6980
12852
25824
20012
-2048
-18240
-15444
-5828
2076
5812
8628
8200
-1312
-5556
-1300
-3832
-4764
-1868
5832
9116
4184
-4400
-10604
-4396
2316
-4676
12464
28260
-6180
-32768
-19264
26268
14856
-3360
10052
1712
-15268
-14896
3524
6224
780
5832
10512
6504
-12852
-19236
-5500
10136
12280
5356
4672
-8816
-9648
-12416
-2644
32764
15424
-32768
-25940
24852
10128
-18856
20492
13596
-17836
-16956
-6104
27164
25156
-27256
-32768
17128
26348
-15676
1456
21632
-9840
-17200
-1472
5104
-2232
440
11936
3580
-6112
-3308
-4636
-1464
-968
8012
6644
-7636
-4252
2980
4104
784
-7612
-4116
2612
10676
8172
-14612
-7588
1804
224
4984
11644
5972
-12760
-17548
692
12692
8704
-656
-12372
-12180
13704
24964
2112
-19508
-27636
-6316
17716
23684
13564
-5568
-17984
-14832
-4212
7688
13296
5976
-7104
-9192
10180
6436
-7072
-8416
-6124
8140
14004
2288
-15168
-20176
860
25816
27128
3992
-26832
-32768
-15616
20128
32060
22632
-2756
-22288
-15464
-10204
1344
11596
10400
6120
288
-5996
-5472
-4504
-1368
-1676
4944
8968
4388
-2380
-11544
-4008
-456
-2240
15344
20944
-9788
-32768
-9220
23940
8244
-2600
11896
-616
-18784
-14200
10444
8444
-992
6092
1136
4956
-5236
-16748
-4948
6324
12796
3512
4508
-960
-13748
-7328
-15240
17636
32764
-10412
-32768
-5480
25616
-10316
-4512
30408
-956
-27776
-20980
32764
32764
-32768
-32768
20112
28368
-12504
7564
18296
-19544
-25040
452
14588
3152
2312
6496
1916
-6624
-7808
-572
2032
-968
2240
3272
1800
-372
-3972
-632
268
-1624
-864
3916
5148
5192
-9188
-12216
624
6048
6916
2644
5112
-7488
-8312
5644
816
-5208
-10308
-2144
16848
25408
5996
-22180
-29392
-15468
11660
28476
18276
-708
-12316
-15392
-11280
948
12156
10768
2664
-7100
-6028
2532
1800
-5428
-3348
676
13480
16824
-8076
-30576
-23280
15096
32764
25332
-4132
-32640
-32516
-4972
18868
26800
19332
-6392
-19528
-15900
-2080
4848
3712
7688
7556
4576
-5952
-10244
-6628
-2544
1992
10840
10860
612
-8024
-11980
-3472
4732
1948
7060
14252
-2876
-24436
-10604
14020
10584
-1316
7580
4900
-15232
-13860
588
10584
4116
2424
5748
2800
-7972
-17740
-5040
14388
13968
-1296
-4672
-3292
-2960
548
-3044
-15332
17064
32764
-19232
-32768
6336
27212
-11744
-708
32764
-6528
-32768
15864
32764
-32768
-32768
26568
32764
-15616
-176
19728
-17416
-23840
-1892
12568
3428
3688
13044
1468
-11556
-12168
-3936
5476
8104
3868
-276
-2568
-3688
-304
-276
168
1548
1872
-480
1104
2840
-5864
-8552
772
4768
6744
11548
-1896
-12868
-5936
2160
-4848
-7316
4136
21536
18596
-2836
-17276
-24956
-16256
3764
26728
25348
9668
-10484
-24288
-16224
-3528
6544
12644
13600
6700
-956
-13728
-11376
-464
-3168
1220
9176
19324
11476
-15328
-31696
-20560
11352
32764
31892
-4276
-31336
-32768
-8444
16844
24000
22268
1632
-19832
-17356
-6744
-168
8400
11724
7784
52
-4488
-8748
-11560
-2056
11216
12992
2524
-4504
-5472
-8180
-5536
-552
10660
9040
9320
7860
-29412
-25180
12680
20764
2496
3468
13864
-15600
-27664
-1680
17328
10376
1800
200
564
-3700
-14864
-3800
6884
10368
3424
-1136
-924
-2804
-2912
-6116
-5676
-11028
32764
32764
-32768
-32768
9092
32764
-10500
13700
26192
-27360
-5428
12480
-23716
-28128
25904
28736
-8420
13744
9808
-27376
-30396
-2936
20876
14996
9260
4620
-5932
-12616
-14304
-6672
11172
15464
4960
-4524
-2688
-3200
-4780
-3864
1380
5628
5044
3364
-628
-1256
-12036
-8060
3308
8632
10624
6556
-2936
-9700
-2620
-4316
-13588
-8952
16272
32116
19980
-10616
-32672
-30016
-6784
18836
25604
21604
5492
-14256
-25588
-18088
5188
14668
7600
3312
5732
1064
-4588
-9928
-10156
-3028
5888
14676
13560
4908
-17360
-31232
-11940
19852
32764
19636
-20932
-32768
-23092
4252
22872
23720
10812
-7460
-19820
-12544
-3724
8364
9996
2320
2236
-816
3184
-5532
-15896
-1428
10528
10740
6308
-4632
-10220
-7072
-1028
3488
4956
8372
6760
-464
-15596
-20560
8812
16148
1312
4372
8464
-5984
-20040
-11316
9536
14208
6680
1228
-9180
2232
-1776
-13428
-1124
7540
14652
-716
-4204
-1868
-3552
-4164
-5516
-9504
8284
32764
-652
-32768
-21204
32764
7396
-19276
24760
17328
6124
-27016
-32768
-552
32764
12516
2072
27740
-8424
-32768
-23916
5656
16352
15908
15060
-700
-6560
-12992
-12196
-6368
4812
14344
8500
3420
-1492
-7736
-8264
-3644
-3352
3084
13948
11072
-3508
-11692
-7904
-2500
348
2032
7384
8784
7268
1660
-12972
-22788
-16600
8588
32164
30592
5564
-27312
-32768
-18588
15852
32764
22276
4828
-11216
-26024
-13620
1372
9656
9884
2520
4716
4848
-2804
-11244
-9992
-5484
7288
12204
12384
4476
-10800
-21724
-19288
6672
29704
32128
2832
-30504
-32768
-12056
17448
30028
19356
-8256
-13632
-9596
-6592
-1316
2796
11260
5296
136
-816
-3820
-7884
-8452
3460
10856
10928
3368
-11104
-12752
-3584
8572
968
1276
7836
-1384
6632
-4380
-17232
-8072
7544
13556
2944
7864
1936
-15844
-16720
-2876
13460
14364
5936
-9052
-2924
304
-8584
-2576
800
8856
3924
-1524
1200
-3408
1372
-6892
-8024
-5376
21624
32764
-22196
-32768
-2888
32764
964
-23788
32764
32628
-32768
-32768
18256
32764
-4528
17760
29676
-20836
-32768
-14476
13000
7516
13344
15640
2104
-7036
-14716
-12832
-3440
7212
11860
9228
6596
-6956
-12096
-6024
-676
180
2956
10956
5932
-488
-8576
-6844
-2120
-1636
3888
2488
4240
12308
9356
-14932
-30796
-16684
15140
32764
27328
2928
-28128
-32768
-18772
12588
31544
23712
6340
-17224
-22524
-6760
5496
3112
940
4892
6860
6624
-3032
-10024
-10392
-2932
4388
10820
13332
4768
-10920
-25844
-15940
12724
32512
22356
-5900
-27304
-27296
-5428
15804
24308
14172
-4468
-14424
-13964
-3404
3252
6860
5764
3148
3352
-1172
-9932
-8004
2236
2440
2640
8076
5848
-4436
-8348
-5992
1636
276
3296
4936
-3204
8972
6800
-15432
-20132
3700
20336
4760
-472
3688
-9548
-16960
-1232
12832
10736
3232
-5752
-5724
-3296
-104
-112
-576
6168
3592
4
-3400
-3220
-724
-5096
-628
-448
13672
32764
-12920
-32768
-16672
32764
10284
-20688
32764
22124
-32768
-32768
30464
32764
-9600
26868
28260
-26224
-32768
-11644
12808
6748
12552
18096
9924
-16428
-24696
-8436
4756
14816
5940
5100
5284
-6544
-13292
-8384
416
5492
7256
10612
664
-1880
-5036
-13152
-5492
-320
14304
8416
-2792
7788
1992
-14268
-23252
-7020
16436
25184
23252
-4784
-32768
-27080
248
14440
19488
19296
596
-19436
-18048
-1528
8876
5104
-3468
1792
7880
7936
-5528
-13780
-7752
1800
10168
6336
6608
5056
-10460
-27340
-13152
18720
32764
20980
-12804
-32768
-26684
-1068
17612
26348
15636
1344
-18028
-23380
-6944
7252
13460
3392
4052
1300
-3144
-5188
-7676
-2460
5264
8452
5392
-2408
-10220
-3492
2680
2628
36
2960
6436
-5468
-4416
7456
-5732
-12480
1440
12656
5604
640
1588
-7312
-9672
-816
4760
1396
3916
5216
776
-9524
-3696
4320
-2440
4180
5004
-1808
-2100
-3768
-2380
-2276
692
13224
-8300
7072
25480
-25524
-32768
10120
30220
-16360
32764
32764
-32768
-32768
13508
32764
-6560
29500
31388
-24884
-32768
-19596
9836
18668
18804
11848
5172
-10920
-20040
-16568
-580
8444
11444
15140
4816
-4480
-9232
-11256
-10384
-420
13120
16108
3452
-6972
-7204
-6584
-3824
304
7740
3388
4296
5172
-268
-13056
-19948
-2296
17996
28612
12976
-15852
-32768
-23104
11924
27780
18880
6440
-9832
-21572
-10872
4192
6436
4188
1736
2640
3624
3680
-6592
-10856
-4892
-632
10528
14068
7256
-4612
-20144
-24568
-3164
25448
32764
19740
-15840
-32768
-32064
8256
32764
30160
7192
-8492
-23460
-18224
-5332
7288
15968
10236
3316
-2196
-8400
-8336
-6984
-3124
8552
16408
8888
-6324
-17760
-6280
3068
2892
7908
2092
3004
-3508
-5644
4276
-2548
-6648
-1872
6416
3392
3896
8052
-6008
-14692
-4140
7548
5004
2068
-2748
-1668
9420
-2392
-8824
-4048
3640
7044
-2380
-2796
4020
3060
-7680
-8452
13644
-4548
-2712
32764
-6868
-32768
-12004
31232
4360
32764
32764
-32768
-32768
5980
24408
4108
31864
23312
-19628
-32768
-17200
2432
8568
18816
14524
4340
-8240
-16020
-13692
-3532
5656
10480
16908
9456
-11512
-16008
-8324
-2432
4896
12504
8008
56
-2344
-11392
-9144
6008
8120
1480
2888
-1052
-6204
-12900
-4112
20104
24028
1052
-26492
-23276
-4916
11932
22988
13440
-1428
-7648
-14292
-14612
-2676
10136
17872
5596
-9044
-1508
-1468
-3464
-3748
-1080
2892
2376
4584
288
-876
9428
-1344
-21880
-15240
2676
26996
24048
8392
-17140
-32768
-21912
8284
29796
27560
11068
-15204
-26152
-18312
1372
12508
6020
11772
11616
1128
-16260
-18004
-5996
1876
14480
13172
10216
-6496
-15220
-12376
-1988
11828
10320
-1312
-5592
6072
2028
-7940
-8876
-912
2172
8572
11864
3960
-10676
-19296
-3588
7964
11844
12392
372
-13764
-14972
-1324
12704
7020
-4216
5812
-668
-6804
-2188
-2872
2808
-1968
1548
9004
7428
-9848
-24388
21868
32764
-32768
-32768
25140
32764
-14872
-32768
17740
9032
-32768
-11864
32764
13480
-31260
-7464
11032
-820
-13468
4408
15800
2392
-4428
-3912
-6640
-6812
3804
5700
5780
4688
4492
-7036
-12828
-2748
-2300
5540
5872
10280
5572
-7168
-11624
-8136
2500
2960
18228
-1432
-24684
1240
13692
16696
1472
-21848
-8556
764
-4504
8196
16144
10272
-9180
-11120
-4008
-3884
-2752
3240
12216
6880
-156
-7616
-9616
-1108
6396
-2752
-1392
8328
3984
-1188
-9552
12064
7604
-32768
-7068
29072
22564
13528
-19808
-20064
-4540
-9708
5608
17616
13264
4500
-7244
-13844
-13268
-1728
8072
10732
7684
5496
-3872
-13764
-11800
-4060
10724
16176
7616
-6332
-13488
-2744
756
-1148
4504
4624
820
2836
-1064
-6948
180
-828
-7704
-1812
14932
15660
-4684
-15024
-10136
676
2684
7752
8476
2420
-5560
-10360
-4772
3436
8208
2668
504
-2200
-2580
-828
-5296
-264
2088
6204
9772
-2896
-10240
-23316
17136
32764
-17788
-32768
2748
32764
-13464
-32768
28240
18488
-32768
-27512
32764
26180
-29396
-23308
8340
7132
-6372
7236
7812
-4496
-6184
5212
-1716
-5928
1120
2220
-4716
4008
15680
984
-15404
-13192
2608
9152
5124
2792
604
-2404
-4656
-1696
-3392
15060
-4012
-31852
8424
24980
23460
1588
-32768
-20640
1852
5832
17136
20404
696
-15768
-14920
-4600
6016
5104
4492
2960
-284
-776
-1960
-4952
-7208
1472
12284
2644
-4028
2660
-5104
-4428
-824
17896
-2000
-32768
6904
22564
14596
10672
-16700
-12172
-16016
-14864
19416
24612
12452
-5612
-15044
-13288
-6076
5228
5140
11384
9252
-5708
-8560
-6272
-4184
136
3468
12608
9212
-6088
-11452
-8368
-464
4292
7016
6856
-4252
-1584
5988
-6520
-5504
396
-4776
-2340
11728
9792
-712
-2100
-5320
-11296
-5772
8104
12028
1216
-2876
-728
-3296
-6512
-136
9760
3988
-4888
-5488
2592
1444
-4188
-4300
4340
14908
4120
-13284
-14364
-11776
22180
32764
-32768
-32768
32764
24000
-32768
1740
32764
-22616
-32768
24212
25704
-21224
-18464
16796
12244
-3704
468
188
-10772
-10832
8908
13540
1048
-964
-3288
-12988
-368
9580
4060
-192
-2756
-1968
-2140
2748
3164
232
-5820
-1100
5048
14964
-13728
-32768
19424
32764
20020
-1040
-32768
-18064
-12112
-4732
31088
32764
12940
-24816
-32768
-16592
8584
13000
9472
11876
6208
-5236
-11080
-8892
-7552
516
10764
8696
3328
-1268
-3580
-8024
-5524
2624
18712
8928
-32768
-10584
22652
18736
18452
-13220
-18792
-11880
-14404
4260
25072
24756
3080
-20728
-22668
-4740
7344
5132
8880
8836
2088
-6492
-10100
-7440
-3844
9020
10300
4596
1540
-6984
-9972
-8988
5012
16492
5124
-11144
-6292
6144
784
1892
220
-11188
-5696
12460
11052
-3340
-1152
-344
-12708
-10512
10412
15348
4132
-7336
-5308
-2524
-2432
3832
3384
-1200
-904
1704
1140
-4204
-1392
1840
168
6368
2268
-4500
-8244
-5476
-8844
19764
32764
-24488
-12696
11108
-20688
-29780
32764
32764
-22424
-12248
-3404
-16120
-11512
12664
19316
7476
4712
-5336
-17856
-17284
5240
15200
7616
2748
2124
-7184
-10292
748
2432
-2108
4168
5756
-2124
-5368
2200
1644
2576
924
7540
-4596
-32768
-1224
32764
29056
17392
-22504
-30844
-21492
-15608
18352
32764
27360
1056
-29468
-31048
-12644
9028
21432
15084
4996
-3892
-9180
-8556
-11492
-2848
10900
16144
8456
-10816
-8520
-1220
-4500
-3492
5932
21596
10180
-32768
-19828
18000
20812
23728
-11796
-17968
-7308
-16248
-1820
17000
25684
10192
-11808
-20680
-11788
1684
3336
10816
9764
2492
-624
-7408
-13364
-11312
7156
21452
10008
-3880
-11464
-10500
-4736
-308
10416
10620
-1840
212
-2388
-2580
5160
-10548
-18380
3156
24868
10348
-2096
-1012
-11128
-17528
-3532
12296
13348
5756
-7924
-3804
-3408
-3368
7336
5000
-6068
-5492
2148
6296
-556
-5968
1012
860
9928
1508
-9472
-9004
-20
28
-7860
26628
26476
-10016
-32768
-23216
7304
10128
26612
19356
4396
-20048
-32768
-13040
9412
22128
17580
8996
-6752
-17364
-14792
740
5560
5144
8704
3880
-4412
-8040
2580
3120
-4628
-4860
1188
3968
3912
1104
2140
-1892
7180
3488
-32768
-11560
32764
29572
13368
-18540
-25164
-12508
-20656
-1660
30600
32764
17752
-13780
-32768
-23088
-2788
9224
15892
18944
8988
-6204
-14768
-14716
-2768
4184
8800
7256
508
-268
-3628
-4380
-4844
3784
3568
9716
7684
-32768
-11160
17496
14376
23000
-8676
-20060
-6152
-15588
-2556
20044
21312
8136
-10192
-14944
-14600
-4244
6352
16112
12444
-3440
-5336
-7648
-9256
-7364
6808
17536
7788
-1716
-10108
-12044
-2108
6656
4108
2420
-2364
2276
4484
-1656
1828
-11104
-12568
6548
15048
1008
312
9220
-9080
-22176
-4144
18808
13276
-3472
-4900
-4000
-5336
-2612
7236
10176
-4432
-7636
-532
2156
1548
884
-3244
2408
7920
-2920
-9996
-3864
5508
4840
-5792
-14448
31788
32764
-32768
-32768
11316
32764
-12684
23100
32764
-24516
-32768
-23292
24800
21472
14420
16032
-372
-24564
-20556
700
11960
6408
-1312
4684
5332
-4672
-4944
1708
-3220
-4940
-4052
384
11216
12228
2196
-4652
10108
-27460
-32768
22064
32764
32588
4264
-32768
-24340
-18136
-7592
17572
25092
20208
5660
-10804
-26224
-17300
-1780
10140
19076
10276
3016
-6764
-15508
-12676
2024
15852
14552
-2776
-17392
-6528
5020
6392
1296
3644
-1824
6884
6332
-32768
-11176
22832
19388
18168
-11508
-14228
-4640
-20392
-7348
20696
30232
9288
-15204
-22156
-15484
4760
10272
15156
7632
-3296
-5228
-13100
-9076
2956
12560
5172
-380
1828
-248
-6832
-10124
2280
6028
5248
20
-2680
-316
2992
8196
-15724
-17088
16336
13748
-8664
1564
15836
-5472
-26400
-10632
16300
16912
2748
532
-4336
-13520
-8624
6588
13436
1352
-576
-1988
-7336
-6216
1864
8220
6856
2932
-7244
-5480
-372
2924
-6884
-1744
-13364
13764
32764
-10844
-32768
-23624
32764
-6008
-6752
32764
7612
-32768
-32768
22924
32764
9756
14932
7480
-13696
-28236
-9248
14092
10228
-4940
-1116
14056
4044
-9540
-10604
20
4056
-552
-1448
-1096
4996
7536
3408
15360
-14448
-32768
1820
32764
32764
11324
-25348
-20432
-13708
-19628
5404
27972
25212
12540
-10224
-25216
-19032
-7496
6156
19324
15728
5964
-5876
-10116
-15096
-9660
7480
15812
12264
-5280
-8832
-10856
2540
5412
3628
3984
3440
11196
-32768
-21920
21704
24912
25812
-14428
-24712
-4044
-9268
-7816
14084
24220
13076
-3024
-21560
-21084
-4104
10228
14716
8480
5380
-532
-10904
-18432
-5968
13056
13608
3188
-3372
-4276
-4096
-840
-168
1860
1476
1272
-3404
-4044
14656
7784
-22384
-20196
22616
19120
-12416
-1532
7484
-5748
-19232
1204
14160
6276
3032
120
-4760
-12940
-4412
10108
10476
-1872
-3376
-1176
-3704
-5116
-376
6000
13596
3996
-14632
-10740
3096
9480
-3668
-5496
-17776
19568
32764
-18708
-32768
-15176
32764
-5796
104
32764
3944
-32768
-32768
23032
32764
15436
5296
-196
-13952
-19732
-6172
13944
11068
-9544
-828
11528
4144
-5904
-6536
-4780
-3172
2412
5672
6180
744
-4868
6112
6780
-8932
-26792
-20948
28640
32764
12400
-8988
-32380
-18756
-4880
-8812
22980
32764
16096
-16764
-27844
-13652
-2292
6984
9328
11452
8760
1308
-11204
-16600
-8308
11272
11788
1604
1824
-2656
-6020
-5252
-2344
4656
5720
6412
20004
-29148
-32768
20060
31444
22840
-14196
-27848
528
-3448
-5564
10864
15928
8724
-1456
-11252
-16120
-8744
2040
13004
13624
10276
-1424
-14720
-16432
-7984
8484
14760
10612
1232
-8336
-12492
-3140
6872
3180
-3620
4816
1304
-2640
14388
-336
-29988
-16384
27068
18104
-4176
8576
-2248
-23256
-16920
9936
18344
4720
-368
3100
-6308
-12176
-4696
8272
8972
-984
-484
-56
-3628
-6616
312
5120
7128
3104
-4516
-6836
-2972
3404
3456
-11644
-8728
27980
32764
-18784
-32768
-14548
29072
25984
7288
13316
-172
-32768
-28316
8684
27540
18700
9772
-6068
-20356
-17592
816
16240
6984
-8108
-800
12468
-1460
-8136
-1048
1568
-4284
-7096
5184
7256
6812
-2692
3828
4380
-27348
-212
2436
-8416
30016
14148
-1204
-11336
-28240
-6208
424
5612
29428
22016
-10504
-24348
-17912
-4408
8868
10232
11028
9156
1220
-13252
-18940
-4524
12540
11340
-4644
-3408
10952
6704
-11484
-17552
-1308
11792
11524
21436
-25440
-32768
23308
32764
15980
-11956
-29104
1036
-4220
-9608
16192
19076
7468
-4000
-12436
-14336
-5972
3064
5764
11768
13916
-292
-16784
-14840
-1956
10576
9252
3328
4312
-4820
-13040
-8992
5036
12736
6080
-2380
-12168
1300
23240
1512
-32768
-19460
32764
20228
-2108
6480
-6160
-21376
-14820
4028
14064
11660
8660
-2088
-12500
-9216
-1624
6244
1724
-152
4800
5960
-1432
-10128
-5304
-1576
7460
7512
1008
-204
-6240
-5864
-9952
5468
31568
-5420
-17844
9004
-13400
-32768
16760
32764
-11540
-21736
12428
-15896
-25844
-4976
25568
16912
9380
9020
-15700
-30676
-12460
19444
17068
-2040
-156
2040
-5712
-1940
4048
-1996
-6836
-4216
5092
5976
8332
2780
-2848
-7700
-28988
9484
31616
-9792
-4488
5584
6388
5356
-22128
-18004
10544
3336
9824
14576
3944
-4376
-16352
-12464
-5320
9860
13592
9232
-2936
-10084
-8072
5884
10412
-1756
-13032
-12232
12452
15528
9852
-11076
-22016
-3376
14444
32764
-15672
-32768
6448
32764
23400
-2864
-27668
-5680
-4520
-17960
11892
27652
19432
-4408
-23124
-21096
-3484
10288
8508
7600
11236
5284
-10604
-17076
-14940
992
10848
16260
13840
3528
-8420
-27964
-18872
9200
24720
15760
-9324
-8464
20436
-4180
-32768
-11956
31268
18448
1260
8856
-10008
-21124
-7280
4964
2116
8260
19428
4500
-19984
-20056
92
14964
11936
-1836
-7812
-1268
-408
-3248
2868
7012
3624
-9856
-9392
8452
7764
-2848
-18676
11848
32764
-29068
-21732
32764
-7412
-32768
21460
32764
-25772
-32768
32548
3972
-32768
-16496
32764
21956
-7472
-1912
540
-9644
-6968
3724
3604
-5068
2744
7552
5840
392
-6632
-11880
-9336
9120
10692
4468
1992
-1432
7196
-7676
-32768
-10932
32764
32764
-15528
-27612
10432
12980
-8200
-22788
1080
23356
-148
-7952
1980
6284
268
-3888
-4984
-8800
6516
8264
-1048
-8072
8
14144
7396
-7328
-23112
-9004
15000
18320
4368
-6752
-8596
-2416
592
13936
-9568
-32768
12984
31740
28548
5024
-32768
-22628
-13836
-6276
23552
30020
17628
-696
-20880
-24248
-15064
1708
13976
14316
10604
3816
4776
-5952
-26784
-28756
7524
32764
18580
-7444
-9912
-7032
-12888
-5372
6144
9916
1360
-1856
25296
4472
-32768
-25760
9696
13760
11820
23868
416
-28328
-21320
9648
10072
3268
4124
3864
-4044
-17192
-5900
22892
25988
-14268
-32768
-7860
23052
12164
-8416
4860
10412
-6008
-13464
-4796
1544
-13032
8808
32764
-1700
-32768
12508
32764
-32768
-32768
32764
32764
-32768
-28308
32764
3092
-32768
-9820
20352
9352
-1124
-1724
9332
12720
-4496
-28316
-26732
9628
31072
10748
992
7204
-5228
-19140
-23196
-3316
10456
20504
13980
-1532
13200
1096
-32768
-32768
3648
32764
32764
-32768
-24356
10800
-5004
-5728
-5472
25684
18016
-16604
-23816
-8668
21180
25240
-7688
-29368
-2568
22816
1220
-18644
388
15564
6008
2740
692
-23784
-21768
8592
17616
19660
18572
512
-32768
-22352
11016
-15396
452
32764
32764
10008
-32768
-29076
-4468
-17556
3824
32764
31680
19984
-9748
-32768
-32768
-4408
32764
31372
14908
9944
-12416
-32656
-28480
-3096
20716
32764
20516
-13608
-25268
-2120
7548
-15640
-18392
14780
28488
13316
14776
-13464
-32768
-23960
24976
26056
22296
21032
-17492
-32768
-14800
29812
12136
-13212
5616
24900
-416
-28876
-15496
11324
11588
1112
-1652
2828
7352
1720
-20444
-19340
19864
32460
-3756
-32768
-21876
23388
32764
-1028
-32768
-32768
25348
32764
-164
-21064
-4536
-5752
-32768
4040
32764
23040
-32768
-32768
20040
22320
-5864
2108
16504
-380
-6352
-5076
-9512
-2676
-496
-5116
-744
31496
32764
-16628
-32768
-28672
26832
32764
10772
1028
10348
-23708
-32768
-3044
32764
26272
13480
-24540
-23420
18752
-4448
-24564
-5232
24788
32764
-2172
-32768
-18120
2136
5812
12356
22496
10308
-10524
-32456
-32768
11056
32764
24556
-23004
-17400
-5612
-12512
-8568
12064
25812
6468
-9836
4052
12536
-14952
-32768
-21104
32764
32764
23852
-32768
-32768
-7064
-2584
13244
30540
32764
6824
-19764
-14384
-24884
-27436
-2800
28588
32764
25852
8452
-26700
-32768
-32768
21532
32764
25584
508
-1084
-16896
-23680
-6372
-1420
-3592
796
29244
32764
1072
-32768
-32768
-6636
26468
32764
32728
-10628
-32500
-24316
1088
17124
6356
-5260
-3652
11432
3864
-10572
6296
9900
-15008
-27660
8496
25848
5192
-9148
-3208
13284
3768
-11516
-32456
-25340
32764
32764
-31264
-32768
-2592
-920
17776
17948
-11512
-21632
3220
6080
2812
30648
1628
-32768
-21868
17772
17300
-9560
4008
24636
12096
-23736
-32768
-9432
21252
18820
-1500
8568
19592
-1780
-27208
-32768
-17088
28308
32764
13864
5440
10720
-32768
-32768
-12368
32764
32764
11820
-10992
-24600
-32768
-21884
-136
29296
32764
32764
1296
-32768
-32768
-3724
-2188
8920
32764
32764
-1164
-32768
-23152
7820
5540
-6876
1248
26008
20812
-13356
-32768
-1896
32764
4008
-30740
-17316
32272
32764
-32768
-32768
32764
32764
-3248
-32768
-18832
30040
936
-22992
-1528
32764
32764
-16268
-32768
-31332
18716
24088
7624
25184
27400
-20936
-32768
-32364
17512
32764
18032
2040
15240
7824
-28704
-32768
-24488
32764
32764
5836
19004
32764
-32768
-32768
-32768
32764
32764
32764
15012
-25872
-27696
-16132
-23112
-22032
23252
32764
26080
-18340
-20676
3064
-6864
-32000
-16788
31016
32764
2704
-29244
-3804
24608
-8040
-32768
-22980
13960
32764
32764
-13392
-32768
-21492
-32768
-18968
32764
32764
-32768
-32768
-6808
31644
2740
16040
13504
-16144
-15932
-1572
-1856
9316
20420
-8240
-21428
4588
17276
-4432
-22332
-9680
19668
32764
11020
-32768
-32768
-5964
24352
20904
23712
24968
-13848
-32768
-32768
-3092
32764
26860
20876
2672
2020
3072
-32768
-32768
8888
32764
32764
1336
-22028
-5300
-32768
-32768
-3220
32764
32764
19648
-29152
-32768
-15036
-13960
-25920
-80
32764
32764
1500
-22788
-10280
-28880
-32768
664
32764
32764
2684
-8484
-32768
-32768
31016
28588
5556
-17944
-4916
19220
-11768
-8228
14792
-10024
-18456
13668
29720
-3352
-29372
-13928
12092
29764
16240
-23356
-32768
-12252
18440
26996
20332
11172
-21232
-32768
-13268
16708
13928
4060
9744
1040
12760
23052
-31012
-32768
-17508
32764
32764
29844
13012
-22292
-32768
-32768
17416
32764
30692
10960
568
-19780
-14692
-6460
-18188
-19868
8984
32764
32764
1216
-32768
-32768
-30428
13088
32764
9748
11044
32764
-19840
-32768
-15368
32764
-15048
-25632
32764
32764
-32768
-32768
-30384
7860
11396
32764
32764
-28320
-32768
-24428
-6468
9464
32764
15268
-17576
-16168
11252
19520
-7892
-30080
-18096
17864
32764
10600
-27732
-17580
6116
-320
-5164
20668
30004
-8964
-32768
-32768
32764
32764
7232
-31532
-27348
7132
-6836
-32768
-1328
32764
32764
6736
-18304
-11508
-30008
-32768
-9604
32764
32764
29768
-31584
-32768
-32768
-7588
23036
21436
30880
32764
-5228
-32768
-23000
-1736
-14652
-17916
20496
32764
32764
-17932
-32768
-32768
18656
32764
32764
-4708
-7188
4320
-32768
-26560
26896
15524
-10600
-2440
32764
30272
-25932
-32768
-28784
21680
32764
17764
-13696
-9384
-3724
-13876
-9992
25036
28316
-19716
-32768
-7320
32764
32764
-23800
-32768
11440
32764
-18188
-32768
-540
32764
17288
-296
16328
-504
-32768
-32768
5208
32764
32764
2372
-32768
-32768
-17324
6536
11688
8704
22116
28024
-8280
-31716
-7796
4068
-27420
-24288
23672
32764
32764
-26376
-32768
-32768
30084
32764
-12684
22824
32764
-2484
-32768
-32768
30440
29328
-30552
32764
32764
12
-32768
-32768
-12108
32764
32764
23032
5564
4276
-20460
-32768
-25332
28304
32764
-2552
-22280
5192
32764
-80
-32768
-31456
25872
32764
17184
-12980
-30304
-8056
2392
4832
28724
27424
-19848
-32768
-21728

vt# 
