6888
-324
-4796
-9972
-5780
292
7700
5244
2844
928
-4108
-4200
-2764
280
980
3736
632
1752
-1320
-1180
-724
-1404
1176
244
-1408
-528
688
-72
4088
452
492
-2540
-3008
-2092
64
4512
2160
-3872
-4104
7084
8100
496
-11472
-11988
-2960
9532
12908
7748
-2420
-9068
-7240
-4308
2712
2560
4352
2000
-208
-180
1032
-2660
-3392
-1264
-4
3472
1776
1252
-468
-1372
-1940
1968
-964
-416
-1488
-2496
2912
3384
1952
-1076
-1292
-3208
1456
-60
-3260
-2200
7596
7808
-4496
-9316
-1916
6320
1528
-2096
-3452
2020
1424
5144
2576
-3328
-5644
-5312
212
2556
5204
4016
1776
-3636
-3144
-3012
-732
-1256
2572
3228
1972
1488
-1200
-444
-3724
-2168
-2292
2480
2780
3104
1092
-1288
-2304
-2148
516
-352
-2288
1440
8172
-648
-4304
-2720
44
-1420
-504
6228
5860
-3416
-9824
-3728
1016
9100
7328
828
-5812
-8184
-4040
1908
4244
5644
4568
-2388
-3816
-6152
-956
212
2988
2960
3720
1712
-1452
-3664
-6500
-1264
1324
4572
4728
3120
-2184
-3348
-5600
-4880
780
9232
9904
-2308
-8788
-5536
-1200
2572
8952
2248
-5956
-6728
1808
6444
1792
-3484
-4180
-80
2404
5556
-988
-2568
-4412
-1600
2704
3212
3720
1852
-3420
-6808
-2484
-440
3240
4008
7284
1700
-4736
-7900
-4872
-872
3992
8148
5016
1428
-9240
-8644
796
9240
2392
-4648
-3560
136
4296
4140
2952
-4924
-6112
-880
484
-1812
3924
6748
3460
-4488
-7840
-2892
2020
4832
3532
1804
-4560
-3728
-924
3212
2944
1032
-1916
-4568
-3724
968
7524
3832
1560
-3520
-4924
-4676
-352
5044
4216
-1432
-4364
4396
5840
-912
-10032
-6792
848
6676
6940
6928
-1152
-9052
-7172
-2252
3804
3168
5824
-64
-3200
-3368
3772
3844
-2796
-6524
-5600
3844
6272
5388
1312
-3660
-4152
-1152
-1240
1092
312
344
684
244
2672
1612
-1720
-3960
564
-128
-972
-3596
2516
9752
5396
-5948
-9844
-5232
32
6272
5284
5704
-3348
-4704
-2180
856
692
516
-716
-3088
2540
4336
2916
-5124
-5540
380
7416
576
-3880
-4228
-204
4936
1556
3808
-960
-4024
-3660
-1212
-964
5060
2088
-2308
-104
2880
3656
-2932
-7640
-4224
4788
5784
4628
-4232
-2436
40
-1628
804
1712
-3100
-2404
4568
2208
3808
-1380
-4908
-4376
-1648
3144
6080
1132
-1064
-584
-3956
-1408
-2164
4568
6832
-384
-8752
-2948
1400
3496
5820
444
-1400
-4764
-2920
-348
652
476
7184
32
-2796
-1104
924
1580
-4520
-6592
-1104
7892
7336
7900
-3360
-10420
-10128
-2748
4928
8264
7020
3740
-4008
-10000
-3468
-116
3484
3856
3224
-312
-1644
-3156
24
1744
-3260
-3100
2496
9252
1576
-7068
-6748
1388
2372
4264
4376
-1772
-4868
-2248
-712
-3396
2660
6604
8396
-2688
-8472
-9124
-1272
5200
7492
7276
-268
-4752
-8068
-2764
-576
3804
3280
4880
-372
-1116
-1624
-6080
-656
1316
3048
2860
1524
-1572
-1708
-3996
1020
3564
2668
-3608
-6648
2152
9148
1496
-8508
-1340
504
2684
4044
1872
-5772
-8584
3476
9636
3548
-4960
-5592
-3668
1744
4080
2840
-264
-228
-2368
232
2004
-1748
-164
-2644
424
956
2716
1040
-316
-2580
-1168
-320
-440
2632
1352
384
340
-1532
-3296
1288
-1108
4636
1332
-6748
-3584
4196
7692
968
-2348
-4748
-5612
-2856
9720
10668
-3936
-10240
-5100
2608
7436
3948
-1188
-2436
-6676
-2396
2684
5752
4756
-836
-3152
-2720
-3008
-3608
2920
3712
4136
3220
-2492
-4592
-2756
-4156
2156
5016
2516
3044
-2032
-3024
-2468
-1404
-628
3112
2072
2480
-3412
-4128
4704
164
-2808
2740
2476
-3876
-3548
-1364
5068
2604
432
2836
-3184
-4896
-1540
-1180
1292
3704
-80
4132
1728
-2476
-1856
-2804
-3936
-432
2344
3560
6120
-1352
-1752
-3168
-3548
-1024
136
1764
5960
1868
-2140
48
-4652
-2228
1280
1848
2124
2144
-8144
-3300
7000
10652
3884
-11912
-11888
-2876
5404
9932
8880
-2812
-6368
-4556
-2688
2728
2624
-2980
1444
984
-540
5588
-44
-1484
-2928
-3296
-2600
668
1916
5148
5012
-2248
-572
-6068
-4120
2120
-632
2040
7192
-1260
-1456
-220
100
-548
-7276
-4104
5912
12448
2868
-5824
-14856
-3264
10316
8956
3468
-6488
-9828
-960
3384
4220
8072
-2900
-6568
-2340
108
96
2212
-1096
1948
3296
-792
3820
-3976
-5312
-1952
-2456
2460
7732
2104
2896
-1204
-8636
-2644
-3968
-12
6772
7332
4840
1220
-13840
-6636
3896
2148
4164
-148
-1284
3836
-48
-6748
8
-1468
6920
4356
-5784
-3432
324
-1976
4772
3148
-4044
1836
-1436
-536
228
-3368
-12
4404
-680
4448
1316
-5644
-1532
-4340
-1916
5416
3664
2868
4288
-5584
-4616
-3304
-3240
5760
-352
1156
9000
3844
-4636
-8448
-11324
-172
8680
8648
7656
-712
-9136
-7136
-6304
-116
16136
6372
-2848
-9620
-7164
3260
5668
1956
4036
-2760
-7576
1052
-368
1784
4152
-340
-1192
868
-3856
2896
-1548
-3812
4120
-728
476
4068
324
480
-2228
-13084
-1384
12652
8760
2892
-7932
-9424
-2280
-64
4908
10264
-2024
-3384
-1824
-5100
4800
3536
-6256
-2560
2748
5220
6160
-7160
-4784
1044
-1232
1804
5044
-2808
-980
-660
-1532
4944
-1788
68
1812
-4080
-800
1816
-3192
2148
2108
2460
3580
-4732
-6736
808
4620
516
-2228
-2988
3976
2588
704
2520
-4940
-5244
-1800
1088
5244
6160
-1144
-3208
-1828
-2016
-1632
-1004
824
6344
6244
-4296
-6640
-6112
4220
4464
2548
2876
-3184
-5964
60
3864
-2712
584
1052
1132
1112
-464
1884
-3576
-8216
3872
8872
6756
-3376
-13848
-5512
3308
6280
8632
5540
-5764
-7240
-3580
-2220
2632
2028
2080
4020
356
-424
-1416
-4916
-1208
-624
-744
1428
5748
7268
688
-7396
-10464
-2036
708
8684
8068
-256
-3956
-3248
-3776
-2732
2752
6404
2816
-6904
-4832
3332
8656
1052
-6208
-7364
788
3024
3168
6368
-1144
-7800
-3964
3468
3008
5112
-1064
-6268
-2936
-2496
3692
6876
3824
-60
-3796
-8100
-988
760
576
3880
1888
5388
4112
-7136
-8880
-4052
-1396
8996
6652
268
-1492
568
-980
-5720
-8532
2128
12248
3780
-2728
-4848
-3072
-964
3024
3976
2156
-5608
-1892
952
516
2340
-488
-1128
672
1480
-2772
1352
-1904
-1620
2916
948
2664
900
-4260
-3644
-432
1724
3832
-1456
-604
4184
3544
-4388
-7120
-5120
1780
7848
5808
3652
-9424
-5308
5940
2968
-3940
-3428
-2644
376
6088
6092
2108
-4320
-6664
-3436
1724
1136
5000
-416
792
-868
-3620
3488
1940
-3632
-3524
-348
-516
5500
4224
1384
-512
-6164
-6364
-688
2256
8076
2468
-4708
-920
76
6960
-1752
-13392
-7420
9824
13680
5948
-4332
-12748
-4588
184
5748
5232
672
-3096
-2088
-2212
4224
2360
-2908
148
-1952
2160
260
-2972
-1528
3424
-640
3524
3116
-2508
-4328
-5376
-508
5176
5052
1264
828
-3812
-2276
-3688
-2172
3888
3756
1124
4376
-3824
-6508
3108
1808
-740
-4916
-2948
3952
8772
3148
-548
-5884
-9476
-580
948
6156
7644
-224
-4116
-2012
-4508
28
1940
2832
2984
-2360
-2780
124
2228
-1420
1416
-1732
2396
-1936
-3484
3276
1288
-1004
1864
1952
-2616
-1908
-2564
2080
1336
-1492
-128
4052
1552
884
-2608
-5648
-3952
-1804
8440
7700
2692
-1776
-7660
-9020
-568
5980
4040
3212
652
-1024
-2596
-1124
-1492
-1516
84
3564
-640
1264
596
-4
644
-2780
-316
-1820
764
-1164
3288
2172
548
-640
-2152
524
1016
-5912
-5744
5820
8564
6664
-4436
-9768
-5100
3016
7004
4644
-4368
-8244
1212
4368
4956
2456
-3460
-7384
-1924
2676
3292
1348
-48
660
-2040
584
188
-1080
-2048
724
-608
1064
3212
840
28
-856
-4260
-344
756
-2400
2628
2212
5376
-1800
-7044
-248
6272
-1592
-5892
-1736
2184
7912
3420
-2164
-7004
-4092
4044
1064
-3044
2532
700
3356
3924
-3040
-3660
-4884
-1120
1728
3976
2316
2148
-1416
-4612
796
-976
620
1464
812
196
-536
-2108
1524
-840
-1772
1160
2692
2228
-1320
-6888
-2044
9948
3104
-624
-6340
-8400
948
6192
5036
5712
-3300
-6044
-4728
-3524
8376
7228
-4936
-5452
-496
1576
8004
1144
-4356
-5148
-7024
2936
7384
3308
1820
-624
-4208
-1332
-4504
-976
3816
104
5396
2488
-3088
-2728
-1772
-2296
3944
-2084
-3828
7280
6012
-1192
-6008
-6084
388
3176
3528
5456
-5092
-4788
472
588
3752
4236
-6216
-3696
5668
-896
-1956
-3300
-1124
6332
5616
1836
-1676
-9256
-6304
748
3768
5984
4948
2116
-3684
-6024
-6508
2624
2072
3472
4224
-2188
2136
-5464
-7040
3824
9584
272
-5220
-6184
-52
4428
4092
3908
-3500
-6152
-176
560
-976
5396
-2096
1508
3652
-5160
-2948
1664
3000
-504
-4100
-2048
4440
2316
5652
-1464
-7232
-4968
-744
3356
5832
3868
-1488
80
-7280
-2944
-148
3536
6468
-816
-4292
-1968
5168
5760
-7276
-9224
2888
1592
4872
5912
28
-6096
-3864
-2424
960
5732
-168
2476
-3336
-1544
1720
1300
-468
-2580
-3076
2688
5276
-2436
-4056
100
3460
2040
4412
-4960
-4448
-5212
900
6980
2280
2980
-2152
-2820
-112
-2552
-8016
3892
9908
5784
-384
-9900
-7768
2568
2052
5552
5524
-5260
-1424
-3112
244
1936
-724
860
1668
-572
2056
-1472
-5468
1164
-776
5912
2368
-4280
-1596
3864
-3648
-1972
-828
-384
8752
1432
-212
-4872
-8064
-1200
4052
2860
9284
3380
-7504
-8968
-1956
5140
1924
-1836
-1324
5416
1364
4388
-2868
-9120
-3460
-1040
6068
7452
2476
-3312
-2852
-5280
-1260
3148
3060
456
624
-3968
-56
3136
2140
832
-8460
684
3448
2964
-756
-3828
-4044
2736
4972
5160
1212
-9860
-4520
1328
180
1648
5584
6216
5328
-14872
-11372
1268
1700
11728
8292
-580
-5048
-6888
-6760
1612
2292
3640
4152
1612
380
-2544
-4216
-2828
-784
-1120
7676
2476
864
-2240
-3988
736
724
-3620
-1180
5472
2608
1096
-4900
-4268
972
3748
1388
7612
-3868
-11644
-4652
3896
13160
4092
-4848
-5328
-3304
-4508
5008
3420
796
1104
-384
544
-32
-2816
-3980
-544
-108
7084
1500
1484
-1480
-6376
180
-432
-620
3228
3248
-1904
880
-2460
868
1424
-2064
-4548
1708
7164
2004
-6428
-7000
3696
3004
6220
-704
-3224
-972
-1068
-4664
-2432
3164
6656
6944
1056
-6500
-10384
-4828
1568
10836
4080
2864
-32
-5692
-6264
-2452
1416
456
5460
1516
4548
-1004
-5860
-2116
-4344
-344
6228
3416
2108
-900
-3264
908
-5380
-3244
524
8844
5316
-2004
-6432
-5480
-1172
1792
14380
5784
-9304
-13560
-5120
3116
9924
7740
3124
-3772
-5928
-4636
-3672
1420
1992
4904
1680
3680
720
-3856
-6644
-4476
332
4852
5288
2816
2480
-3848
-4976
-4852
344
1252
3392
3520
1760
-448
-1312
-2516
-8556
812
10412
8276
-6400
-11820
-3704
11044
6788
-2076
-3596
-5328
-880
2204
5088
-800
804
-2028
-1312
932
2032
-2092
-4792
1284
2572
2124
1332
684
-664
-388
-4808
-1900
680
2344
1520
3824
1288
-2200
-2552
-7308
2300
3356
2252
2232
-836
-1568
176
-1776
-2332
1652
1148
2476
1864
-5008
-7884
5864
5192
4252
-812
-3548
-4412
-5656
3544
2332
4136
3164
-736
-3552
-508
-3676
-2944
2636
3836
2316
2452
-836
-2436
-3408
-6528
2836
3680
4528
3040
-1064
-2280
-3172
-5780
-608
5720
696
1808
3652
3120
-4772
-10884
-4724
12464
9236
-2788
-8880
-6364
5320
1796
6440
3416
-7548
-5576
2944
-1304
2316
1456
-1208
3172
-556
-372
-456
-1308
-5020
136
1276
4984
3520
220
-112
-4340
-4672
-2764
1196
4592
5124
80
384
-952
-5092
-5948
1724
4488
3368
552
-1336
4452
-4080
-3704
-48
-1876
-548
-220
2856
8960
2296
-6196
-2896
-5376
-2824
3432
4688
2532
1596
-4228
956
-1912
-908
3184
-2748
1516
-1848
-2396
2476
4156
-440
1196
-896
-3348
-2748
-1284
916
4332
1124
12
3496
-2292
1544
-5520
-9344
-572
9316
11124
1152
-7924
-7448
3276
816
-1728
-1180
-1152
4568
7612
932
-3480
-8952
-3904
2744
1492
6616
-52
-356
612
-1168
-2212
-336
-3016
-564
3072
1340
1624
920
-152
-3260
68
-660
1576
-2100
-1060
1596
816
3276
3512
-3316
-8104
248
1396
4772
3016
-3904
-4444
-760
5432
10012
-1836
-12456
-7212
-752
9008
7108
5868
-196
-10672
-6164
1600
-564
2012
5388
8
3048
376
-3780
-3840
-1552
-1040
3508
1208
1408
736
-928
740
-436
-304
-4388
1080
-1496
2332
5352
-1964
-4608
1800
5548
4004
-8128
-12848
1900
6736
7376
2316
3728
-732
-8912
-9800
-4476
5744
9644
8116
240
-1944
-7432
-8624
608
3552
2276
4092
2204
804
-2948
-3988
-856
-1472
3880
-48
1492
-80
-800
-1344
-1912
3636
-204
-516
4112
-136
-9220
-4476
2936
11104
7344
-2304
-9052
-7476
-4364
4496
8852
2732
-1284
-1724
7284
-3348
-11556
-4824
1228
5148
8984
5164
-588
-4088
-7252
-6056
-1888
5304
4632
5852
1404
-1056
-2464
-8196
-2436
2288
1716
3056
4928
-1088
-48
-4368
-4004
4772
960
-3480
-1680
-340
7880
6532
-8840
-4708
-980
1220
2492
5060
1016
-7728
-6956
4784
10088
5488
-2604
-11580
-7728
-772
6544
8096
7496
-3496
-3416
-1232
-6452
-2700
-692
4476
3604
2028
2832
1448
-5356
-3980
-2232
-412
3256
1728
860
1800
2668
-2844
-3040
-6984
1760
7532
4488
-1268
-8532
-2636
4060
4516
2508
1028
-5876
-4404
-3628
-284
10432
11036
-6964
-7432
-4212
-1172
6584
-272
2436
-420
-3408
1356
5168
-2288
-2976
-4248
-3888
7564
4780
-616
1416
-2908
-4104
1224
-2836
3340
-332
-996
5768
-884
-2788
-3520
3692
5460
-2492
-9536
-1380
2684
4744
7272
-4
-3452
-2236
-3996
-4000
-812
2144
11424
1684
-3588
-4392
-2328
496
312
-636
-2380
2508
3836
5300
784
-4420
-6108
-2772
-3884
4976
6212
2692
1328
-3544
-572
-3220
-3584
1788
4972
-1372
-1616
-1320
6256
6288
-7424
-9024
-1752
3240
4556
6468
-116
-2816
-7588
1060
6028
-692
-3320
-2772
3708
3072
784
-5548
-1324
3804
1104
844
1448
-6656
-2572
1988
4240
4560
-1096
-108
-5320
-2656
-2952
1436
6696
3776
-776
-908
-820
-3932
-2960
-3880
1300
11024
7256
-4308
-5820
-7892
-1220
2520
6272
6056
-4548
-2464
-840
692
-1120
1776
-1616
-2876
4840
5636
-2380
-5356
-5872
-1232
8500
5368
2320
-3756
-6524
-4620
2944
2044
4172
2604
-1792
-772
-3060
-1032
-2616
-632
3680
5208
1916
324
-6552
-6500
2248
7412
276
-4020
-944
1164
4576
-204
-1316
-5704
-2080
3824
1484
808
3644
384
-4976
-3840
1040
8764
-1380
-7048
-4424
3616
4308
2784
4508
-3932
-6452
-3180
1308
1448
4264
1168
712
32
-772
-2728
-2800
-3112
284
5632
5124
-196
-5136
4624
180
-5712
-7676
-740
7448
5936
5232
336
-7380
-4628
-3468
-3452
7920
3628
852
3160
-1624
-8268
-112
6104
2336
-2276
-8900
-632
5160
5812
3748
-1176
-6280
-2156
-1424
-1056
3200
1892
972
1332
176
-1892
996
-3996
2176
-692
-7424
1396
10328
9228
-3420
-11336
-7384
-548
2680
10772
5800
-2992
-4636
-2532
-1988
1332
-3092
-2100
6796
3268
188
-3584
-904
4916
764
-7312
-2940
-924
2548
6260
4136
152
-6664
-6868
2924
3772
-912
3744
-1788
-2132
588
-896
3092
3632
-824
-7880
-7292
1972
12552
5096
-1836
-5668
-7716
-592
5524
3628
856
-1540
-4248
2568
1008
556
1448
-4980
-3032
3032
-1336
1880
3912
4504
4912
-9840
-13316
356
5532
5792
8112
-1884
-4212
-2168
-3824
256
1780
880
-240
-1592
1432
4496
1168
660
-3340
-7276
-5204
6772
10092
-80
-4696
-7120
2576
4392
2212
-76
-5192
-4464
772
4960
5084
1412
-2116
-3728
-4152
1336
-1924
-3564
5176
12428
1596
-6628
-9244
-5388
3220
7080
6572
-968
-5392
-4464
2280
2620
932
-2512
-2088
172
-56
944
7660
2044
-8948
-4964
1776
9572
952
-9020
-7100
1632
7520
7120
5044
-4116
-10068
-7460
852
5256
6692
3220
20
-3528
-368
-808
-9020
-4364
5756
11520
6440
-1868
-11568
-5056
-120
3084
7408
1036
-3232
-2744
-1452
2144
3876
-700
-884
-6220
-1176
4936
4928
-1800
-4760
-1244
5340
6784
-5044
-6088
-3532
-920
3544
8864
1536
-4096
-3252
-196
364
-3496
60
852
1416
4400
6100
-1556
-6416
-9824
-1448
10280
3788
-3700
-1652
2944
420
2392
-1824
-2788
-5600
-116
4972
2928
2428
1712
-3544
-5448
-516
-2212
4748
268
-1984
4100
8924
-1028
-8600
-9784
-1648
6876
5704
5244
-2696
-4816
-1720
1600
-1436
4096
-1172
-5240
1688
1820
5088
1308
-7080
-2924
6592
1320
-3096
-6080
-2596
4508
6576
7172
724
-9684
-9920
1540
2152
6868
1048
-868
1208
-2408
-44
2624
-3344
-9704
-176
10340
11444
-3056
-7516
-6148
-1680
1724
7568
1080
-4128
32
-2724
4900
1968
-3316
-3004
-388
-892
4516
2936
-1968
-2932
-2900
6936
5080
-6124
-8700
-3316
2260
12412
5204
-2592
-2424
-7132
-4372
432
2720
4252
3260
-3588
2184
2628
-2412
-4484
-8420
3088
12256
1664
-3336
-4020
-7128
5520
5192
2116
-660
-7336
-4192
2080
2960
4872
4388
-4128
-3152
-2320
1632
872
-4576
-3680
8372
7228
640
-3884
-8944
-1276
160
1632
6132
2936
-3072
1488
1148
-4328
-4916
-2520
1308
4304
6424
4644
-1600
-11452
-5824
4196
8184
3704
-5820
-5664
-32
3540
4904
4756
-5656
-7976
-984
3472
2836
4008
-940
-1264
-2672
-1196
3244
-2524
-3108
-220
7336
4276
-3132
-7872
-1404
4544
2776
2816
-2288
-7212
-720
3896
3236
4400
-1476
-5012
-5288
-984
4768
6436
48
-6376
784
4224
2708
-4596
-10204
-648
3684
8312
9380
-3128
-7112
-4652
-4824
2352
5068
1836
1280
-832
-2092
4528
-1724
-8564
-1532
3384
11708
396
-8784
-2156
-1432
-392
7452
4348
-2892
-5828
-4112
1628
3672
1128
1404
2684
-5584
704
656
-2024
-928
-4136
5472
11096
-1332
-8848
-6480
-3748
6028
7732
3012
272
-5400
-4968
2844
-1316
-376
3044
-3460
2528
4784
-424
-2116
-5792
-2208
8400
3884
-5004
-4628
-3956
3456
8484
3824
-1968
-6140
-7648
2048
2144
2316
5640
-2016
-1484
-1168
872
2856
-3276
-10508
448
10352
8288
56
-6404
-6012
-2136
692
3704
3796
-3060
440
528
1856
60
-3108
-3448
-880
3680
4268
2896
-5636
-6460
4956
7104
-2200
-5968
-6244
1712
5728
7044
4876
-5408
-8076
-4972
1496
3720
4328
412
-1876
-1224
516
2472
2292
-3132
-8112
-1064
6320
7672
-692
-5108
-3968
1108
1912
2668
-868
-6392
956
4012
3944
2228
-2144
-5264
-3396
-1772
5316
1404
-3056
3940
5728
788
-4644
-8256
-6012
5804
4456
6128
2792
-5920
-2160
-1752
-2932
3320
408
388
2832
-2288
1864
2996
-4452
-5504
-208
3820
9560
-1716
-10636
-2640
304
5828
10076
-64
-5752
-6908
-6508
2848
6712
4008
2936
-2348
-4404
912
-3932
-5460
4280
8100
6516
-3932
-12084
540
2668
760
5124
-256
-3848
-1032
936
2756
1868
-3540
-3060
-500
652
3828
3444
-1624
-2548
-7548
1128
11760
3684
-5892
-10184
-3164
5008
6732
6440
-548
-6088
-4832
-2008
1164
1056
1844
436
3768
3944
-1484
-6456
-7036
4480
3488
-1100
40
540
3124
1348
372
-2228
-7888
-3408
4884
4720
4236
3608
-4356
-5652
-1592
-3212
1840
7152
836
-1240
-5876
956
10248
-1044
-7684
-5560
-2072
4832
8548
2880
-1032
-6512
-6492
3692
4476
-1096
1076
-4924
680
5608
-5092
2152
6680
-88
-6388
-8288
-4052
8364
7548
4500
2272
-7148
-7524
-2340
-1888
4196
7760
-1256
3260
-1720
-4024
-1600
-2060
1784
3552
-2624
-4416
4524
7584
2604
-7180
-8068
-3248
4420
5276
7200
-844
-5804
-4732
-1048
3452
556
4148
-80
-2784
-6000
-2432
7976
10360
-2252
-6332
-6816
-5700
3560
6796
6996
2312
-5360
-6528
1800
-3912
620
3544
728
3736
320
-2540
-1392
-1636
-816
3440
-4220
-2552
5880
6636
248
-3856
-9232
-1640
5088
1808
7784
-1320
-6148
-2896
-1204
392
5276
3960
1120
-4916
-8652
640
8104
3208
-2036
-1480
-3056
1720
-1244
1068
-576
-1504
1860
2704
2828
-1488
-2116
-3864
-3980
-52
5992
3464
2992
-1216
-2040
-2728
-4880
-5396
5800
13436
-368
-3696
-9324
-2936
4700
1820
3308
1628
-3708
-288
-632
-1320
4136
-220
-5304
-1584
6252
3996
356
-9112
-4848
4488
3376
6060
3076
-4460
-8588
-3972
1888
5096
4084
4364
-976
-3564
-5940
-4456
1256
3380
5844
2652
2892
-3372
-6528
-8340
1508
10604
4080
-3396
-4584
-816
900
3860
116
300
-4828
-1984
3824
3488
-2332
-3604
-2340
3932
10956
-3368
-6344
-6732
-1560
3536
6784
4692
-1596
-3556
-2212
-228
-2160
-1152
-232
2976
2916
5688
-1320
-1720
-5668
-7040
-216
2260
11256
4840
-3364
-6536
-3560
2628
2000
-4656
-952
3512
1436
4180
4200
-4456
-8188
-1032
708
3680
-2204
-1000
9804
6056
-6156
-8880
-5220
-992
6600
5560
3720
-1884
-5200
-1172
532
-20
2320
-576
-3108
-548
892
4988
1920
-584
-2300
-3864
-4064
-1708
4508
7764
2904
-4552
-3172
3188
-828
-4336
-5800
-2368
10700
3960
4304
1024
-9616
-3060
-2588
-4756
5748
11740
3048
-4740
-7804
-3400
1528
3316
1684
3528
-3992
-2420
2708
-412
3508
-3492
-2436
160
1324
900
152
-60
1356
-760
-1708
2412
-1924
-288
-1024
176
3840
-1280
-6632
7204
5900
-2484
-5648
-9008
1120
5836
7276
4844
1056
-11280
-9224
2684
6732
5708
-2208
-5768
-252
3528
2920
3848
-6444
-4184
-3256
1384
7888
248
900
-2744
-2568
1496
320
108
468
-3968
116
1860
1428
3708
616
-3540
-2700
1472
-2408
-1488
-3264
5472
12104
1900
-7692
-8828
-5060
-1792
8432
9124
188
-6020
-396
6840
-2256
-9684
-5124
-372
8960
7844
4648
-660
-11376
-5480
-2012
2276
7132
2980
-572
-272
-2260
632
-1716
-2396
-400
1076
460
1640
5096
-3620
-560
-1224
-2064
3036
2804
-5152
-6484
1524
9024
7916
-3064
-7148
-5604
1708
-188
680
1180
5884
5732
-3628
-6616
-5356
-44
-460
5612
4048
2464
-1208
-2240
-2176
-2316
-80
-2172
1364
2968
2888
1432
316
-4332
-200
-3736
-1816
4836
2004
2608
-1108
-880
-3448
-1440
796
2720
3320
-4160
-4316
5256
3616
-2440
-3012
-1308
1124
-1512
6008
3432
-3672
-6432
-3768
3688
4780
3924
2324
-5656
-7980
916
2912
3900
3264
-1168
-2624
-936
-4460
1768
1616
224
2704
876
-100
-1492
-272
-3904
224
-412
2036
3688
1212
-2028
-2336
632
1072
-4156
-2184
6768
1824
3268
-8352
-7184
4188
7324
8920
-1440
-13348
-9212
1080
6604
13664
2448
-3616
-6224
-6420
-2844
1588
2240
4368
6344
-912
56
-4000
-4740
-5052
548
4508
5160
4184
-964
-1840
-4252
-2776
-2108
1304
3516
2420
1580
-292
-3184
2848
-2680
-8172
4168
8192
2644
-8836
-4000
5384
3652
-228
-2032
-1476
-1744
-2380
4344
2124
-336
976
-1396
1796
-2236
-3816
-2456
916
3476
6276
2028
-1516
-4280
-5892
-1824
340
4924
3656
2472
948
-1776
-6596
-432
-2536
580
5412
1656
3500
-3040
-2060
-892
-1020
-5112
1164
7252
5712
-248
-7292
-7692
-1500
6592
6680
5196
-3900
-5204
-7508
-1428
5656
4100
5180
-1040
-1948
-2412
-5088
-2500
1912
2592
5092
3328
-1100
-2004
-4340
-5624
168
4120
4168
4784
-2244
-3736
-1896
-1056
-584
804
3928
-1076
-664
4232
-2040
-6768
-2996
8620
9056
-4056
-8576
-7552
2844
5220
7628
4784
-6476
-5020
-2216
-1280
844
2380
60
3668
2312
752
-2416
-5256
-5192
-608
4680
5952
7964
-3548
-5052
-5068
-3768
384
3268
4740
2172
1388
-1776
-1912
-2720
-2332
-2632
3372
4944
784
52
32
-2664
-912
1600
-3612
-1600
-1480
3884
6648
2260
-636
-6004
-4552
-2516
2304
5676
-300
820
-1340
-1060
3380
-1212
-768
-2236
-2880
388
2004
3472
2796
-428
-2204
-2052
-2324
-1712
-312
2948
3532
2440
604
-2272
-4828
208
-1376
-3992
4788
7636
5648
-7988
-9568
1244
6692
2176
-4172
-80
-2228
844
5340
2580
-3648
-3636
-2648
1252
2908
2168
-256
-3504
2092
-504
2100
-696
-2516
632
-1924
12
2964
888
-588
2428
-1464
-1996
-1828
-1644
1120
2140
904
2736
2632
-4052
-6352
-448
4316
2596
1676
-3504
-5724
1524
7404
6768
-4332
-10828
-4668
2612
7972
4132
2204
-2124
-8124
556
-532
184
3276
-832
648
2720
-420
-2556
-512
-912
852
-260
584
-584
-276
648
1880
2060
-1136
-608
-4180
-2528
496
5200
208
-992
3864
4976
-4036
-11168
-2872
1416
5516
3800
5724
6452
-6352
-12624
-4464
-1844
6156
10180
2832
1048
-5360
-4732
-2360
-2212
2528
3584
2200
804
-2360
696
-1468
-1608
1528
880
-308
-1276
-384
-1560
2628
1348
1588
-524
-476
-732
-3380
-3988
-2488
9976
8552
208
-6256
-8712
-4604
3940
4296
4552
-1068
456
5892
-5120
-5328
-6496
360
4448
6304
6572
-2440
-6760
-2164
-1624
-1740
5264
1176
104
924
-304
-552
484
-2696
-1060
-224
356
2784
1796
-876
-2904
-192
868
3748
16
-3656
-4832
1580
5580
676
-2848
748
-624
-1064
3812
-1272
444
-7360
-2772
9688
7184
-1028
-5536
-7736
-3020
4580
4080
6624
-1992
-4056
-824
776
-696
-1732
-1020
-324
2284
3452
4124
-3036
-3048
-4508
-1640
3712
2884
1488
-644
-864
1332
-2012
-3624
-1340
5404
5236
-4880
-1276
-2264
-1776
2988
3420
1904
344
-2332
-3980
-6324
-1528
11728
7556
120
-7928
-5952
-1768
336
3852
5156
-1164
-2572
3892
-812
52
-4840
-2824
416
2124
5416
1012
-332
-3484
-2592
380
-384
632
3844
432
-300
-3964
-1948
5064
1316
-2460
-1596
400
-164
-456
2028
496
-1648
1824
572
1904
-1848
-7800
-2548
7488
6228
812
-2908
-4124
-1104
-2232
2716
512
928
2860
420
1388
-3520
-4320
-960
580
2028
4672
40
-956
-1612
-20
-1100
-1408
3636
-3720
-1664
2388
4564
4640
-6268
-6140
1824
792
1568
3792
-2124
-2728
-120
304
3180
644
716
-164
-8976
-3440
4540
10032
5016
-5864
-3896
-3024
-3792
1576
3936
996
1912
520
804
16
-2456
-3900
-1704
712
-680
6384
2712
-280
780
-2716
-5944
-4868
2104
7724
5536
-3688
-2596
-2244
276
2004
-852
1264
-2572
-1716
3848
-24
-400
2384
-2608
1024
1924
-5908
-3796
3608
7332
3168
-5068
-4568
-1756
844
3252
2448
-384
-4652
600
3052
2968
-852
-2688
-4440
-3276
3544
4216
5060
872
-2048
-7512
-3180
5504
-68
-1160
-960
1900
6940
676
-4404
-2432
-6976
292
6396
3120
1844
-1936
-2668
-1736
-1380
3660
2908
-2416
-4196
-2312
6756
5240
-5064
-3736
2144
-992
1600
880
-2440
-1024
-832
4484
1320
1464
-2828
-3016
-1412
-1928
4696
1988
-2884
1388
5956
-548
-6816
-6992
2400
3548
3284
4436
-660
-2808
-4020
-692
2164
-1732
-812
3524
288
680
1588
-2604
-2024
2108
-1036
-1544
-3136
5380
7960
-5120
-5312
-4668
4072
4664
3084
-36
-4872
-7808
1216
7840
2336
3848
-3124
-5260
-5500
-2548
3140
9508
7148
-3376
-7444
-4716
-1380
1336
5256
636
292
1112
-432
528
-1412
-4312
-916
-1692
3884
3524
2804
2292
-7036
-1208
-1716
1792
-400
-2444
3612
7164
-1092
-6468
-3256
-468
4452
1300
2780
-2184
-4584
608
1040
2300
4064
-3076
-4912
-3712
1320
10676
448
-5156
-2252
-364
1128
2116
-872
-948
-3716
1028
4520
1720
2088
-3068
-3756
-2184
452
268
4076
816
44
1712
-2972
-1192
-412
-3184
-2632
6008
9236
1016
-8668
-8332
-1360
7840
4940
1264
-700
-8108
-2432
4368
4056
24
-2080
-256
5196
-4400
-6396
-1636
1564
8772
4744
0
-3672
-9308
-4980
5732
1324
6080
3592
-2576
76
-6152
-2148
-364
148
4116
2004
1868
204
-3832
-316
1016
-3456
-4080
3168
9020
2308
-5352
-6588
-1776
3576
5004
684
-848
-3752
-124
1108
-4400
3352
7680
-456
-7168
-3668
-372
3316
2444
3908
1824
-5220
-936
-2212
-2136
248
420
4100
3892
2136
56
-4648
-8204
-2640
2364
4532
7260
2352
-1724
-3932
-5444
1540
-1544
-3808
1928
7960
10488
-3792
-11572
-5572
356
3636
7308
4024
-3792
-7752
-3260
8292
6588
-4468
-5560
-3744
2196
5544
1984
1296
-5124
-3120
3520
508
-1100
628
-2036
-1460
3312
2628
2256
-1176
-3868
-2600
-1800
32
2036
3896
2404
1220
-1568
-2384
-2604
-892
-3016
-3148
7756
11428
1152
-9732
-10148
-2180
5956
7160
4508
-5680
-1944
3596
-1520
-5240
-2372
1588
4188
4028
1080
-580
-8484
-1732
4268
2808
3044
-1056
-5304
-1908
-332
3560
4656
-1428
216
-2364
-3172
-452
1448
600
1416
1900
260
-364
-2764
332
896
-1820
-3320
-3056
7676
11516
-2944
-8604
-5192
-2140
552
3116
11080
5592
-8544
-10896
-2516
3060
6664
4288
664
-2776
-7408
1200
2104
208
3164
456
-3516
172
-600
-612
1544
392
1116
292
-452
740
-2128
-3144
1424
-2252
4536
4444
-1936
724
-3144
-5484
3516
1656
-4600
1320
4936
8804
-772
-13040
-9024
1960
12020
9608
-5200
-8116
-5080
2268
7992
3120
-2032
-6956
-3572
1108
5820
3860
-460
-2708
-4040
940
724
1748
416
-1500
-392
-388
0
2528
176
-420
-212
-2600
-1316
1104
1580
1724
2760
-3288
-700
-2724
1900
396
-7180
5052
10820
36
-8568
-5908
1852
5052
-3576
1380
4576
-2440
-776
2560
-1960
-2140
-1252
640
888
840
3412
-924
-1252
-1564
-1312
-796
1344
1552
2348
400
-2500
-2640
-1800
3580
2236
1152
488
-5424
-3096
1628
1552
5360
2372
-3924
-2444
-1532
376
396
-4344
-572
11288
7000
-952
-13492
-13220
4100
7140
11432
5732
-6264
-7512
-4736
-608
4668
1820
-284
944
684
364
124
-2844
-444
-984
-1480
4400
-124
1624
-652
-2360
796
-172
-1248
1608
32
-2076
2020
-1048
520
1444
-260
1012
-1952
-988
4440
-3760
-9024
-1376
11956
16496
-2872
-16696
-10508
-1160
6444
12084
6656
-3692
-8216
-4632
912
1324
2316
-688
280
3032
1368
56
-2796
-4240
-2268
2120
3300
3472
476
-1924
-2036
-2868
160
2880
-128
2464
-160
-2400
-836
-2100
1808
2796
-1080
656
1828
-5132
-2472
3928
4752
-980
-5032
2328
2564
-5212
-1772
1636
2156
1432
1320
1316
-2220
-1948
-248
-2684
-396
1980
1908
3308
412
-1696
-2540
-3368
-44
2332
508
4124
996
-3444
-1040
-1204
-2396
2060
3532
516
556
-3852
-2164
268
-772
7508
4584
-6264
-6956
-1336
10164
2796
-14216
-4620
11084
12088
2636
-11736
-10996
-1872
2464
11316
7516
-4528
-4732
-4700
-496
3060
28
92
-384
-684
4380
1904
-2072
-1520
-4156
-1096
1828
2872
2972
456
-4100
-736
-1508
-104
4076
104
504
-1712
-3996
3036
5084
-4712
-3240
1740
6088
472
-7992
-4120
2628
3080
8788
9172
-8520
-18576
-8256
9808
10488
9200
3564
-7812
-10200
-4592
1760
3804
3636
1972
1564
-1912
-1160
372
-2980
-2124
-624
472
4508
3292
-208
968
-4592
-5048
1036
1168
2300
3876
-2012
-184
420
-5740
-2928
4972
12824
-1696
-14120
-5984
5492
7228
2044
-1380
2708
548
-7308
-6384
-2288
5380
8008
5240
552
-5112
-8788
-884
968
2984
4580
-1712
-860
772
256
484
-200
-3672
-1892
1228
2516
3180
1184
-2240
-2128
-2308
-324
732
1808
4020
144
-4260
-6924
2960
12432
2540
-12100
-6932
1976
3784
7736
1900
-5144
-8236
3512
12588
-4716
-12400
-2344
3404
8432
9056
-1528
-6564
-8260
-4464
4700
4848
2304
2368
-3256
-720
1104
-1516
-656
-1984
-300
476
1372
2252
4600
-2292
-2788
-2544
-4916
2260
6560
688
-5088
1064
9372
-64
-12760
-6072
2876
8516
4284
2096
1072
-8328
-9776
964
8292
9576
12
-12940
-6268
4280
8356
7560
-2280
-5552
-7676
-4428
6060
3936
3368
2828
-3720
-3264
-480
204
444
-1540
-1128
1480
2636
2408
3444
-3016
-5696
-3444
832
3240
-3656
2704
14440
1624
-14400
-10008
8
6716
7068
4628
-780
-7988
-3616
4596
-2648
-3152
5136
9652
524
-13236
-6560
3564
5240
8668
3176
-6852
-6296
-5936
2020
6796
2808
2052
-2564
-3584
1088
-900
72
672
-3004
968
4108
684
768
-844
-3000
-1312
-6152
-1352
14188
10928
-7092
-14576
-5756
4860
3912
7300
4824
-5196
-4656
-2668
528
3728
-2420
-5208
3496
9620
5224
-7272
-14568
-632
8156
5520
7144
-3424
-8388
-4800
-1488
5892
6316
900
-1828
-2548
-3204
-288
608
-520
2796
1064
1416
912
-620
1044
-9184
-8992
7500
14888
5824
-9600
-11276
2120
1884
536
6216
-320
-5092
912
-272
2072
128
-1380
856
-7552
828
11416
5564
-6260
-13048
-4884
9556
9012
5140
-1772
-10844
-6912
352
5288
7860
1832
-2336
-4036
-5336
2412
2544
460
2536
-1840
-2012
4384
-1212
-8428
-1748
9952
9556
-6736
-11876
2424
4508
1876
1832
-2804
-3044
-1576
4348
5192
-2696
-4008
-2364
-236
4056
1040
-4764
3544
8364
-108
-9808
-11040
3260
8196
6656
4276
-4756
-7684
-3232
640
4124
4572
220
-3196
-3484
-800
2476
2292
704
2484
-320
-6072
-8800
6724
13768
-2396
-10904
-3744
5448
5080
1748
-1912
-4016
-5472
1856
7192
740
-768
-252
-4204
-908
1960
3172
-1608
-7372
2652
10860
4652
-8612
-11800
-2020
6616
8464
4892
-2112
-7912
-4288
-292
3820
4560
-484
-712
-2956
-1352
2448
2108
1640
-1064
-8540
-1700
12124
6264
-11284
-8456
4732
7580
2068
-932
-2588
-8100
-476
5016
4788
1668
-1500
-2208
-1676
-1396
280
444
1368
1140
-5348
-1652
11444
8644
-6172
-14024
-9980
5216
10636
9128
3952
-6184
-11536
-3864
2448
4208
6284
332
-4348
-2952
2020
4172
-3860
-4588
4996
7152
-3468
-12436
-1796
11120
5620
-340
448
-6996
-7292
1876
5236
3700
-960
-912
372
-3384
2148
1096
-3060
528
428
2008
420
-5916
720
10004
2360
-7388
-11008
-1240
8056
6868
6196
-1244
-10852
-4036
-852
1844
7640
-328
-1404
3292
-3392
-7200
-44
8704
10788
-8768
-16128
2808
6824
3324
6236
60
-5892
-6672
-1100
4568
224
684
3948
-1872
-56
1128
-3624
-1612
-128
228
3096
1944
1012
-3908
-6620
7292
8556
-2000
-9988
-10452
4244
12064
5984
2472
-6140
-10844
-3704
2296
6240
6832
2636
-3912
-12628
-3388
15884
7920
-8644
-11672
-2360
7172
5412
3856
3232
-8516
-7376
2732
1576
1140
3620
-184
-2564
-744
712
1344
-1908
168
-568
-1176
2600
2196
2320
-1780
-9172
-2884
9672
8084
-3448
-9472
-3972
5740
4776
3484
-964
-5540
-3240
-1648
3200
7916
-760
-10912
-628
12636
4888
-11220
-9080
2492
6700
3560
3920
-1972
-7700
-4500
3548
4936
-804
1236
-452
-3644
1180
2916
-1340
-396
-1204
-1688
456
1700
3220
800
-1556
256
-6816
-5860
6976
10048
6128
-8000
-13688
-784
6224
6480
4792
-2800
-6916
-3036
2736
2812
-4228
2228
11792
-3416
-12788
-3712
5492
6696
2312
-1140
-2008
-5492
-672
5880
412
-3132
-56
-328
1388
2532
-260
-368
-3424
-192
68
-40
2836
220
-756
1312
-692
-560
-1576
-5712
664
9224
8876
-1696
-15060
-8848
4816
7540
9996
796
-5540
-4188
-9224
-3680
13636
14108
-4408
-15544
-6552
6764
6164
5228
2484
-8668
-7236
1112
4924
5240
-436
-2092
-3104
-3140
2788
3520
-4
484
-1060
-3792
-536
1800
1284
3360
-1192
-2072
-1432
216
2628
-3512
-3676
5228
7776
1808
-7812
-11744
132
8128
6720
6032
-2308
-12000
-8824
5644
16144
-564
-11764
-2256
1940
3604
3640
448
-2628
-6176
-1192
6936
908
-1604
1776
-2904
-972
2264
-2332
1016
600
-208
2084
-1048
-1592
648
-916
-460
2988
-1780
-672
1636
-572
736
-3424
-304
7240
3864
-6364
-10588
-2160
7200
9932
5160
-5680
-13476
-428
11904
1296
-7624
-2680
3616
3968
576
1972
-3668
-7448
1264
5348
2772
-836
-1652
-2716
-180
1236
2844
-16
-1472
-192
-1480
136
816
308
148
-1304
1236
376
-108
1376
-1756
516
-420
-4880
-828
9180
6876
-4440
-11416
-7308
6420
11632
4284
-7232
-6800
5492
2296
-7008
-2892
4996
4860
-976
-116
136
-4532
-1988
4064
1188
-1420
1424
-1864
452
160
-1056
2704
-1652
1936
-64
-4156
112
824
-232
3408
796
-1696
228
-2736
-268
3456
-304
-308
-5480
-3232
10992
7248
-1896
-12464
-9468
7444
8580
-196
1260
3484
-612
-9840
-11252
7896
11060
268
1348
-4028
-6964
316
3404
5356
-812
-5180
560
-672
-108
4560
-1432
-1868
1312
-1348
1596
556
-2436
-628
-912
1792
2484
1424
20
-3480
-3000
1300
1564
844
-1552
-3568
7528
8300
-4676
-10660
-7472
4128
5536
1460
11960
5480
-12944
-17044
-3100
11124
10992
2368
-748
-6028
-10132
4376
6056
296
584
-3840
-1904
1180
1912
3780
-2272
-1068
-884
-3280
2768
1536
-84
692
-1336
-1196
1188
848
1696
-1524
-3340
1304
-820
1544
-1060
-1760
8900
4804
-7288
-9528
-3656
2596
3932
8200
12284
-3448
-19612
-11804
6296
10252
9392
2864
-3824
-9708
-5112
4940
1396
908
1944
-1180
-784
2284
-1152
476
-1292
-1228
732
-1984
1660
2376
-1508
1740
-344
-2304
1260
-1496
352
1580
-1396
-48
1544
-1368
-3088
1112
8468
5208
-8508
-9588
-5388
1892
8656
13148
9544
-13976
-21208
-2476
10584
9312
7936
-1532
-9152
-7052
624
6504
476
-2840
2704
-2172
2092
4136
-4444
-676
-2816
-528
4364
1192
-1088
-12
-3236
-164
3748
-40
340
-2024
-1308
1516
-120
1552
1428
-3360
-3672
-1400
8252
8436
-5436
-9976
-6708
-980
12016
18548
-472
-17956
-17688
1276
14076
8032
8784
-5248
-13408
-3972
2292
6016
3864
-2408
-2100
-1236
-68
4500
724
-2848
-2468
-2276
1352
4400
1088
380
-2676
-2492
16
908
2368
1228
-2168
-2128
-716
1000
5124
456
-6288
-2512
5692
5680
-2636
-7396
-7264
-120
15148
14928
-5988
-19320
-10248
4388
10228
9204
5496
-4968
-12456
-3580
2820
2960
4200
1452
-884
-3412
364
452
-1344
1524
404
-888
-516
568
40
744
244
600
-1452
-2360
1152
1124
904
1540
-3360
1248
1648
-4216
-1568
2432
6772
3708
-7548
-11440
-2852
6528
17528
10308
-15316
-17616
-4464
7556
11836
6080
984
-9724
-9956
4204
5568
212
2160
-1828
-3432
1824
1296
-72
-1444
-2320
2652
776
1348
-408
-2676
1036
-1948
1420
3260
-840
-2224
-508
-2096
2244
2572
300
1920
-6192
-6008
5012
9448
6060
-7600
-14568
-5780
6684
19588
11368
-14444
-18916
-3628
5464
10812
12152
-1820
-11156
-9116
1900
6540
1612
1328
-1432
-3084
-60
2680
1212
-284
-2268
-1924
136
1800
2144
-144
-504
-892
-1784
2172
-140
-1112
16
-2072
3124
504
1244
2556
-5012
-7028
2788
8228
6392
-3196
-15328
-7868
7884
19756
10836
-15296
-18184
-3724
5496
11048
10648
-412
-10300
-7996
236
4008
2992
340
652
-2740
-880
4572
764
-1420
-1960
-3228
-2432
4860
2228
660
1700
-2480
-2948
-344
-512
1628
1692
-1224
1412
616
1148
776
-7108
-5404
5104
8948
5188
-6548
-11916
-4208
6888
17180
7944
-16244
-17908
-964
8128
11976
9140
-1720
-11624
-10040
1700
4384
4524
2952
-1172
-2956
720
404
-108
-760
-3888
-304
1712
3220
3880
-392
-1632
-3708
-3916
1048
1032
3900
2700
-1644
-840
-52
-1792
-1176
-4688
-984
11900
7788
-4360
-10480
-9012
-1092
8428
17372
6148
-16328
-17344
-784
11472
10512
4544
-4416
-10572
-5660
4880
7008
680
-1304
-3488
-1256
1784
3332
1328
-5388
-560
-172
968
3284
404
-1672
-216
-1316
-484
1040
-288
760
-1100
984
2168
-920
604
-2896
-6180
3396
7716
5492
-4100
-11076
-3276
1496
4964
13744
6460
-14536
-18132
-824
12700
10264
3864
-688
-12240
-7812
2768
4184
3672
3280
116
-1276
-1688
-3076
-596
-2024
1064
3564
728
2948
-712
-1612
-1148
-3944
-84
1052
836
4624
1984
-4328
-684
-1844
-420
668
-3244
5256
8840
-248
-9136
-8644
1320
2436
1528
8364
10932
-4772
-18280
-8104
7248
9024
5692
2976
-4976
-9384
-2468
5408
3616
-912
580
-2208
-2428
4260
1208
-600
-568
-3160
-520
1660
1152
1736
-1696
-1680
1296
-412
1316
536
-2628
-24
-820
4696
1388
-6716
-2552
5100
6872
-464
-10736
-6400
8344
7080
-1184
-1944
4580
952
-14264
-7892
7412
12764
6292
-2668
-4268
-8824
-6768
5896
7260
-452
1576
-372
-2252
1368
-1432
-2268
-1804
-580
3840
3116
1900
-748
-4856
-2256
544
388
2972
1336
-396
-500
-440
844
-3556
-5136
1744
10800
8152
-8968
-11972
-4280
5692
12524
1392
-9128
1528
4648
-4520
-7916
-1596
11500
2332
-2196
2732
-8308
-1684
3788
1448
3612
-4520
-1936
1828
-2312
2892
3040
-3528
568
904
-2012
2156
-2940
-340
1556
-568
3560
-1196
-676
-652
-2408
2320
1764
-5732
-2348
8112
8672
-604
-11840
-9136
732
7636
11548
916
-10232
-6884
7592
7608
-9732
-6184
5460
3708
1832
3376
-2708
-6348
-2500
2732
2972
-2360
2956
1420
-2360
2380
-296
-2376
-2500
-912
2248
2660
-80
940
-1624
-2300
1016
340
348
-364
276
2792
-2892
-3024
2920
5964
952
-12132
-5776
5576
6728
8452
1456
-5384
-10876
-11224
8764
19104
-848
-10952
-7088
3240
6136
-40
4040
-3824
-8956
3116
5124
-136
2260
-1860
-3348
440
160
1692
-372
-1796
2176
732
196
-96
-2368
-80
-1432
-308
3604
2684
392
-1684
-7768
-1356
10036
4860
-4396
-9340
-3028
5304
6848
4416
-1648
-3276
-6376
-8412
904
15656
12028
-6840
-16680
-5368
6616
6428
6260
1876
-8996
-6896
1096
4560
3828
1304
1232
-6172
-3160
2192
1316
1332
904
-700
-1036
-596
432
916
-728
-556
112
2520
1228
-6760
-1800
7928
4144
-2500
-9292
-5144
7252
6308
4176
1040
-8608
-6400
2584
1892
-1624
264
9148
8572
-11868
-11672
2260
2880
4064
4660
-56
-2340
-4396
72
2984
-2912
1668
892
-1708
300
1608
136
-788
800
736
-2692
-1336
1320
-1852
3184
4740
-1660
-5888
-3580
5012
9500
-3740
-8340
-5380
2120
7832
5156
3352
-5092
-7924
-3112
2024
4340
4420
-7644
-644
12288
2564
-10348
-10908
3016
5792
1544
5476
276
-4900
-160
360
-1020
-3084
-1956
1428
3432
3024
4000
-2052
-5196
-2544
-2816
3804
1312
2368
3372
-1904
-5168
-4920
7564
8956
-4988
-11884
-3568
5316
8884
6356
-144
-6552
-9576
-1020
3036
3932
6164
-624
-5464
-7200
3552
15612
812
-16200
-8688
2764
7256
8824
5312
-2672
-10324
-5140
1760
508
2600
2808
1032
852
208
-36
-1536
-5108
-2208
504
2224
9320
2556
-7124
-8056
1568
9628
-116
-6548
-5104
1524
4956
5200
1920
-1840
-6500
-3740
2060
1144
2888
44
360
2520
-3976
-4888
2368
10972
1452
-16268
-3456
4320
5308
7544
1784
-4004
-7668
-4220
2416
3100
384
5564
-436
-2960
352
-2964
-928
-1008
864
5852
1156
-5516
-2960
3928
8636
-2068
-13396
-4616
5292
7832
7768
820
-6016
-9344
-3080
1748
7108
5476
-2020
-4104
-3484
1512
5268
436
-8276
-1480
8972
5696
-8660
-6648
4820
2772
1868
396
-3128
-2728
-1236
3928
3200
-2740
-728
728
-1424
1540
212
-1912
3388
-1588
-5168
-952
5564
11196
-4972
-11920
-2348
1836
6752
7100
-1884
-4208
-5376
-3064
5560
2804
1340
-132
-4980
664
776
512
1592
136
656
-6672
-3672
11060
9236
-7468
-11668
-2188
5932
6024
2892
-336
-5564
-4180
1916
2888
-256
-1100
1576
-2064
796
6620
-708
-9140
-6204
6088
12236
1248
-10488
-5364
-1596
5504
7360
1808
-348
-8204
-3976
2092
1072
4356
2376
-4920
-308
740
368
2788
-1824
-2472
860
300
-2472
-3232
8540
10808
-6948
-12892
-6236
5688
9668
5056
148
-4468
-9768
44
6372
884
1632
-1232
-344
-544
-4952
-632
7364
6636
-4068
-10948
-2304
6080
5168
3076
-252
-6576
-4760
2052
3808
3048
-188
-2572
-3928
1036
1200
3224
2412
-3344
-2448
-952
-664
2768
5664
-3636
-7244
928
10640
2848
-11440
-6052
2424
5980
4832
1416
-552
-7704
-4848
4112
2520
3428
1736
-9044
-3108
9720
7080
-2688
-12060
-3864
3744
3336
8264
1564
-4308
-5012
-3812
1768
3564
1624
340
-1836
-2428
1644
1512
1384
4
-3356
-972
-2056
2764
3256
208
3820
-3068
-10036
-1916
9452
9956
-2848
-13404
-2696
5704
3092
5496
496
-5720
-3748
1488
2284
-6364
2060
9844
2384
-6164
-8228
-340
3652
3456
3504
192
-4660
-1512
-52
2240
504
-3160
640
-328
1816
3632
-904
-2140
-1424
-3464
1800
2540
840
2132
-808
-1312
-2052
-628
2772
-4272
-3304
5832
10256
1744
-14400
-8092
4692
4416
5972
7852
-4752
-12620
-7124
7736
13628
1012
-8356
-9008
-540
6436
5584
4804
-4288
-8404
-748
2240
3820
3520
-3196
-4524
-1088
1316
5560
2208
-1296
-3276
-5860
580
1508
4712
4552
-1848
-1964
-2392
-4072
-144
1960
3320
3008
-5604
-1328
8548
4040
-7556
-13256
2244
9960
1672
560
1008
636
-1620
-7804
-4888
5024
3748
4760
2860
-3176
-2772
-3384
-676
1248
836
640
-476
772
1744
908
152
-648
-2732
-2408
-1232
0
3472
4076
2292
-944
-2500
-4584
-3484
2008
608
4924
2728
-1084
2448
-5012
-8792
1660
9220
5568
-6808
-11044
2544
10468
8376
-1940
-14084
-7980
1436
8624
11640
468
-5800
-5716
-5012
1308
4648
760
1312
-592
-892
2520
-1160
456
-2512
-3504
1464
-140
3264
2104
-1120
2696
-1612
-4376
-432
-1924
636
4368
2376
1672
-1844
-4300
-3352
1200
4240
-676
-80
12
1500
2296
-1096
-3992
-3944
-2028
3988
8884
2928
-3200
-6584
-4648
-1028
2652
6880
1904
-1040
-1304
-4492
-152
2164
-408
612
164
-1760
1828
916
-404
776
-3184
1016
-140
756
1616
-1564
512
-1124
-332
1896
-504
-2204
600
-1312
2504
4588
-1008
-4804
-5068
3592
6832
2264
-4904
-9004
472
6356
5664
3024
-4900
-7788
-3068
3128
6404
4384
-1712
-4160
-4004
-904
2964
2632
2532
-2168
-1836
-672
-768
1360
1124
-1224
916
564
-1660
2224
-860
-1052
-480
-1972
2508
688
664
156
-696
2616
-2748
-6588
448
7144
7876
-860
-13060
-6836
6100
9808
4980
-5992
-6468
-2956
1604
6180
3636
-376
-6304
-3424
1276
1736
2960
2856
-820
-2636
-1868
-1800
476
120
3504
1208
296
16
-4688
-36
-96
-664
4520
2784
-2472
-812
-3944
-2152
2148
3592
4984
-3792
-5588
2808
4556
-228
-8072
-3872
6464
4468
2344
40
-3352
-1296
-3368
-5620
4052
6220
4552
780
-5048
-3160
-4144
1516
2484
2032
2332
-1560
-1368
508
-408
-1104
452
-1388
896
1808
92
392
-448
-240
-1516
-596
-304
-500
2596
2116
1884
-2376
-7076
940
7416
-88
-4264
-2808
1028
4232
1220
2152
-1488
-5432
-3896
-1544
8064
7956
-2536
-5440
-4148
-1880
4256
1984
612
1504
-3028
456
1096
-1464
-1348
-1808
1164
2400
3428
880
-2776
-3316
-2044
-1304
2556
4860
1340
-696
-3244
-1240
836
-1728
-2792
2676
8572
148
-5976
-4204
-916
3924
2232
284
-612
-2164
-1512
2328
3536
188
-4872
-4516
2988
4124
2652
-3000
-3144
3292
-280
-764
2016
-3868
-3000
3268
1140
3532
920
-2292
-952
-3712
-4
80
900
2668
632
2356
-976
-3024
704
-2212
-5840
4156
7192
3140
-2368
-7656
-1624
1160
3500
2524
248
-2492
-2432
2732
192
-884
584
-1512
-652
2012
-1388
172
2168
1616
660
-4904
-2288
1312
896
3656
-792
-676
-508
-1984
2940
288
-2832
476
-988
-772
3640
1224
488
-1448
-1168
-1468
-3720
2156
5152
3480
-3728
-5628
128
3784
1476
740
-1332
-4796
-376
2272
3720
1648
-544
-1516
-3876
-8
-724
1380
2740
-416
1284
-1004
-1452
1428
-376
-2856
-824
880
2848
1188
668
1756
-4600
-1448
-1268
-1652
4664
720
680
3072
-1824
-3896
-2624
-548
6480
2084
-4784
-2132
448
3832
1008
196
-1996
-4136
-248
1228
3164
2900
-500
-2932
-724
-1232
-232
1348
32
548
208
1316
-428
300
-856
-3572
1404
732
200
2336
-596
-536
1304
-1956
-772
436
-1800
1212
212
2480
1324
-2984
-1792
-536
5228
460
-5656
-1128
1104
1068
5112
572
-3036
-2596
-3384
1712
2272
2680
628
-1284
-848
-2612
856
1356
-1444
924
1008
-1712
1772
396
-1164
1044
-1208
-336
-1144
484
988
240
1988
-1516
808
-996
-3064
988
932
300
3080
-2300
-2508
3252
836
1088
-3772
-2740
820
56
3900
1772
344
-936
-3872
-1120
652
-1624
2872
2544
-452
1988
-1736
-1928
-1436
-1300
380
1508
2420
236
1012
-772
-2040
-912
-624
-1224
1596
1796
340
2032
-384
-1208
-2756
-884
108
652
3472
-2392
532
3132
-1680
-388
-2204
-2820
2620
1140
696
2544
-2204
-1072
340
-1208
588
-272
92
-496
976
1932
-212
-156
-164
-2536
-824
452
-404
2344
1844
568
-936
-644
-2624
-1872
1156
-1152
4332
3228
-1280
336
-2848
-3480
-232
212
1652
2800
868
1796
-1396
-3868
-1180
-828
2016
1480
1140
380
-2056
332
1284
-1552
-352
292
-2104
1312
1552
756
584
-308
-1688
-1400
860
-1092
1460
1208
-1432
1468
736
-1648
732
-588
-1972
248
-680
1724
1648
1872
424
-3168
-776
-3112
372
2384
1304
3184
-368
-4320
-632
140
-508
3052
-308
388
-472
-936
600
-660
488
-1156
-444
1268
-48
1452
1268
-2052
-196
-1064
-1636
1204
1344
32
356
1016
-1248
192
848
-3064
1072
716
-2144
2548
528
-544
1800
-1908
-1764
836
-1848
1792
1516
628
248
-2232
864
-1444
776
688
-1792
1376
572
-1216
1140
56
-492
724
-868
-760
252
628
-600
1304
-140
-864
1020
-1584
-388
1776
-512
-816
1128
-600
1256
132
-296
-416
-3108
1192
-140
888
2932
-680
1024
-1760
-4212
2120
668
-768
2728
-56
-136
-732
-1240
248
608
104
-1416
936
-320
-156
2736
-464
-696
324
-3336
-796
2220
664
2080
92
-1208
-732
-1352
180
-432
1732
-704
-112
2716
-1584
556
704
-3208
-648
168
-1548
3852
1468
964
324
-2732
-1280
-2252
64
648
3348
1476
-640
-316
-784
-2104
-312
-300
-68
2132
712
2500
-1920
-496
-1440
-2012
752
-568
2532
1428
-308
812
-772
-2968
556
-488
-156
2164
536
388
-992
-404
-808
280
248
-1128
1832
-884
416
1700
-748
696
-1908
-2028
648
-372
2716
1068
-1708
2236
-3216
244
1020
-2412
3144
-1956
-1120
3944
-1124
608
952
-4280
292
-656
-664
3840
824
556
-316
-1508
-2764
272
1404
-464
2176
424
-1884
656
-636
-788
1832
-1164
-96
436
-120
16
980
1136
-2592
156
-560
-688
2200
1276
-1780
396
-1676
-796
2740
-172
1400
-428
-1484
-1972
348
924
1412
1836
-1184
-1784
-1336
-788
880
2408
732
1336
-2164
-784
-724
-608
1288
-1428
2500
-460
-476
1972
-2088
-804
1048
-1844
632
2252
-1004
992
-360
-828
-52
176
-1408
-332
1988
-1000
1324
1300
-1272
-484
-100
-1772
840
112
-432
1524
360
1344
-856
124
-2876
-984
808
-852
4264
884
-1644
212
-1720
-1152
2132
-1284
544
644
-2084
1832
1624
-240
-808
-444
-3452
336
3456
-268
2304
44
-3260
-532
-956
388
2524
-40
488
-1008
-1636
592
584
1532
-1172
416
-500
-2560
1860
668
-288
1464
-876
-636
800
-1296
644
132
-296
332
812
-1104
-1156
1688
-808
-372
1500
-244
-376
652
-1316
1404
-920
-132
120
-1032
1168
-348
1588
-1480
144
716
-1624
432
1700
-664
-316
-360
-2116
1240
1884
820
-116
300
-3536
-1324
1148
560
4268
56
-2308
-260
-1832
-1304
2416
0
668
-104
-504
1452
-276
592
-2284
-440
-2272
568
4488
968
940
-1276
-4416
-1652
1632
1404
3476
-348
-1860
-1224
-128
-776
1220
2072
-2264
92
-60
-368
2516
828
-2524
-364
-1880
-524
3676
1540
-512
-392
-2400
-2048
1876
-452
2344
2084
-3628
284
1708
-2320
2252
56
-2852
364
-888
1740
1604
928
-1000
-420
-1440
-2532
2576
624
-372
2472
-628
-1628
796
-1740
-76
536
-720
1688
1528
-1032
-1352
1400
-1956
380
1372
-2168
2076
40
-1256
2160
-608
-1576
-312
-1760
768
2756
1864
-324
-528
-2700
-1916
2024
-144
632
1884
-1732
-616
1476
-688
1256
-504
-2148
-520
104
748
2452
1056
-1896
1048
-1652
-2188
1008
340
-740
1456
804
448
1332
-1024
-1460
-2044
-1216
264
3580
772
860
2524
-4200
-1788
-444
-4072
3928
2108
484
3992
-2656
-1356
-372
-3272
-192
1656
116
2408
1304
-940
804
-1104
-3052
-1240
136
720
2340
2440
1508
-1112
-2112
-2896
-1324
632
984
3308
212
-1080
944
-1472
-336
592
-2100
828
-968
-52
2656
1060
640
144
-1448
-3964
-1008
616
1456
3116
2628
156
-1580
-3960
-2400
-244
-240
3352
3988
992
-740
-676
-3096
-2536
-820
-1044
2812
2440
1928
5072
-1496
-4804
-4124
-5188
-520
5200
5984
3308
3068
-4700
-3528
-2764
-5816
1812
2888
1956
5460
3036
-908
-2880
-6116
-3328
-1616
1388
6084
4356
2136
832
-4896
-5272
-728
-1120
-496
3160
3760
3632
1780
-3160
-5040
-2696
-3128
188
6512
2756
2992
1192
-4460
-1780
-3940
-3344
2840
436
3576
6692
-380
-1604
-1712
-7632
-3852
44
2864
9136
4592
76
-780
-7932
-7120
856
1052
3884
4344
160
464
-180
-2196
-24
-1812
-2692
504
448
1916
3324
2268
-1088
-1928
-3620
-2312
244
604
1844
4620
1280
-708
-556
-5856
-1628
-8
1048
6092
1184
-968
-332
-4368
-2324
1436
588
564
1952
1812
2348
-1952
-2892
-1172
-4016
-224
4448
2876
2848
648
-3428
-2808
-3404
-1128
3500
2312
972
1688
-1332
-1008
1056
-1800
-1972
1088
-2860
1836
2812
96
1600
-632
-1864
-444
-1464
-1284
2908
392
3008
192
-3000
-1872
-1876
-772
2916
2232
996
1872
-1856
-3248
-232
-2244
688
4732
1260
1440
-4120
-3252
-380
-884
1876
7560
-36
-2740
-2272
-6548
692
2724
3000
7872
-456
-5896
-2388
-6212
-652
5516
2628
2796
1928
-3116
-1684
-908
-2480
1140
1036
-1368
2856
152
-720
1664
-1428
304
768
-2708
-1680
128
-360
2892
3824
860
-260
-2856
-5432
-312
-444
1744
5016
1408
1660
-1060
-3344
-2596
-2504
-2020
2460
4004
4608
4188
-1188
-6060
-6688
-5980
1620
5868
6444
8164
1548
-6424
-7848
-7032
-3436
2952
6672
8544
5328
-116
-5628
-9044
-6868
-544
2588
8564
9776
1372
-2840
-8600
-8376
-3164
2856
8920
6404
4908
-4972
-7188
-6192
-3068
4876
6340
4812
1524
-3616
-5932
-2136
-2260
2000
4804
1992
2204
-1000
-4108
100
-4624
168
6044
-1088
3136
1484
-7236
548
140
-1392
5948
-1036
-2412
924
-2416
1008
3060
-2652
32
792
-2224
3452
2916
-3848
-1956
-1028
-2232
2992
4608
908
-284
-4988
-2176
2516
48
3976
300
-4176
-572
-3044
-8
6780
2100
1316
-1144
-7076
-4436
1524
2096
6232
4152
-2124
-2752
-6028
-2580
3076
3704
2480
1840
-3904
-2056
312
-580
2040
236
-1344
-44
-552
328
3008
336
-1160
-1096
-2668
-884
2176
736
2180
1852
-904
-1008
-2420
-3820
-892
832
5004
5064
1448
-492
-4844
-5620
-5072
1004
6368
2892
4332
3956
-3384
-5304
-2996
-6612
-1832
6400
5040
8368
2756
-5444
-7188
-7472
-4952
5360
10376
5496
1884
-2712
-7776
-6964
-1464
2172
7700
5428
532
-1904
-6412
-4336
-256
3020
4516
3356
-468
-2380
-2528
-3468
1004
460
1712
4140
-768
-1160
-1400
-2388
-576
1376
2164
1812
740
-3356
-732
-480
-1204
3664
-708
-1332
1384
-1184
1520
3144
-3860
-1208
-924
-2580
1376
7228
1760
-3000
-832
-6200
-492
3008
1892
1080
-596
-540
2228
-544
0
-876
-4564
-1360
1248
4268
4740
-632
-2592
-1964
-5108
804
2904
2276
3708
-1448
-3148
-2164
-1668
1120
3596
1676
296
-1116
-3688
-752
52
1992
3144
432
-1656
-3004
-1956
1560
3532
1224
1320
-4608
-4496
2600
540
1812
4952
-972
-2000
-1316
-3112
-100
-268
-2472
4584
3208
1400
3964
-3256
-5432
-4540
-3392
2532
4688
4960
7988
-2456
-7492
-4420
-5352
-1492
5916
5988
3784
2072
-3512
-3724
-2328
-4924
1160
3484
-992
7012
2640
-2928
1196
-6484
-5100
476
-1332
7868
7248
-1384
16
-7032
-7068
2424
912
7008
4540
-3548
-3344
-3036
-1512
1744
3348
1320
-136
-880
-1644
-608
732
248
1144
-1360
-676
1680
-780
-860
1816
-1472
372
2220
-2536
980
412
-4336
3528
1728
-1332
2068
-3900
-308
132
296
4728
-792
-2956
-1120
-1492
932
2072
2176
2332
-2600
-4708
1804
-3440
508
8156
-3672
1324
2240
-5304
-672
112
-2044
2892
612
2032
4708
-4848
-3920
100
-3152
820
5964
2808
1064
-876
-6508
-2352
248
-112
4500
4332
-2392
-740
-108
-6248
4188
68
-748
5812
-3248
-1296
-120
-4232
1876
2652
-784
5884
-244
-5436
196
-5912
-312
7316
2072
3088
-372
-7276
-2980
-448
-248
7336
2664
-1432
252
-3836
-3260
832
172
2012
2140
516
1552
-2112
-4008
-364
-340
920
4004
284
1696
-2372
-3216
2132
-2644
-72
3064
-1144
3168
-2288
-3568
3592
416
-452
2152
-2164
-3504
1788
-416
1752
1972
-596
20
-392
-2552
1196
-1180
-3540
3684
2800
1524
3132
-2520
-5324
-1792
-2740
472
6204
3096
3896
-216
-6680
-5024
-4064
268
6004
6688
4336
1688
-7200
-8100
-4116
-752
6588
8132
2428
104
-5424
-5968
-660
-1976
3380
5128
380
2292
-184
-3976
-2356
-2460
-348
3760
3476
480
20
-4856
-1364
2056
-276
3904
512
-3288
-892
-668
-1076
1976
2332
696
1576
-2584
-3148
-1612
-936
3108
3492
2136
256
-3052
-4284
-1524
540
3320
2452
404
148
-628
-1508
-2388
-1920
384
3084
1936
2476
1024
-3100
-3724
-2616
-392
2600
1700
2908
992
584
-1228
-1744
-2836
-3520
1260
776
3976
3524
360
-1072
-3376
-3740
832
356
796
3180
896
392
-788
-3328
-612
264
-624
2560
772
-1496
1088
712
-852
436
-1288
-1944
612
1016
2316
1200
-2760
-1656
-216
-404
2676
2568
-2784
-392
-1468
-332
2400
660
688
48
-3424
-1332
464
-636
4656
2324
-684
-604
-4112
-3156
1840
-24
2348
3928
-1648
-224
628
-3116
676
-1728
-2352
1932
560
3116
3500
-548
-2400
-1600
-4644
-1580
3144
2436
4116
492
-2724
-1148
-2776
-664
2188
-28
572
1872
-1660
1056
1072
-2204
-380
-1084
-636
1944
940
396
500
-2844
476
260
4
2236
-780
-1264
-1236
-1480
2288
2828
912
208
-2620
-3596
-760
-180
2364
5404
-220
-416
-1952
-3688
-1508
1224
696
2440
2788
-292
336
-1804
-3512
-1040
-1796
548
4756
1408
3228
1268
-5016
-3204
-1864
-2064
2516
3596
2652
1944
-2328
-3188
-808
-2124
1532
2296
-720
1356
836
-1260
740
-736
-1304
-696
-716
932
1184
1460
-436
508
-2852
840
1180
-1616
1892
-656
-1636
60
1212
1196
-108
1112
-2472
-2300
836
-864
2640
2632
-328
956
-2284
-3588
224
-1736
2212
3432
184
2128
-1064
-2876
-332
-2388
-1652
2028
912
3516
3472
-1200
-1220
-4696
-3480
-128
1340
4124
3152
1056
-652
-2272
-3828
72
-1256
1208
3224
-264
628
460
-1088
-244
-204
-1856
272
-384
532
2396
468
-216
36
-2736
-100
532
-644
1656
188
-804
1948
-132
-1568
644
-1648
-772
564
256
1604
1252
-888
916
-496
-2128
-232
-1644
-796
2828
2412
1612
-84
-2536
-1440
-1860
-1552
3212
1164
-32
2992
-1136
-1404
336
-3900
-628
1632
-48
3796
1652
-1216
444
-2508
-4116
1480
-1364
2292
3436
-436
1556
-492
-3132
-1352
156
-1508
3268
1104
-916
1664
-628
-1856
652
-1912
-252
1512
-32
2336
760
-1992
-568
-1144
-676
1492
204
228
304
-700
624
676
-1004
1244
-1504
-1856
440
-504
2284
2404
940
-700
-2776
-2808
-1712
2112
1288
2932
1000
-368
-20
-2540
-1160
-772
-1476
1460
2176
196
2636
940
-1780
-2172
-1824
-2364
476
1552
3208
3460
-840
-1488
-1972
-2864
-172
872
0
2356
992
484
456
-1340
-540
-868
-2604
156
1196
876
3616
968
-1988
-1144
-2544
-1592
1484
1652
1016
872
-608
-712
900
-1176
-412
-772
-1120
1860
688
104
2216
-616
-2856
-172
-1088
488
3132
-1368
1012
-620
-1480
1964
-944
-248
716
-1464
-1500
2184
548
1264
360
-808
-596
-1792
-2064
792
1000
2156
4520
-1264
-2340
-1468
-4380
-796
2540
2052
3144
1452
-1772
-520
-1932
-3364
1192
-752
2196
3600
16
388
-2296
-3324
-760
-152
2172
3804
596
-1528
-252
-2772
-740
868
-272
2404
-204
-992
616
-324
-564
1696
-816
-120
-452
-1264
476
684
596
1320
-712
-1912
964
-612
-444
1720
-204
-188
516
-1308
704
-224
-1192
1332
-544
-840
2268
-712
1104
1740
-3740
-748
-1116
-1384
3968
1912
252
1004
-2084
-3128
100
-864
1080
2540
-1204
1632
648
-648
420
-1708
-2952
32
132
676
3976
2216
-612
-1152
-4212
-1952
1300
240
2672
1516
-392
-456
-1800
-92
856
448
264
-3284
1248
1616
-40
2284
-1464
-2500
-644
-488
1360
3612
-72
-868
-2472
-2244
1940
836
1900
292
-1216
-736
-1356
452
-188
1136
800
-768
92
924
-1008
-696
936
-80
140
16
-1400
-140
552
652
900
-920
848
-332
-1008
16
708
-972
252
472
124
624
52
-504
-248
-1224
-148
684
-924
3056
212
-884
692
-1592
-1784
524
-512
1332
1856
-96
1056
-1232
-2940
616
-356
-476
3140
-508
36
1748
-1900
-60
-392
-2880
108
2468
568
3076
136
-4228
352
-3232
280
3760
64
1340
1400
-2988
-228
-132
-2168
780
700
188
1648
-524
-8
1836
-3196
12
1068
-1844
1524
700
-1980
1692
-320
-240
2372
-456
-1388
-676
-4080
416
3924
-208
5156
444
-3824
-1156
-4440
-932
2832
1500
2456
2032
-1780
-1044
-1428
-2780
1456
764
480
2568
148
-620
-120
-2824
-1584
-32
564
3508
2300
408
-1548
-3916
-3148
892
2708
4152
1924
-2524
-2540
-1604
-2460
2152
2340
460
1524
-1620
-972
692
-384
0
156
-1756
2044
-448
-1032
2088
-844
-1840
1828
160
508
1384
-2896
-1016
-12
-1176
3156
2580
-1060
1380
-2104
-3936
-1016
568
2160
2864
552
136
-832
-2564
-128
328
-1000
1796
-548
64
2024
-12
-1444
-908
-836
-380
2336
520
780
4
-2356
-808
748
-1596
3008
844
-964
1588
-2936
-1696
1228
272
2096
1568
-2520
-1104
-128
-780
3260
1488
-2900
-120
-2884
-672
3284
1488
1652
1176
-3424
-2400
600
-1864
1820
2360
-1112
2220
-540
-2752
1552
-1656
36
2132
-2276
356
1676
-824
1784
392
-2440
-844
-428
-692
3144
436
-836
568
-2688
1464
1256
-656
116
-1192
-1016
1244
372
-40
1576
8
-968
296
-3500
-160
1792
-208
4896
284
-2340
-1160
-3668
-776
2488
768
2096
1380
-680
368
-1408
-3612
-616
-824
1904
4016
524
2344
-848
-5064
-1432
-604
-1200
2988
3092
1432
964
-2280
-3140
-740
-2324
2044
4020
-972
2268
-260
-3780
772
-1004
340
440
-1408
716
2804
-468
572
832
-4960
1240
-192
36
2996
-1264
-96
-304
-980
2328
-1212
-1608
1196
-1372
1100
2152
-424
636
-1284
-2284
384
132
420
384
604
200
1140
500
-1276
-1528
-872
-1464
848
2916
860
1584
-1028
-2000
-544
-2300
44
2076
-244
1432
2012
-1824
464
-212
-2540
748
-1336
72
2520
-64
1096
1248
-2676
-680
-432
-1952
1212
1936
732
1412
-480
-588
-864
-4068
300
1380
1392
2796
2420
-2044
-1708
-2384
-2832
968
1360
2808
1416
-440
1160
-1208
-3292
112
-1788
780
2648
780
1388
-168
-3096
-304
136
316
1936
-712
-2396
920
392
188
3264
-896
-604
-812
-3624
-324
580
240
3808
3076
-904
1572
-4188
-6716
1236
-1280
4936
6184
-384
-152
-2788
-6888
-68
1468
1244
4944
988
324
644
-4528
-3892
-436
-2156
4496
4388
1968
2532
-3644
-6140
-1240
-776
1520
4372
1716
412
-284
-2692
-2136
-188
-640
2848
484
-784
1344
-828
-736
1716
-372
-852
416
-2424
-1296
1880
992
2212
992
-2024
488
-1256
-3012
1172
516
-1096
2532
2040
972
344
-2200
-3532
-2352
-744
3268
3788
1392
1528
-1348
-3684
-2536
-1272
440
2296
2268
2836
-240
-984
-2836
-1884
-1724
416
2488
1384
3544
88
-1872
-1848
-2776
-2436
1500
2208
3048
1912
-956
-868
-2856
-2488
2428
-340
28
2756
-1360
-336
1820
-772
380
92
-3944
444
120
-624
3580
1776
204
1436
-3892
-2968
-484
-2272
2840
3652
1368
2272
-1368
-3196
-2116
-1784
-352
2552
1076
1884
2808
-2820
-836
-880
-1924
1088
-280
-1544
2756
580
260
2816
-1432
-1488
-1424
-3612
1072
1720
1088
4536
-364
-1356
-476
-4864
-3476
3008
2028
3288
3476
-2136
-856
-2452
-4408
1284
624
696
3920
268
1188
108
-4572
-1920
-352
-712
3360
2512
-280
1568
-556
-2872
-420
-3240
172
2972
-120
3164
2040
-2608
-1772
-1316
-1188
192
1088
1092
1592
92
196
-388
-4032
1856
496
-768
1768
-832
-1592
1256
964
1764
1176
-2792
-2380
-1756
-392
2084
2976
500
1864
-284
-2124
-1752
-3980
-580
2320
2672
4796
1708
-3188
-4160
-3248
-1448
3244
2292
2716
1232
-1840
-412
-3292
-780
740
-1008
2856
1468
-520
1140
-1100
-708
-732
-1632
-1236
972
1816
3112
1060
-964
-3716
-2304
444
800
3396
1276
-1988
-1556
-188
588
2688
-1980
-760
-500
-2048
2116
2068
-224
1192
-1272
-2264
1480
-264
304
-496
-1520
-1156
3160
1112
1344
1716
-3716
-1636
-3140
-1936
4768
3924
1084
2020
-3568
-4700
-1536
-280
2160
4424
52
-236
-28
-3512
1564
552
-3688
1348
1436
-520
3668
-260
-432
-1700
-3476
-1432
1060
2672
1964
4548
-1568
-2400
-2816
-4660
36
2896
3556
2636
1568
-1236
-2860
-3304
-3396
828
3748
1780
3432
-48
-2888
-104
-3416
-856
2792
-116
356
524
-240
276
140
-1456
2024
76
-868
592
-3968
-504
3720
624
1044
1712
-2428
-2460
-772
-1300
1480
2524
-340
3792
-1284
-2420
-636
-4148
856
4648
572
284
-220
-3536
264
460
292
2484
-644
-1476
2008
-2296
468
192
-2884
2060
1520
128
1664
-1352
-2448
772
-1196
-84
2676
436
412
-284
-2912
96
-212
-1128
4384
1984
-892
-916
-5060
-2096
2164
3064
3240
2220
-2696
-2180
-4144
-2108
4168
1580
2276
2276
-2436
-2608
-932
-3108
2184
2492
1240
2216
-1276
-2584
-584
-2596
128
3464
1404
1692
-380
-2916
-1640
-1168
-1864
3736
2556
1536
1264
-2488
-3120
-2116
-1576
2916
4408
368
732
-2740
-4184
652
1432
-168
2732
1840
-672
-380
-2988
-1952
-564
-1176
4896
4340
-880
-704
-2740
-5028
92
2520
2324
3260
1192
-1740
-3688
-4980
384
4400
2008
3660
432
-4180
-4880
-32
384
3432
3220
-380
-32
-3012
-2068
1388
-1968
700
4028
-1908
1716
1040
-1652
380
-2200
-4088
2484
272
2608
5044
-2328
-2200
-1920
-4360
1384
4176
1116
3068
-2568
-2936
336
-1828
-84
4680
-656
-1800
1664
-3496
692
3056
-1616
960
-520
-2256
2128
-224
-944
3292
-2848
-1248
3336
-1732
-620
92
-1712
1772
2340
-1192
2556
-2960
-2068
1696
-2608
644
3800
-644
304
1648
-3660
-1516
-584
888
3336
1172
-2620
544
-2520
924
3304
-960
-500
-1608
-2920
1028
3104
480
2940
-2368
-1712
472
-3064
700
1920
-2184
4852
716
-2540
1392
-3736
-812
1188
-1392
2368
1644
-532
1960
288
-1292
-3068
-3280
-1096
3020
4616
3100
832
-3188
-4956
-2112
-1044
2136
5068
2972
-2052
-196
-3288
-2904
276
308
5156
1560
-328
-752
-3924
-3664
1408
412
3328
4084
840
-1756
-3736
-4228
420
2288
1328
5276
268
-4296
-2584
-3096
-268
5772
2076
3108
-292
-6128
-3432
-1100
-1240
7872
4116
-1864
2144
-7096
-2768
2108
-2616
2584
3536
-1476
3368
1024
-2548
-480
-4500
-3452
3744
1688
2008
4540
-2776
-2412
200
-4112
924
2516
-44
2192
-688
-2580
1564
64
-1236
3996
-2108
-3464
28
-1992
3244
4776
-1108
2408
-2792
-4944
784
-2044
32
4904
1396
780
1264
-4940
-500
-1544
-2404
4784
2844
-932
2064
-2164
-2468
-1056
-2068
1524
2552
1856
1640
104
-4896
-372
-284
-1084
4056
888
-1520
-188
-2008
1080
2648
-1012
1200
-1756
-4460
768
848
1748
4864
1536
-1952
-2744
-6228
-1564
2204
3700
5284
1536
-1628
-3784
-2828
-2052
1672
248
1724
2020
720
1616
224
-3144
-3400
-2080
-1096
3784
4320
3256
656
-4228
-5644
-1064
-1184
4816
5276
-636
-788
-2600
-3056
476
1748
640
1932
-1676
-1092
820
-1916
404
3604
-508
1180
-496
-5108
-128
-324
364
4008
2052
-320
1184
-2904
-3520
-1020
-2800
3720
3900
2372
4368
-3908
-7164
-1576
-2336
2608
5588
1888
1476
-840
-3272
-1836
-1060
-3320
3864
1624
856
3612
-1520
-2044
-1364
-1972
444
844
-776
2384
1016
-252
1956
-72
-4616
-508
-1268
808
2876
-548
2920
148
-2692
144
-12
-2376
-256
-8
1084
2116
1708
1968
-996
-4120
-2292
-3012
-1260
6496
4052
3268
-4
-4484
-3964
-4652
-640
3960
4380
2116
2224
-1996
-3916
-2488
248
620
-472
1800
1788
736
-836
908
-1332
-1672
-876
444
316
216
364
876
1412
-448
880
-952
-3768
-1720
1824
1160
2996
2008
180
-3212
-2768
-468
-1352
900
2836
2796
636
-120
-1576
-2884
-3124
436
2476
1264
504
2772
2060
-2208
-2460
-4212
-3008
792
5048
4640
1988
-1068
-3928
-2812
-2408
2168
1844
772
1036
-372
-1068
-228
-1080
1864
116
-208
1448
-4076
-248
40
1672
3508
1080
-564
-1920
-5444
-1460
2336
1848
3080
2012
992
-2776
-2736
-1552
-1244
-1044
3604
2536
1000
2280
-1932
-2660
-4224
-1804
2880
1720
3172
3736
-2104
-2448
-2108
-3468
-628
3312
3016
1996
916
-3352
-1216
-3296
-356
4196
864
228
-1432
-504
1708
-216
-880
1504
-2348
-444
-68
-1496
1564
2592
268
948
72
-2344
-880
-4188
300
3580
2216
2424
1368
-2616
-3124
-2748
-2704
1796
3436
3492
2928
-2056
-2724
172
-4956
-88
2936
-788
3252
704
-192
392
-2644
-1532
344
-736
2012
1936
-892
680
-340
-2216
-88
80
176
2504
-1616
-592
568
-736
932
1616
-372
-1252
-1848
-1148
1648
816
1852
1732
-932
-1384
-1416
-4776
552
3612
2920
4420
-1544
-3416
-3752
-3832
1116
4552
2724
2288
260
-2748
-2784
-2448
-960
1492
2852
2744
992
-3996
-348
-192
-848
2964
-644
-944
-960
-868
1932
1644
-988
244
-1176
-700
1752
-172
-984
-144
-2164
1692
2708
-156
3120
-2412
-4236
-2464
-740
2580
4268
2700
1228
-1108
-6048
-3048
-492
912
4604
3280
548
592
-4704
-3404
-872
-680
4952
3068
348
-1348
-2248
-1708
-132
428
2164
396
-1296
-52
-860
232
1432
704
-108
964
-2184
-1072
-2540
264
3636
1732
2016
-1712
-2076
-2028
-1792
200
3552
1312
1260
760
-2184
-2140
-1612
-1784
520
4572
2088
1560
-2400
-2292
-1544
-1620
776
1744
1308
1416
732
-768
-824
-2696
-2228
1104
2212
616
4000
-1584
-2100
520
-3116
-744
464
1980
2044
844
-1180
-972
-1616
-456
2136
1864
-300
-2872
-2700
664
2184
2052
3164
-1232
-2456
-2008
-940
-1584
1692
2228
1680
1400
-1144
-484
-2748
-2784
988
2192
1476
2872
-2004
-400
-2016
-1988
1496
1376
956
1312
-1704
-4004
1388
248
2892
2296
-160
-1344
-3120
-3104
824
1496
2040
2784
392
-1100
-2972
180
-1244
-8
1052
932
-780
1164
1676
-156
-828
-2800
-888
-260
2060
2588
2128
-3148
-2248
-1920
96
3460
1456
2216
-1484
-1872
-3352
-1860
448
5032
2608
-356
148
-4092
-2836
208
2744
2168
2024
-2348
-2100
-1928
536
2380
1160
676
396
-880
-3660
-540
612
1512
736
1784
572
-668
-1316
-884
-1620
-1216
936
1848
1764
1424
1860
-3384
-3136
-1664
464
872
2820
3536
-88
-3196
-3172
-1400
532
4400
1516
1036
-3208
-3004
-944
748
2576
2396
996
-1920
-724
-1928
-536
-2184
2376
2616
676
1700
-752
-3128
-2592
-192
176
3736
1712
2272
-1640
-3980
-2760
-988
1120
3940
4420
-276
-2304
-3236
-1432
-736
1940
908
1580
-1072
-584
2016
-316
-596
-140
-1788
-1452
844
408
2484
580
940
-984
-2048
-192
68
-908
-368
-144
376
2792
484
2960
-932
-3016
-3436
-2736
268
2096
5340
3080
1200
-3084
-4376
-5440
248
2508
4240
4284
400
-2148
-3580
-1712
-2140
1876
540
2192
1712
600
-948
-1232
-1148
-1296
1360
-344
52
160
1588
188
444
256
-1296
-2824
-212
1272
1116
1492
-988
540
284
24
-284
-1044
-2844
-900
764
2444
3096
2780
272
-2896
-980
-1644
-3892
-7856
-5416
8628
17320
13948
-1164
-13204
-13400
-10100
-1424
4936
8004
8528
3084
1116
-3056
-4108
-3432
-812
-908
-1488
1484
528
4572
2028
1712
-2244
-3380
-4268
-2580
1680
4640
5828
612
-1324
-5872
-3776
-168
3500
3748
2724
-1176
-3392
-2592
-1208
1184
64
2052
944
1088
1604
1264
-2444
-3656
-2544
-1232
-272
3400
6400
2480
-760
-4924
-4468
-3592
2400
3352
3996
2516
-2092
-3552
-2140
996
728
948
-1216
604
-1296
236
684
3544
2124
-828
-3708
-4308
-588
-1720
4072
4648
3172
-480
-1552
-5152
-3292
-724
348
3952
4164
4232
-1796
-3064
-2772
-2416
-4712
1488
3620
3896
5380
680
-2176
-6668
-5516
-2112
4100
6316
5072
-308
-2468
-3028
-3720
-2336
400
3076
2728
2504
-524
-956
-2324
-120
-700
1640
172
-2872
-308
1060
1972
1992
1568
-1896
-1772
-2004
-700
-3032
1620
1664
4160
5284
428
-2756
-7316
-4116
-2736
3440
4444
6536
2472
-2260
-4040
-3964
-1988
-1140
2704
2740
3480
816
-172
-3200
-1076
-2592
-1148
2048
1132
2660
-200
556
-1428
-344
-1768
-604
1328
1796
-680
-748
652
120
-1184
-748
3252
-868
-1192
-2088
200
1536
2200
-72
572
64
-2768
-1844
-1152
1416
1512
3012
1852
-244
-3288
-2316
-4588
-416
4232
5324
4372
-928
-3320
-6484
-1432
976
1340
1140
3604
356
-304
4
-1560
-1504
-2256
496
108
2304
988
2032
-768
508
-400
-3760
-1668
-2320
1384
3936
4160
36
-480
-2496
-1512
-1568
-696
-484
316
3840
2672
616
-2404
-1368
-2600
-1480
-1388
3144
3012
2432
1048
-2464
-1072
-1576
-3652
-1756
3476
2928
3160
-364
-100
-3148
-3084
-636
1876
2712
880
-304
-3116
1612
-644
568
2080
-468
-3360
-724
1424
648
216
24
3156
-832
-336
-3012
-2744
-628
3324
2780
2204
1416
-3560
-2216
-3576
-1000
900
4836
3280
1000
-1628
-2408
-3692
-1956
1376
1480
5008
1484
-1196
-3764
-1324
-560
336
952
1080
876
-156
-272
-1300
360
1276
600
-1832
956
-284
-1028
-2348
-1156
3436
4072
736
-1064
-1024
-4228
-2540
-312
3760
2932
1564
920
1148
-4868
-4992
-760
568
4472
2184
3368
-896
-1816
-3980
-4328
-612
4196
4528
2536
2396
-4248
-4560
-4376
-820
2772
5772
2672
820
-3156
-4288
-968
-196
3800
492
1732
24
-3944
-4664
3220
4928
1368
-288
-2948
-2380
-2536
676
2444
2696
2100
2340
-3424
-2708
-1824
-2064
120
784
3676
2760
1784
-1448
-1456
-4080
-3224
-872
4184
5148
1812
220
-2276
-4552
-4552
796
1780
5288
2896
240
-2848
-2116
-2888
-2308
1364
5516
5288
-3868
-3152
-2420
-496
-40
4032
1056
8
-1028
-2212
264
-1300
1696
1248
1792
-1648
340
-1100
-1276
-1540
-936
3196
3416
1516
-1508
-2732
-4896
-12
964
3292
4764
2772
-2900
-4976
-2640
-2504
524
4128
5884
540
-2280
-3340
-1892
-1764
1360
3760
3832
-2444
-4764
-356
1484
3660
-1348
-796
-936
-524
-972
1900
56
1080
800
-2256
72
1104
1988
-2668
-1328
-2628
2212
1800
2232
1320
-1824
-2136
-3336
204
1068
4040
296
1984
-572
-3636
-2136
-1304
140
2880
3124
980
-72
-4148
-760
-3332
2280
4848
812
-1756
-472
-860
-1280
860
-1344
1772
-192
1824
56
-3276
-1172
2772
132
1176
-176
-752
1620
-4116
-1176
2708
2272
-372
652
-2276
-548
-1520
-556
1908
2396
2192
-1308
-1968
-1996
700
-2256
2916
1340
1060
-916
-1892
768
-944
-720
-648
3236
480
-516
-2288
2484
1128
-2528
-744
16
-1652
696
3796
-284
1232
-2792
-1712
-1240
272
3652
3160
-2116
-2984
-672
-964
3576
288
-728
-952
-1044
-244
2912
-1432
-100
232
-1276
2476
788
1280
-2992
-3692
-936
2916
1288
3492
944
-2960
-4312
-1004
3292
1160
-236
1068
1920
-3012
-840
-3328
2524
3592
-776
76
-2088
-2348
128
3468
776
3180
-1800
-5188
-3560
2328
4716
3152
-1196
-1608
-1036
-5136
2940
872
540
1548
-344
-1040
1336
464
-1784
-12
-1680
-868
644
2664
1848
1592
-1348
-2320
-4764
-356
3152
0
1780
3448
1564
-2608
-2188
-4432
-908
2924
2988
1676
-784
-2656
28
-484
1456
2924
-4028
-1192
-1016
2504
3568
-412
-3420
1040
204
-1048
732
-2204
428
-212
1116
2368
2192
-904
-1104
-4672
-1720
1436
380
4176
3592
2292
-3964
-6960
-5512
3116
5768
3592
1712
-500
-3216
-4756
-932
1800
2820
380
3468
-1876
-3548
-976
-300
1772
1964
208
-420
280
-3904
-12
1052
2380
2028
-12
-48
-1456
-5144
-1668
2124
1728
4188
2188
792
-3544
-4068
-5216
536
5776
4372
3236
-216
-4396
-4920
-3364
-388
6204
2024
-284
-308
1836
148
-2268
-3088
-904
2056
-388
4436
56
-3176
-2256
896
2684
312
-2180
216
660
-1744
1560
-188
1500
1312
-616
-1036
-224
-4656
-1588
2448
2144
5920
700
-1008
-3780
-5224
-2620
3052
2880
3752
3080
-644
-1592
-3944
-6828
-1568
4888
4464
6104
-1096
-364
-2996
-6948
-2856
2048
4892
3768
1892
-1024
-1380
-4464
-2128
-128
980
3684
4240
-1608
-2884
-3016
-2772
4548
4724
2152
-3860
-3716
-4168
-20
3792
5164
2904
-1820
-1672
-5620
-4308
1212
4036
3004
7000
-404
-3892
-3512
-6088
-2412
1372
5804
6704
1364
-3372
388
-5320
-3740
-1440
768
7956
3552
-1540
-320
-2476
-4836
-420
-576
3500
2724
-604
168
-340
-1852
1184
428
-824
2220
-3396
-2480
2080
1740
648
2772
-3472
-260
676
-2956
2396
-1556
-908
2772
1192
1684
3020
-5360
-2868
-3388
-2640
5412
6352
2120
-532
-1992
-3652
-1268
-7560
1628
7288
5040
3044
-2152
-3448
-2908
-5084
-2288
4292
2620
4260
2064
-628
-1872
-2592
-3680
492
1352
-408
2180
228
1552
320
580
-1208
-1288
-3864
-1716
2948
1176
3792
1352
-888
636
-2748
-4020
416
-3280
2352
4196
4060
780
-4180
-2472
-132
-684
-1392
3724
-1244
2412
2168
-1704
-812
-492
-4632
-764
1372
2672
4668
-1460
456
-648
-2192
-2068
-468
-2136
2952
1168
832
6420
-3284
-4316
-356
-1596
-1200
2640
-660
2348
3356
-1256
900
-1372
-3528
-2664
-956
240
6480
1964
264
-172
-3012
-1544
-1580
-2836
2512
1652
1876
4940
-1116
-1684
-4860
-2676
-268
1460
1772
5612
1680
-1196
-2420
-6288
-2176
3184
3196
2040
5040
-6476
-4404
1548
-352
3680
4460
-3024
-3432
-2476
-3356
5908
1892
3216
328
-2376
-60
-6936
-2960
3624
3804
4612
3592
-5976
-848
-2568
-2840
-1756
1796
4424
2456
5224
-1660
-2500
-7480
-3888
1108
904
4524
9920
-668
-3620
-2140
-8036
-960
776
2912
5816
1648
-32
-792
-5424
-664
-264
408
3928
-2856
-720
3236
-1068
1528
1404
-2892
-1892
-440
-208
4
3068
-876
