3180
12052
8856
-4304
-13588
-11152
-1524
11796
12980
-10880
-11104
13712
16520
-8396
-22668
-6992
11812
6468
3384
12516
1492
-12384
-16220
-8556
11876
16620
664
-14484
6340
14272
-6152
-19012
-8224
16140
6264
-3116
5776
3536
-5776
-11308
-7512
7788
17400
856
-21264
-1932
22328
6904
-18232
-19108
8692
15232
-3716
4140
9468
-4240
-11908
-14124
-284
19428
9512
-13584
-7316
17400
8972
-16832
-20884
5724
14192
388
5828
8692
-2976
-15628
-12716
-200
18104
15860
-12600
-19972
7972
22532
440
-21048
-9940
10088
1576
-1736
11748
8968
-5136
-14328
-12456
7020
19068
-1472
-19432
2308
23704
2240
-22028
-13684
11196
9104
-1032
7788
3852
-5496
-14864
-10876
11528
21496
1580
-23188
-11084
15364
19948
-5916
-15440
2432
1008
-9884
768
18908
8684
-9640
-17620
-7352
18180
14920
-16324
-15936
15064
20392
-5804
-22636
-4728
9496
-948
2904
15764
5808
-13680
-17768
-6104
12972
19988
-3064
-23284
1048
24084
4384
-20296
-12616
8164
4860
-332
8144
8824
-3884
-14632
-11148
6048
20536
-696
-22784
-2920
20560
16888
-9984
-20396
-2404
640
-2656
11184
18344
2336
-16204
-16688
-2964
18228
13876
-15648
-16396
14576
21368
-5672
-21620
-11168
9980
7128
3540
13340
2292
-13024
-20028
-4432
20360
17180
-10572
-22560
3800
23344
8660
-18784
-13152
7680
-2056
-2860
13532
12460
-5900
-19000
-9056
11172
20332
-2604
-23340
-4320
22088
14736
-12512
-20680
-2104
6992
-216
13728
14872
-6308
-19144
-16608
6636
23648
7768
-19828
-14384
16896
19668
-9584
-20676
-2304
10084
-248
2348
13524
3088
-14004
-18160
-304
21408
13312
-14812
-19496
5124
24736
7844
-16088
-18060
-4984
6304
5684
16828
11652
-8616
-18568
-17076
8840
23648
1456
-22244
-3940
23032
10756
-14980
-20020
2392
10048
168
7308
10156
-2392
-19488
-13740
9776
21216
8004
-18928
-18300
9648
24544
2408
-19820
-9112
5540
-1732
-548
15924
9804
-9132
-19484
-7512
17336
17124
-11736
-20320
6352
23980
5044
-18720
-16008
1488
5364
5836
18640
5496
-15640
-22240
-4840
14216
18808
8040
-22056
-16608
12976
21600
-1928
-21720
-3528
7860
-2664
4532
11716
3532
-9556
-16296
-4104
17320
15624
-14208
-19176
9960
23516
1992
-20232
-17964
4648
9220
5524
14796
5068
-10972
-19760
-11964
14120
21912
820
-22572
-7664
21592
14940
-11584
-21220
488
8960
-4352
7768
13776
-1020
-14628
-12612
3652
18560
5784
-20368
-11340
18916
19184
-8256
-20728
-5772
6984
1528
6448
13624
1988
-14484
-13960
-2224
11428
18328
-6748
-22408
1860
22468
9020
-16104
-21728
1324
16912
6284
5648
-264
-9064
-10732
-6224
5264
18608
6800
-21248
-10140
19872
14052
-15520
-20972
4072
14388
2004
3368
5864
-1532
-10836
-14424
-2672
16388
18916
-9440
-22636
4752
22496
5160
-19432
-20036
8864
15564
156
5768
6116
-10832
-13896
-3244
6012
12524
248
-14480
2808
21384
1404
-21016
-13688
7504
10296
628
4904
4352
-5564
-5632
-6252
-2232
10108
12964
-12916
-18188
14016
21004
-1996
-20284
-13180
10696
6852
1240
9176
1196
-8300
-6796
-4180
2224
10000
-4888
-10340
12676
18536
-8000
-22024
-10028
12992
14964
2436
-2892
-6020
-9304
116
4936
-1628
11664
9052
-17552
-17556
11912
22516
-156
-22112
-8564
12668
1744
-48
6992
2240
-5372
-5712
-2192
3256
3256
-9904
-1160
20224
9640
-12536
-23312
-6556
16700
6800
9332
9052
-11196
-15840
-5632
-924
5892
17388
8540
-16976
-18060
14536
19656
-8744
-21316
-2028
16608
444
-2708
5072
-2028
-20
2812
-4268
-5136
-4792
-3964
7116
21076
7868
-18324
-21004
-4380
14404
9436
5784
4412
-5616
-7972
-9660
-6456
7296
20532
4836
-23280
-8844
20760
12372
-17136
-17992
12468
16164
-9248
-8804
5840
6220
-1540
-2848
-2784
1552
-1248
-9200
5164
21520
2920
-20776
-18516
6808
16900
4784
2472
-1352
-7288
-8752
-3956
-1708
10472
19004
-2640
-23504
-4396
22292
6660
-20052
-13276
14500
10836
-7112
1636
6020
-2444
-7552
-5236
-172
9812
2720
-14128
5224
20424
-288
-20524
-15012
9500
11068
516
3820
3172
244
-5400
-13632
-8376
14304
20640
-7596
-22664
4824
23348
2268
-22196
-12696
14212
4700
-4336
9048
8972
-5192
-13112
-10212
5524
17288
-4640
-16948
9612
20016
-5468
-21688
-220
19352
-5980
-14428
5956
13968
3436
-10520
-11100
-572
17724
8052
-20020
-14508
15696
21648
-2016
-20040
-9360
6632
-316
2428
13656
7428
-7464
-14180
-9964
6252
18416
-4616
-17392
11832
16748
-8308
-18704
-804
13436
516
-1484
5296
116
-5568
-9948
-5972
13088
19656
-3816
-23024
-9364
18396
18480
-3748
-22344
-6008
10960
-5480
988
20240
9276
-14164
-20064
-7684
18648
15448
-16928
-11580
19812
15052
-13672
-21528
1212
10528
-1180
5588
14276
720
-17072
-17572
940
19704
15676
-10796
-23268
-132
21180
16372
-8596
-20052
-2328
-1508
-4136
14096
19016
1656
-17296
-17688
392
21636
4632
-21352
-3260
20540
13164
-14708
-21836
5556
9860
-4160
7988
13072
-3844
-17696
-12944
3376
19684
15124
-12824
-22776
672
23012
11448
-16768
-15380
8956
1472
-8412
11684
15576
-5540
-17664
-11284
12756
21108
-8732
-22016
4796
24632
3136
-21456
-14136
9920
5388
-4268
15452
12876
-10184
-21320
-12828
12364
21824
5592
-19516
-16556
13728
21744
-332
-20000
-9448
8028
-1452
2084
15732
4400
-13668
-15560
52
20292
10292
-19100
-17436
10944
24400
3652
-19284
-7400
1264
-8684
3884
19340
11712
-9852
-19984
-8508
13040
20592
-3048
-22820
-8188
18304
19588
-4372
-22660
-8432
10408
508
2940
17012
2804
-18768
-18484
7080
22940
4856
-20248
-13284
16924
19856
-6092
-21780
-1560
10304
-6816
1796
17568
4384
-15360
-16804
2564
19136
11144
-10908
-21664
-2584
20752
17976
-4932
-22028
-9632
5812
3216
11940
14624
-7932
-21004
-10040
13184
20892
-1964
-23356
-6724
21024
16548
-9180
-21232
-2908
7248
-3016
9400
17792
-2516
-20872
-13836
8476
19528
7444
-15228
-20356
5852
23308
10996
-10264
-22044
-7184
7952
4760
13768
13600
-9880
-21464
-10772
14472
21052
-5572
-22548
-1240
23228
10260
-16088
-17144
4428
7916
-4068
10372
13156
-8812
-22548
-6264
16388
19044
1092
-21820
-14568
7828
23744
10516
-17076
-16568
-1152
996
3324
17788
11772
-13956
-20204
-3512
16808
15244
-12472
-20940
5116
21540
12112
-14048
-19464
468
3276
3488
14392
9396
-13996
-19696
-1488
14908
15596
748
-18672
-17228
10956
23688
6744
-16440
-16836
2208
1916
1512
17468
10188
-15220
-19672
-868
18788
13144
-15444
-19604
9152
23616
5228
-18592
-15284
4080
3364
1652
15076
10328
-14488
-20244
-2180
15408
14584
-372
-19568
-14528
15796
22644
1948
-18116
-12248
408
-1108
4864
18388
6504
-16100
-12800
4468
15224
2264
-20556
-12004
15816
22032
5300
-17484
-14392
1200
-3108
1948
18524
11688
-13080
-19048
-1008
14864
11516
-4208
-21080
-8260
17516
21488
172
-21496
-8096
5152
-3680
696
17052
7948
-14376
-15704
6456
18920
760
-21804
-11892
15528
22124
4064
-19716
-11696
3784
-4412
1180
19364
11644
-14796
-18308
-444
14524
12248
-9156
-18944
-2364
17468
20400
-6176
-20712
-3968
856
-3584
7792
20100
2768
-19664
-16076
6752
20524
4588
-20528
-14164
15428
21360
736
-19088
-6556
3636
-8064
2716
19156
8916
-13628
-16272
856
13920
10080
-7192
-21028
-2532
21096
16208
-4896
-21128
-5168
3184
-3552
10864
19604
-1604
-21208
-14168
8444
19956
3976
-20640
-12028
17216
19700
-5292
-19064
40
2600
-8724
3712
18572
9400
-15272
-19096
1036
16324
12880
-7772
-22424
-4280
20200
19232
-4256
-18660
-5096
-3312
-5848
14376
18668
672
-16640
-16284
5864
19752
3812
-21984
-11208
16876
19992
-608
-17448
-4432
-1468
-8456
6852
20844
6560
-17292
-15616
1056
16068
13872
-11104
-23516
-460
20556
17604
-4908
-18096
-2592
-6072
-6476
14156
21492
1504
-20708
-15200
6688
20624
1416
-24132
-6740
19064
18708
-876
-19408
-5264
-2880
-8784
9152
21780
9480
-17328
-17384
-332
16092
11440
-13416
-20676
4200
21200
15360
-5648
-19108
-5512
-5164
-1716
16068
19940
-4388
-22512
-10320
11164
18352
-2500
-22364
-5644
20228
17392
-3936
-20004
-5148
-1524
-4856
12560
20652
1676
-20748
-12856
4824
14876
8772
-14232
-19104
6244
21944
13944
-11568
-19056
-3728
-2044
2020
18052
14528
-12412
-20424
156
13796
9444
-9040
-18312
-120
21640
16724
-8528
-18040
-7468
-3904
548
16668
19052
-4124
-21568
-10712
7908
14160
5804
-14724
-16336
8456
22424
10572
-16344
-16540
-1604
-1860
5156
20516
7388
-18904
-14952
7848
14076
4860
-10604
-21256
1012
20088
20192
-2024
-19752
-9160
-8552
1076
16712
17160
-6716
-16396
1624
6708
2264
1256
-14124
-13920
12504
22508
11896
-14888
-17772
-6872
-2576
9448
20516
4772
-18160
-11700
8736
12220
2356
-12184
-20512
4812
21304
17856
-3408
-20400
-9520
-5996
1148
16440
15832
-7036
-13648
1684
7148
676
-3484
-14448
-8220
14772
22248
9020
-17324
-17492
-6972
-852
11264
18600
4952
-16104
-9772
8132
6776
-2120
-11512
-12232
7276
21672
15584
-10148
-20496
-9360
-2216
3744
16780
13712
-8104
-10976
2016
2272
-3924
768
-9600
-6988
14256
22500
3500
-20208
-16652
-2652
5168
7920
12980
3144
-9068
-3796
2172
-1676
-2084
-7284
-7632
8452
20748
12472
-13308
-20900
-8280
2812
8436
14480
5288
-10640
-6164
5704
-96
-4400
1580
-9792
-5776
15840
19232
392
-20968
-12516
3968
1904
6868
9268
-2628
-6208
3964
2276
-6720
832
-5688
-10948
9168
22148
8364
-15292
-20400
-1592
6344
5744
10544
400
-8720
-600
5848
-5812
-1448
5368
-12596
-7164
16504
19788
-1944
-21904
-8860
6624
1604
2924
5992
-1736
-1772
6228
-800
-6896
-392
-9116
-6764
13400
21804
3936
-19784
-16172
1588
5148
4892
8348
-628
-3496
4048
692
-11268
-808
5272
-11164
-2776
18552
17868
-5632
-21932
-9332
5632
3928
3976
2936
-1292
4392
9316
-8000
-12040
72
-8720
-1900
16152
21132
2020
-20640
-16464
-1692
4944
8056
8696
540
-124
4664
-5436
-15588
3080
6064
-11944
900
20884
15092
-10544
-23408
-7744
8600
5392
5268
3812
-196
3144
232
-12612
-5296
7772
-7900
-5304
16248
19904
-1608
-21408
-15008
2468
8920
5324
2736
2628
2896
2340
-9508
-13996
6956
4788
-9640
1944
20164
11708
-14256
-22440
-2632
11448
1748
2268
5736
2664
2388
-2452
-15760
-3480
9592
-6320
-2944
17308
16924
-7528
-22992
-12236
9192
9988
2608
384
1844
6904
-292
-15200
-13252
13232
7896
-13228
2388
20796
8116
-16952
-21308
2572
11944
1720
2268
1480
1384
3320
-3752
-13556
3824
8584
-12396
-4208
18040
16912
-8104
-22956
-5676
11476
3568
-2460
1548
4440
6600
-992
-13880
-4708
13348
-3852
-16284
8496
22732
6484
-18688
-18660
4960
9392
-564
1128
4832
5264
2852
-8912
-15956
5840
8684
-10940
-1272
20084
13200
-12556
-22560
-2616
11244
1584
996
2820
4672
6156
-3912
-17784
-3696
16516
-4936
-13776
11700
21472
1392
-20888
-14148
9956
7600
-7200
-3072
6796
13452
6256
-12852
-16684
5540
2680
-11728
5996
22200
10472
-15336
-20848
-820
10244
-1216
-3024
6476
13664
5556
-11936
-18736
-280
14512
-8468
-8368
17720
18028
-4828
-21188
-7240
10276
112
-7444
-796
10756
15704
2796
-15280
-15188
5520
-2656
-7932
12488
21696
6064
-18440
-19276
-1180
9484
2000
1372
6140
9408
2544
-13556
-18916
4808
15124
-9560
-5376
18140
14952
-8464
-20624
-5796
10828
864
-7164
360
12128
14468
-1816
-18320
-9688
8336
-4472
-7832
13572
20600
2276
-19976
-14404
7668
5852
-8476
-2964
12268
16964
1132
-17232
-16968
8308
8408
-13120
744
20080
13404
-11836
-20572
-36
10772
-4424
-9748
3852
17092
14456
-6856
-20300
-6648
7284
-5680
-4728
15832
19068
4
-20224
-10564
7264
-1440
-9264
2620
15660
17172
-1480
-18660
-15764
6308
5240
-10344
5688
20644
9904
-15180
-18936
3944
8812
-8248
-8052
7780
19000
10308
-11812
-20008
252
10312
-11932
-5720
17396
19672
-1672
-20372
-6312
6496
-5604
-10036
6368
18272
15664
-6132
-20320
-11672
10360
800
-11976
9780
21600
7808
-16644
-16756
2892
1644
-9420
2600
14932
17740
636
-17916
-17920
4480
9808
-11832
468
20088
15400
-9388
-20312
-3972
5712
-6732
-4000
10308
18716
10876
-12804
-20416
-9056
13952
-1908
-9632
13160
20720
4556
-18532
-15528
-252
1420
-4080
4512
15200
16784
-3552
-19724
-16840
7472
8312
-11640
4596
21212
11252
-13612
-20284
-2780
8532
-4256
-4192
9912
18428
6084
-15884
-19272
2400
15556
-12268
-9920
16544
20680
660
-20920
-12504
6408
1324
-6896
3280
15824
15448
-5804
-20216
-12480
11460
848
-11672
10400
20960
7412
-17972
-17188
2180
4928
-4236
-1868
11324
18204
1208
-17692
-17008
5500
12124
-12292
-5308
18440
18232
-5364
-21060
-8068
8064
452
-7652
1972
15828
15652
-5368
-20400
-9572
10648
-3976
-9584
13244
21572
4664
-18712
-18048
1600
7516
-2652
-1188
10396
17116
-148
-18224
-16084
8316
8720
-14356
224
19920
15664
-9136
-21732
-5004
7780
1240
-4936
608
13512
14172
-3520
-17616
-7312
3632
-10284
-1792
17608
21260
1544
-19948
-14648
-640
4460
328
1064
5936
13840
7716
-12048
-18840
-2544
2092
-4592
8644
20664
9300
-15188
-20036
-3708
9096
7628
-1684
-6056
2100
13280
9472
-11292
-13908
-5284
-8148
6488
19232
17528
-4804
-22624
-10056
3300
6448
5604
-688
-4820
4848
13164
1228
-14940
-11320
-7832
2308
16196
20540
3068
-19400
-17476
-588
7188
6068
7232
-592
-8400
-2108
11496
6532
-8320
-17592
-9460
11056
21420
13216
-11332
-17972
-4276
924
-148
6052
12728
924
-13768
-4488
12592
6908
-6988
-19868
-6500
19420
20756
1480
-20212
-11952
5004
1248
244
6588
6776
1192
-6024
-9700
-2272
17312
36
-21208
-2092
20640
14264
-12712
-21256
2480
12968
612
-1064
1240
-700
-888
-180
-4904
3416
10340
-9508
-17564
9148
22620
4952
-19092
-13540
7384
4320
-896
4032
4096
-860
-2196
408
-3288
-2364
-6968
-4580
13960
18760
2044
-17868
-17788
812
9492
4700
4996
2848
-1864
-6840
156
348
3068
-1112
-15748
372
19180
16744
-7220
-21412
-6332
6452
1264
1168
9444
4104
-3220
-872
-5196
-6560
140
-244
-2956
8096
15832
4280
-14816
-16776
776
10260
3004
-48
-608
1840
740
-3640
1076
3576
1700
-15772
-9648
17064
20580
232
-21384
-7612
9588
-3000
-4372
4084
9760
6228
-1588
-6884
-7332
-4884
-5652
6260
16512
10876
-6756
-17276
-8124
4828
7472
4512
440
-300
-3012
-756
-900
-2264
1508
3392
-984
-5712
2704
8976
-584
-8840
-1024
6696
-1756
-9168
576
9680
7624
-1936
-7564
-5160
-2360
-264
4544
7908
5236
-3040
-9264
-4600
748
2896
2780
2200
56
2524
684
-7432
-5480
2724
5088
1508
180
2712
-684
-5840
-3928
3448
3044
-140
-860
-700
3160
-460
-572
-472
-780
-1660
-2356
556
6624
3004
-6076
-5332
5316
6024
-4504
-5448
-2064
3644
5708
2544
-2076
-5324
-3624
2040
1896
2376
2768
-1096
-4700
-2256
3572
3644
-1324
-2744
-676
68
1668
212
-1748
564
3444
2572
-5352
-2996
520
536
2100
-1056
5356
-1868
-3396
-660
-696
2888
956
-392
-1784
328
492
-1624
-2716
3584
4732
588
-5852
-412
2932
-3964
-2672
3416
7512
-1272
-4948
-3128
72
5460
196
-3568
856
3828
-1368
-5928
1720
3240
564
-3156
8
3144
1356
-552
-3264
-1160
-680
2696
1096
-2684
316
3872
1444
320
-5692
-2640
-260
-740
5996
3884
-484
-2252
-3448
-1320
2940
1024
-3412
-4140
5360
4920
292
-3000
-684
-340
-3592
-568
3300
2108
172
-1464
-2432
3216
3288
-2412
-7524
-1232
6588
7660
-2464
-7056
56
-1672
544
5224
2968
-916
-7608
-2560
2424
6680
3288
-5352
-3212
-988
5020
-756
-2356
-244
-1208
3024
3660
276
-3820
-6112
-460
6768
4304
1388
-3884
-6808
-4572
5280
7660
2564
-3576
-4920
188
112
432
836
664
-656
1300
1376
-376
-1580
-5064
-4036
7992
11256
-344
-11180
-9200
2364
7236
5736
1052
-3192
-5716
-4112
4376
6260
1240
-2504
-7340
-1792
4624
7396
1188
-8252
-3304
5512
152
-1064
816
-1644
-1740
3024
4324
-1708
-2196
-4808
-2044
4048
8024
1192
-5508
-6444
188
3672
2188
1848
-3092
512
-264
168
-352
-1176
428
1148
-2060
652
5472
-2020
-5744
-2668
7880
6884
-6464
-8128
-772
3832
6556
1116
-2144
-2252
-3460
-1376
1996
7416
-900
-6792
-2888
3544
6252
-772
-2612
-2448
-908
956
1652
1056
-2444
1344
1424
680
-1588
-2708
24
-1604
1368
5940
3160
-4676
-6264
-1100
4260
2408
3176
-4008
-3216
1172
-2848
3220
2892
4164
-512
-7180
-3184
2472
404
-1180
744
5340
5912
-3192
-7620
-4824
1464
4072
3068
-1172
2048
1872
-5036
-4864
2112
7592
-1220
-6036
-804
2408
3484
104
-1924
1176
-1800
-1348
-2180
988
4908
-512
500
128
-1448
-2656
-4996
3396
7712
1836
-3472
-6432
-120
872
3492
4024
-3556
-3060
2956
-164
-1040
-1716
1524
1272
-2116
2568
-540
448
-2384
-560
184
4092
2976
-7148
-4992
3380
7344
1036
-3276
-3928
216
-1004
136
2996
3440
1140
-3780
-2656
-3296
2108
4092
-352
-780
1168
1540
-1784
-4168
800
884
264
3728
2180
-3392
-6216
304
1948
5536
3496
-5128
-5184
848
4732
2268
-4388
-3752
1432
600
1964
3176
1516
-1976
-1968
-3200
-1036
1316
1728
232
-2300
2944
8064
-1184
-10664
-4860
2904
7284
1104
-544
-1116
-2424
-844
240
3096
1692
-2248
-5680
468
6036
3784
-2940
-5404
1952
532
-1180
1264
-1092
908
4
3368
4620
-5208
-6616
-3900
620
6756
9284
272
-6444
-7320
332
4740
-556
892
-888
980
-732
640
1992
-2112
-684
-2408
-1040
5816
3900
-3552
-7100
-1408
7972
3008
-2928
-4424
-372
1996
1616
2896
-1632
-2500
-2032
-2100
1244
7680
3140
-5008
-5540
-1416
2940
820
-1424
3124
3648
-2092
1240
-4804
-4464
1200
1336
4752
3336
352
-5756
-4612
500
5472
4176
-4348
-3676
-40
1972
3556
-332
-2288
-2356
-520
2828
848
1372
1708
-2628
-5268
-3080
5240
5512
-3172
-1008
4396
1576
-2892
-8220
-3956
5500
6288
1624
-1928
1464
-136
-5048
-2172
2412
3188
-2984
-2028
1996
1836
3328
-980
-332
-3048
-1340
456
-3036
-24
3808
4632
2552
-940
-5100
-4716
-4932
3336
6852
5932
392
-5116
-4716
-3544
2220
2780
2288
364
2180
-684
-4152
-2560
2040
-320
-1220
5768
1340
-396
-4804
-4304
1560
5424
5084
-5152
-6820
1276
5996
2872
-3424
-3624
424
-2200
2792
3760
2500
-1544
-7108
-56
1492
4460
216
-4748
-1176
4220
2248
-1300
-2152
368
-1608
-2120
5860
228
-1920
-4092
60
5656
1968
-92
-3040
-5848
-1612
6980
3708
-816
-4868
-752
864
1080
2800
-184
-456
-4064
-324
600
556
3428
-1992
-2708
5920
3948
-3304
-10624
-3560
6672
5732
5240
-1196
-4380
-5796
-2040
2912
4364
1968
204
-4252
-4136
4436
4392
-204
-5780
-1328
1888
2140
684
-1532
572
-2528
3912
3460
-3080
-4496
-5248
236
8428
7212
720
-7264
-8412
1052
4044
4912
-1588
-2176
-1036
-1556
4776
1892
-1252
-1980
-2656
-2036
2596
5184
-1304
-6448
-1512
11116
5012
-6820
-9640
-2900
3204
5672
6580
-988
-2100
-2560
-5544
-592
6072
1748
-3504
-3048
4020
4072
-596
-3032
-2184
1416
-1440
828
96
-544
1344
2592
52
-2276
-728
-1524
-824
1216
3552
2288
-2960
-6280
2392
2640
1736
2640
-4128
-2628
-816
1256
72
2368
5316
-1484
-5808
-3528
1420
3000
1464
-2020
2992
3364
-3020
-5060
-3824
2476
6752
1212
-3272
-720
1016
12
-2676
-104
1720
1540
-2404
-3012
4312
672
1728
768
-1228
-2348
-3576
-1328
-1548
6488
4932
2824
-3636
-4576
-2560
-3804
2640
3252
5268
-1104
-448
-844
-4448
620
708
-940
-1276
5312
2444
-1568
-3396
-1276
2188
-2864
376
2340
3372
-2876
-3696
524
5300
4800
-5892
-9536
-736
8288
5656
-612
-3168
-572
-3688
-1956
3400
3128
32
-3440
-672
3340
2304
-696
-4436
-4820
3308
6588
1592
-3852
-4720
472
1884
5104
-696
-3400
-2784
-2800
5520
4080
912
-2860
-6572
-1612
6600
5072
-1292
-6988
-2320
3760
2120
3464
-2192
-488
-2980
-3036
2864
-92
3880
1440
-4872
-620
5800
416
-6476
-5956
3316
8712
1012
-864
-3852
-3452
-1168
356
5300
4216
-2104
-1512
-5048
-1412
4916
-576
-972
4
4712
436
-3608
-2440
-2368
1512
5060
4316
-3504
-5620
-1764
1220
1212
3324
4816
-2016
-6500
-2216
3668
3612
-2656
-1428
544
496
1088
-100
-96
844
-212
-3768
-1528
3512
4840
-2780
-3872
3792
1852
-4284
-4592
2536
3324
3708
-868
-1704
-756
-1960
-980
-1144
2196
2888
1580
-3432
-2664
3768
2868
-2696
-3624
724
980
564
1248
-1476
-644
2808
1756
-4412
-2256
1764
2216
148
328
1956
-3288
-2492
-2336
3876
3208
552
-372
-3976
616
2440
-1900
-2836
3416
2524
36
-4272
-2452
4240
-444
-760
1168
5444
120
-8316
-3176
-944
6648
5264
-2592
-3460
452
868
696
-1884
-120
1384
-2884
876
220
3288
980
-2820
920
-2844
208
2448
-3252
-2472
5368
6188
728
-9440
-4872
1708
1392
6564
2332
-1000
-1808
-5720
-1088
1616
3944
1772
-5156
372
4584
992
-3324
-3976
2144
1284
-1308
2504
1460
-1896
-3232
604
3456
2004
-2100
-3696
-3564
2924
7704
436
-3180
-4740
-192
1180
512
3252
-24
-1484
-2368
1924
-656
1176
-60
-2772
2140
2404
1864
-4976
-5844
1180
6400
6572
-1884
-5480
-4912
-368
2112
4844
2052
-912
-988
-6396
-692
5572
5000
-3172
-4956
-1256
4028
1428
-1716
1500
-1088
-576
-804
-1420
4056
-300
-1472
-200
1772
2476
-5456
-4248
204
7456
5904
-3048
-5720
-2560
-384
1616
5108
-352
-316
-1512
-2672
-1528
1032
6484
732
-4804
-4172
4568
2308
-2908
-2604
636
4352
1708
-1636
-3584
-3412
3916
3264
-2616
3252
20
-4144
-3544
696
6936
200
-3076
-632
-204
2320
460
-2644
-644
-576
72
2564
-1740
2964
220
-2836
1564
1024
1296
-7276
-4160
3832
6912
4556
-1224
-3688
-6356
-32
2124
-16
1828
2948
1160
-3300
-2916
2772
1196
-3588
-972
1096
3880
564
-804
-2956
-440
4304
-1320
-6120
-2416
7992
5972
-660
-7848
-1228
1636
-1716
2164
2668
2252
-4436
-2892
136
2656
4900
-1480
-4008
-1452
4112
-172
-5376
500
2908
-808
2716
5804
-1044
-6756
-7624
1828
5288
3988
1420
-2912
-4708
552
7124
-396
-5020
-2460
1592
780
-284
2316
644
316
-844
-1100
480
-1700
-88
-2756
-136
8240
5236
-4388
-11312
-772
4424
3668
2328
-292
948
-4232
-2392
-1512
1464
5248
60
-2328
-2752
3912
2472
-2192
-5232
-1204
6744
-2096
920
-196
-2200
420
3692
2560
-5240
-1388
-3380
-948
5784
7064
420
-8132
-5372
1720
3880
4044
-336
-3268
52
-1356
-300
1488
-1300
2188
-144
-2028
2556
2320
816
-7568
-2148
5588
2008
-3000
-2772
3560
2776
1016
-1724
-1396
-2000
-1200
-1476
228
6164
2648
-2704
-4616
792
5360
-2320
-3824
-192
-584
1556
3416
1420
-1168
-2796
-368
2344
-2648
-444
2056
-1140
-148
1428
3312
-2968
-3504
476
2424
604
2588
-428
-5476
-468
-60
416
1588
6348
1816
-5492
-3976
-1044
636
-1032
-880
8260
6052
-4576
-7356
-5760
2844
6732
4368
-5252
-3264
4548
-176
-2732
-2644
2412
2180
-1468
880
952
552
-824
-2388
-292
1672
-720
452
-3520
1424
6604
1092
-272
-6856
-3464
-1872
1044
9156
4524
-1244
-5732
-5044
216
2228
4052
-1088
-3148
-148
3120
4284
-4572
-3348
2216
84
-1348
1456
4480
-3280
-3972
-468
2888
5648
-1608
-6424
-2616
4592
7220
-1904
-7220
-108
260
1716
2964
2028
-1076
-6300
576
2060
1232
2404
-1156
-3260
-3700
4804
5332
-2568
-2736
-1820
1384
2264
-1604
-2796
1764
2000
660
2040
-2196
-1172
-1620
-3748
1424
7668
1744
-5376
-3472
916
2824
648
240
940
-2820
-1200
124
-1364
1928
4180
-2812
-908
4116
1064
-3360
-9980
-704
9784
6832
-1980
-4332
-2092
-2340
1960
2468
1496
-704
-1652
-5448
-1036
7964
5216
-152
-7092
-3544
3004
-648
-996
632
2148
2004
3416
196
-7168
-4844
1284
3008
2096
3824
2240
-5260
-5068
532
5600
552
-4008
-1600
1464
2672
1404
448
-1044
-2308
-2776
-2340
1576
7848
2656
-5636
-3140
4404
-284
-6604
-1696
5120
4432
2568
-3044
-3368
-1720
-756
2576
-168
-848
3788
2504
-4044
-3740
2552
2864
-5192
-260
2004
3980
696
-2088
-3808
-2324
6096
1976
-4600
-1848
3600
1952
-1688
-1420
208
-776
-3176
3272
5144
384
-1888
-5884
-1440
888
6784
1276
-6324
1012
1728
3300
-5240
-2536
4612
-1276
-1292
1788
5488
-2944
-6980
-1252
4040
5484
2276
-2828
-8596
-128
4224
2256
512
416
1112
-4956
-1324
2856
984
636
-2508
312
1196
524
1712
-3856
-5132
4780
9448
-688
-10192
-4756
3748
3364
4164
2056
-2196
-4392
-1084
-1800
2100
2876
-1024
-2052
1180
7116
140
-6720
-6332
1624
5248
-892
1492
3376
-3300
-2068
-392
3428
1868
-3968
-3920
-3768
3972
10760
2792
-7020
-6568
-72
2420
-468
2764
1568
-1400
-1712
668
-224
1688
172
-2616
-1920
1792
7312
-4092
-6728
-740
4856
6924
-2004
-4244
-2720
-2828
4092
4136
-152
80
-2284
-3944
-492
5012
4448
-1724
-8588
-1676
6312
3960
-280
-2868
1284
-3256
-872
524
228
1680
184
-100
1612
3156
-2736
-6104
-5036
6820
7484
-648
-5792
-1836
3552
-456
1452
-616
-2900
-1008
1944
848
-280
3340
808
-4600
-3764
2220
5092
-1556
-3216
304
3308
1540
-952
-4336
-3356
3412
3492
292
-1028
3640
-1216
-7464
-2124
6132
3292
-4280
820
2804
164
-1680
-2628
-300
76
4348
-828
-3936
-32
3392
2812
-3440
-908
732
-488
-3824
2892
4552
996
-4428
-2228
-520
96
5496
-1268
-1208
68
2320
-700
-6316
832
3944
924
-984
-600
852
524
-1352
-796
-400
2916
4380
-5408
-8096
456
8784
4644
-3964
-2248
3276
-3116
-5936
1000
6668
604
-4320
1844
1136
1684
140
-6632
-1512
5124
4308
-2888
-6688
3444
3060
-88
2212
1948
-4008
-9056
-1072
5556
8688
2660
-4132
-6108
-4168
4572
5700
-780
-6604
-512
2360
320
3520
2364
-968
-3884
-1884
-1136
412
2996
216
-3756
1280
9124
2696
-10624
-8100
2724
6628
2260
-716
-120
-1476
-1256
-1044
1268
1860
492
-1012
-4496
1152
4568
1096
-3184
-2664
4112
1464
-3156
-2796
1272
2408
-1180
3448
2060
-4248
-3116
-4292
748
7988
6580
-2688
-6668
-2760
1932
1104
-1564
1736
-816
-24
2508
1832
772
-1540
-1376
-5712
-2800
4540
6512
472
-5600
832
5816
940
-8436
-3020
340
2576
4676
16
980
-456
-2320
-4896
2212
4676
1672
-4976
-6176
7820
1660
-1864
-1324
676
2788
-2560
1144
-1068
-2616
-20
956
912
356
2588
996
-1228
-4152
1312
2268
-3812
-1544
1672
1964
2024
1976
-924
-2648
12
-1576
-4728
2104
6888
1396
-4036
-3180
4012
624
-3328
156
1736
3508
-1828
-6152
-1568
1668
7976
3224
-8848
-596
3288
860
-1344
-3756
4376
-744
-5948
1604
4628
5624
-2508
-2256
-1856
-2036
-40
-2716
-96
7060
3540
-560
-732
-5392
240
-6500
-156
8752
4304
188
-3536
-3120
-2784
240
3904
1848
-4072
2060
2948
-492
-4292
-2272
5044
-2856
-784
4392
1092
-280
-4064
-2456
3152
4468
-104
-8688
-3520
8108
7704
-1736
-5096
-1444
-1184
-3508
1104
7252
1688
-1688
-3056
-132
1232
-2104
596
-2812
304
6224
1084
-2936
-2780
912
2552
-2428
-184
992
-1392
-2824
1476
6092
756
-604
-4336
-4828
3256
5076
-60
-4684
-3424
3920
3172
112
1512
-388
-3588
-2840
-304
2232
1104
848
1036
-2292
2996
3728
-6548
-5784
200
7928
4748
-6004
-3460
656
1572
232
3260
1116
-2796
-3196
-3340
548
6604
4860
-4148
-5120
-400
4752
-748
-3072
2044
-268
-1552
2472
2492
-2436
-2216
844
664
-1116
3180
884
-4460
-5704
3468
9172
676
-4104
-2600
-1560
-440
-32
1044
1876
2604
-828
-2896
628
3820
-1076
-8888
-824
10084
2928
-5280
-4656
1552
6144
-444
-3748
-396
-936
1556
2348
-3620
56
660
2020
116
-1708
4612
-1852
-5856
-2660
4200
4804
760
-556
-3280
-3356
1200
4028
-2128
220
3168
316
-5592
-1996
4880
-880
952
192
1600
1468
-3540
-4956
-5104
4420
7356
12304
792
-10588
-11180
-18552
7160
17804
19260
10348
-19688
-16016
-21216
4136
20692
16224
17380
-16944
-17180
-21772
-112
20964
18588
14976
-17752
-17228
-20348
5448
20540
20028
4048
-20152
-20044
-7640
18496
19292
5088
-19984
-17480
9724
23540
2516
-18024
-20576
2432
19872
19400
156
-20904
-19932
356
21432
17016
-4080
-24028
-9448
17600
19332
-7148
-22840
-7768
17452
21020
-2568
-22572
-15068
9852
23252
7788
-17528
-18408
9132
21988
-6332
-22840
-1724
20804
16336
-11296
-22224
-5596
18048
16972
-13428
-18116
10276
20864
-3700
-22860
-6616
10780
7640
2344
3776
6968
-7556
-22860
-6368
15220
19020
-1264
-9924
4260
-1332
-8784
-7576
4432
10132
-1756
2368
11292
-2816
-20208
-13636
14740
21416
-4532
-7880
3056
-1660
-13220
-5800
15576
9076
-780
1724
-916
-14916
-11032
7780
11544
3612
4880
6540
-14960
-16516
-868
7824
9428
11040
4552
-11664
-17376
-3148
8920
4416
13364
160
-12812
-4876
4648
2644
-9904
5668
3300
324
10796
-3640
-14968
-3268
6476
1096
-404
13008
2544
-10584
-4140
-9312
148
13812
2396
-7456
10460
6760
-19432
-4660
4460
-4424
12568
9268
-14296
-624
13312
-14260
-8856
15224
-5372
3412
9624
-16776
4672
9048
-18852
6028
12876
-6360
6580
-348
-21840
6092
10016
-8144
14988
-2836
-4896
10572
-17268
-6060
7772
-4412
13308
9424
-11164
196
-3516
-10792
4124
-80
7660
19708
-16152
-5952
3332
-19588
14572
1724
1072
21988
-17660
-2224
-6900
-17476
21348
-184
9100
17516
-19444
-5756
-17340
-5992
21320
1528
20364
7092
-19344
-13944
-22128
4352
20220
14128
20340
-8128
-20168
-15860
-17912
14736
18244
20072
8280
-21312
-16756
-21132
8800
19600
17296
15196
-19168
-16020
-21728
-640
21596
15844
19532
-14716
-18328
-21560
-1952
20864
17924
16252
-16152
-18172
-19960
4736
20940
18624
3440
-21096
-20968
-436
19776
16860
952
-23012
-13244
8072
21968
8776
-17336
-21676
-480
19808
19300
-1816
-21656
-17464
5104
23780
13652
-12096
-21780
-6320
17092
19720
-6788
-24892
-4412
17108
18492
184
-24960
-14964
10940
21192
10416
-15968
-20076
5116
21988
292
-22280
-7232
17280
19188
-6616
-23828
-4108
19704
11108
-15820
-15404
11388
20312
228
-22740
-13576
13996
15900
-4020
-7352
10260
4248
-17420
-16060
8620
19380
1452
-4468
3796
-272
-7724
-11416
-3288
7308
7396
13312
6228
-12744
-19768
-7792
18376
15952
-4120
-7236
-2716
-992
-12960
3152
19384
4416
-7672
-3292
5792
-10096
-16168
6656
17708
4412
1688
1764
-13824
-17980
2336
12056
10928
8268
1924
-12332
-22220
-2348
14668
13016
5732
-6412
-9204
424
3900
-4988
-7648
6876
6876
-1856
4624
1396
-6784
-5748
-1380
412
7764
8408
-9588
-6304
9028
928
-9836
4456
1768
-6864
11172
5540
-16372
1092
9324
-9832
3748
9572
-7520
-2272
6044
-11288
-8
13960
-9500
4464
11112
-16460
308
3516
-16184
9868
18560
-7064
3128
1408
-20996
-904
4456
-2192
21868
2232
-10540
4428
-18876
-5140
11460
-2828
13244
11144
-8260
-5480
-13464
-8532
17136
-472
304
19112
-8884
-5548
-5184
-20592
15368
5432
4112
20340
-17996
-1376
-7788
-20196
18516
2956
14528
12464
-19688
-1760
-19000
-9840
20196
9512
21296
976
-20272
-16256
-19344
10104
17764
12012
17812
-5276
-19144
-18520
-15460
15316
18048
20568
5352
-21620
-15948
-20532
9392
19260
17340
15052
-18632
-16740
-21464
-320
21120
15636
19440
-14024
-18100
-21452
-2248
20584
18420
15112
-16428
-19740
-19216
8680
19672
19188
2156
-20528
-18368
-7328
20296
20392
-312
-19520
-16540
7292
24852
5956
-17376
-20136
-192
21308
19672
-5372
-19956
-18552
3156
21880
16260
-5528
-24552
-8296
18164
18812
-7760
-23048
-7768
17200
21128
-464
-21820
-16716
8568
23244
8004
-19040
-17540
11672
21132
-5072
-23552
-3632
20120
16844
-9700
-23620
-2664
21476
9376
-18788
-12308
13040
20816
-872
-23492
-12100
9604
12872
524
-788
10100
-3136
-23080
-8924
14460
20484
-380
-14636
4752
1004
-10104
-7656
7976
9768
-1112
5364
3508
-6568
-20740
-6824
18708
21300
568
-15004
-5920
-3324
-9088
844
16960
9416
-2988
284
-1008
-13312
-14732
4040
17512
6240
1084
4788
-6928
-17996
-9284
7328
18932
10464
-1592
-11820
-17488
192
9836
7892
7392
-2908
-11992
-3388
7408
4408
-5860
-3244
412
4084
10148
-4112
-12056
320
7584
-4208
-2012
9348
72
-6124
5296
-3624
-12772
10844
3364
-5308
10448
5176
-14628
-7492
5288
-3392
11760
10020
-13348
-4408
8068
-12600
-1636
15200
-5408
8660
4336
-19836
-2552
11072
-10948
2484
15920
-2344
6660
-4868
-22704
-1828
8928
4280
19684
-5008
-15880
12800
-14812
-8928
10728
-480
14068
3144
-10584
1008
-6908
-10052
11320
1344
1272
17752
-12900
-5540
2432
-19584
13180
2824
1204
21940
-19984
-36
-140
-20136
17564
-3404
10180
17504
-19228
-1168
-17080
-11412
19124
11428
21696
-1104
-20184
-12736
-21292
5268
20180
14460
19512
-8200
-20092
-18092
-15600
16696
16764
19324
8828
-20748
-16524
-21556
6348
20588
17060
16040
-17900
-16248
-21480
-1912
21488
16468
19016
-14880
-18548
-21944
-8
21056
18800
14392
-17904
-18048
-20060
7072
20768
19876
2020
-21068
-19500
-4440
20608
18532
336
-23320
-13908
10356
22144
7732
-17148
-22420
-604
18896
20604
380
-20452
-19824
716
21548
17212
-5464
-24512
-7596
18512
17904
-8396
-24696
-4532
17872
19644
500
-22480
-17544
7852
23272
10164
-15728
-20540
4488
23208
2592
-23280
-8712
18524
18404
-8048
-23244
-4880
22800
11416
-17504
-15796
11392
21484
-2884
-24124
-10412
17100
12252
-2208
-4776
8700
-1036
-22436
-9056
15500
23060
-4
-19196
1260
9292
-11604
-14004
6736
18200
-1688
-2848
12168
-4672
-19648
-12516
14612
23964
-1876
-18712
-1672
10316
-8092
-11092
11144
13840
-3788
-2856
5304
-5508
-19408
-3204
17412
12888
2892
-3672
-9192
-13868
-3264
8824
13988
8372
-2580
-11384
-19672
1828
17540
11940
2136
-15940
-10916
7640
9588
-4568
-8280
5012
8328
-2964
2908
-844
-13060
-20
3836
-460
5436
13072
-2564
-14180
520
56
-10304
4576
10616
-2720
13872
5836
-21020
-13432
1872
3792
9804
14636
-8532
-3068
2568
-18428
-2568
18332
-4848
3684
15372
-18036
-3528
2588
-14816
8572
18504
-3444
1056
-2504
-21768
10196
4992
-9700
21452
3032
-14524
2228
-13888
-3852
17728
-1012
10628
5680
-18000
-6380
-6364
-1884
22164
2428
-9932
11632
-11156
1684
-424
-21484
17812
2380
516
21976
-17508
-4372
-6904
-18788
21008
3908
13540
13280
-21488
-6512
-19000
-6728
20544
11576
20840
440
-19548
-13408
-21760
2428
20752
13512
19584
-3716
-19872
-16620
-18528
13336
19740
21372
4136
-21744
-16440
-20132
12196
18208
16944
14644
-19112
-16204
-22116
4
21684
18748
16416
-17756
-17628
-21856
3100
21204
20592
10400
-19932
-19240
-18548
12284
20432
20512
-2608
-20236
-18048
-7128
20892
18716
1176
-23772
-12560
13484
22332
2688
-18968
-20020
-428
21768
19480
-3088
-22928
-17288
7108
23292
13856
-11028
-22748
-8780
17036
20940
-4412
-23888
-8588
17748
20464
-1896
-23048
-16108
9884
23696
8748
-17472
-19360
10028
22024
-6736
-24400
-808
18996
17364
-6400
-25648
-4824
20532
11784
-19720
-11412
20160
15476
-11212
-23744
-3312
19724
8200
-12752
1844
17448
-5252
-21864
-8988
14028
21868
-5200
-21844
10628
14300
-11920
-18096
4868
21876
-4940
-10104
13104
3052
-21480
-11504
16476
22284
-612
-18780
-2372
6720
-10528
-6460
14012
7600
-2504
5116
2560
-15576
-17576
9564
18088
1912
-2608
3236
-3812
-14504
-9044
4476
18432
14212
612
-15324
-21160
512
10640
4496
11080
3976
-11016
-5936
1280
-636
-5300
6200
6016
-7188
8876
4316
-14340
-8756
10788
4920
-4784
8568
308
-6876
-716
-3836
-8668
7960
14376
-5816
1292
6044
-15544
-3884
4908
-4440
10836
10240
-15104
-3344
15908
-13232
-7088
13544
-9796
4676
20624
-11792
-19404
-3604
4716
20452
11116
-19688
24
4224
-23788
3752
15544
-784
16660
-2496
-16008
6872
-14784
-13316
12704
12956
20056
-216
-22392
-7040
-7888
-6088
20060
9876
-1660
11724
-17140
-6812
2612
-16768
21980
-1516
-10200
20540
2572
-3012
-20104
-16048
19888
2948
5988
21668
-12748
-10924
-20228
-9828
21388
10196
20976
-3852
-17552
-4076
-23236
860
17160
12348
21144
-3056
-20072
-17116
-18476
14184
18428
19780
8280
-21472
-15688
-21408
7804
21960
20928
8308
-21492
-12920
-21652
52
21824
17936
18896
-15796
-18268
-21676
-4432
21212
18064
18184
-14288
-18632
-20148
1228
21744
20480
2640
-20228
-20184
-4168
19412
19408
160
-21704
-13964
14244
24224
-5312
-17696
-18744
3056
20692
18348
1604
-23512
-19988
3972
22496
16420
-7416
-24016
-9104
16460
19848
-8472
-23560
-1464
21684
17592
-9156
-21032
-16272
7388
24288
12828
-11344
-21972
6088
19980
-7404
-23020
-2364
16904
21256
3240
-19680
-19564
2724
23564
-8212
-14012
12844
18072
-2940
-26264
-7908
17476
14228
-8444
-16420
7604
18896
-2016
-18708
-8188
20656
-1172
-20276
12288
17440
-5728
-18704
4400
15080
-7408
-4764
8368
-9644
-13760
11068
23012
6540
-18676
-15356
732
2228
-3676
8500
18152
3976
-10240
-8996
340
-12960
-11384
14768
22060
15016
-8296
-17064
-17500
-9204
9852
11600
13260
12372
-1620
-17144
-23404
-3704
19960
18440
-1160
-20112
-1628
17248
1512
-18840
-10884
17228
9144
-9208
7336
9904
-8532
-17904
-7256
11040
18764
3212
-21276
-5964
20928
5976
-21556
-7580
17944
-652
-4228
10028
-4088
-5856
-5240
-7580
17628
18344
-11384
-20792
-8764
7584
17540
14216
-18392
-5972
17652
-15192
-12248
12100
-1904
-440
7816
-2320
11720
3056
-23752
-17816
12024
18552
18140
-6336
-21256
8720
-11356
-14640
10960
8672
11940
1436
-2640
5232
-11348
-19820
676
3748
12348
24632
-2468
-16956
-15248
-11544
18892
-20
-672
23324
-17252
4908
5116
-26096
5360
-4376
8020
14864
616
8512
-22624
-21008
11172
13724
21292
-712
-20460
-10424
-14436
19480
9092
-6448
23592
-972
-20060
-21892
-5644
20032
12176
18900
2496
-19840
-18048
-19828
11840
20460
20616
9832
-21876
-15116
-21488
-380
21984
16964
21812
-12284
-21180
-22128
-9024
21924
16084
21768
-6388
-19516
-18048
-11420
18808
23008
5904
-20052
-18308
5220
25676
6832
-15872
-21116
-5320
16960
20792
8320
-16580
-20932
-8856
17224
22068
1844
-21936
-18264
8704
25404
10840
-14820
-23800
-5744
16396
18184
296
-24332
-4740
19868
16672
-8024
-21404
-16524
6284
23240
17776
-5800
-20596
-12116
16804
8848
-22980
-4568
18168
21620
-3956
-21308
-15916
11408
20972
-16304
-13320
17572
19380
-5116
-23692
-11152
20780
-1312
-14976
17452
18596
-2940
-22080
-17576
6736
23304
-1360
-19892
9664
22484
-2652
-18780
-17900
11952
9768
-14212
7616
20912
4652
-19120
-12496
6752
5764
-2916
-9396
-4356
11068
20468
5824
-15476
-17984
7668
240
-18528
9776
24256
12900
-13752
-16884
-448
4112
-13096
-4468
15072
15632
17004
-9852
-21832
-17700
4504
6200
1292
20924
14516
-10180
-21444
-8400
7628
-2248
-7708
7940
12692
17744
1232
-22084
-15488
2360
-3936
-204
22412
20304
-6276
-18920
-15288
-11172
12640
11980
-4160
7936
17452
1188
-16272
-16200
-14576
10968
9492
-664
21208
8632
-18516
-22608
2896
2676
8900
12088
-18828
6764
23212
-5232
-18012
-9460
-6916
1308
8840
11940
18464
-3448
-24640
1576
3472
-11560
13100
-5524
-11676
12880
15400
12636
-12280
-20940
-8956
-4844
9896
24748
14148
-14100
-9692
-11208
-2076
5532
-16268
10764
12624
13008
16676
-17880
-16660
-18792
-11328
19584
16992
21476
4716
-21064
-13104
-20628
-6876
20096
15460
20884
3832
-17300
-11796
-17968
-13312
16044
16876
16152
12872
-17312
-21000
-20780
9920
18568
18984
8080
-20852
-20144
-15220
16384
16500
19704
3492
-21368
-16648
-19312
11968
17832
15656
16804
-16800
-20652
-22504
2544
21556
16416
19796
-14876
-19000
-22496
-3444
21608
20484
12960
-16820
-21772
-10884
17048
19352
740
-22156
-13044
13392
21144
8808
-16736
-23492
-7572
17952
22712
7404
-18424
-22188
-772
22344
15268
-11388
-25000
-2124
17164
18856
3912
-21700
-17972
4568
21760
10276
-20364
-17228
11988
21472
6380
-18612
-19656
4664
24084
440
-23728
1184
22948
8900
-17836
-23552
2876
20036
16696
-8684
-22716
11928
17012
-14984
-20016
5472
22468
-1460
-17804
12084
17552
-9420
-25260
-10032
16200
22596
6760
-16796
-1348
4628
-13228
-15408
7968
23640
-2656
-14348
16492
12108
-16044
-25024
-6428
17784
18604
10128
-3768
-8312
-13744
-9676
-3892
5392
18216
16740
-10632
-23428
6828
20164
-5332
-22984
-5084
19648
16836
-13292
-15580
7492
14036
996
-11120
-3980
-5372
-4092
4448
15032
17332
-6484
-26592
-14560
12364
19984
1544
-6476
4356
-172
-5268
-13124
-9228
17340
17160
-16252
-9012
23236
7680
-16692
-22704
-1948
19584
18180
-2648
-19436
8916
9204
-20076
-12980
14552
14676
-4800
-10164
7840
17132
-7564
-26720
-9452
17552
19564
5640
-5868
-13068
-328
-1032
-16936
5836
25976
5224
-21004
-8944
15956
13264
-17116
-20888
8696
22804
10876
-10436
-19464
1112
9932
-15760
740
23224
8356
-16080
-18800
13008
19784
-10032
-24740
648
18740
16088
-4716
-26332
15336
5844
-15000
7136
-7724
17512
-3796
-24576
10720
17596
13432
-14700
-27112
5228
14044
-3784
-976
5540
21984
-1696
-19712
-17824
-13052
17420
9376
5948
19908
1644
-20984
-23240
-4024
20588
15740
-17428
-11648
20600
19620
-4728
-17840
-12132
-15912
2340
19656
15668
21248
-9148
-22800
-21268
-13148
22212
15528
21608
2140
-21364
-20176
-18356
14112
22800
21292
-3068
-20832
-12596
208
-4220
1276
19968
13776
-14516
-21488
15464
17456
-10576
-22704
-5120
19412
19624
-828
-26680
-12392
14900
22952
5924
-18900
-12844
-9704
4872
22364
14020
-11880
-24220
-2848
20456
15432
-13928
-22716
3416
25768
10744
-17604
-23112
-660
24212
13620
-15952
-17824
15572
19456
-10548
-23520
-8132
15984
14852
-7404
7768
12064
-15600
-24328
-6628
18620
20692
4644
-13144
-928
2144
-12352
-16164
3668
20160
15960
-15204
-2636
16960
-10156
-20292
-9588
19840
21288
-4072
-22620
-660
22364
-7144
-22120
2032
22608
10116
-20784
-14160
19024
14804
-16660
-19056
11108
23260
-2772
-23904
-3956
20692
2148
-16304
528
17568
4808
-19580
-13964
14668
21240
-5928
-23824
-3804
22512
8060
-22244
-4528
24744
6468
-18552
-17808
2116
21764
5088
-20632
3392
22660
-632
-22568
-15704
13532
22600
-5408
-21160
13356
17760
-11468
-19036
-8364
19256
15104
-19360
-2704
23920
1292
-20744
-19432
7572
22120
13904
-17184
-11756
19404
-5724
-22856
-640
18940
14756
-4732
-21432
5616
21176
-10112
-23340
-1268
23036
15416
-9928
-20464
3104
18260
-14124
-15732
17548
19164
-7980
-21696
780
22920
2524
-24052
-10180
16588
20304
-3880
-24092
1740
23332
-6092
-23116
-392
17872
13884
-15712
-15956
21944
13008
-15188
-18892
-2376
23836
5652
-25612
-740
18660
13568
-5388
-25324
11832
6944
-24348
4192
18160
17452
-4120
-30068
-10436
11792
18512
-4576
-6676
26204
-1740
-18160
-20180
-12200
14564
12840
8416
14024
7324
-18408
-25688
-15516
15752
24580
19836
-7756
-18144
-10784
-19488
8548
20908
22140
4940
-23232
-24788
-6180
16952
11196
8940
10416
-5468
-24144
-18232
10104
25196
17872
-10992
-22824
-19348
4784
17572
9148
17768
-112
-21492
-21356
1228
25064
9064
-20148
-12896
18244
20108
-6604
-24048
-17356
12696
20096
20164
-3892
-18276
-12584
-16808
10492
23656
9716
-21280
-9944
22968
10092
-16432
-23116
-492
22996
18004
-10104
-24484
2048
23920
184
-24128
-8264
19644
21016
-4636
-21140
-13216
15932
13784
-14004
-10924
13384
11944
-16092
848
19780
-6528
-22032
-8788
18988
20148
-8564
-21608
-1800
21528
7940
-14532
-15848
10316
17084
-18288
-9284
21268
14092
-14036
-23132
1460
23588
5044
-23236
-1748
23828
5036
-21068
-15860
13312
20872
-13260
-15844
20240
13636
-15348
-23324
348
23780
15984
-14876
-14444
16188
-5368
-20800
5132
21640
12416
-17968
-20752
7920
22616
6428
-21804
-17252
12824
21452
-6132
-21672
8924
22112
-9948
-20324
3428
16436
-2212
-19176
8060
23756
1776
-22488
-21200
4788
25368
12408
-7448
812
-6112
-15892
-14132
8600
24148
13132
-14436
-21944
14136
17664
-13124
-21012
4348
24896
4636
-21848
-13224
14936
21872
-8568
-11600
-3544
600
180
-9564
19464
17488
-12268
-21844
-8112
22276
12080
-21152
-7368
22116
11448
-15424
-23836
-664
19656
18472
-1476
-24900
1376
16192
-15568
-9456
19748
15096
-15708
-19976
3268
12400
11464
-2324
-296
2276
-19796
-14484
13028
24288
10404
-17824
-24212
-748
23428
13984
-15352
-19060
15644
18544
-12524
-19988
440
24092
-4676
-20420
14540
19696
-5516
-25884
-13232
15680
23484
7804
-20916
-672
8372
-19104
-13712
11744
22720
12836
-18292
-12152
16664
-6780
-20464
212
24092
17848
-12784
-20808
-2132
7180
3388
-4704
2960
19040
1412
-24692
-13776
14576
22044
-1352
-23336
-8804
21032
9444
-21944
-4564
23772
9216
-15052
-19768
4476
21072
-14344
-10388
21000
16504
-8212
-27312
-11336
13340
18656
-5260
-68
17700
-8372
-23072
-13088
13500
22236
4040
-23400
-1212
24392
-3448
-21948
-16116
11516
28896
11828
-11288
-12156
-8264
-14360
-4252
20924
22980
-248
-22956
-12744
18236
15464
-16900
-20032
7820
23248
5888
-22148
-4300
18156
-4684
-19400
3192
24224
3148
-22992
-11288
16336
20848
-4236
-25564
-8988
17972
17952
-10328
-21148
12404
19624
-8804
-15292
7088
6604
-18720
-5704
21204
19456
-6076
-26208
-15340
11620
25512
11528
-13684
-4556
-5432
-19668
-2352
17900
21348
2220
-24464
-11260
19060
15832
-12404
-22180
1880
24404
620
-22872
4508
24444
2776
-21232
-20172
2916
18520
2420
1596
17204
-2516
-24820
-18692
7704
23952
13120
-18580
276
10740
-16544
-15840
1388
24592
16884
-8904
-22008
-6216
22908
-1356
-22772
7764
21888
4264
-23332
-19072
11432
21236
18528
-10148
-16308
-14252
-14568
15020
20464
18940
-5072
-26528
-17992
6832
20964
7988
-16908
8604
19468
-13932
-15820
-20536
2140
20924
13632
17320
-6768
-17168
-18392
-13380
15740
25012
15248
-13448
-22428
-13424
11392
10916
-5012
8760
15728
-5296
-26092
-5716
22600
3312
-17968
1744
17856
-1980
-22332
12
24468
9088
-16040
-19932
1456
24140
4828
-22532
-4996
20916
11292
-19700
-19328
9484
21348
7552
-20192
-16204
13780
24276
-3644
-19020
-21200
2888
18648
15928
14156
-14716
-21208
-14972
10820
23688
1272
-22860
468
23204
4192
-17864
-21340
6296
21216
12868
-16884
-13076
21796
1984
-22600
-11392
13368
21880
-180
-19584
2692
15272
-1652
-19840
-13052
15484
17360
-6132
-3720
13740
-2464
-19540
-16048
9024
24296
15708
-10368
-19012
-16328
-520
17844
17628
8304
-13316
-22056
-8288
17368
20356
1088
-24152
-17944
10884
16108
17344
-8392
-9492
5976
-19316
-6240
15020
7480
-7504
-9372
16284
19296
-9244
-17632
-18724
-1052
22792
13808
-1044
-9168
-4828
5776
-3940
-10992
4336
2136
-3244
3636
17820
8716
-16476
-23092
-8900
16328
20928
10448
-14516
-11380
1804
-3012
-7340
132
10756
6240
7792
-1972
-8216
-20
-5852
-8868
-5736
8668
19420
12796
-11288
-15588
5544
-9828
-12936
11324
17624
14536
-12416
-27124
208
17452
16372
-1744
-18964
-4812
652
1348
776
11844
12776
-11752
-14852
-6936
10556
13208
-12044
-2048
11592
5444
-2376
-24940
-7476
17328
14236
11996
-6140
-20420
-7524
8208
9520
-7136
-7956
6260
12296
4596
-10812
3124
2236
-20000
-12160
14900
23576
13680
-10684
-16344
-13400
-12952
9676
16812
22272
4700
-19480
-19200
-16080
12368
21064
15600
-6496
-21328
-4412
14744
8116
-12088
-22488
2772
18184
13828
15140
-13640
-13032
-6512
-18024
1368
16968
18416
11096
-10972
-10356
-6540
-13840
-4140
14244
20236
12548
-10600
-19532
-18432
4320
21832
15884
-940
-21556
-12276
2736
16712
15148
-15860
-8064
4252
-11316
8996
8476
-5492
11404
-2476
-6540
-3516
-21012
5092
19416
19712
232
-18308
-16576
-12008
15708
24756
6372
-15692
-19884
-6304
13868
20096
2300
-22472
-8948
17836
14600
-12028
-22424
76
22408
15740
-9608
-22428
-10116
14536
20508
5480
-20092
-19728
6804
17900
17140
-5764
-23568
-16468
9380
17968
16508
2828
-19116
-20116
-9092
13664
20708
11408
-2528
-14972
-5112
-2180
-17392
6260
24272
16548
-9228
-22948
-18332
9760
19396
19816
2212
-21244
-15572
-16680
14956
11864
600
22448
-2488
-10548
-6904
-20056
-5572
8200
14824
15668
12024
-10972
-20344
-18756
-612
18012
19188
14012
-15424
-19960
-17044
6444
19560
18260
3808
-15936
-21252
-12092
15804
15624
13836
-14944
-15228
20448
-740
-10244
-12492
-4816
26172
11196
-9024
-14068
-9536
13044
-1800
-3024
18992
-6996
-18800
13892
12164
-7104
-6444
-14148
-5096
19312
5224
472
14880
-8880
-18544
-16420
5616
24028
17528
-6032
-22292
-19136
3844
16568
12204
4252
-1160
908
-9576
-17228
-13928
12696
22728
19500
-5012
-20296
-17660
-12084
11932
16368
12436
14324
-9056
-19368
-16324
-8680
13472
22172
17772
-9828
-20080
-18124
6860
9868
-1760
6636
14328
8688
-15000
-21124
-15116
13192
22296
18244
-9272
-21028
-20144
348
20172
11836
19968
-8952
-20784
-20472
-2296
18956
17968
12460
-18120
-18980
-5272
11380
21676
-2788
-22592
-7272
9396
22240
7108
-16620
-20732
-9108
17044
20736
11348
-10960
-22448
-11036
3608
7640
17984
8592
-380
-7544
-19660
-13884
3436
19284
18004
3900
-14388
-14408
-6036
1300
18296
8312
-18236
112
2048
3636
5608
-14056
2168
7548
2228
7204
-16012
-17248
10092
18664
12740
-12052
-24024
-3360
18128
18436
-1848
-16844
-12368
-4052
12888
21904
-1456
-18460
-16648
5148
22788
10228
-8292
-20356
-9076
9580
15456
11920
-12272
-21072
4364
23804
164
-19820
-4208
-484
16676
9960
-21272
-256
5024
332
9952
-1592
-12636
-12808
12140
22816
-5180
-10100
-13100
240
15780
-11408
-1876
20328
7364
-12340
-22344
-4644
14124
15520
6852
-12852
-3968
988
-4728
-8016
-3908
19952
10784
1868
-3472
-21812
-16020
6936
14404
10100
17820
-4160
-18212
-19160
-9064
18004
22224
12120
-16064
-25684
-8876
11968
11804
10884
10260
-608
-17548
-27120
624
17244
16152
9696
-16256
1672
6008
-13540
-17488
-1656
20840
20564
6348
-18124
-21060
-10944
10424
14780
17584
8184
-16220
-21432
-12096
9524
9612
15720
9068
-8156
-16472
-17312
6668
23468
10276
-9620
-21936
-8124
16332
18904
6524
-18064
-23184
2828
16672
18152
3572
-21592
-21964
2144
19156
19796
4144
-20436
-8856
1568
-636
-5328
-2156
9412
17960
10556
-13940
-21768
-13072
12508
25300
7808
-15896
-21928
-4428
17008
16500
1544
-10380
-13724
-3372
17284
10152
-4452
-11324
-20600
2540
16552
16772
11656
-12604
-16532
-19488
1296
21908
21736
2576
-21380
-19480
-1676
2692
9976
10396
13460
8588
-19048
-20224
-16204
12492
21772
19160
-6584
-21208
-20340
-2140
20320
17084
16032
-12360
-12344
-10272
-17076
-72
17440
17888
3736
5248
-5384
-16332
-17096
-9640
16364
15972
19304
-68
-21172
-21456
-4128
19928
22008
2388
-19212
-18352
-4540
22920
10704
-6252
-8612
-264
9480
-3544
-9284
-8848
2804
23060
12272
-13732
-17672
-11264
10364
20620
-10832
-8084
8232
7776
8156
-17456
-19420
2636
13668
17632
-2804
-8960
5668
-6468
-10944
-3076
708
14036
15836
-15600
-10844
11092
4256
-3548
-6460
-8952
-2592
12152
19796
3676
-17608
-21524
-2376
16788
21140
4844
-20544
-20108
172
20356
1528
-7016
7460
9452
300
-12088
-22684
-2548
18340
22000
7932
-17248
-21032
-12164
14352
21736
15368
-11924
-20200
-18384
5552
20776
17440
3712
-19360
-20808
-624
9688
8300
21960
-4400
-21276
-13708
-684
19648
17940
-5108
-17248
-16852
3032
21108
12808
-3960
-16156
-8276
5552
4800
1480
-896
344
4040
-7028
1624
11292
-3124
-18044
-9440
19204
20120
-1648
-16840
-21708
1976
19764
17824
2816
-21428
-18308
3976
20168
9028
-18864
-9232
18092
12860
-5092
-22360
-13756
14444
14112
-628
10792
3028
-20936
-20164
5668
20540
18296
-2680
-24584
-14880
5504
19488
8184
-7464
-11876
4572
17708
-4336
-19780
-14716
9624
24236
14956
-11800
-20200
-18576
6524
21556
14440
1056
-19740
3360
4600
-17496
-12920
10100
17220
20440
1044
-19272
-18152
-17176
11024
20320
18336
3556
-11380
-14944
-8892
-8120
-860
22388
19496
2684
-16472
-21408
-6664
7652
10324
10192
5812
2660
-10352
-6916
-14020
-8300
18416
21972
7644
-18748
-21196
-7184
9716
13444
18376
3620
-9644
-16516
-12788
616
-724
12872
7628
14260
5864
-19140
-20456
-11152
13528
24524
15640
-11592
-15776
-15580
-8160
9312
10824
19616
8512
-9464
-10644
-18492
-5064
7684
3572
15756
13984
-4612
-16020
-24108
496
19232
20148
9680
-18820
-13212
-12156
-4228
15272
10736
12144
2552
-15204
-3008
-6668
-12052
1628
15100
18432
3212
-11404
-22132
-8392
11208
16948
14188
-7688
-14076
-6948
-8576
3520
15540
12356
-1036
-9952
-13076
-6768
13768
11220
-2184
-5004
-7432
5576
8704
-12384
-12424
8476
15020
10788
-6496
-20976
-9900
7056
19020
15396
-7116
-17156
-19108
-1240
19236
16788
9320
-10208
-22436
-11912
11164
13856
7180
-6556
-9032
5004
8560
3240
-12576
-19880
2824
18284
18288
1780
-25348
-16616
10208
19432
9768
-17380
-18756
18372
14184
-6864
-12236
-15328
8968
23944
7444
-10052
-18776
-16992
8700
19044
19944
416
-20032
-11420
980
-4748
-4032
15724
21740
1548
-18600
-21336
-5204
19560
19812
1140
-22308
-12516
13056
18612
-5528
-22876
-3052
15268
14692
5052
-14556
-13180
-5420
24
23588
13240
-13040
-17332
-14356
15212
21268
3132
-7060
-21244
-9868
11568
17756
14372
-14448
-22480
2620
14336
11700
-15744
-14732
16840
15460
-6356
-23384
-7656
18896
19756
2992
-14204
-13436
-2912
-8056
5000
17024
18164
1656
-21216
-21268
-6752
18468
20172
8272
-5872
-11624
-15592
-13212
7276
17508
19384
7736
-14136
-20212
-14888
4140
17252
3404
-3316
21224
668
-18312
-19940
-9428
17844
23752
10644
-16072
-20472
-15256
12224
20384
18580
-3648
-21528
-19180
5520
7788
-3268
13504
16656
2340
-20852
-23192
-4024
16880
18864
12996
-8768
-19264
-10992
1988
7536
11976
1488
-10248
-596
10796
9228
-15412
-18912
2500
6888
12704
3580
5304
2060
-17656
-19892
-1200
19648
25076
2420
-15488
-13204
-7708
-2320
-3792
14444
17608
13280
-10036
-23028
-20912
7120
17812
16388
14376
-17308
-17760
-18928
5396
21548
21140
-196
-20900
-19296
-7112
17264
16532
8216
-10376
-3480
3004
-14676
-4192
9204
-3064
4308
12328
3880
-3600
-19528
-14060
16832
15476
-1444
-2092
-1492
3244
-10824
-17328
4376
14688
19852
4704
-15776
-19964
-12012
14784
25640
7480
-15836
-17228
-12176
11236
18492
4716
-3096
-10196
-10532
4100
16108
2684
-5204
-13464
-11704
9644
13940
13104
-1040
-19956
-12808
1060
15524
11408
-8064
-7652
3396
7684
3404
-13336
-17024
2032
17096
20864
104
-14288
-14916
-11400
7724
8476
17824
8156
-19552
-16116
-3552
14988
20528
-5008
-16844
-9116
2232
11280
628
-484
8076
5100
-16008
-18520
5264
20808
15824
-9324
-24220
-10536
13888
22832
9660
-14728
-20004
-13644
14520
15736
4420
-1332
-11532
4996
2884
-6972
-9752
-2012
11532
14740
5208
-11436
-16668
-10548
9636
22756
5324
-7972
-15468
-11148
14432
3952
5172
368
-9888
12284
-8760
-11144
5196
-3516
19832
9152
-20068
-11112
-4684
16484
20384
-8192
-18376
-14436
5328
22224
17028
-8084
-22912
-15484
3648
13220
17748
4236
-2020
-5396
-15416
-12108
-3148
17040
23240
3060
-19780
-20700
220
19468
18380
-2576
-23380
-15652
11052
19428
8484
-4724
-19888
-12748
14696
18824
-1420
-8528
-13276
240
16712
-6896
-6032
1364
10976
15840
-15160
-21784
-7192
11724
12256
17932
2104
-21780
-19712
844
24136
12240
-16188
-13608
16656
9728
-15912
-20216
4908
17352
19996
4504
-18684
-14904
-17940
7872
23236
21364
-2752
-20880
-17344
-12112
11076
14804
15632
15704
-10028
-19708
-17988
-12776
12492
17792
18276
11592
-14704
-15128
-16132
-13964
16076
20268
20736
-6288
-20336
-20556
-3204
20420
20408
9880
-18068
-22840
-12096
13428
13320
5832
4132
8532
-4764
-25604
-17344
11032
16448
17812
684
-15872
304
1640
-10768
-16400
11212
24056
11984
-9032
-21528
-19932
7824
17360
16000
13404
-14092
-15140
-18840
-1428
20100
6804
5344
-12028
-3184
19500
-3200
-19300
-11064
8568
8540
12960
292
-8912
-968
-12516
-3364
18832
12684
-11136
-19868
-3712
19872
16004
-5912
-24908
-9672
14228
20352
11364
-14208
-22040
-12224
12224
21960
13604
-11240
-22440
-12892
10768
23828
10352
-13520
-14288
-2416
652
-2924
1348
18776
14932
-10468
-20084
-15400
6040
22820
4892
-12360
-3088
5360
2484
-5984
-4208
6020
-8236
12228
9724
-15368
-7616
-6768
19088
17024
-12220
-21172
-8580
20300
18256
-2116
-16580
-14488
20300
4216
-24188
1944
15952
18488
-2436
-24428
-15996
6520
20876
17204
-7284
-20304
-17656
5012
23704
19076
-6416
-20488
-18056
-5080
17244
14404
7116
5716
-8108
-13380
-2592
-17236
1436
18208
21936
5892
-19232
-19112
-13744
14704
22060
15684
-11596
-17616
-18904
-828
21876
17264
7416
-17544
-18920
200
4664
2544
14680
1904
-2256
-6028
-16848
2340
4528
11300
14220
-10516
-8660
-7128
-5464
1276
14824
18776
-8156
-22836
-11152
11616
24372
5520
-18352
-15496
-5388
11920
13036
3704
-2592
-10364
-4704
7748
6076
-264
-14232
-11016
15016
19840
4020
-16552
-21372
-908
10944
19132
14340
-16204
-16220
-11196
-236
22008
15368
-8888
-19456
-2108
20144
4500
-19968
-13344
8508
24160
13788
-15028
-18460
-19524
6576
19596
15928
12036
-14300
-19588
-19968
3956
20208
15088
6168
-2728
-11364
-19624
-11568
10080
21736
18808
-6840
-19716
-8428
132
16328
-4816
-18436
7144
19072
16212
-10884
-20380
-17940
5192
21500
19916
-1592
-20364
-20456
-5492
19424
18248
1792
-6412
2900
-7164
-14736
-13988
9664
26020
17060
-10724
-18844
-18792
-4332
20832
9792
8936
5044
-8788
-10256
-13512
-7000
5648
9340
19888
1448
-7700
1216
-12104
-21240
1332
18612
20536
12348
-17644
-18652
-19524
2792
19868
14016
15552
-5840
-18192
-17624
-9068
11500
21544
16596
-9188
-22116
-15240
12144
17596
-3312
-9292
4204
18320
-11252
-14828
8336
-11200
-6448
14276
17700
10780
-15552
-22344
-12684
11204
16752
16228
3740
-16792
-20592
-9976
14428
22672
10916
-10540
-17768
-15900
6836
8960
13824
7624
-21116
7660
8964
-8168
-13696
-12620
18088
22304
-1860
-19952
-16516
16632
16612
-2276
-10880
-12076
20988
1292
-21792
-4032
11948
21388
2632
-20848
-21476
4700
20968
17708
-6720
-15748
-2472
-1576
3128
-4492
-7328
11984
14556
6444
-3152
-18104
-20392
2464
15184
8844
18960
-2500
-14616
-16528
-8920
15124
-5112
6324
23560
452
-12760
-22784
-9920
16504
20816
12988
-14552
-24324
-7288
9552
19356
2508
-10284
6208
2508
-1964
-11776
-16904
3776
14704
21052
8436
-16264
-17632
-18172
7704
23608
13000
-1840
-20124
-5600
8736
-1908
-8760
1524
17680
15756
-11136
-21716
-10448
2396
14780
14276
3896
-4032
-15132
-13372
15208
9944
-19368
-2948
13796
18656
3936
-22476
-15168
-3080
4708
13116
17248
6068
-15936
-24952
240
16596
2116
1716
-3004
9240
9820
-15660
-21316
-8256
16920
14492
18620
-548
-19540
-20652
-11228
18208
17920
19600
-7340
-21620
-19064
-4464
14944
15428
7876
1892
2484
-12188
-18128
-15476
12576
20224
20228
-2920
-21972
-21196
-4912
19600
16696
17696
-9376
-16940
-16704
-3352
7968
816
13380
18832
-1632
-16092
-22644
-7140
17592
21592
10472
-16040
-22252
-9384
14364
19964
10880
-13860
-24276
-3064
17372
19216
496
-22312
-13768
8016
10852
5292
-1920
7884
-4328
-23764
-1548
18964
18604
-4908
-24168
-15656
12332
16084
17796
-160
-18868
-19500
-9020
18472
21972
12452
-13884
-20300
-12856
-2324
13628
14032
18856
752
-18620
-17244
-16408
11372
22084
19320
-7960
-21080
-20636
3888
20128
18468
9964
-20184
-15952
-18728
7076
18372
21048
7364
-19260
-17528
-16620
10364
24568
8484
-14564
1888
1164
-2784
-8164
-19252
11476
20184
19668
-7152
-20476
-18908
-5888
20408
16272
12680
-5756
-21612
-14784
-112
8904
16880
11216
-276
-16444
-22852
5224
17420
14116
-6164
-22444
2848
20628
6232
-18672
-19420
8052
21728
9636
-10620
-14056
1516
440
5156
4180
-11128
556
9156
6596
1912
-11060
-17608
1152
18244
5432
7056
-5912
-13496
-4384
-7796
9688
8536
13892
4716
-14028
-16252
-14200
12092
23824
10456
-13568
-26180
-2968
16016
19072
10780
-16524
-21012
-13952
12984
20528
16676
-4448
-17944
-20176
-10240
18020
14824
20116
3116
-20176
-13768
-20536
1192
21364
18784
16412
-15576
-14836
-18252
-9376
18276
22068
14240
-15196
-21288
-17496
10516
21624
18976
-1512
-18424
-14412
-8884
3688
5140
14132
19848
-1796
-19732
-23172
-4604
17784
18164
15592
-11268
-15108
-17292
-6748
21100
20580
892
-16648
-19156
3144
14480
8432
7464
-10028
-7620
-8556
-6108
11456
10972
4068
-1368
-48
-4320
-22336
-4336
18012
18484
9132
-16064
-24400
-4440
17424
15800
7828
-13224
-19700
-2728
18248
14500
-12616
-17768
-2224
19196
19260
-10332
-18996
-15584
4784
22384
19468
-2876
-17356
-17028
-13296
9896
13832
18556
2512
-8164
-444
-14628
-14744
-3864
15000
21496
13604
-9616
-18040
-19020
-8784
19584
15984
21184
-6644
-19468
-17824
-12092
17068
19736
16792
-10252
-24404
-11244
14920
8184
-4864
-3752
12304
17124
-12332
-19628
-9112
4604
3548
4012
14532
16796
-9900
-20100
-20740
2964
20928
20944
3888
-20740
-21132
-10712
18536
16864
20256
-3320
-19336
-14268
-17236
5400
15240
15952
14456
-3880
-16836
-19480
-4904
23484
9668
-15864
-8940
9372
23276
-1972
-18884
-19840
-1608
19364
17888
11224
-15048
-21436
-17324
11344
16728
16380
11588
-19200
-20224
-13712
6592
15388
18744
9828
-13740
-18516
-19568
6264
21592
17168
-1240
-21224
-11276
14668
9536
-6284
-12476
-7728
14812
20852
1076
-18572
-23288
280
19196
17976
11760
-14448
-19876
-17360
3076
18032
7860
14380
2808
-16256
-4876
-20696
-6932
20576
16232
18632
-11056
-22048
-12992
-4420
16492
8400
14492
6100
-16420
-16872
-14472
9356
22892
14076
-10108
-25768
-6616
15996
21408
7024
-19528
-17816
-1056
932
7592
14896
-940
11172
-3332
-19500
-18884
-1276
20280
19440
9728
-17244
-22040
-11564
14596
20328
14872
-13492
-11580
-404
-17872
-3380
15276
17972
10196
-1412
-13144
-13636
-18852
4912
21284
21168
4024
-20576
-21280
-11948
18704
12964
20540
1264
-20896
-18812
-14904
16804
19204
19796
-7752
-21572
-20876
2048
21292
21080
4992
-20796
-18468
-16316
15568
17844
19040
4376
-19796
-12012
-20160
1252
21024
20832
5548
-17924
-20216
-4396
22628
13064
-14160
-14932
2752
17216
9976
-19928
-8688
2576
6760
9872
-7988
9472
-3136
-16172
780
1180
12404
10236
-13480
-18352
5032
21624
12412
-10804
-19940
-15176
4900
18580
18092
5084
-14696
-14988
-8208
8964
8592
-13516
1604
18748
10756
-4516
-19324
-21720
4776
19976
20200
8240
-19228
-16728
-12560
-3384
15384
13216
17996
2868
-21436
-19728
-9304
14580
25748
-140
-15292
4096
-3040
968
-14860
-8664
18124
19740
9388
-17628
-24252
-10032
17184
16044
19036
-4956
-20372
-17800
-5276
11316
9516
17036
-13400
8340
10284
-20000
-18044
-10984
18160
16520
20596
-4884
-21384
-19672
-11760
19592
18232
18912
-2408
-15944
-12820
-15452
-4488
11844
17408
21108
2228
-19908
-19216
-18376
10980
19200
15808
7704
-8536
-11420
-19056
-14404
12924
18792
20564
4880
-20284
-13504
-18476
1120
22012
23408
4960
-16608
-14608
-19696
1160
14624
12256
14704
4452
-7520
-20324
-15300
-1500
9916
18964
13272
-1604
-12324
-22188
-10488
13244
20044
17956
-11044
-15268
-4108
-2580
-2024
-7392
12656
19136
8256
-7844
-18488
-13912
-1940
9836
17240
17448
-10576
-24260
-13644
8992
18148
15196
-164
-18236
-18124
-72
19764
12968
-7132
-21372
4656
23684
-3320
-22564
-8432
12068
19848
9116
-13188
-20028
-10720
11172
22328
10408
-11064
-23328
-9292
13332
19132
4044
-7560
-2608
-16448
624
13212
4480
-1092
-17900
852
17564
16300
-7276
-18624
-20084
1416
20648
19304
12724
-18376
-18660
-20820
2496
19292
11100
19520
3936
-19820
-16940
-17984
-1084
20024
16328
20792
-6248
-20848
-18504
-15988
15132
16208
14448
15944
-13816
-18776
-21752
-3256
20824
19516
16452
-16264
-16596
-19060
-1072
22668
24440
892
-20200
-19544
-14792
16276
16372
18660
2268
-11860
-9312
-14704
-15156
7692
23368
21968
-1292
-19660
-18016
-9772
17844
8508
400
-2960
6780
9696
-9256
-18576
-12912
11580
23044
13912
-11940
-22784
-15744
10716
15360
15984
8244
-17492
-19416
-8892
12492
22420
3864
-21052
-14324
5600
23020
10956
-14444
-21108
-9904
14084
22284
13980
-13160
-19412
-17192
2868
19272
12528
-4048
-2052
10068
-12420
-20236
-2124
12200
21996
6652
-20516
-19716
2252
20644
15868
-9180
-22832
-7692
19192
12764
-4360
-3316
-14748
1272
11960
-5828
1028
10556
5052
-18552
-14496
7116
10192
12836
7220
-6948
-9708
-14052
-13336
12288
19936
19040
-6448
-20308
-18472
-4280
19544
18116
9640
-10896
-19180
-16548
4756
17640
19668
3680
-18140
-19720
-6384
17684
19380
1624
-23024
-14068
13920
19812
5608
-15896
-19760
-1304
14324
10724
6192
-5256
-9332
-3696
-4164
5324
3720
-6792
5832
16008
-1000
-13288
-21708
-252
22164
19368
-236
-16940
-14916
-11284
9448
24248
11008
-11984
-19840
-11668
16348
22240
1316
-13844
-20500
-4796
11240
14764
18920
-6592
-19940
-17384
320
23008
17156
-4648
-21380
-17664
6372
15776
16356
784
-12008
-200
-13376
2156
-1152
-7128
23444
9276
-5720
-6292
-23932
508
17864
2200
14064
-3572
-18760
-3904
3288
16060
2844
-25052
-8228
15232
17928
14728
-12100
-16400
-15796
-10344
17420
19080
18448
-8124
-19824
-19432
-4860
19380
16728
17492
-12388
-20340
-20472
-1108
20368
16084
19056
-11236
-16068
-10400
-20360
8868
19308
19100
7916
-20784
-24888
-6500
16184
18480
13652
-1604
-16568
-13684
-10596
-6988
17912
17288
14632
1336
-17676
-17244
-19648
8384
21660
20740
6696
-16708
-15912
-8712
-8400
3776
18280
18536
11300
-16984
-16660
-21316
-1724
21572
15668
19920
-12948
-18580
-21108
-3364
21312
20832
10504
-18380
-25068
-10888
16144
19268
16712
-4552
-18324
-14616
1868
-3156
-2272
18060
15268
3544
-16896
-7724
5004
-5080
-11724
-884
15524
24588
-4
-18380
-17064
-16412
14504
18220
19572
-2712
-21564
-19524
-3100
21152
22088
892
-17840
-15068
-11480
17908
22272
-4604
-20384
-9996
18820
19836
-7432
-12888
-18612
-1600
24520
3260
-4440
-1748
-3564
10572
3088
-13468
-19556
2508
19204
20828
64
-20196
-21068
-2420
19472
19568
7544
-16412
-21180
-14104
12160
20180
13508
2648
-10996
-13096
-18608
-3640
19164
21960
9332
-13460
-16216
-16052
528
18596
10580
4312
892
-11380
-21244
-812
20736
13940
-1648
-19364
-14688
10232
23192
8740
-13180
-17004
-16880
7176
15780
8004
17928
-5212
-18264
-17416
-6964
22588
22400
-4928
-18628
-20104
4560
19852
2552
14804
-6820
-11468
2884
-23808
-3000
17460
16528
14148
-12224
-24168
-11356
11436
21420
11084
-13464
-22504
-7812
17944
17848
3232
-7864
-15852
-4068
2496
4788
2744
2096
15380
-2064
-24012
-13088
12780
22340
11292
-13428
-21668
-6108
3316
6736
11348
18144
516
-17936
-17268
-14024
10036
19268
19296
80
-19952
-18280
-6868
16356
22104
4516
-14212
-13820
-7040
12944
8444
-5068
-7968
3616
14952
-6552
-11876
-1012
12664
9836
-14560
-13916
-60
6800
20028
9004
-15384
-24372
-4656
15328
14804
18080
-11720
-13856
-10148
-19176
13560
16936
19524
7392
-20788
-19276
-18100
10532
18252
17432
13264
-16864
-14764
-17756
-8736
16836
21412
18200
-9544
-19020
-17160
1348
4764
4636
18384
8160
-5148
-17932
-7424
-96
6152
9024
4340
-4044
-17804
-1284
21320
12548
-9428
-11288
-12144
-2064
11720
9004
13128
-6808
-26300
-2416
11720
14044
13200
-16860
-22352
644
12684
22152
2312
-20364
-12524
-8780
16832
17832
-3620
-8612
-14748
12376
18344
-11884
-10284
-7732
1428
12660
984
10820
2392
-22472
-11696
15336
14148
-7648
-8664
296
3080
10744
3696
-12252
-8548
-6240
8132
12000
-148
3224
-2184
-3432
-1904
-15244
-6304
11728
19452
17840
-11244
-17004
-15456
-13288
15036
17184
19600
-48
-21128
-22132
-6516
18208
20820
15088
-10596
-16708
-11540
-14680
3988
19548
21024
10376
-14956
-20304
-10444
-288
2484
11004
16636
15564
-13368
-21352
-20372
540
22904
16872
13932
-12944
-15228
-15228
-14952
14880
21460
21304
-2244
-20932
-13856
-17720
7716
17628
15712
13964
-13828
-21840
-17972
8980
23036
17132
-4972
-17300
-17852
-7492
17240
17976
12464
-19308
-18924
3924
15456
13744
-12676
-12888
-7352
348
15040
18916
964
-17864
-24144
-2768
19104
15680
17216
-12356
-17836
-19824
-3608
19772
19348
14804
-15628
-17536
-14016
3712
10136
14232
8652
-22216
824
12592
-12668
568
2980
-8496
6308
5320
7568
3468
-13588
-15260
-2412
11356
15728
8880
-15280
-11968
2932
9724
8108
-18640
-13152
12136
23784
5148
-17468
-23544
-2572
18600
20744
9984
-18984
-21348
-16924
11748
18848
20152
7456
-15888
-11616
-10420
-16176
3488
21684
21176
5680
-20220
-24756
-6684
18272
19360
13208
-15036
-8048
-5164
-9004
-596
-4176
12688
21220
7320
-12792
-23860
-16012
13328
18176
15356
4980
-13388
-16012
-15024
-1820
14592
21784
9948
-15676
-18020
676
9280
-5044
-7060
18100
12744
-8456
-16948
-12388
6656
17084
16680
-7836
-21776
-14256
9220
22304
9656
-3808
-19068
-16256
4636
13984
19900
2512
-20852
-19312
4888
20488
5804
-12184
-13112
14632
16660
-5552
-12932
-13068
-5220
7708
13024
20648
116
-20232
-20780
-5084
18892
17860
6620
-12532
-21696
-1852
20972
12664
-14304
-19620
3656
19180
15452
-9492
-25356
-10236
18020
6376
-120
19096
-2136
-16712
-18468
-6552
21444
23100
-1272
-20328
-17560
3796
9448
8740
7344
-648
5324
-16056
-21420
10440
8208
7516
5488
-4804
4788
-13892
-152
9832
-17960
-1084
10384
16716
7552
-22092
-17988
3600
20676
18028
-10456
-15440
-10072
-10140
11480
17232
18320
-3308
-18304
-21392
-7212
18996
16276
16524
-11132
-24348
-11076
6552
18508
3152
7052
2916
-19216
-16444
-4260
12808
14392
17960
612
-17756
-19732
-15628
16512
18100
20648
-3672
-19548
-17912
-12972
18296
19312
19880
-11380
-18952
-20340
-3740
20488
15480
17800
-11988
-22868
-18212
4700
20436
15176
-5476
-1848
1616
-11244
-2060
-13964
-4716
17080
19348
16112
-13084
-22120
-14364
-4372
10492
13812
13672
9824
-4932
-17268
-17132
-15472
11960
23240
20584
-1128
-17820
-11212
-14972
-1832
12748
23644
11388
-14704
-21708
-13632
14040
20604
8580
-12872
-20876
10004
18724
-11408
-22636
3024
18492
21768
852
-19692
-16788
-16952
10352
18480
14796
13028
-8276
-19944
-19284
-4332
9088
15540
14420
10364
-6832
-20240
-21532
-3468
19316
17628
12852
-6808
-21724
-4060
16540
-14376
-13024
12892
20668
11656
-15376
-24420
-9160
16588
21724
13024
-15744
-17200
-20128
2464
20940
16332
17788
-14004
-19784
-18120
-5996
14864
11980
15356
11232
-13492
-25788
-13128
13116
22128
11664
-13684
-22732
-5216
18368
19920
-852
-13796
-20208
-5788
14008
19156
15780
-12696
-20256
-15564
3276
21852
17184
-3772
-21884
-7916
14384
3800
-15324
-1932
19060
7936
-13540
532
6184
-6664
-18680
-1984
17936
20748
6252
-17532
-20312
-16160
12584
16036
14104
14616
-14464
-18848
-21928
1052
21824
19740
13844
-17032
-14484
-17536
-12040
18764
18552
20212
976
-19808
-14908
-21032
1896
20252
14788
18612
-2228
-19396
-13652
-20152
6412
20708
21040
6912
-20604
-21868
-13080
17568
16664
20292
-1508
-21144
-13540
-20464
9736
20308
20048
11976
-17836
-15252
-18476
-10200
17652
16360
18120
8404
-18344
-18420
-20836
1304
20604
12952
20664
-5352
-19220
-18372
-13644
15620
20660
15912
-8852
-23268
-12068
13180
21792
1176
-21080
-11320
14088
11112
-3124
-15552
6380
21012
-5260
-17488
-14236
7564
25212
4716
-18368
-15852
2412
22668
16072
-12436
-18416
-11356
-4288
14012
15092
10900
4560
-13436
-20368
-16768
11800
20684
19612
-4296
-20648
-19792
-2208
19760
18332
7376
-18932
-18624
-2560
18788
14216
-6224
-8932
-14172
-5188
15112
17400
8048
-10564
-19276
-17308
8700
22156
16640
-1572
-18356
-14944
-7692
6992
13916
13584
5572
-9824
-21572
-8912
10972
22220
7856
-14428
-7032
-14388
-3220
14476
6132
17532
3096
-20940
-17232
-4644
11008
19564
5284
-17028
-7908
13912
11500
-12444
-18548
-5528
9952
20616
15752
-12924
-15708
-9428
-7140
19884
10192
-10132
-6368
-1420
16984
9380
-13644
-22632
-5172
18644
20368
5444
-17568
-21940
-1088
14868
11116
4632
-15196
-124
5132
1964
6128
-12844
-9980
-788
13884
16816
-15572
-12456
7780
14348
3916
-17356
-15640
-1164
15596
21436
2508
-15712
-17104
-7540
21664
16600
-12156
-18028
-7580
11360
17668
5736
-5240
-4192
-2128
-14352
-15464
10620
19448
10740
7456
-8696
-18388
-19812
3344
19880
20592
4004
-21060
-19696
-3240
18048
17336
3884
-21136
-17376
7240
20160
16492
-11536
-18780
-19644
6868
18868
18076
9596
-19500
-18596
-18296
13036
18120
19832
1792
-19948
-18116
-13068
16404
21540
13308
-11992
-19680
-8344
5592
15064
10812
-13320
-17844
3696
17912
14828
-9064
-22280
-11420
12592
23364
8088
-16824
-20300
-8484
13416
21180
14100
-6048
-16380
-18004
-13964
12268
16092
12652
17168
-10280
-19500
-21056
-5312
20824
21224
13784
-17208
-17436
-20204
2864
20032
14044
18776
-12944
-17156
-20396
-4324
19492
21752
9144
-17584
-22636
-11112
16824
19256
17900
-11932
-18472
-19564
-3040
20204
17960
13360
-15592
-19556
-12592
12652
24244
740
-20200
-14996
4108
17204
15756
912
-15492
-14968
-560
4600
7224
2060
-8416
11348
18112
-8680
-19832
-17532
88
17340
12392
11984
4520
-13452
-17704
-17352
5680
22020
10444
-3128
-12868
6796
9100
-11676
-20044
-2564
17884
22540
7344
-18064
-16272
-16716
6840
17216
18716
5652
-20652
-21884
-3044
20460
20760
4556
-19056
-14840
-7792
-2400
12892
16236
15344
-7612
-24452
-3148
9280
8004
-12776
-11280
13060
20404
7096
-16952
-23804
-7352
17816
22540
14020
-14812
-18828
-16864
-4656
14236
12696
14960
11112
-7736
-18180
-19588
-6364
11532
9768
16708
13952
-13692
-21688
-3264
-4104
3996
15512
3020
10548
-1512
-18960
-18808
2284
19928
21396
772
-20864
-21660
-6540
19036
12428
20216
-408
-20016
-18344
-12768
14764
19928
3364
-17308
2968
22716
-4320
-17636
-21012
-3316
20440
13832
20008
-6924
-19172
-17592
-12232
15628
22204
15692
-12088
-20304
-12464
12832
19368
-11620
-16100
9080
20192
2324
-13372
-7896
-9156
-2256
11328
18360
8032
-16408
-20596
-4192
12560
22464
8256
-16584
-22212
-11776
13820
17364
13624
3696
-8868
-16700
-21556
1304
20788
8984
6088
6440
-5400
-10016
-18776
-10432
15632
22520
8144
-22704
-1104
18472
-12992
-19064
-1536
17344
18212
1688
-16124
-18456
1968
24164
10768
-16320
-19252
-5572
11832
10752
17088
4392
-20996
-21692
-2016
19088
15968
-2524
-16080
-4856
16056
10608
-18240
-21500
4440
18892
7480
7980
1340
-12936
-18716
-9700
17928
21244
540
-20016
-11800
5800
17940
14180
-11692
-19992
-15488
9284
19080
19652
2440
-19944
-14360
-17964
4024
18636
21556
10336
-15532
-12396
-6464
-3048
-11288
4020
20492
20808
1960
-19484
-14416
-18592
6004
18992
20464
4732
-20188
-18724
-6216
21748
18716
-6156
-17536
-16096
12716
18696
-9872
928
5076
-7228
-4304
-616
9064
1828
-15152
-4280
15308
18092
-2792
-22020
-18184
5252
20336
9936
-2860
1080
-4892
-7592
-3700
-13324
2872
19964
8580
-8844
6316
4348
-15880
-20252
-696
21316
22368
2352
-18308
-16648
-9756
20412
4240
-17544
7120
18980
13716
-11824
-15124
-7732
-16808
6212
21288
22200
-2436
-19072
-19480
-7572
18056
21868
11404
-17240
-16236
-19160
6156
19432
18912
7868
-19280
-19448
-16360
14696
18728
18652
1092
-20824
-19288
-12044
10740
14452
15480
14668
-10756
-18572
-7892
-8820
-1960
14032
19144
3872
-6904
-10044
-7824
8276
-4660
-12208
11920
11588
8612
-7056
-16936
4700
7664
-564
-14036
-7000
17460
13216
-820
-5208
-8416
-9220
-4116
13992
18288
-11456
-20924
-8
18340
17128
-7172
-22076
-15992
9556
23968
15872
-8356
-19264
-9264
-3240
4980
7488
-804
10640
16688
-7916
-14756
-20168
-6784
17200
19068
14108
-11720
-24096
-12968
10544
19956
18548
-6584
-15616
-12156
-17492
10412
19380
20432
-32
-23208
-22344
-2180
18924
14896
14792
-3764
-15736
-15104
-17720
8264
20948
20756
2512
-20876
-18572
5916
8672
-13860
6648
15928
9204
-4232
-7760
-7024
-18708
-316
25004
16780
-10968
-19108
-7120
16600
17700
-12764
-22936
700
19280
18892
-3308
-21100
-18088
2288
21592
12536
-1624
-8880
-16032
-8040
14652
19732
2992
-19572
-19344
5376
21756
14316
-10660
-15808
-7168
5588
17556
1232
-19096
-14376
15728
16424
6996
160
-13008
-18892
-14272
15400
20024
19228
-1596
-19804
-17300
-16744
9812
16420
16904
14192
-12448
-12648
-2856
-9580
-14816
4036
18292
15396
15348
-11296
-20604
-20444
1480
20768
21208
1860
-19736
-17452
-7484
22560
21772
-6912
-16976
-5500
6312
-1628
-9728
5596
9556
18916
1168
-19880
-17148
-11852
15888
20208
13548
-3348
-16764
-20612
-10784
15508
18292
15244
4032
-11400
-15552
-17804
-8328
14028
19220
20348
-1420
-14108
-8032
-16528
-15292
11780
20352
19448
9620
-18868
-14128
-17676
-7712
16312
18628
18540
-6720
-21340
-18192
2900
23036
12588
-12856
-21472
4060
21516
10552
-13140
-20044
-5228
9740
13272
13012
-3592
-21556
-10860
15856
20008
-3964
-25276
-12324
14428
14556
16424
-1584
-19512
-19252
-3412
23444
18996
-5304
-17856
-16284
4160
25412
13152
-13036
-21900
-11488
12840
13700
-656
17308
648
-21716
-18408
-6636
16500
19096
18148
-8112
-18260
-15896
-15604
12332
18432
20132
5608
-16464
-10104
-12940
-11144
10044
24320
13128
-14560
-20440
-4952
18908
16184
-9088
-22216
-8712
16708
21084
3924
-16572
-12600
1184
3588
144
1000
-1544
8152
9988
-4648
-5808
-2772
-13988
-7864
18060
23960
220
-20280
-9360
-7196
2612
18240
7148
-876
-4600
-11124
-7632
-336
14444
16052
-4232
-20520
-7884
11828
1640
-6076
11000
17732
-8352
-21672
-15228
7908
19392
17156
716
-16620
-19080
-13256
14740
19528
19432
-6384
-19352
-14956
-10312
15576
20800
9984
-9788
-22052
-9788
13896
21072
5328
-20660
-21536
3512
16892
15540
6312
-5880
-9992
-19652
-12300
12048
16340
19120
6868
-15868
-19308
-10060
8332
3100
-432
10136
14224
5184
-12064
-18684
-19020
8376
20220
14440
8452
-12152
-19964
-17540
10796
20672
8372
864
-7232
-8216
-16208
-3708
16112
16448
1776
-9656
0
3324
-15124
-14568
10480
20732
16416
-11124
-24692
-13424
9180
13720
15044
11708
-15116
-23848
-11372
14580
21828
7648
-16828
-19356
7724
21064
-1892
-20548
-6720
21044
16288
-13128
-17904
-2612
19872
4920
-21328
-4280
7876
18960
10472
-19524
-5180
-6192
-14536
10700
15348
13840
-5268
-12580
6792
-8400
-16724
2736
17132
16224
-6468
-18644
-232
17100
3960
-20624
-12156
8172
16540
2372
-4660
14132
-4276
-20172
-9004
-212
8004
13708
6016
-1236
2152
-5228
-20108
-11132
15252
24244
10244
-17664
-19528
-8204
5048
14312
13036
10044
-9792
-22192
-11644
9888
23060
5412
-20036
-12492
13568
17140
-9220
-20344
-2280
15560
18796
-296
-18000
-5892
-2380
-7488
10100
24308
4756
-19192
-22948
-5588
18960
13288
9384
4896
-13128
-19292
-16456
9332
20196
20372
1240
-21436
-19404
212
10488
-780
8964
18488
-96
-24580
-11496
8504
5360
844
1084
3980
2736
-6560
-7456
1744
15088
1424
-21936
-8396
18320
21640
-3176
-20628
-16212
1336
14448
17792
4644
-17912
-4400
3956
-14416
-2044
19744
12296
-1100
-10452
-15064
-9004
6544
22068
15244
-14344
-18408
-7136
556
17164
14096
-13844
-5556
17024
-7836
-22980
-664
8064
10756
15448
-480
-6632
-7796
-16924
-6364
12036
22104
7340
-21308
-14576
14356
17508
-8196
-23956
-4268
15660
20540
10676
-15556
-15472
-18348
-1624
17260
17744
16612
-9148
-23484
-13280
11764
-1604
-736
20252
14368
-11360
-22868
-16152
5768
17688
19276
10556
-18088
-16352
-18600
4368
17600
17724
10748
-18296
-25476
-6220
17928
18808
10804
-7452
-12752
-18176
-9376
10044
12844
19724
-5308
-9428
9256
-11148
-20572
-2732
17312
22552
880
-22644
384
11708
-13968
-13704
8844
12912
12716
4840
-16004
-13732
-1416
1736
7388
10844
5312
-14848
-17208
11272
20408
2936
-19216
-10956
7028
1768
3780
10928
6336
-12368
-22460
1168
21068
17004
-6068
-23524
-14892
10316
19848
10304
608
-16564
-12000
8728
-7176
-6000
19700
19460
-7140
-19896
-20072
3672
20936
19372
4208
-19112
-19072
-10392
13020
9344
12608
5036
-12628
-372
2564
-4420
-15500
-6260
18940
6816
-2972
11096
2752
-8076
-21008
-15724
14828
18048
16044
520
-15724
-11184
40
-2276
-9560
6864
21764
17336
-12488
-16820
-17880
-5372
17676
19840
12496
-14736
-22736
-10408
14116
20492
8732
-13340
-23464
-2100
10764
16208
9628
-10704
-9472
-12700
-868
17688
12892
-4452
-21588
-7572
17716
17804
-5428
-20228
-572
14320
-11236
-11720
17656
19296
-1428
-12412
-10708
-17796
2204
17920
18992
9912
-15732
-20884
-17388
11332
21092
19388
484
-18092
-13464
-19532
2480
19728
14436
10148
24
-12908
-22112
-1060
14052
-4192
-2936
13392
18760
-7176
-21776
-17624
5040
21364
18760
-2476
-18276
-20260
-4832
18188
18196
14744
-13136
-23160
-12460
7776
7960
5972
21076
1936
-18924
-21608
-7620
18604
21036
4800
-17160
-18540
9468
20320
-13428
-18780
9500
25612
7140
-16980
-13644
-14052
2632
20496
19292
-2036
-22616
-18992
7676
18772
12728
-2860
-20936
6196
2624
-19888
6772
18148
8744
-84
-14464
-10032
-7244
1884
19848
-1220
2464
11572
-13416
-22220
-8020
19252
25084
5548
-15292
-10484
-13824
-12884
14028
21084
20784
-6072
-20680
-18780
-7476
16016
15204
8776
-4020
-5576
-4244
-5200
-6108
-720
6956
11456
-4012
-3444
13528
-9268
-21772
1892
21444
14312
-12464
-25244
-3736
17588
20288
3344
-9484
-11600
-17172
-84
6692
10832
18688
-1120
-11156
-3528
-3920
-12204
-6336
17420
12708
-3604
172
-92
-5480
-2332
4864
-12788
-13028
16452
19924
5776
-6768
-11652
-17440
-7816
14640
23808
9512
-19972
-8264
-192
-13344
5056
20360
13088
-9168
-22556
-8992
17732
21812
-3724
-20324
-16596
4968
20456
4328
-6160
10360
1028
-20456
-15856
4676
16356
19840
-656
-18352
3684
-6536
-19492
5784
18840
21652
-364
-19768
-15488
-12920
11208
21420
4604
2220
-4252
-20588
-8096
13564
20100
-5400
-24888
172
20016
13764
-8636
-20152
-2408
13852
11560
-10052
-21860
2832
19992
5812
4548
264
-13460
-20200
-7792
