
[2019-09-20 13:22:33.141] 
[2019-09-20 13:22:33.141] Receive beacon_request
[2019-09-20 13:22:33.141]     ->form: 565114FFFE020000
[2019-09-20 13:22:36.183] 
[2019-09-20 13:22:36.183] vt# 
[2019-09-20 13:22:36.402] vt# There is no LBS route information, Drop Beacon_Request
[2019-09-20 13:22:46.230] Update D:0000 O:011F  seq:565 to RREQ History[24]
[2019-09-20 13:22:54.716] ifcond fig
[2019-09-20 13:22:56.744] 
[2019-09-20 13:22:56.744] Bandplan   : FCC
[2019-09-20 13:22:56.760] Device     : LBD (FFD) (start time 629 sec) AC:50 Hz Pan 0x94E3  Joined
[2019-09-20 13:22:56.760] Short Addr : 0x01C5 (RC_COORD 0xFFFF)
[2019-09-20 13:22:56.760] Extended Addr : 0x8311 39FF FE02 0000
[2019-09-20 13:22:56.775] 
[2019-09-20 13:22:56.775] Routing Table : [000]-[511]
[2019-09-20 13:22:56.775]                     Dest   Next_Hop  Route_Cost  Hop_Count  Weak_Link_Count
[2019-09-20 13:22:56.775] [001](65529m39s):  0x00F5   0x00C4     0x0044        2             1
[2019-09-20 13:22:56.775] [002](65529m39s):  0x00C4   0x00C4     0x001A        1             0
[2019-09-20 13:22:56.791] 
[2019-09-20 13:22:56.791] BlackList Table : [000]-[127]
[2019-09-20 13:22:56.791]                     Dest
[2019-09-20 13:22:56.791] [000](00003m24s):  0x0195
[2019-09-20 13:22:56.791] [001](00004m41s):  0x0000
[2019-09-20 13:22:56.806] 
[2019-09-20 13:22:56.806] BlackList History : [00]-[127]
[2019-09-20 13:22:56.806]          Dest
[2019-09-20 13:22:56.806] [00] :  0x0195
[2019-09-20 13:22:56.806] [01] :  0x0000
[2019-09-20 13:22:56.806] 
[2019-09-20 13:22:56.806] RREQ History : [00]-[31]
[2019-09-20 13:22:56.806]          Dest    Ori     Seq
[2019-09-20 13:22:56.806] [00]     00f5    0000     23747
[2019-09-20 13:22:56.806] [01]     0177    0000     23756
[2019-09-20 13:22:56.822] [02]     0000    00f5     389
[2019-09-20 13:22:56.822] [03]     0000    0177     597
[2019-09-20 13:22:56.822] [04]     013f    0009     219
[2019-09-20 13:22:56.822] [05]     0000    013f     476
[2019-09-20 13:22:56.822] [06]     0000    00e6     2115
[2019-09-20 13:22:56.822] [07]     0177    0035     2617
[2019-09-20 13:22:56.838] [08]     00e6    0000     23755
[2019-09-20 13:22:56.838] [09]     0035    0177     595
[2019-09-20 13:22:56.838] [10]     0000    00b2     3668
[2019-09-20 13:22:56.838] [11]     0130    0000     23751
[2019-09-20 13:22:56.838] [12]     00b2    0000     23752
[2019-09-20 13:22:56.853] [13]     0000    00c4     422
[2019-09-20 13:22:56.853] [14]     00c4    0000     23753
[2019-09-20 13:22:56.853] [15]     01bd    0038     1342
[2019-09-20 13:22:56.853] [16]     0038    01bd     645
[2019-09-20 13:22:56.853] [17]     01bd    000b     679
[2019-09-20 13:22:56.853] [18]     0000    0028     2005
[2019-09-20 13:22:56.884] [19]     0000    002a     4596
[2019-09-20 13:22:56.884] [20]     0028    0000     23757
[2019-09-20 13:22:56.884] [21]     0172    0000     23759
[2019-09-20 13:22:56.884] [22]     011f    0000     23758
[2019-09-20 13:22:56.884] [23]     002a    0000     23760
[2019-09-20 13:22:56.884] [24]     0000    011f     565
[2019-09-20 13:22:56.884] 
[2019-09-20 13:22:56.884] Neighbor Table : [000]-[64] TX Use Neighbor table
[2019-09-20 13:22:56.884]       TMR/Neighgor   Dest    LQI  Mod(expect) Scheme    ToneMap    TXRES TXGAIN Phase
[2019-09-20 13:22:56.884] [000](000/255 min): 0x0176  00/44   0/0(0)     0/0   FFFFFF/FFFFFF  0/0    0/ 0   0 FCC
[2019-09-20 13:22:56.900] [001](000/255 min): 0x014C  00/54   0/0(0)     0/0   FFFFFF/FFFFFF  0/0    0/ 0   0 FCC
[2019-09-20 13:22:56.900] [002](000/255 min): 0x0110  00/24   0/0(0)     0/0   FFFFFF/FFFFFF  0/0    0/ 0   0 FCC
[2019-09-20 13:22:56.916] [003](000/255 min): 0x01A7  00/1C   0/0(2)     0/0   FFFFFF/230900  0/0    0/ 0   0 FCC
[2019-09-20 13:22:56.916] [004](000/255 min): 0x01AD  00/20   0/0(0)     0/0   FFFFFF/FFFFFF  0/0    0/ 0   0 FCC
[2019-09-20 13:22:56.931] [005](000/255 min): 0x019B  00/3E   0/0(2)     0/0   FFFFFF/AF99CD  0/0    0/ 0   0 FCC
[2019-09-20 13:22:56.931] [006](000/255 min): 0x0114  00/5B   0/0(0)     0/0   FFFFFF/FFFFFF  0/0    0/ 0   0 FCC
[2019-09-20 13:22:56.947] [007](000/255 min): 0x00B2  00/44   0/0(2)     0/0   FFFFFF/CFDB9D  0/0    0/ 0   0 FCC
[2019-09-20 13:22:56.947] [008](000/255 min): 0x00EF  00/33   0/0(0)     0/0   FFFFFF/FFFFFF  0/0    0/ 0   0 FCC
[2019-09-20 13:22:56.962] [009](000/255 min): 0x01B0  00/58   0/0(2)     0/0   FFFFFF/EFFFFC  0/0    0/ 0   0 FCC
[2019-09-20 13:22:56.962] [010](000/255 min): 0x0158  00/52   0/0(2)     0/0   FFFFFF/030000  0/0    0/ 0   0 FCC
[2019-09-20 13:22:56.978] [011](000/255 min): 0x01AA  00/6A   0/0(2)     0/0   FFFFFF/0000EB  0/0    0/ 0   0 FCC
[2019-09-20 13:22:56.978] [012](000/255 min): 0x00DA  00/58   0/0(3)     0/0   FFFFFF/CF9FFF  0/0    0/ 0   0 FCC
[2019-09-20 13:22:56.994] [013](000/255 min): 0x0122  00/1C   0/0(0)     0/0   FFFFFF/FFFFFF  0/0    0/ 0   0 FCC
[2019-09-20 13:22:56.994] [014](000/255 min): 0x0165  00/3D   0/0(0)     0/0   FFFFFF/FFFFFF  0/0    0/ 0   0 FCC
[2019-09-20 13:22:57.009] [015](000/255 min): 0x0035  00/20   0/0(0)     0/0   FFFFFF/FFFFFF  0/0    0/ 0   0 FCC
[2019-09-20 13:22:57.009] [016](000/254 min): 0x013B  00/54   0/0(1)     0/0   FFFFFF/818080  0/0    0/ 0   0 FCC
[2019-09-20 13:22:57.025] [017](000/255 min): 0x0177  00/1C   0/0(0)     0/0   FFFFFF/FFFFFF  0/0    0/ 0   0 FCC
[2019-09-20 13:22:57.025] [018](000/255 min): 0x012D  00/54   0/0(0)     0/0   FFFFFF/FFFFFF  0/0    0/ 0   0 FCC
[2019-09-20 13:22:57.040] [019](000/255 min): 0x0166  00/1D   0/0(0)     0/0   FFFFFF/FFFFFF  0/0    0/ 0   0 FCC
[2019-09-20 13:22:57.040] [020](000/255 min): 0x011B  00/1C   0/0(2)     0/0   FFFFFF/0001FB  0/0    0/ 0   0 FCC
[2019-09-20 13:22:57.056] [021](000/255 min): 0x0163  00/1C   0/0(0)     0/0   FFFFFF/FFFFFF  0/0    0/ 0   0 FCC
[2019-09-20 13:22:57.056] [022](000/255 min): 0x0143  00/1D   0/0(0)     0/0   FFFFFF/FFFFFF  0/0    0/ 0   0 FCC
[2019-09-20 13:22:57.072] [023](000/255 min): 0x000E  00/4F   0/0(1)     0/0   FFFFFF/808988  0/0    0/ 0   0 FCC
[2019-09-20 13:22:57.072] [024](000/255 min): 0x00A9  00/2F   0/0(0)     0/0   FFFFFF/FFFFFF  0/0    0/ 0   0 FCC
[2019-09-20 13:22:57.087] [025](000/255 min): 0x0098  00/3D   0/0(2)     0/0   FFFFFF/010BA9  0/0    0/ 0   0 FCC
[2019-09-20 13:22:57.087] [026](000/255 min): 0x0190  00/36   0/0(0)     0/0   FFFFFF/FFFFFF  0/0    0/ 0   0 FCC
[2019-09-20 13:22:57.103] [027](000/255 min): 0x00CE  00/2A   0/0(1)     0/0   FFFFFF/0001CC  0/0    0/ 0   0 FCC
[2019-09-20 13:22:57.103] [028](000/255 min): 0x013C  00/67   0/0(3)     0/0   FFFFFF/FFFFFF  0/0    0/ 0   0 FCC
[2019-09-20 13:22:57.118] [029](000/255 min): 0x003F  00/3D   0/0(1)     0/0   FFFFFF/4FC999  0/0    0/ 0   0 FCC
[2019-09-20 13:22:57.118] [030](000/255 min): 0x01A9  00/6D   0/0(3)     0/0   FFFFFF/FFFFFF  0/0    0/ 0   0 FCC
[2019-09-20 13:22:57.134] [031](000/255 min): 0x0061  00/5C   0/0(2)     0/0   FFFFFF/E9FFF0  0/0    0/ 0   0 FCC
[2019-09-20 13:22:57.134] [032](000/255 min): 0x00E8  00/36   0/0(2)     0/0   FFFFFF/00009C  0/0    0/ 0   0 FCC
[2019-09-20 13:22:57.150] [033](000/255 min): 0x018F  00/62   0/0(3)     0/0   FFFFFF/EFDFFF  0/0    0/ 0   0 FCC
[2019-09-20 13:22:57.150] [034](000/255 min): 0x016F  00/49   0/0(1)     0/0   FFFFFF/810800  0/0    0/ 0   0 FCC
[2019-09-20 13:22:57.165] [035](000/255 min): 0x00CF  00/53   0/0(3)     0/0   FFFFFF/6F8BB9  0/0    0/ 0   0 FCC
[2019-09-20 13:22:57.165] [036](000/255 min): 0x017E  00/6F   0/0(3)     0/0   FFFFFF/470388  0/0    0/ 0   0 FCC
[2019-09-20 13:22:57.181] [037](000/255 min): 0x017F  00/5A   0/0(0)     0/0   FFFFFF/FFFFFF  0/0    0/ 0   0 FCC
[2019-09-20 13:22:57.181] [038](000/255 min): 0x009F  00/36   0/0(1)     0/0   FFFFFF/00003F  0/0    0/ 0   0 FCC
[2019-09-20 13:22:57.196] [039](000/255 min): 0x014F  00/1C   0/0(2)     0/0   FFFFFF/030000  0/0    0/ 0   0 FCC
[2019-09-20 13:22:57.196] [040](000/254 min): 0x00B3  00/4E   0/0(2)     0/0   FFFFFF/098000  0/0    0/ 0   0 FCC
[2019-09-20 13:22:57.212] [041](000/255 min): 0x01A2  00/5E   0/0(2)     0/0   FFFFFF/EF99D5  0/0    0/ 0   0 FCC
[2019-09-20 13:22:57.212] [042](000/255 min): 0x00FC  00/26   0/0(0)     0/0   FFFFFF/FFFFFF  0/0    0/ 0   0 FCC
[2019-09-20 13:22:57.228] [043](000/255 min): 0x0133  00/67   0/0(3)     0/0   FFFFFF/EFFFFF  0/0    0/ 0   0 FCC
[2019-09-20 13:22:57.228] [044](000/255 min): 0x0185  00/51   0/0(0)     0/0   FFFFFF/FFFFFF  0/0    0/ 0   0 FCC
[2019-09-20 13:22:57.243] [045](000/255 min): 0x010A  00/53   0/0(1)     0/0   FFFFFF/230100  0/0    0/ 0   0 FCC
[2019-09-20 13:22:57.243] [046](000/255 min): 0x0197  00/52   0/0(2)     0/0   FFFFFF/EFDD8D  0/0    0/ 0   0 FCC
[2019-09-20 13:22:57.259] [047](000/255 min): 0x0040  00/30   0/0(2)     0/0   FFFFFF/630388  0/0    0/ 0   0 FCC
[2019-09-20 13:22:57.259] [048](000/255 min): 0x018E  00/1C   0/0(0)     0/0   FFFFFF/FFFFFF  0/0    0/ 0   0 FCC
[2019-09-20 13:22:57.274] [049](000/255 min): 0x0003  00/37   0/0(2)     0/0   FFFFFF/610008  0/0    0/ 0   0 FCC
[2019-09-20 13:22:57.274] [050](000/255 min): 0x0173  00/41   0/0(0)     0/0   FFFFFF/FFFFFF  0/0    0/ 0   0 FCC
[2019-09-20 13:22:57.290] [051](000/255 min): 0x017A  00/40   0/0(0)     0/0   FFFFFF/FFFFFF  0/0    0/ 0   0 FCC
[2019-09-20 13:22:57.290] [052](000/255 min): 0x0142  00/5B   0/0(1)     0/0   FFFFFF/898900  0/0    0/ 0   0 FCC
[2019-09-20 13:22:57.306] [053](000/255 min): 0x014D  00/21   0/0(1)     0/0   FFFFFF/058800  0/0    0/ 0   0 FCC
[2019-09-20 13:22:57.306] [054](000/255 min): 0x00A7  00/6B   0/0(3)     0/0   FFFFFF/FFFFFF  0/0    0/ 0   0 FCC
[2019-09-20 13:22:57.321] [055](000/255 min): 0x015A  00/56   0/0(0)     0/0   FFFFFF/FFFFFF  0/0    0/ 0   0 FCC
[2019-09-20 13:22:57.321] [056](000/255 min): 0x00C7  00/5C   0/0(3)     0/0   FFFFFF/EFDFF8  0/0    0/ 0   0 FCC
[2019-09-20 13:22:57.337] [057](000/255 min): 0x002A  00/5B   0/0(1)     0/0   FFFFFF/030380  0/0    0/ 0   0 FCC
[2019-09-20 13:22:57.337] [058](000/255 min): 0x011C  00/2D   0/0(0)     0/0   FFFFFF/FFFFFF  0/0    0/ 0   0 FCC
[2019-09-20 13:22:57.352] [059](000/255 min): 0x00AB  00/32   0/0(0)     0/0   FFFFFF/FFFFFF  0/0    0/ 0   0 FCC
[2019-09-20 13:22:57.352] [060](000/255 min): 0x00E6  00/67   0/0(2)     0/0   FFFFFF/039B89  0/0    0/ 0   0 FCC
[2019-09-20 13:22:57.368] [061](000/255 min): 0x00B0  00/6B   0/0(3)     0/0   FFFFFF/CFDFF8  0/0    0/ 0   0 FCC
[2019-09-20 13:22:57.368] [062](000/255 min): 0x00A6  00/31   0/0(3)     0/0   FFFFFF/0003A0  0/0    0/ 0   0 FCC
[2019-09-20 13:22:57.384] [063](000/254 min): 0x00BB  00/64   0/0(3)     0/0   FFFFFF/EFFFF9  0/0    0/ 0   0 FCC
[2019-09-20 13:22:57.384] [064](002/255 min): 0xFFFF  00/00   0/0(0)     0/0   FFFFFF/FFFFFF  0/0    0/ 0   0 FCC
[2019-09-20 13:22:57.399] 
[2019-09-20 13:22:57.399] MHR SEQ History : [00]-[15]
[2019-09-20 13:22:57.399]          Src     Seq
[2019-09-20 13:22:57.399] [00]     bb00     45
[2019-09-20 13:22:57.399] 
[2019-09-20 13:22:57.399] vt# Add D:01A7 O:0000  seq:23761 to RREQ History[25]
[2019-09-20 13:23:20.004] Add D:0000 O:01A7  seq:1317 to RREQ History[26]
[2019-09-20 13:23:20.004] Add D:0000 O:017E  seq:1480 to RREQ History[27]
[2019-09-20 13:23:23.560] route
[2019-09-20 13:23:24.855] 
[2019-09-20 13:23:24.855] Device     : LBD (FFD) Pan 0x94E3  Joined
[2019-09-20 13:23:24.855] Short Addr : 0x01C5 (RC_COORD 0xFFFF)
[2019-09-20 13:23:24.855] Extended Addr : 0x8311 39FF FE02 0000
[2019-09-20 13:23:24.855] 
[2019-09-20 13:23:24.855] Routing Table : [000]-[511]
[2019-09-20 13:23:24.871]                     Dest   Next_Hop  Route_Cost  Hop_Count  Weak_Link_Count
[2019-09-20 13:23:24.871] [001](65529m11s):  0x00F5   0x00C4     0x0044        2             1
[2019-09-20 13:23:24.871] [002](65529m11s):  0x00C4   0x00C4     0x001A        1             0
[2019-09-20 13:23:24.886] 
[2019-09-20 13:23:24.886] BlackList Table : [000]-[127]
[2019-09-20 13:23:24.886]                     Dest
[2019-09-20 13:23:24.886] [000](00002m56s):  0x0195
[2019-09-20 13:23:24.886] [001](00004m13s):  0x0000
[2019-09-20 13:23:24.886] 
[2019-09-20 13:23:24.886] BlackList History : [00]-[127]
[2019-09-20 13:23:24.902]          Dest
[2019-09-20 13:23:24.902] [00] :  0x0195
[2019-09-20 13:23:24.902] [01] :  0x0000
[2019-09-20 13:23:24.902] 
[2019-09-20 13:23:24.902] RREQ History : [00]-[31]
[2019-09-20 13:23:24.902]          Dest    Ori     Seq
[2019-09-20 13:23:24.902] [00]     00f5    0000     23747
[2019-09-20 13:23:24.902] [01]     0177    0000     23756
[2019-09-20 13:23:24.902] [02]     0000    00f5     389
[2019-09-20 13:23:24.918] [03]     0000    0177     597
[2019-09-20 13:23:24.918] [04]     013f    0009     219
[2019-09-20 13:23:24.918] [05]     0000    013f     476
[2019-09-20 13:23:24.918] [06]     0000    00e6     2115
[2019-09-20 13:23:24.918] [07]     0177    0035     2617
[2019-09-20 13:23:24.918] [08]     00e6    0000     23755
[2019-09-20 13:23:24.933] [09]     0035    0177     595
[2019-09-20 13:23:24.933] [10]     0000    00b2     3668
[2019-09-20 13:23:24.933] [11]     0130    0000     23751
[2019-09-20 13:23:24.933] [12]     00b2    0000     23752
[2019-09-20 13:23:24.933] [13]     0000    00c4     422
[2019-09-20 13:23:24.949] [14]     00c4    0000     23753
[2019-09-20 13:23:24.949] [15]     01bd    0038     1342
[2019-09-20 13:23:24.949] [16]     0038    01bd     645
[2019-09-20 13:23:24.949] [17]     01bd    000b     679
[2019-09-20 13:23:24.949] [18]     0000    0028     2005
[2019-09-20 13:23:24.949] [19]     0000    002a     4596
[2019-09-20 13:23:24.964] [20]     0028    0000     23757
[2019-09-20 13:23:24.964] [21]     0172    0000     23759
[2019-09-20 13:23:24.964] [22]     011f    0000     23758
[2019-09-20 13:23:24.964] [23]     002a    0000     23760
[2019-09-20 13:23:24.964] [24]     0000    011f     565
[2019-09-20 13:23:24.980] [25]     01a7    0000     23761
[2019-09-20 13:23:24.980] [26]     0000    01a7     1317
[2019-09-20 13:23:24.980] [27]     0000    017e     1480
[2019-09-20 13:23:24.980] 
[2019-09-20 13:23:24.980] vt# Add D:017E O:0000  seq:23762 to RREQ History[28]
[2019-09-20 13:23:33.014] Add D:01A7 O:000D  seq:700 to RREQ History[29]
[2019-09-20 13:23:40.549] Send RREQ, Dest 0x0000, Seq 0, Flag 0
[2019-09-20 13:23:50.236] 
[2019-09-20 13:23:50.236] Send ToneMap Response(0028), Mod D-2 0x4B9B89
[2019-09-20 13:23:51.765] Tx Packet Give Up (TxCMP, nack_or_ackto = 3)
[2019-09-20 13:23:51.765] vtmac_pkt_do_fragmentation() tmr force = 1
[2019-09-20 13:23:54.058] Update D:0028 O:0000  seq:23763 to RREQ History[20]
[2019-09-20 13:23:54.402] Robust retry fail
[2019-09-20 13:23:54.417] Set Neighbor Table[49] : 0x0003 tmr valid time to zero
[2019-09-20 13:23:54.417] RREP or PREP send fail, A BL, G RERR
[2019-09-20 13:23:54.417] Add 0003 to BlackList[2]
[2019-09-20 13:23:54.417] Send RERR(0x0000) -> 0x0028 -> ... -> 0x0028
[2019-09-20 13:24:06.975]  Update D:0000 O:0028  seq:2006 to RREQ History[18]
[2019-09-20 13:24:11.733] Wait RREP(0x0000) Timeout
[2019-09-20 13:24:11.733] Update D:0000 O:00E6  seq:2116 to RREQ History[6]
[2019-09-20 13:24:19.393] Update D:00E6 O:0000  seq:23764 to RREQ History[8]
[2019-09-20 13:24:21.124] Add Neighbor Table Fail(BlackList 0x0003)
[2019-09-20 13:24:32.840] Add Neighbor Table Fail(BlackList 0x0003)
[2019-09-20 13:24:32.840] Drop RREQ(BlackList 0x0003)
[2019-09-20 13:24:38.893] >> holley_send_heartbeat(20)
[2019-09-20 13:24:38.893] 
[2019-09-20 13:24:38.893]       68 0e 0e 68 5a 99 99 06 82 05 55 30 00 aa aa 00 
[2019-09-20 13:24:38.893]       01 00 77 16 
[2019-09-20 13:24:38.893] 
[2019-09-20 13:24:46.443] Update D:01A7 O:0000  seq:23765 to RREQ History[25]
[2019-09-20 13:24:46.724] Add Neighbor Table Fail(BlackList 0x0003)
[2019-09-20 13:24:46.942] Update D:0000 O:01A7  seq:1318 to RREQ History[26]
[2019-09-20 13:24:54.961] Update D:0000 O:00E6  seq:2117 to RREQ History[6]
[2019-09-20 13:24:55.678] Add Neighbor Table Fail(BlackList 0x0003)
[2019-09-20 13:24:55.678] Drop RREQ(BlackList 0x0003)
[2019-09-20 13:24:57.160] Add Neighbor Table Fail(BlackList 0x0003)
[2019-09-20 13:24:57.160] Drop RREQ(BlackList 0x0003)
[2019-09-20 13:24:57.722] 
[2019-09-20 13:24:57.722] vt# Add Neighbor Table Fail(BlackList 0x0003)
[2019-09-20 13:25:20.404] Add Neighbor Table Fail(BlackList 0x0003)
[2019-09-20 13:25:23.521] Update D:0000 O:01A7  seq:1319 to RREQ History[26]
[2019-09-20 13:25:24.956] Add Neighbor Table Fail(BlackList 0x0003)
[2019-09-20 13:25:24.956] Drop RREQ(BlackList 0x0003)
[2019-09-20 13:25:28.762] Add Neighbor Table Fail(BlackList 0x0000)
[2019-09-20 13:25:29.433] C BLH[1]0000 == 0000
[2019-09-20 13:25:29.433] get_link_cost() addr 0x0000 in BLH
[2019-09-20 13:25:29.449] C BLH[1]0000 == 0000
[2019-09-20 13:25:29.449] get_link_cost() addr 0x0000 in BLH
[2019-09-20 13:25:29.480] C BLH[1]0000 == 0000
[2019-09-20 13:25:29.480] get_link_cost() addr 0x0000 in BLH
[2019-09-20 13:25:29.542] C BLH[1]0000 == 0000
[2019-09-20 13:25:29.558] get_link_cost() addr 0x0000 in BLH
[2019-09-20 13:25:29.558] C BLH[1]0000 == 0000
[2019-09-20 13:25:29.558] get_link_cost() addr 0x0000 in BLH
[2019-09-20 13:25:34.160] 
[2019-09-20 13:25:34.160] Send ToneMap Response(0028), Mod D-2 0x8D9DCD
[2019-09-20 13:25:37.155] Update D:0028 O:0000  seq:23766 to RREQ History[20]
[2019-09-20 13:25:48.808] Add Neighbor Table Fail(BlackList 0x0003)
[2019-09-20 13:25:50.665] Update D:0000 O:0028  seq:2007 to RREQ History[18]
[2019-09-20 13:25:52.584] Add Neighbor Table Fail(BlackList 0x0003)
[2019-09-20 13:25:52.599] Drop RREQ(BlackList 0x0003)
[2019-09-20 13:25:53.956] Add Neighbor Table Fail(BlackList 0x0003)
[2019-09-20 13:25:53.956] Drop RREQ(BlackList 0x0003)
[2019-09-20 13:25:59.354] Add Neighbor Table Fail(BlackList 0x0003)
[2019-09-20 13:25:59.370] Drop RREQ(BlackList 0x0003)
[2019-09-20 13:25:59.416] Add Neighbor Table Fail(BlackList 0x0003)
[2019-09-20 13:26:10.040] Add Neighbor Table Fail(BlackList 0x0003)
[2019-09-20 13:26:10.040] Drop RREQ(BlackList 0x0003)
[2019-09-20 13:26:21.395] Del 0195 from BlackList[0]
[2019-09-20 13:26:21.723] 
[2019-09-20 13:26:21.723] vt# Add D:0000 O:0145  seq:2302 to RREQ History[30]
[2019-09-20 13:26:21.925] 
[2019-09-20 13:26:21.925] vt# Add D:0145 O:0000  seq:23767 to RREQ History[31]
[2019-09-20 13:26:30.303] Add Neighbor Table Fail(BlackList 0x0003)
[2019-09-20 13:26:34.905] Add Neighbor Table Fail(BlackList 0x0003)
[2019-09-20 13:26:36.184] Add Neighbor Table Fail(BlackList 0x0003)
[2019-09-20 13:26:36.402] Add D:0000 O:00E1  seq:320 to RREQ History[0]
[2019-09-20 13:27:02.205] Add Neighbor Table Fail(BlackList 0x0000)
[2019-09-20 13:27:02.220] [SB->D] Receive_keepalive (seq:65)
[2019-09-20 13:27:02.220] Add Neighbor Table Fail(BlackList 0x0000)
