0
84
-1280
1412
924
-272
-1036
-688
1348
480
-680
-548
-248
300
360
728
108
-940
-360
12
352
196
-104
332
-824
56
988
324
-532
-1556
-72
1516
916
-568
-584
-532
-292
544
648
248
-372
-512
-236
200
360
112
260
-448
-636
752
180
-852
-16
908
724
-800
-1036
176
24
464
624
176
-352
-768
104
-104
-104
544
340
-160
-356
-28
552
96
-1000
-824
632
1708
400
-1212
-820
-328
332
904
148
-188
-76
-496
-268
372
480
240
-604
-576
544
788
-608
-1392
1100
1368
-436
-748
-1028
108
1004
296
8
60
24
-652
-956
656
1032
-336
-520
132
524
-156
-376
520
-140
-1376
-48
1964
856
-1336
-1456
476
1040
-516
-140
1164
72
-1856
-412
1848
148
-1480
624
1696
-1248
-1952
880
1364
-148
-52
680
-1172
-1968
1336
1964
-1040
-264
1196
-1392
-996
1316
408
-972
404
944
-1076
-428
1280
-16
-1060
-4
-264
192
1716
-36
-1588
-144
160
-416
1004
980
-1144
-312
804
-1012
-300
1244
-884
16
1888
-1384
-1272
1604
-244
-644
1180
-1336
-432
1888
-1020
364
1200
-2236
-64
1416
-1616
896
1652
-2024
872
628
-2304
1352
172
-972
2024
-1768
-1008
3068
-924
-516
600
-2388
772
1248
-820
1980
-404
-2124
1696
-1176
-936
2168
-1388
1188
560
-2504
2332
-492
-856
1476
-2800
1172
948
-1152
2692
-1736
-556
1080
-2144
1524
-220
-420
1392
-1272
1044
-56
-1036
660
-1028
