bandplan FCC

preamble section 0
-1508
2604
2732
-160
-620
-4192
-1968
1308
2588
3644
628
-1748
-3716
-3516
420
3468
4468
1904
-1864
-4404
-4200
-452
3272
5340
3216
-1732
-5000
-5072
-808
4008
5660
3112
-2272
-5348
-4476
216
4772
4548
1024
-3232
-4372
-1444
2136
3460
1340
-1684
-2556
-776
1676
2316
436
-2984
-2724
1292
3652
2056
-2008
-3024
-1176
580
2332
1548
-420
-1256
-960
248
-208
-80
676
556
784
-428
-1292
-604
160
824
276
120
500
-240
-848
-888
152
1184
596
-340
-516
-96
128
-152
-492
112
1104
444
-1200
-808
1332
776
-1572
-1216
708
2040
896
-1572
-1316
-240
232
716
684
732
-476
-1112
-300
-284
308
856
444
-56
-636
-136
0
-564
-128
732
1120
-372
-1168
256
556
-880
-768
1484
1364
-1240
-1128
952
256
-1832
184
2984
-216
-2904
768
2216
-1936
-2104
2120
2104
-1216
-896
1176
-1420
-2040
2808
1604
-2192
216
1168
-1596
-1104
2096
652
-2112
872
1284
-1888
152
1604
-1284
-840
1596
-152
-1064
1340
24
-1808
1024
540
-1548
1444
1152
-2152
372
936
-2024
928
1880
-2040
-24
2072
-1484
-540
848
-2000
1316
2556
-2564
216
1248
-2772
1096
1588
-1944
1676
644
-2816
1676
192
-2324
2796
-356
-1668
2912
-2000
-1064
2308
-2436
904
1992
-2208
1452
-120
-2348
2176
-800
-936
3064
-2024
-200
2008
-3264
1460
540
-2080
3216
-1800
412
2556
-4644
1112
136
-952
4232
-2200
240
572
-3596
2000
-740
604
2856
-1856
888
-1660
-1840
1356
agc_result_db 42
afe_gain      0
id_gain       0
afe_att       0
comp_gain     0
decim_gain    0
comp_coeff    0
decim_coeff   0
inv_tone_cnt  0

preamble section 1
-268
-732
-600
952
1496
752
-64
-1772
-1640
32
1600
896
308
-24
-1976
-428
848
792
1216
16
-1532
-784
-1172
464
1768
316
956
-308
-884
-228
-1168
-932
756
1064
1352
756
-768
-1540
-712
-264
88
2076
-260
-204
136
-880
412
-560
-360
1356
-548
64
1484
-2140
-940
1384
456
568
480
-1192
-1284
-668
668
1976
320
40
-404
-968
-432
-548
-460
1696
488
-240
1224
-1124
-1172
672
-808
-652
1776
108
184
592
-688
-500
-712
-1188
888
1892
468
-848
-1536
1112
844
-92
60
-2280
-2092
1808
3084
2096
-1224
-3288
-512
-240
1252
2068
-656
-1752
-808
584
2008
1100
-332
-972
-2504
-468
416
832
2500
912
-1016
-560
-1936
-1424
928
1004
1800
228
-508
-848
-1060
840
516
-1752
-456
984
2384
1240
-1656
-1172
-2660
-256
3400
1456
-1040
-1588
-1152
2304
1468
-1252
-320
-1844
-724
1784
860
368
148
-1160
216
-144
192
312
-1452
40
268
720
1468
-272
-1176
172
-1432
-68
1512
-728
404
1180
560
-692
-2232
-1056
1660
948
628
4
-864
-484
224
936
-396
-1044
-856
1620
824
-1432
56
1072
484
288
-1868
-516
460
-1324
1660
984
-192
996
-628
-1632
-76
-660
1008
1104
-944
860
-380
-908
1092
452
-1072
-484
156
524
-292
-712
296
2280
1544
-2648
-1528
-1632
-908
3744
2604
-600
-172
-2524
-1960
944
-76
2496
2092
-2392
-2656
508
1728
2124
-572
-2452
-1156
-192
1256
1600
796
12
agc_result_db 54
afe_gain      0
id_gain       0
afe_att       0
comp_gain     0
decim_gain    0
comp_coeff    0
decim_coeff   0
inv_tone_cnt  0

preamble section 2
-832
1160
-1652
3724
2612
-1412
-492
-2976
-492
2800
-292
64
-1024
-2388
1024
3160
3700
120
-4812
-5484
-2064
2636
6604
6484
-848
-5532
-7256
-4064
3896
7064
4524
460
-4880
-6396
-1104
3176
5224
2780
-3476
-5644
-1984
2332
5920
4288
-2524
-5256
-4556
-816
5136
4160
468
-2056
-3264
500
2144
372
-1096
-2872
-1040
2748
3540
944
-1684
-2388
-1532
468
784
276
232
452
1088
556
-1256
-976
-1144
-64
1032
436
952
500
-784
-1256
-216
684
928
224
-1732
-864
1176
768
644
-428
-372
284
-904
-1452
880
2208
40
-880
-856
176
412
-1120
104
1128
692
792
-2308
-1120
2080
-532
-700
1240
1008
-508
-2652
292
2772
-692
-2056
660
2000
-596
-1436
668
1840
-1612
-2944
2040
2412
-1404
-904
1628
412
-2668
-1128
3032
1120
-3200
1316
2708
-2912
-1756
2452
484
-1856
-740
2588
1056
-3120
2240
1548
-4500
-1476
2944
-88
452
4072
-492
-3912
-2032
-484
-540
2264
4540
660
-2412
-880
-2936
-2364
3556
1904
-308
2532
-1232
-3952
864
952
-1580
2000
1556
-2460
660
1340
-2072
80
1436
-1548
208
2208
-2032
-580
1808
-2468
944
2976
-2136
-248
756
-3184
1516
2292
-1700
2280
-556
-3756
2532
-928
-1452
4340
-1808
-412
2652
-2748
-484
-260
-2224
2444
1208
936
2772
-2764
-2484
-48
-3604
1540
4152
176
3564
-1636
-3452
-224
-5024
2452
3772
-144
4160
-2700
-2348
-380
-3304
3540
880
160
1952
-3780
776
-300
-364
4136
-2564
-96
-340
-3628
2588
agc_result_db 57
afe_gain      0
id_gain       0
afe_att       0
comp_gain     0
decim_gain    0
comp_coeff    0
decim_coeff   0
inv_tone_cnt  0

preamble section 3
-1508
2604
2732
-160
-620
-4192
-1968
1308
2588
3644
628
-1748
-3716
-3516
420
3468
4468
1904
-1864
-4404
-4200
-452
3272
5340
3216
-1732
-5000
-5072
-808
4008
5660
3112
-2272
-5348
-4476
216
4772
4548
1024
-3232
-4372
-1444
2136
3460
1340
-1684
-2556
-776
1676
2316
436
-2984
-2724
1292
3652
2056
-2008
-3024
-1176
580
2332
1548
-420
-1256
-960
248
-208
-80
676
556
784
-428
-1292
-604
160
824
276
120
500
-240
-848
-888
152
1184
596
-340
-516
-96
128
-152
-492
112
1104
444
-1200
-808
1332
776
-1572
-1216
708
2040
896
-1572
-1316
-240
232
716
684
732
-476
-1112
-300
-284
308
856
444
-56
-636
-136
0
-564
-128
732
1120
-372
-1168
256
556
-880
-768
1484
1364
-1240
-1128
952
256
-1832
184
2984
-216
-2904
768
2216
-1936
-2104
2120
2104
-1216
-896
1176
-1420
-2040
2808
1604
-2192
216
1168
-1596
-1104
2096
652
-2112
872
1284
-1888
152
1604
-1284
-840
1596
-152
-1064
1340
24
-1808
1024
540
-1548
1444
1152
-2152
372
936
-2024
928
1880
-2040
-24
2072
-1484
-540
848
-2000
1316
2556
-2564
216
1248
-2772
1096
1588
-1944
1676
644
-2816
1676
192
-2324
2796
-356
-1668
2912
-2000
-1064
2308
-2436
904
1992
-2208
1452
-120
-2348
2176
-800
-936
3064
-2024
-200
2008
-3264
1460
540
-2080
3216
-1800
412
2556
-4644
1112
136
-952
4232
-2200
240
572
-3596
2000
-740
604
2856
-1856
888
-1660
-1840
1356
agc_result_db 42
afe_gain      0
id_gain       0
afe_att       0
comp_gain     0
decim_gain    0
comp_coeff    0
decim_coeff   0
inv_tone_cnt  0

preamble section 4
-1036
-2180
-1216
-96
1052
1628
1588
64
-1856
-2384
-532
732
2380
1824
-188
-1360
-2172
-676
76
1768
1080
-40
-768
-680
604
956
-24
-704
-908
-1232
-184
652
2336
1156
-28
-1256
-1956
-864
500
1788
700
-220
-1088
-412
-8
928
1144
-348
-1784
-1112
676
1044
984
416
-72
-1188
-432
-284
-284
-108
456
1220
936
112
-644
-1828
-1528
676
920
1400
712
596
-464
-1400
-1420
-992
260
1404
1636
880
296
-1192
-1224
-1604
-416
1036
1924
868
-508
-648
-848
-168
-48
748
96
212
-696
-820
312
1220
1000
-348
-580
-900
-324
-764
-224
1024
2356
144
-1292
184
-592
-1360
-748
856
1332
612
-420
648
748
-1224
-2556
-196
1100
504
908
1716
964
-2652
-2592
340
1288
-52
792
1464
52
-2076
-784
1152
-532
-748
1920
1292
-1968
-784
572
-32
-904
1684
1484
-1732
-964
232
-384
-540
1676
1040
-128
72
-596
-2756
-752
1452
960
2436
1704
-1796
-3292
-412
-488
276
2436
1480
-1180
-228
656
-1888
-544
1208
-680
-272
1844
-860
-56
1656
-1164
-1500
1292
-908
-976
2616
-984
-900
2328
-1308
-960
2648
-1848
-1128
1444
-1796
340
2708
-1768
360
2296
-3200
208
180
-2192
2688
1272
-1708
2172
-312
-2844
456
-1316
644
2704
-628
860
812
-3548
648
-256
-1796
3480
-104
164
864
-2168
120
-212
-1152
1628
-20
540
764
-1076
100
-1116
-44
888
512
72
-556
-560
-588
260
1592
420
228
-416
-2148
agc_result_db 57
afe_gain      0
id_gain       0
afe_att       0
comp_gain     0
decim_gain    0
comp_coeff    0
decim_coeff   0
inv_tone_cnt  0

vt# [S->SB] Send_Keepalive(seq:29,len:6, time:4096)
[S->SB] Send_Keepalive(seq:29,len:6, time:4096)
task_loop: DCU PKT received (30)

      03 ff ff 00 56 33 21 12 02 00 00 01 00 00 0c 00 
      01 06 09 7e a0 07 03 23 93 bf 32 7e d2 54 
[S->SB] Send_Keepalive(seq:29,len:6, time:4096)
[S->SB] Send_Keepalive(seq:29,len:6, time:4096)
[S->SB] Send_Keepalive(seq:29,len:6, time:4096)

Receive beacon_request
    ->form: 360910FFFE020000

Receive beacon_request
    ->form: 079319FFFE020000

