
[2019-09-24 13:24:44.178] retryTimer_cb Waiting timer: 6 s
[2019-09-24 13:24:44.184] vtmsg: slow down... level is 1 (busy_index=6)
[2019-09-24 13:24:44.184] retryTimer_cb Waiting timer: 12 s
[2019-09-24 13:24:44.184] retryTimer_cb Waiting timer: 18 s
[2019-09-24 13:24:44.184] retryTimer_cb Waiting timer: 24 s
[2019-09-24 13:24:44.184] retryTimer_cb Waiting timer: 30 s
[2019-09-24 13:24:44.184] retryTimer_cb Retry Counting: 5 
[2019-09-24 13:24:44.184] _vtsdk_send: VTSDK_PORT_PLC_ESC pbuf=0x1000c028, len=26
[2019-09-24 13:24:44.184] 0x1000c028 26
[2019-09-24 13:24:44.184] 56 41 21 12 02 00 00 01 00 00 0c 00 01 06 09 7e 
[2019-09-24 13:24:44.184]       a0 07 03 23 53 b3 f4 7e 56 54 
[2019-09-24 13:24:44.184] id:41 21 12 02 00 00 
[2019-09-24 13:24:44.184]  spi_idx =0 short addr:00 70
[2019-09-24 13:24:44.184] spi_idx = 0 dest_addr_short 0070
[2019-09-24 13:24:44.184] vtapp_send2plc_esc Tx_Seq_Number = 0
[2019-09-24 13:24:44.184] vtapp_send2plc_esc send: (0)(len=26):[VT_PTCL_ATC_QUERY]
[2019-09-24 13:24:44.184] 56 41 21 12 02 00 00 01 00 00 0c 00 01 06 09 7e 
[2019-09-24 13:24:44.184]       a0 07 03 23 53 b3 f4 7e 56 54 
[2019-09-24 13:24:44.776] app_cli s2ekretryTimer_cb Waiting timer: 36 s
[2019-09-24 13:24:50.533] 
[2019-09-24 13:24:50.533] 
[2019-09-24 13:24:50.533] show_packet_meter_by_alive
[2019-09-24 13:24:50.537] ----------------------------------------------------------------------------------------
[2019-09-24 13:24:50.547] |   idx  |F|R|J|    meter_id       | Phase | SNR |ALIVE| HARBT | Keep Time | KeepCount |
[2019-09-24 13:24:50.553] ----------------------------------------------------------------------------------------
[2019-09-24 13:24:50.563] |   00   |1|0|1| 10 48 09 02 00 00 |  1(A) |  X  |  O  | 00/01 | XXXX/0075 |  0000/0011 |
[2019-09-24 13:24:50.571] |   01   |1|0|1| 12 48 09 02 00 00 |  1(A) |  X  |  O  | 00/01 | XXXX/0075 |  0000/0011 |
[2019-09-24 13:24:50.580] |   02   |1|0|1| 23 26 12 02 00 00 |  1(A) |  X  |  O  | 00/01 | XXXX/0075 |  0000/0010 |
[2019-09-24 13:24:50.588] |   03   |1|0|1| 61 26 12 02 00 00 |  3(C) |  X  |  O  | 00/00 | 11050/0030 |  0001/0004 |
[2019-09-24 13:24:50.596] |   04   |1|0|1| 62 26 12 02 00 00 |  1(A) |  X  |  O  | 00/00 | 10855/0030 |  0003/0015 |
[2019-09-24 13:24:50.601] |   05   |1|0|1| 63 26 12 02 00 00 |  1(A) |  X  |  O  | 00/01 | XXXX/0075 |  0000/0010 |
[2019-09-24 13:24:50.607] |   06   |1|0|1| 64 26 12 02 00 00 |  1(A) |  X  |  O  | 00/00 | XXXX/0030 |  0000/0001 |
[2019-09-24 13:24:50.616] |   07   |1|0|1| 66 26 12 02 00 00 |  1(A) |  X  |  O  | 00/01 | XXXX/0075 |  0000/0010 |
[2019-09-24 13:24:50.629] |   08   |1|0|1| 67 26 12 02 00 00 |  1(A) |  X  |  O  | 00/00 | 10486/0030 |  0001/0013 |
[2019-09-24 13:24:50.633] |   09   |1|0|1| 68 26 12 02 00 00 |  3(C) |  X  |  O  | 00/00 | 10302/0030 |  0001/0004 |
[2019-09-24 13:24:50.640] |   10   |1|0|1| 70 26 12 02 00 00 |  1(A) |  X  |  O  | 00/01 | XXXX/0075 |  0000/0010 |
[2019-09-24 13:24:50.647] |   11   |1|0|1| 72 26 12 02 00 00 |  3(C) |  X  |  O  | 00/00 | XXXX/0030 |  0000/0001 |
[2019-09-24 13:24:50.655] |   12   |1|0|1| 74 26 12 02 00 00 |  3(C) |  X  |  O  | 00/01 | XXXX/0075 |  0000/0010 |
[2019-09-24 13:24:50.665] |   13   |1|0|1| 75 26 12 02 00 00 |  3(C) |  X  |  O  | 00/01 | XXXX/0075 |  0000/0010 |
[2019-09-24 13:24:50.674] |   14   |1|0|1| 76 26 12 02 00 00 |  1(A) |  X  |  O  | 00/01 | XXXX/0075 |  0000/0001 |
[2019-09-24 13:24:50.683] |   15   |1|0|1| 23 27 12 02 00 00 |  3(C) |  X  |  O  | 00/01 | XXXX/0075 |  0000/0010 |
[2019-09-24 13:24:50.688] |   16   |1|0|1| 24 27 12 02 00 00 |  1(A) |  X  |  O  | 00/00 | XXXX/0030 |  0000/0001 |
[2019-09-24 13:24:50.699] |   17   |1|0|1| 25 27 12 02 00 00 |  1(A) |  X  |  O  | 00/00 | XXXX/0030 |  0000/0002 |
[2019-09-24 13:24:50.706] |   18   |1|0|1| 26 27 12 02 00 00 |  1(A) |  X  |  O  | 00/01 | XXXX/0075 |  0000/0001 |
[2019-09-24 13:24:50.713] |   19   |1|0|1| 27 27 12 02 00 00 |  3(C) |  X  |  O  | 00/00 | XXXX/0030 |  0000/0001 |
[2019-09-24 13:24:50.721] |   20   |1|0|1| 28 27 12 02 00 00 |  3(C) |  X  |  O  | 00/00 | XXXX/0030 |  0000/0001 |
[2019-09-24 13:24:50.728] |   21   |1|0|1| 29 27 12 02 00 00 |  3(C) |  X  |  O  | 00/01 | XXXX/0075 |  0000/0010 |
[2019-09-24 13:24:50.738] |   22   |1|0|1| 30 27 12 02 00 00 |  3(C) |  X  |  O  | 00/01 | XXXX/0075 |  0000/0010 |
[2019-09-24 13:24:50.747] |   23   |1|0|1| 31 27 12 02 00 00 |  1(A) |  X  |  O  | 00/01 | XXXX/0075 |  0000/0010 |
[2019-09-24 13:24:50.755] |   24   |1|0|1| 32 27 12 02 00 00 |  3(C) |  X  |  O  | 00/01 | XXXX/0075 |  0000/0010 |
[2019-09-24 13:24:50.760] |   25   |1|0|1| 34 27 12 02 00 00 |  2(B) |  X  |  O  | 00/00 | XXXX/0030 |  0000/0001 |
[2019-09-24 13:24:50.770] |   26   |1|0|1| 35 27 12 02 00 00 |  3(C) |  X  |  O  | 00/00 | XXXX/0030 |  0000/0001 |
[2019-09-24 13:24:50.779] |   27   |1|0|1| 83 32 12 02 00 00 |  2(B) |  X  |  O  | 00/00 | 23521/0030 |  0003/0013 |
[2019-09-24 13:24:50.783] |   28   |1|0|1| 84 32 12 02 00 00 |  1(A) |  X  |  O  | 00/00 | XXXX/0030 |  0000/0002 |
[2019-09-24 13:24:50.795] |   29   |1|0|1| 02 92 12 02 00 00 |  3(C) |  X  |  O  | 00/00 | XXXX/0030 |  0000/0001 |
[2019-09-24 13:24:50.799] |   30   |1|0|1| 04 92 12 02 00 00 |  3(C) |  X  |  O  | 00/01 | XXXX/0075 |  0000/0001 |
[2019-09-24 13:24:50.810] |   31   |1|0|1| 16 96 12 02 00 00 |  3(C) |  X  |  O  | 00/00 | 23243/0030 |  0003/0019 |
[2019-09-24 13:24:50.819] |   32   |1|0|1| 17 96 12 02 00 00 |  2(B) |  X  |  O  | 00/01 | XXXX/0075 |  0000/0011 |
[2019-09-24 13:24:50.823] |   33   |1|0|1| 69 45 19 02 00 00 |  2(B) |  X  |  O  | 00/01 | XXXX/0075 |  0000/0011 |
[2019-09-24 13:24:50.832] |   34   |1|0|1| 70 45 19 02 00 00 |  1(A) |  X  |  O  | 00/00 | 22876/0030 |  0007/0021 |
[2019-09-24 13:24:50.844] |   35   |1|0|1| 71 45 19 02 00 00 |  2(B) |  X  |  O  | 00/00 | 8239/0030 |  0002/0008 |
[2019-09-24 13:24:50.853] |   36   |1|0|1| 01 93 19 02 00 00 |  3(C) |  X  |  O  | 00/01 | XXXX/0075 |  0000/0011 |
[2019-09-24 13:24:50.861] |   37   |1|0|1| 02 93 19 02 00 00 |  2(B) |  X  |  O  | 00/00 | 7984/0030 |  0009/0013 |
[2019-09-24 13:24:50.869] |   38   |1|0|1| 04 93 19 02 00 00 |  1(A) |  X  |  O  | 00/00 | 7897/0030 |  0012/0014 |
[2019-09-24 13:24:50.877] |   39   |1|0|1| 05 93 19 02 00 00 |  3(C) |  X  |  O  | 00/00 | 21972/0030 |  0010/0023 |
[2019-09-24 13:24:50.884] |   40   |1|0|1| 06 93 19 02 00 00 |  2(B) |  X  |  O  | 00/00 | 21795/0030 |  0005/0013 |
[2019-09-24 13:24:50.895] |   41   |1|0|1| 07 93 19 02 00 00 |  3(C) |  X  |  O  | 00/01 | XXXX/0075 |  0000/0011 |
[2019-09-24 13:24:50.900] |   42   |1|0|1| 08 93 19 02 00 00 |  3(C) |  X  |  O  | 00/00 | 7466/0030 |  0009/0022 |
[2019-09-24 13:24:50.908] |   43   |1|0|1| 11 93 19 02 00 00 |  3(C) |  X  |  O  | 00/00 | 7405/0030 |  0010/0025 |
[2019-09-24 13:24:50.916] |   44   |1|0|0| 21 66 09 02 00 00 |   X   |  X  |  X  | 00/00 | XXXX/0030 |  0000/0003 |
[2019-09-24 13:24:50.924] |   45   |1|0|1| 13 99 09 02 00 00 |  1(A) |  X  |  O  | 00/00 | 7027/0030 |  0002/0015 |
[2019-09-24 13:24:50.931] |   46   |1|0|1| 14 99 09 02 00 00 |  3(C) |  X  |  O  | 00/00 | 20752/0030 |  0002/0017 |
[2019-09-24 13:24:50.939] |   47   |1|0|1| 15 99 09 02 00 00 |  3(C) |  X  |  O  | 00/01 | XXXX/0075 |  0000/0010 |
[2019-09-24 13:24:50.948] |   48   |1|0|1| 16 99 09 02 00 00 |  1(A) |  X  |  O  | 00/00 | XXXX/0030 |  0000/0002 |
[2019-09-24 13:24:50.956] |   49   |1|0|1| 17 99 09 02 00 00 |  3(C) |  X  |  O  | 00/00 | 6537/0030 |  0001/0014 |
[2019-09-24 13:24:50.964] |   50   |1|0|1| 18 99 09 02 00 00 |  3(C) |  X  |  O  | 00/00 | 20371/0030 |  0004/0010 |
[2019-09-24 13:24:50.972] |   51   |1|0|1| 19 99 09 02 00 00 |  3(C) |  X  |  O  | 00/00 | 6155/0030 |  0005/0019 |
[2019-09-24 13:24:50.979] |   52   |1|0|1| 20 99 09 02 00 00 |  3(C) |  X  |  O  | 00/00 | 6076/0030 |  0002/0006 |
[2019-09-24 13:24:50.986] |   53   |1|0|1| 21 99 09 02 00 00 |  3(C) |  X  |  O  | 00/00 | 19674/0030 |  0009/0022 |
[2019-09-24 13:24:50.995] |   54   |1|0|1| 22 99 09 02 00 00 |  3(C) |  X  |  O  | 00/01 | XXXX/0075 |  0000/0011 |
[2019-09-24 13:24:51.004] |   55   |1|0|1| 23 99 09 02 00 00 |  3(C) |  X  |  O  | 00/00 | 19546/0030 |  0001/0016 |
[2019-09-24 13:24:51.012] |   56   |1|0|1| 24 99 09 02 00 00 |  3(C) |  X  |  O  | 00/00 | 19293/0030 |  0003/0014 |
[2019-09-24 13:24:51.021] |   57   |1|0|1| 37 99 09 02 00 00 |  3(C) |  X  |  O  | 00/00 | XXXX/0030 |  0000/0002 |
[2019-09-24 13:24:51.029] |   58   |1|0|1| 38 99 09 02 00 00 |  3(C) |  X  |  O  | 00/00 | XXXX/0030 |  0000/0010 |
[2019-09-24 13:24:51.035] |   59   |1|0|1| 39 99 09 02 00 00 |  1(A) |  X  |  O  | 00/00 | XXXX/0030 |  0000/0002 |
[2019-09-24 13:24:51.044] |   60   |1|0|1| 40 99 09 02 00 00 |  3(C) |  X  |  O  | 00/00 | XXXX/0030 |  0000/0002 |
[2019-09-24 13:24:51.052] |   61   |1|0|1| 41 99 09 02 00 00 |  3(C) |  X  |  O  | 00/00 | XXXX/0030 |  0000/0010 |
[2019-09-24 13:24:51.060] |   62   |1|0|1| 42 99 09 02 00 00 |  1(A) |  X  |  O  | 00/00 | XXXX/0030 |  0000/0010 |
[2019-09-24 13:24:51.068] |   63   |1|0|1| 43 99 09 02 00 00 |  3(C) |  X  |  O  | 00/00 | XXXX/0030 |  0000/0002 |
[2019-09-24 13:24:51.076] |   64   |1|0|1| 44 99 09 02 00 00 |  1(A) |  X  |  O  | 00/00 | XXXX/0030 |  0000/0002 |
[2019-09-24 13:24:51.084] |   65   |1|0|1| 45 99 09 02 00 00 |  1(A) |  X  |  O  | 00/00 | XXXX/0030 |  0000/0002 |
[2019-09-24 13:24:51.092] |   66   |1|0|1| 46 99 09 02 00 00 |  1(A) |  X  |  O  | 00/00 | 18743/0030 |  0001/0007 |
[2019-09-24 13:24:51.100] |   67   |1|0|1| 47 99 09 02 00 00 |  3(C) |  X  |  O  | 00/00 | XXXX/0030 |  0000/0002 |
[2019-09-24 13:24:51.108] |   68   |1|0|1| 48 99 09 02 00 00 |  3(C) |  X  |  O  | 00/00 | XXXX/0030 |  0000/0010 |
[2019-09-24 13:24:51.116] |   69   |1|0|1| 15 08 10 02 00 00 |  2(B) |  X  |  O  | 00/00 | XXXX/0030 |  0000/0010 |
[2019-09-24 13:24:51.124] |   70   |1|0|1| 16 08 10 02 00 00 |  3(C) |  X  |  O  | 00/00 | XXXX/0030 |  0000/0010 |
[2019-09-24 13:24:51.132] |   71   |1|0|1| 17 08 10 02 00 00 |  1(A) |  X  |  O  | 00/00 | XXXX/0030 |  0000/0009 |
[2019-09-24 13:24:51.140] |   72   |1|0|1| 18 08 10 02 00 00 |  3(C) |  X  |  O  | 00/00 | XXXX/0030 |  0000/0010 |
[2019-09-24 13:24:51.146] |   73   |1|0|1| 19 08 10 02 00 00 |  3(C) |  X  |  O  | 00/00 | XXXX/0030 |  0000/0002 |
[2019-09-24 13:24:51.154] |   74   |1|0|1| 20 08 10 02 00 00 |  2(B) |  X  |  O  | 00/00 | XXXX/0030 |  0000/0002 |
[2019-09-24 13:24:51.162] |   75   |1|0|1| 21 08 10 02 00 00 |  2(B) |  X  |  O  | 00/00 | 18060/0030 |  0001/0015 |
[2019-09-24 13:24:51.171] |   76   |1|0|1| 22 08 10 02 00 00 |  1(A) |  X  |  O  | 00/00 | XXXX/0030 |  0000/0002 |
[2019-09-24 13:24:51.178] |   77   |1|0|1| 23 08 10 02 00 00 |  2(B) |  X  |  O  | 00/00 | 17748/0030 |  0003/0009 |
[2019-09-24 13:24:51.187] |   78   |1|0|1| 24 08 10 02 00 00 |  3(C) |  X  |  O  | 00/00 | XXXX/0030 |  0000/0002 |
[2019-09-24 13:24:51.196] |   79   |1|0|1| 25 08 10 02 00 00 |  3(C) |  X  |  O  | 00/00 | XXXX/0030 |  0000/0002 |
[2019-09-24 13:24:51.203] |   80   |1|0|1| 26 08 10 02 00 00 |  1(A) |  X  |  O  | 00/00 | 17384/0030 |  0002/0016 |
[2019-09-24 13:24:51.212] |   81   |1|0|1| 35 09 10 02 00 00 |  2(B) |  X  |  O  | 00/00 | 16949/0030 |  0013/0027 |
[2019-09-24 13:24:51.219] |   82   |1|0|1| 36 09 10 02 00 00 |  2(B) |  X  |  O  | 00/00 | XXXX/0030 |  0000/0002 |
[2019-09-24 13:24:51.227] |   83   |1|0|1| 37 09 10 02 00 00 |  3(C) |  X  |  O  | 00/00 | 3300/0030 |  0009/0020 |
[2019-09-24 13:24:51.235] |   84   |1|0|1| 38 09 10 02 00 00 |  3(C) |  X  |  O  | 00/00 | 16532/0030 |  0010/0022 |
[2019-09-24 13:24:51.244] |   85   |1|0|1| 39 09 10 02 00 00 |  2(B) |  X  |  O  | 00/00 | XXXX/0030 |  0000/0002 |
[2019-09-24 13:24:51.250] |   86   |1|0|1| 40 09 10 02 00 00 |  2(B) |  X  |  O  | 00/00 | 16402/0030 |  0002/0008 |
[2019-09-24 13:24:51.259] |   87   |1|0|1| 41 09 10 02 00 00 |  1(A) |  X  |  O  | 00/00 | XXXX/0030 |  0000/0010 |
[2019-09-24 13:24:51.267] |   88   |1|0|1| 42 09 10 02 00 00 |  2(B) |  X  |  O  | 00/00 | 16151/0030 |  0001/0015 |
[2019-09-24 13:24:51.275] |   89   |1|0|1| 44 09 10 02 00 00 |  1(A) |  X  |  O  | 00/00 | XXXX/0030 |  0000/0002 |
[2019-09-24 13:24:51.282] |   90   |1|0|1| 45 09 10 02 00 00 |  2(B) |  X  |  O  | 00/00 | 15726/0030 |  0004/0012 |
[2019-09-24 13:24:51.290] |   91   |1|0|1| 54 10 10 02 00 00 |  3(C) |  X  |  O  | 00/00 | 2161/0030 |  0011/0025 |
[2019-09-24 13:24:51.298] |   92   |1|0|1| 55 10 10 02 00 00 |  3(C) |  X  |  O  | 00/00 | 1956/0030 |  0001/0013 |
[2019-09-24 13:24:51.306] |   93   |1|0|1| 57 10 10 02 00 00 |  2(B) |  X  |  O  | 00/00 | 1301/0030 |  0020/0039 |
[2019-09-24 13:24:51.314] |   94   |1|0|1| 58 10 10 02 00 00 |  2(B) |  X  |  O  | 00/00 | 14991/0030 |  0009/0021 |
[2019-09-24 13:24:51.322] |   95   |1|0|1| 32 30 11 02 00 00 |  1(A) |  X  |  O  | 00/00 | XXXX/0030 |  0000/0010 |
[2019-09-24 13:24:51.330] |   96   |1|0|1| 36 30 11 02 00 00 |  3(C) |  X  |  O  | 00/00 | 14317/0030 |  0019/0034 |
[2019-09-24 13:24:51.338] |   97   |1|0|1| 37 30 11 02 00 00 |  1(A) |  X  |  O  | 00/00 | 14278/0030 |  0001/0007 |
[2019-09-24 13:24:51.345] |   98   |1|0|1| 41 30 11 02 00 00 |  3(C) |  X  |  O  | 00/00 | XXXX/0030 |  0000/0010 |
[2019-09-24 13:24:51.354] |   99   |1|0|1| 33 21 12 02 00 00 |  2(B) |  X  |  O  | 00/00 | XXXX/0030 |  0000/0002 |
[2019-09-24 13:24:51.363] |   100   |1|0|1| 34 21 12 02 00 00 |  2(B) |  X  |  O  | 00/00 | XXXX/0030 |  0000/0010 |
[2019-09-24 13:24:51.370] |   101   |1|0|1| 35 21 12 02 00 00 |  2(B) |  X  |  O  | 00/00 | 13905/0030 |  0001/0015 |
[2019-09-24 13:24:51.379] |   102   |1|0|1| 37 21 12 02 00 00 |  2(B) |  X  |  O  | 00/00 | XXXX/0030 |  0000/0002 |
[2019-09-24 13:24:51.386] |   103   |1|0|1| 39 21 12 02 00 00 |  3(C) |  X  |  O  | 00/00 | 13270/0030 |  0021/0033 |
[2019-09-24 13:24:51.396] |   104   |1|0|1| 40 21 12 02 00 00 |  3(C) |  X  |  O  | 00/00 | XXXX/0030 |  0000/0010 |
[2019-09-24 13:24:51.402] |   105   |1|0|1| 41 21 12 02 00 00 |  3(C) |  X  |  O  | 00/00 | 12992/0030 |  0007/0020 |
[2019-09-24 13:24:51.412] |   106   |1|0|1| 45 21 12 02 00 00 |  2(B) |  X  |  O  | 00/00 | XXXX/0030 |  0000/0009 |
[2019-09-24 13:24:51.419] |   107   |1|0|1| 46 21 12 02 00 00 |  2(B) |  X  |  O  | 00/00 | XXXX/0030 |  0000/0001 |
[2019-09-24 13:24:51.428] |   108   |1|0|1| 47 21 12 02 00 00 |  3(C) |  X  |  O  | 00/00 | 12695/0030 |  0004/0016 |
[2019-09-24 13:24:51.434] |   109   |1|0|1| 48 21 12 02 00 00 |  3(C) |  X  |  O  | 00/00 | XXXX/0030 |  0000/0001 |
[2019-09-24 13:24:51.443] |   110   |1|0|1| 50 21 12 02 00 00 |  3(C) |  X  |  O  | 00/00 | XXXX/0030 |  0000/0001 |
[2019-09-24 13:24:51.451] |   111   |1|0|1| 45 23 12 02 00 00 |  3(C) |  X  |  O  | 00/00 | XXXX/0030 |  0000/0009 |
[2019-09-24 13:24:51.459] |   112   |1|0|1| 46 23 12 02 00 00 |  1(A) |  X  |  O  | 00/00 | 12242/0030 |  0003/0014 |
[2019-09-24 13:24:51.466] |   113   |1|0|1| 11 26 12 02 00 00 |  3(C) |  X  |  O  | 00/00 | XXXX/0030 |  0000/0009 |
[2019-09-24 13:24:51.477] |   114   |1|0|1| 13 26 12 02 00 00 |  3(C) |  X  |  O  | 00/00 | 11988/0030 |  0002/0013 |
[2019-09-24 13:24:51.483] |   115   |1|0|1| 14 26 12 02 00 00 |  1(A) |  X  |  O  | 00/00 | XXXX/0030 |  0000/0009 |
[2019-09-24 13:24:51.495] |   116   |1|0|1| 15 26 12 02 00 00 |  3(C) |  X  |  O  | 00/00 | XXXX/0030 |  0000/0009 |
[2019-09-24 13:24:51.500] |   117   |1|0|0| 16 26 12 02 00 00 |   X   |  X  |  X  | 00/00 | XXXX/0030 |  0000/0000 |
[2019-09-24 13:24:51.507] |   118   |1|0|1| 18 26 12 02 00 00 |  1(A) |  X  |  O  | 00/00 | XXXX/0030 |  0000/0001 |
[2019-09-24 13:24:51.515] |   119   |1|0|1| 19 26 12 02 00 00 |  3(C) |  X  |  O  | 00/00 | 11568/0030 |  0003/0014 |
[2019-09-24 13:24:51.522] |   120   |1|0|1| 20 26 12 02 00 00 |  1(A) |  X  |  O  | 00/00 | XXXX/0030 |  0000/0009 |
[2019-09-24 13:24:51.531] |   121   |1|0|1| 21 26 12 02 00 00 |  1(A) |  X  |  O  | 00/00 | 11317/0030 |  0001/0012 |
[2019-09-24 13:24:51.540] |   122   |1|0|0| 54 00 00 43 43 43 |   X   |  X  |  X  | 00/00 | XXXX/0030 |  0000/0010 |
[2019-09-24 13:24:51.548] ----------------------------------------------------------------------------
[2019-09-24 13:24:51.557] show_packet_meter_by_alive Total node:         123
[2019-09-24 13:24:51.563] ----------------------------------------------------------------------------
[2019-09-24 13:24:51.568] show_packet_meter_by_alive Active  count:      120
[2019-09-24 13:24:51.573] show_packet_meter_by_alive Inactive count:     3
[2019-09-24 13:24:51.578] ----------------------------------------------------------------------------
[2019-09-24 13:24:51.584] show_packet_meter_by_alive Keepalive waiting:  117
[2019-09-24 13:24:51.589] show_packet_meter_by_alive Keepalive time min: 30
[2019-09-24 13:24:51.594] show_packet_meter_by_alive Keepalive time max: 195
[2019-09-24 13:24:51.598] ----------------------------------------------------------------------------
[2019-09-24 13:24:51.605] 
[2019-09-24 13:24:51.605] 
[2019-09-24 13:24:51.605] vt# retryTimer_cb Waiting timer: 42 s
[2019-09-24 13:24:56.228] rvtmsg: slow down... level is 1 (busy_index=8)
[2019-09-24 13:24:57.058] oute
[2019-09-24 13:24:59.069] 
[2019-09-24 13:24:59.069] 
[2019-09-24 13:24:59.069] Routing Table : [0000]-[1024]
[2019-09-24 13:24:59.079]                      Dest   Next_Hop  Route_Cost  Hop_Count  Weak_Link_Count
[2019-09-24 13:24:59.079] [0000](65535m00s):  0x0140   0x0001     0x0160        4             2
[2019-09-24 13:24:59.089] [0001](65535m00s):  0x0006   0x0001     0x0143        3             2
[2019-09-24 13:24:59.089] [0002](65535m00s):  0x00AE   0x0001     0x014E        4             1
[2019-09-24 13:24:59.099] [0003](65535m00s):  0x0077   0x0001     0x0135        3             1
[2019-09-24 13:24:59.109] [0004](65535m00s):  0x00AD   0x0001     0x0188        5             3
[2019-09-24 13:24:59.109] [0005](65535m00s):  0x0060   0x001E     0x011A        2             1
[2019-09-24 13:24:59.119] [0006](65535m00s):  0x0005   0x0001     0x0118        2             1
[2019-09-24 13:24:59.119] [0007](65535m00s):  0x001A   0x0120     0x0153        3             3
[2019-09-24 13:24:59.129] [0008](65535m00s):  0x00C3   0x0001     0x0119        2             1
[2019-09-24 13:24:59.139] [0009](65535m00s):  0x00F2   0x0001     0x0117        2             1
[2019-09-24 13:24:59.139] [0010](65535m00s):  0x00CA   0x0001     0x0216        3             2
[2019-09-24 13:24:59.149] [0011](65535m00s):  0x00C8   0x0001     0x021D        3             2
[2019-09-24 13:24:59.159] [0012](65535m00s):  0x000A   0x0001     0x0135        3             1
[2019-09-24 13:24:59.159] [0013](65535m00s):  0x0145   0x0001     0x014E        4             1
[2019-09-24 13:24:59.169] [0014](65535m00s):  0x00B9   0x0001     0x0165        5             1
[2019-09-24 13:24:59.169] [0015](65535m00s):  0x00F8   0x0001     0x0119        2             1
[2019-09-24 13:24:59.179] [0016](65535m00s):  0x0044   0x0001     0x0118        2             1
[2019-09-24 13:24:59.189] [0017](65535m00s):  0x005E   0x0001     0x0217        3             2
[2019-09-24 13:24:59.189] [0018](65535m00s):  0x00ED   0x0001     0x014E        4             1
[2019-09-24 13:24:59.199] [0019](65535m00s):  0x00D7   0x0001     0x0216        3             2
[2019-09-24 13:24:59.199] [0021](65535m00s):  0x0119   0x0001     0x0135        3             1
[2019-09-24 13:24:59.209] [0022](65535m00s):  0x0052   0x0001     0x0134        3             1
[2019-09-24 13:24:59.219] [0023](65535m00s):  0x0003   0x0001     0x0117        2             1
[2019-09-24 13:24:59.219] [0024](65535m00s):  0x00F1   0x0120     0x0153        3             3
[2019-09-24 13:24:59.229] [0025](65535m00s):  0x00B2   0x0001     0x0143        3             2
[2019-09-24 13:24:59.229] [0031](65535m00s):  0x0002   0x0001     0x01FE        2             2
[2019-09-24 13:24:59.239] [0033](65535m00s):  0x0026   0x0001     0x0145        3             2
[2019-09-24 13:24:59.249] [0036](65535m00s):  0x0061   0x001E     0x0236        4             2
[2019-09-24 13:24:59.249] 
[2019-09-24 13:24:59.249] vt# retryTimer_cb Waiting timer: 48 s
[2019-09-24 13:25:07.251] retryTimer_cb Waiting timer: 54 s
[2019-09-24 13:25:13.252] retryTimer_cb Stop(11) 
[2019-09-24 13:25:13.262] _vtsdk_send: UART pbuf=0x10002f80, len=16
[2019-09-24 13:25:13.282] MakeDenyPacketSimple ID(0)[COMM_TIMEOUT] ret(0) send(16):
[2019-09-24 13:25:13.282] 68 10 00 81 00 00 00 00 00 06 00 02 00 00 89 16 
[2019-09-24 13:25:13.292] retryTimer_cb No connection
[2019-09-24 13:25:13.292] retryTimer_cb stop retryTimer
[2019-09-24 13:25:13.352] >>>>>>
[2019-09-24 13:25:13.362] task_loop: Rx from UART (40) 1000beb0
[2019-09-24 13:25:13.362] 68 28 00 41 05 00 28 80 25 07 36 10 00 35 00 00 
[2019-09-24 13:25:13.372]       41 21 12 02 00 00 13 01 00 00 00 00 09 7e a0 07 
[2019-09-24 13:25:13.372]       03 23 53 b3 f4 7e eb 16 
[2019-09-24 13:25:13.372] vtsdk_calloc 0x1000d2f0(80)
[2019-09-24 13:25:13.382] task_loop Packet Serial Num: 7
[2019-09-24 13:25:13.382] AfnRouterDataForward [13H-F1] -> Rx from DCU, Download packet serial number:7
[2019-09-24 13:25:13.392] AfnRouterDataForward Target: PLC meter
[2019-09-24 13:25:13.392] AfnRouterDataForward dest_Addr: 41 21 12 02 00 00 
[2019-09-24 13:25:13.402] _vtsdk_send: VTSDK_PORT_PLC_ESC pbuf=0x1000c028, len=26
[2019-09-24 13:25:13.402] 0x1000c028 26
[2019-09-24 13:25:13.402] 56 41 21 12 02 00 00 01 00 00 0c 00 01 06 09 7e 
[2019-09-24 13:25:13.412]       a0 07 03 23 53 b3 f4 7e 56 54 
[2019-09-24 13:25:13.412] id:41 21 12 02 00 00 
[2019-09-24 13:25:13.412]  spi_idx =0 short addr:00 70
[2019-09-24 13:25:13.422] spi_idx = 0 dest_addr_short 0070
[2019-09-24 13:25:13.422] vtapp_send2plc_esc Tx_Seq_Number = 0
[2019-09-24 13:25:13.432] vtapp_send2plc_esc send: (0)(len=26):[VT_PTCL_ATC_QUERY]
[2019-09-24 13:25:13.442] 56 41 21 12 02 00 00 01 00 00 0c 00 01 06 09 7e 
[2019-09-24 13:25:13.442]       a0 07 03 23 53 b3 f4 7e 56 54 
[2019-09-24 13:25:13.452] vtsdk_free 0x1000d2f0
[2019-09-24 13:25:19.396] retryTimer_cb Waiting timer: 6 s
[2019-09-24 13:25:25.398] retryTimer_cb Waiting timer: 12 s
[2019-09-24 13:25:29.129] vtmsg: slow down... level is 1 (busy_index=8)
[2019-09-24 13:25:31.383] retryTimer_cb Waiting timer: 18 s
[2019-09-24 13:25:37.384] retryTimer_cb Waiting timer: 24 s
[2019-09-24 13:25:43.388] retryTimer_cb Waiting timer: 30 s
[2019-09-24 13:25:43.394] retryTimer_cb Retry Counting: 5 
[2019-09-24 13:25:43.398] _vtsdk_send: VTSDK_PORT_PLC_ESC pbuf=0x1000c028, len=26
[2019-09-24 13:25:43.403] 0x1000c028 26
[2019-09-24 13:25:43.403] 56 41 21 12 02 00 00 01 00 00 0c 00 01 06 09 7e 
[2019-09-24 13:25:43.408]       a0 07 03 23 53 b3 f4 7e 56 54 
[2019-09-24 13:25:43.412] id:41 21 12 02 00 00 
[2019-09-24 13:25:43.412]  spi_idx =0 short addr:00 70
[2019-09-24 13:25:43.421] spi_idx = 0 dest_addr_short 0070
[2019-09-24 13:25:43.433] vtapp_send2plc_esc Tx_Seq_Number = 0
[2019-09-24 13:25:43.433] vtapp_send2plc_esc send: (0)(len=26):[VT_PTCL_ATC_QUERY]
[2019-09-24 13:25:43.438] 56 41 21 12 02 00 00 01 00 00 0c 00 01 06 09 7e 
[2019-09-24 13:25:43.441]       a0 07 03 23 53 b3 f4 7e 56 54 
[2019-09-24 13:25:49.389] retryTimer_cb Waiting timer: 36 s
[2019-09-24 13:25:55.398] retryTimer_cb Waiting timer: 42 s
[2019-09-24 13:26:01.401] retryTimer_cb Waiting timer: 48 s
[2019-09-24 13:26:04.001] check white list from spi 0
[2019-09-24 13:26:07.402] retryTimer_cb Waiting timer: 54 s
[2019-09-24 13:26:13.404] retryTimer_cb Stop(11) 
[2019-09-24 13:26:13.414] _vtsdk_send: UART pbuf=0x10002f80, len=16
[2019-09-24 13:26:13.424] MakeDenyPacketSimple ID(0)[COMM_TIMEOUT] ret(0) send(16):
[2019-09-24 13:26:13.434] 68 10 00 81 00 00 00 00 00 07 00 02 00 00 8a 16 
[2019-09-24 13:26:13.444] retryTimer_cb No connection
[2019-09-24 13:26:13.444] retryTimer_cb stop retryTimer
[2019-09-24 13:26:13.594] >>>>>>
[2019-09-24 13:26:13.594] task_loop: Rx from UART (40) 1000beb0
[2019-09-24 13:26:13.594] 68 28 00 41 05 00 28 80 25 08 36 10 00 35 00 00 
[2019-09-24 13:26:13.604]       45 21 12 02 00 00 13 01 00 00 00 00 09 7e a0 07 
[2019-09-24 13:26:13.604]       03 23 93 bf 32 7e 7a 16 
[2019-09-24 13:26:13.614] vtsdk_calloc 0x1000d2f0(80)
[2019-09-24 13:26:13.614] task_loop Packet Serial Num: 8
[2019-09-24 13:26:13.614] AfnRouterDataForward [13H-F1] -> Rx from DCU, Download packet serial number:8
[2019-09-24 13:26:13.624] AfnRouterDataForward Target: PLC meter
[2019-09-24 13:26:13.624] AfnRouterDataForward dest_Addr: 45 21 12 02 00 00 
[2019-09-24 13:26:13.634] _vtsdk_send: VTSDK_PORT_PLC_ESC pbuf=0x1000c028, len=26
[2019-09-24 13:26:13.634] 0x1000c028 26
[2019-09-24 13:26:13.634] 56 45 21 12 02 00 00 01 00 00 0c 00 01 06 09 7e 
[2019-09-24 13:26:13.644]       a0 07 03 23 93 bf 32 7e e4 54 
[2019-09-24 13:26:13.644] id:45 21 12 02 00 00 
[2019-09-24 13:26:13.644]  spi_idx =0 short addr:00 71
[2019-09-24 13:26:13.654] spi_idx = 0 dest_addr_short 0071
[2019-09-24 13:26:13.664] vtapp_send2plc_esc Tx_Seq_Number = 0
[2019-09-24 13:26:13.664] vtapp_send2plc_esc send: (0)(len=26):[VT_PTCL_ATC_QUERY]
[2019-09-24 13:26:13.674] 56 45 21 12 02 00 00 01 00 00 0c 00 01 06 09 7e 
[2019-09-24 13:26:13.674]       a0 07 03 23 93 bf 32 7e e4 54 
[2019-09-24 13:26:13.684] vtsdk_free 0x1000d2f0
[2019-09-24 13:26:19.626] retryTimer_cb Waiting timer: 6 s
[2019-09-24 13:26:20.457] vtmsg: slow down... level is 1 (busy_index=6)
[2019-09-24 13:26:25.628] retryTimer_cb Waiting timer: 12 s
[2019-09-24 13:26:31.629] retryTimer_cb Waiting timer: 18 s
[2019-09-24 13:26:37.631] retryTimer_cb Waiting timer: 24 s
[2019-09-24 13:26:43.632] retryTimer_cb Waiting timer: 30 s
[2019-09-24 13:26:43.642] retryTimer_cb Retry Counting: 5 
[2019-09-24 13:26:43.642] _vtsdk_send: VTSDK_PORT_PLC_ESC pbuf=0x1000c028, len=26
[2019-09-24 13:26:43.652] 0x1000c028 26
[2019-09-24 13:26:43.652] 56 45 21 12 02 00 00 01 00 00 0c 00 01 06 09 7e 
[2019-09-24 13:26:43.652]       a0 07 03 23 93 bf 32 7e e4 54 
[2019-09-24 13:26:43.662] id:45 21 12 02 00 00 
[2019-09-24 13:26:43.662]  spi_idx =0 short addr:00 71
[2019-09-24 13:26:43.662] spi_idx = 0 dest_addr_short 0071
[2019-09-24 13:26:43.682] vtapp_send2plc_esc Tx_Seq_Number = 0
[2019-09-24 13:26:43.692] vtapp_send2plc_esc send: (0)(len=26):[VT_PTCL_ATC_QUERY]
[2019-09-24 13:26:43.692] 56 45 21 12 02 00 00 01 00 00 0c 00 01 06 09 7e 
[2019-09-24 13:26:43.692]       a0 07 03 23 93 bf 32 7e e4 54 
[2019-09-24 13:26:49.634] retryTimer_cb Waiting timer: 36 s
[2019-09-24 13:26:55.637] retryTimer_cb Waiting timer: 42 s
[2019-09-24 13:27:01.639] retryTimer_cb Waiting timer: 48 s
[2019-09-24 13:27:07.640] retryTimer_cb Waiting timer: 54 s
[2019-09-24 13:27:13.642] retryTimer_cb Stop(11) 
[2019-09-24 13:27:13.642] _vtsdk_send: UART pbuf=0x10002f80, len=16
[2019-09-24 13:27:13.662] MakeDenyPacketSimple ID(0)[COMM_TIMEOUT] ret(0) send(16):
[2019-09-24 13:27:13.672] 68 10 00 81 00 00 00 00 00 08 00 02 00 00 8b 16 
[2019-09-24 13:27:13.672] retryTimer_cb No connection
[2019-09-24 13:27:13.682] retryTimer_cb stop retryTimer
[2019-09-24 13:27:13.752] >>>>>>
[2019-09-24 13:27:13.752] task_loop: Rx from UART (40) 1000beb0
[2019-09-24 13:27:13.762] 68 28 00 41 05 00 28 80 25 09 36 10 00 35 00 00 
[2019-09-24 13:27:13.762]       46 21 12 02 00 00 13 01 00 00 00 00 09 7e a0 07 
[2019-09-24 13:27:13.762]       03 23 93 bf 32 7e 7c 16 
[2019-09-24 13:27:13.772] vtsdk_calloc 0x1000d2f0(80)
[2019-09-24 13:27:13.772] task_loop Packet Serial Num: 9
[2019-09-24 13:27:13.772] AfnRouterDataForward [13H-F1] -> Rx from DCU, Download packet serial number:9
[2019-09-24 13:27:13.782] AfnRouterDataForward Target: PLC meter
[2019-09-24 13:27:13.782] AfnRouterDataForward dest_Addr: 46 21 12 02 00 00 
[2019-09-24 13:27:13.782] _vtsdk_send: VTSDK_PORT_PLC_ESC pbuf=0x1000c028, len=26
[2019-09-24 13:27:13.792] 0x1000c028 26
[2019-09-24 13:27:13.792] 56 46 21 12 02 00 00 01 00 00 0c 00 01 06 09 7e 
[2019-09-24 13:27:13.802]       a0 07 03 23 93 bf 32 7e e5 54 
[2019-09-24 13:27:13.802] id:46 21 12 02 00 00 
[2019-09-24 13:27:13.802]  spi_idx =0 short addr:00 e9
[2019-09-24 13:27:13.812] spi_idx = 0 dest_addr_short 00e9
[2019-09-24 13:27:13.812] vtapp_send2plc_esc Tx_Seq_Number = 0
[2019-09-24 13:27:13.822] vtapp_send2plc_esc send: (0)(len=26):[VT_PTCL_ATC_QUERY]
[2019-09-24 13:27:13.822] 56 46 21 12 02 00 00 01 00 00 0c 00 01 06 09 7e 
[2019-09-24 13:27:13.832]       a0 07 03 23 93 bf 32 7e e5 54 
[2019-09-24 13:27:13.832] vtsdk_free 0x1000d2f0
[2019-09-24 13:27:19.783] retryTimer_cb Waiting timer: 6 s
[2019-09-24 13:27:25.785] retryTimer_cb Waiting timer: 12 s
[2019-09-24 13:27:31.787] retryTimer_cb Waiting timer: 18 s
[2019-09-24 13:27:37.789] retryTimer_cb Waiting timer: 24 s
[2019-09-24 13:27:43.790] retryTimer_cb Waiting timer: 30 s
[2019-09-24 13:27:43.800] retryTimer_cb Retry Counting: 5 
[2019-09-24 13:27:43.800] _vtsdk_send: VTSDK_PORT_PLC_ESC pbuf=0x1000c028, len=26
[2019-09-24 13:27:43.800] 0x1000c028 26
[2019-09-24 13:27:43.810] 56 46 21 12 02 00 00 01 00 00 0c 00 01 06 09 7e 
[2019-09-24 13:27:43.810]       a0 07 03 23 93 bf 32 7e e5 54 
[2019-09-24 13:27:43.810] id:46 21 12 02 00 00 
[2019-09-24 13:27:43.820]  spi_idx =0 short addr:00 e9
[2019-09-24 13:27:43.820] spi_idx = 0 dest_addr_short 00e9
[2019-09-24 13:27:43.830] vtapp_send2plc_esc Tx_Seq_Number = 0
[2019-09-24 13:27:43.840] vtapp_send2plc_esc send: (0)(len=26):[VT_PTCL_ATC_QUERY]
[2019-09-24 13:27:43.840] 56 46 21 12 02 00 00 01 00 00 0c 00 01 06 09 7e 
[2019-09-24 13:27:43.850]       a0 07 03 23 93 bf 32 7e e5 54 
[2019-09-24 13:27:44.220] vtmsg: slow down... level is 1 (busy_index=7)
[2019-09-24 13:27:49.790] retryTimer_cb Waiting timer: 36 s
[2019-09-24 13:27:55.791] retryTimer_cb Waiting timer: 42 s
[2019-09-24 13:28:01.791] retryTimer_cb Waiting timer: 48 s
[2019-09-24 13:28:07.792] retryTimer_cb Waiting timer: 54 s
[2019-09-24 13:28:13.792] retryTimer_cb Stop(11) 
[2019-09-24 13:28:13.802] _vtsdk_send: UART pbuf=0x10002f80, len=16
[2019-09-24 13:28:13.812] MakeDenyPacketSimple ID(0)[COMM_TIMEOUT] ret(0) send(16):
[2019-09-24 13:28:13.822] 68 10 00 81 00 00 00 00 00 09 00 02 00 00 8c 16 
[2019-09-24 13:28:13.822] retryTimer_cb No connection
[2019-09-24 13:28:13.832] retryTimer_cb stop retryTimer
[2019-09-24 13:28:13.992] >>>>>>
[2019-09-24 13:28:14.002] task_loop: Rx from UART (40) 1000beb0
[2019-09-24 13:28:14.002] 68 28 00 41 05 00 28 80 25 0a 36 10 00 35 00 00 
[2019-09-24 13:28:14.002]       47 21 12 02 00 00 13 01 00 00 00 00 09 7e a0 07 
[2019-09-24 13:28:14.012]       03 23 53 b3 f4 7e f4 16 
[2019-09-24 13:28:14.012] vtsdk_calloc 0x1000d2f0(80)
[2019-09-24 13:28:14.012] task_loop Packet Serial Num: 10
[2019-09-24 13:28:14.022] AfnRouterDataForward [13H-F1] -> Rx from DCU, Download packet serial number:10
[2019-09-24 13:28:14.032] AfnRouterDataForward Target: PLC meter
[2019-09-24 13:28:14.032] AfnRouterDataForward dest_Addr: 47 21 12 02 00 00 
[2019-09-24 13:28:14.032] _vtsdk_send: VTSDK_PORT_PLC_ESC pbuf=0x1000c028, len=26
[2019-09-24 13:28:14.042] 0x1000c028 26
[2019-09-24 13:28:14.042] 56 47 21 12 02 00 00 01 00 00 0c 00 01 06 09 7e 
[2019-09-24 13:28:14.042]       a0 07 03 23 53 b3 f4 7e 5c 54 
[2019-09-24 13:28:14.052] id:47 21 12 02 00 00 
[2019-09-24 13:28:14.052]  spi_idx =0 short addr:00 bc
[2019-09-24 13:28:14.052] spi_idx = 0 dest_addr_short 00bc
[2019-09-24 13:28:14.062] vtapp_send2plc_esc Tx_Seq_Number = 0
[2019-09-24 13:28:14.072] vtapp_send2plc_esc send: (0)(len=26):[VT_PTCL_ATC_QUERY]
[2019-09-24 13:28:14.072] 56 47 21 12 02 00 00 01 00 00 0c 00 01 06 09 7e 
[2019-09-24 13:28:14.082]       a0 07 03 23 53 b3 f4 7e 5c 54 
[2019-09-24 13:28:14.082] vtsdk_free 0x1000d2f0
[2019-09-24 13:28:20.033] retryTimer_cb Waiting timer: 6 s
[2019-09-24 13:28:26.036] retryTimer_cb Waiting timer: 12 s
[2019-09-24 13:28:32.036] retryTimer_cb Waiting timer: 18 s
[2019-09-24 13:28:38.037] retryTimer_cb Waiting timer: 24 s
[2019-09-24 13:28:44.020] retryTimer_cb Waiting timer: 30 s
[2019-09-24 13:28:44.029] retryTimer_cb Retry Counting: 5 
[2019-09-24 13:28:44.033] _vtsdk_send: VTSDK_PORT_PLC_ESC pbuf=0x1000c028, len=26
[2019-09-24 13:28:44.037] 0x1000c028 26
[2019-09-24 13:28:44.037] 56 47 21 12 02 00 00 01 00 00 0c 00 01 06 09 7e 
[2019-09-24 13:28:44.040]       a0 07 03 23 53 b3 f4 7e 5c 54 
[2019-09-24 13:28:44.047] id:47 21 12 02 00 00 
[2019-09-24 13:28:44.053]  spi_idx =0 short addr:00 bc
[2019-09-24 13:28:44.053] spi_idx = 0 dest_addr_short 00bc
[2019-09-24 13:28:44.066] vtapp_send2plc_esc Tx_Seq_Number = 0
[2019-09-24 13:28:44.075] vtapp_send2plc_esc send: (0)(len=26):[VT_PTCL_ATC_QUERY]
[2019-09-24 13:28:44.080] 56 47 21 12 02 00 00 01 00 00 0c 00 01 06 09 7e 
[2019-09-24 13:28:44.080]       a0 07 03 23 53 b3 f4 7e 5c 54 
[2019-09-24 13:28:50.020] retryTimer_cb Waiting timer: 36 s
[2019-09-24 13:28:56.038] retryTimer_cb Waiting timer: 42 s
[2019-09-24 13:29:02.038] retryTimer_cb Waiting timer: 48 s
[2019-09-24 13:29:08.039] retryTimer_cb Waiting timer: 54 s
[2019-09-24 13:29:14.021] retryTimer_cb Stop(11) 
[2019-09-24 13:29:14.027] _vtsdk_send: UART pbuf=0x10002f80, len=16
[2019-09-24 13:29:14.043] MakeDenyPacketSimple ID(0)[COMM_TIMEOUT] ret(0) send(16):
[2019-09-24 13:29:14.051] 68 10 00 81 00 00 00 00 00 0a 00 02 00 00 8d 16 
[2019-09-24 13:29:14.055] retryTimer_cb No connection
[2019-09-24 13:29:14.058] retryTimer_cb stop retryTimer
[2019-09-24 13:29:14.199] >>>>>>
[2019-09-24 13:29:14.204] task_loop: Rx from UART (40) 1000beb0
[2019-09-24 13:29:14.209] 68 28 00 41 05 00 28 80 25 0b 36 10 00 35 00 00 
[2019-09-24 13:29:14.213]       47 21 12 02 00 00 13 01 00 00 00 00 09 7e a0 07 
[2019-09-24 13:29:14.217]       03 23 53 b3 f4 7e f5 16 
[2019-09-24 13:29:14.220] vtsdk_calloc 0x1000d2f0(80)
[2019-09-24 13:29:14.220] task_loop Packet Serial Num: 11
[2019-09-24 13:29:14.227] AfnRouterDataForward [13H-F1] -> Rx from DCU, Download packet serial number:11
[2019-09-24 13:29:14.230] AfnRouterDataForward Target: PLC meter
[2019-09-24 13:29:14.235] AfnRouterDataForward dest_Addr: 47 21 12 02 00 00 
[2019-09-24 13:29:14.238] _vtsdk_send: VTSDK_PORT_PLC_ESC pbuf=0x1000c028, len=26
[2019-09-24 13:29:14.245] 0x1000c028 26
[2019-09-24 13:29:14.245] 56 47 21 12 02 00 00 01 00 00 0c 00 01 06 09 7e 
[2019-09-24 13:29:14.250]       a0 07 03 23 53 b3 f4 7e 5c 54 
[2019-09-24 13:29:14.253] id:47 21 12 02 00 00 
[2019-09-24 13:29:14.256]  spi_idx =0 short addr:00 bc
[2019-09-24 13:29:14.263] spi_idx = 0 dest_addr_short 00bc
[2019-09-24 13:29:14.268] vtapp_send2plc_esc Tx_Seq_Number = 0
[2019-09-24 13:29:14.276] vtapp_send2plc_esc send: (0)(len=26):[VT_PTCL_ATC_QUERY]
[2019-09-24 13:29:14.278] 56 47 21 12 02 00 00 01 00 00 0c 00 01 06 09 7e 
[2019-09-24 13:29:14.284]       a0 07 03 23 53 b3 f4 7e 5c 54 
[2019-09-24 13:29:14.287] vtsdk_free 0x1000d2f0
[2019-09-24 13:29:20.237] retryTimer_cb Waiting timer: 6 s
[2019-09-24 13:29:26.236] retryTimer_cb Waiting timer: 12 s
[2019-09-24 13:29:32.236] retryTimer_cb Waiting timer: 18 s
[2019-09-24 13:29:38.237] retryTimer_cb Waiting timer: 24 s
[2019-09-24 13:29:44.236] retryTimer_cb Waiting timer: 30 s
[2019-09-24 13:29:44.241] retryTimer_cb Retry Counting: 5 
[2019-09-24 13:29:44.245] _vtsdk_send: VTSDK_PORT_PLC_ESC pbuf=0x1000c028, len=26
[2019-09-24 13:29:44.251] 0x1000c028 26
[2019-09-24 13:29:44.251] 56 47 21 12 02 00 00 01 00 00 0c 00 01 06 09 7e 
[2019-09-24 13:29:44.258]       a0 07 03 23 53 b3 f4 7e 5c 54 
[2019-09-24 13:29:44.260] id:47 21 12 02 00 00 
[2019-09-24 13:29:44.260]  spi_idx =0 short addr:00 bc
[2019-09-24 13:29:44.266] spi_idx = 0 dest_addr_short 00bc
[2019-09-24 13:29:44.274] vtapp_send2plc_esc Tx_Seq_Number = 0
[2019-09-24 13:29:44.282] vtapp_send2plc_esc send: (0)(len=26):[VT_PTCL_ATC_QUERY]
[2019-09-24 13:29:44.286] 56 47 21 12 02 00 00 01 00 00 0c 00 01 06 09 7e 
[2019-09-24 13:29:44.289]       a0 07 03 23 53 b3 f4 7e 5c 54 
[2019-09-24 13:29:50.237] retryTimer_cb Waiting timer: 36 s
[2019-09-24 13:29:56.237] retryTimer_cb Waiting timer: 42 s
[2019-09-24 13:30:02.237] retryTimer_cb Waiting timer: 48 s
[2019-09-24 13:30:08.238] retryTimer_cb Waiting timer: 54 s
[2019-09-24 13:30:14.239] retryTimer_cb Stop(11) 
[2019-09-24 13:30:14.245] _vtsdk_send: UART pbuf=0x10002f80, len=16
[2019-09-24 13:30:14.260] MakeDenyPacketSimple ID(0)[COMM_TIMEOUT] ret(0) send(16):
[2019-09-24 13:30:14.269] 68 10 00 81 00 00 00 00 00 0b 00 02 00 00 8e 16 
[2019-09-24 13:30:14.278] retryTimer_cb No connection
[2019-09-24 13:30:14.278] retryTimer_cb stop retryTimer
[2019-09-24 13:30:14.432] >>>>>>
[2019-09-24 13:30:14.435] task_loop: Rx from UART (40) 1000beb0
[2019-09-24 13:30:14.440] 68 28 00 41 05 00 28 80 25 0c 36 10 00 35 00 00 
[2019-09-24 13:30:14.445]       47 21 12 02 00 00 13 01 00 00 00 00 09 7e a0 07 
[2019-09-24 13:30:14.451]       03 23 53 b3 f4 7e f6 16 
[2019-09-24 13:30:14.451] vtsdk_calloc 0x1000d2f0(80)
[2019-09-24 13:30:14.456] task_loop Packet Serial Num: 12
[2019-09-24 13:30:14.462] AfnRouterDataForward [13H-F1] -> Rx from DCU, Download packet serial number:12
[2019-09-24 13:30:14.466] AfnRouterDataForward Target: PLC meter
[2019-09-24 13:30:14.473] AfnRouterDataForward dest_Addr: 47 21 12 02 00 00 
[2019-09-24 13:30:14.478] _vtsdk_send: VTSDK_PORT_PLC_ESC pbuf=0x1000c028, len=26
[2019-09-24 13:30:14.478] 0x1000c028 26
[2019-09-24 13:30:14.482] 56 47 21 12 02 00 00 01 00 00 0c 00 01 06 09 7e 
[2019-09-24 13:30:14.489]       a0 07 03 23 53 b3 f4 7e 5c 54 
[2019-09-24 13:30:14.489] id:47 21 12 02 00 00 
[2019-09-24 13:30:14.498]  spi_idx =0 short addr:00 bc
[2019-09-24 13:30:14.498] spi_idx = 0 dest_addr_short 00bc
[2019-09-24 13:30:14.506] vtapp_send2plc_esc Tx_Seq_Number = 0
[2019-09-24 13:30:14.515] vtapp_send2plc_esc send: (0)(len=26):[VT_PTCL_ATC_QUERY]
[2019-09-24 13:30:14.521] 56 47 21 12 02 00 00 01 00 00 0c 00 01 06 09 7e 
[2019-09-24 13:30:14.521]       a0 07 03 23 53 b3 f4 7e 5c 54 
[2019-09-24 13:30:14.525] vtsdk_free 0x1000d2f0
[2019-09-24 13:30:20.467] retryTimer_cb Waiting timer: 6 s
[2019-09-24 13:30:26.469] retryTimer_cb Waiting timer: 12 s
[2019-09-24 13:30:26.899] check white list from spi 0
[2019-09-24 13:30:32.468] retryTimer_cb Waiting timer: 18 s
[2019-09-24 13:30:38.469] retryTimer_cb Waiting timer: 24 s
[2019-09-24 13:30:44.469] retryTimer_cb Waiting timer: 30 s
[2019-09-24 13:30:44.476] retryTimer_cb Retry Counting: 5 
[2019-09-24 13:30:44.480] _vtsdk_send: VTSDK_PORT_PLC_ESC pbuf=0x1000c028, len=26
[2019-09-24 13:30:44.484] 0x1000c028 26
[2019-09-24 13:30:44.484] 56 47 21 12 02 00 00 01 00 00 0c 00 01 06 09 7e 
[2019-09-24 13:30:44.488]       a0 07 03 23 53 b3 f4 7e 5c 54 
[2019-09-24 13:30:44.494] id:47 21 12 02 00 00 
[2019-09-24 13:30:44.505]  spi_idx =0 short addr:00 bc
[2019-09-24 13:30:44.505] spi_idx = 0 dest_addr_short 00bc
[2019-09-24 13:30:44.513] vtapp_send2plc_esc Tx_Seq_Number = 0
[2019-09-24 13:30:44.525] vtapp_send2plc_esc send: (0)(len=26):[VT_PTCL_ATC_QUERY]
[2019-09-24 13:30:44.535] 56 47 21 12 02 00 00 01 00 00 0c 00 01 06 09 7e 
[2019-09-24 13:30:44.535]       a0 07 03 23 53 b3 f4 7e 5c 54 
[2019-09-24 13:30:46.547] vtmsg: slow down... level is 1 (busy_index=8)
[2019-09-24 13:30:50.469] retryTimer_cb Waiting timer: 36 s
[2019-09-24 13:30:56.470] retryTimer_cb Waiting timer: 42 s
[2019-09-24 13:31:02.470] retryTimer_cb Waiting timer: 48 s
[2019-09-24 13:31:08.469] retryTimer_cb Waiting timer: 54 s
[2019-09-24 13:31:14.469] retryTimer_cb Stop(11) 
[2019-09-24 13:31:14.476] _vtsdk_send: UART pbuf=0x10002f80, len=16
[2019-09-24 13:31:14.491] MakeDenyPacketSimple ID(0)[COMM_TIMEOUT] ret(0) send(16):
[2019-09-24 13:31:14.500] 68 10 00 81 00 00 00 00 00 0c 00 02 00 00 8f 16 
[2019-09-24 13:31:14.506] retryTimer_cb No connection
[2019-09-24 13:31:14.506] retryTimer_cb stop retryTimer
[2019-09-24 13:31:14.915] >>>>>>
[2019-09-24 13:31:14.919] task_loop: Rx from UART (40) 1000beb0
[2019-09-24 13:31:14.923] 68 28 00 41 05 00 28 80 25 0d 36 10 00 35 00 00 
[2019-09-24 13:31:14.927]       48 21 12 02 00 00 13 01 00 00 00 00 09 7e a0 07 
[2019-09-24 13:31:14.936]       03 23 93 bf 32 7e 82 16 
[2019-09-24 13:31:14.936] vtsdk_calloc 0x1000d2f0(80)
[2019-09-24 13:31:14.939] task_loop Packet Serial Num: 13
[2019-09-24 13:31:14.944] AfnRouterDataForward [13H-F1] -> Rx from DCU, Download packet serial number:13
[2019-09-24 13:31:14.949] AfnRouterDataForward Target: PLC meter
[2019-09-24 13:31:14.953] AfnRouterDataForward dest_Addr: 48 21 12 02 00 00 
[2019-09-24 13:31:14.956] _vtsdk_send: VTSDK_PORT_PLC_ESC pbuf=0x1000c028, len=26
[2019-09-24 13:31:14.961] 0x1000c028 26
[2019-09-24 13:31:14.966] 56 48 21 12 02 00 00 01 00 00 0c 00 01 06 09 7e 
[2019-09-24 13:31:14.966]       a0 07 03 23 93 bf 32 7e e7 54 
[2019-09-24 13:31:14.970] id:48 21 12 02 00 00 
[2019-09-24 13:31:14.975]  spi_idx =0 short addr:00 eb
[2019-09-24 13:31:14.975] spi_idx = 0 dest_addr_short 00eb
[2019-09-24 13:31:15.002] vtapp_send2plc_esc Tx_Seq_Number = 0
[2019-09-24 13:31:15.002] vtapp_send2plc_esc send: (0)(len=26):[VT_PTCL_ATC_QUERY]
[2019-09-24 13:31:15.020] 56 48 21 12 02 00 00 01 00 00 0c 00 01 06 09 7e 
[2019-09-24 13:31:15.020]       a0 07 03 23 93 bf 32 7e e7 54 
[2019-09-24 13:31:15.020] vtsdk_free 0x1000d2f0
[2019-09-24 13:31:20.952] retryTimer_cb Waiting timer: 6 s
[2019-09-24 13:31:26.963] retryTimer_cb Waiting timer: 12 s
[2019-09-24 13:31:32.952] retryTimer_cb Waiting timer: 18 s
[2019-09-24 13:31:38.953] retryTimer_cb Waiting timer: 24 s
[2019-09-24 13:31:44.950] retryTimer_cb Waiting timer: 30 s
[2019-09-24 13:31:44.955] retryTimer_cb Retry Counting: 5 
[2019-09-24 13:31:44.958] _vtsdk_send: VTSDK_PORT_PLC_ESC pbuf=0x1000c028, len=26
[2019-09-24 13:31:44.964] 0x1000c028 26
[2019-09-24 13:31:44.965] 56 48 21 12 02 00 00 01 00 00 0c 00 01 06 09 7e 
[2019-09-24 13:31:44.970]       a0 07 03 23 93 bf 32 7e e7 54 
[2019-09-24 13:31:44.972] id:48 21 12 02 00 00 
[2019-09-24 13:31:44.975]  spi_idx =0 short addr:00 eb
[2019-09-24 13:31:44.979] spi_idx = 0 dest_addr_short 00eb
[2019-09-24 13:31:44.988] vtapp_send2plc_esc Tx_Seq_Number = 0
[2019-09-24 13:31:44.998] vtapp_send2plc_esc send: (0)(len=26):[VT_PTCL_ATC_QUERY]
[2019-09-24 13:31:45.000] 56 48 21 12 02 00 00 01 00 00 0c 00 01 06 09 7e 
[2019-09-24 13:31:45.015]       a0 07 03 23 93 bf 32 7e e7 54 
[2019-09-24 13:31:50.951] retryTimer_cb Waiting timer: 36 s
[2019-09-24 13:31:56.966] retryTimer_cb Waiting timer: 42 s
[2019-09-24 13:32:02.954] retryTimer_cb Waiting timer: 48 s
[2019-09-24 13:32:08.954] retryTimer_cb Waiting timer: 54 s
[2019-09-24 13:32:14.953] retryTimer_cb Stop(11) 
[2019-09-24 13:32:14.960] _vtsdk_send: UART pbuf=0x10002f80, len=16
[2019-09-24 13:32:14.975] MakeDenyPacketSimple ID(0)[COMM_TIMEOUT] ret(0) send(16):
[2019-09-24 13:32:14.984] 68 10 00 81 00 00 00 00 00 0d 00 02 00 00 90 16 
[2019-09-24 13:32:14.992] retryTimer_cb No connection
[2019-09-24 13:32:14.992] retryTimer_cb stop retryTimer
[2019-09-24 13:32:15.053] >>>>>>
[2019-09-24 13:32:15.059] task_loop: Rx from UART (40) 1000beb0
[2019-09-24 13:32:15.063] 68 28 00 41 05 00 28 80 25 0e 36 10 00 35 00 00 
[2019-09-24 13:32:15.067]       50 21 12 02 00 00 13 01 00 00 00 00 09 7e a0 07 
[2019-09-24 13:32:15.071]       03 23 93 bf 32 7e 8b 16 
[2019-09-24 13:32:15.075] vtsdk_calloc 0x1000d2f0(80)
[2019-09-24 13:32:15.075] task_loop Packet Serial Num: 14
[2019-09-24 13:32:15.079] AfnRouterDataForward [13H-F1] -> Rx from DCU, Download packet serial number:14
[2019-09-24 13:32:15.086] AfnRouterDataForward Target: PLC meter
[2019-09-24 13:32:15.091] AfnRouterDataForward dest_Addr: 50 21 12 02 00 00 
[2019-09-24 13:32:15.095] _vtsdk_send: VTSDK_PORT_PLC_ESC pbuf=0x1000c028, len=26
[2019-09-24 13:32:15.100] 0x1000c028 26
[2019-09-24 13:32:15.100] 56 50 21 12 02 00 00 01 00 00 0c 00 01 06 09 7e 
[2019-09-24 13:32:15.104]       a0 07 03 23 93 bf 32 7e ef 54 
[2019-09-24 13:32:15.109] id:50 21 12 02 00 00 
[2019-09-24 13:32:15.115]  spi_idx =0 short addr:01 08
[2019-09-24 13:32:15.115] spi_idx = 0 dest_addr_short 0108
[2019-09-24 13:32:15.127] vtapp_send2plc_esc Tx_Seq_Number = 0
[2019-09-24 13:32:15.135] vtapp_send2plc_esc send: (0)(len=26):[VT_PTCL_ATC_QUERY]
[2019-09-24 13:32:15.144] 56 50 21 12 02 00 00 01 00 00 0c 00 01 06 09 7e 
[2019-09-24 13:32:15.144]       a0 07 03 23 93 bf 32 7e ef 54 
[2019-09-24 13:32:15.150] vtsdk_free 0x1000d2f0
[2019-09-24 13:32:21.089] retryTimer_cb Waiting timer: 6 s
[2019-09-24 13:32:27.098] retryTimer_cb Waiting timer: 12 s
[2019-09-24 13:32:33.100] retryTimer_cb Waiting timer: 18 s
[2019-09-24 13:32:39.111] retryTimer_cb Waiting timer: 24 s
[2019-09-24 13:32:45.101] retryTimer_cb Waiting timer: 30 s
[2019-09-24 13:32:45.111] retryTimer_cb Retry Counting: 5 
[2019-09-24 13:32:45.111] _vtsdk_send: VTSDK_PORT_PLC_ESC pbuf=0x1000c028, len=26
[2019-09-24 13:32:45.121] 0x1000c028 26
[2019-09-24 13:32:45.121] 56 50 21 12 02 00 00 01 00 00 0c 00 01 06 09 7e 
[2019-09-24 13:32:45.121]       a0 07 03 23 93 bf 32 7e ef 54 
[2019-09-24 13:32:45.131] id:50 21 12 02 00 00 
[2019-09-24 13:32:45.131]  spi_idx =0 short addr:01 08
[2019-09-24 13:32:45.131] spi_idx = 0 dest_addr_short 0108
[2019-09-24 13:32:45.141] vtapp_send2plc_esc Tx_Seq_Number = 0
[2019-09-24 13:32:45.151] vtapp_send2plc_esc send: (0)(len=26):[VT_PTCL_ATC_QUERY]
[2019-09-24 13:32:45.161] 56 50 21 12 02 00 00 01 00 00 0c 00 01 06 09 7e 
[2019-09-24 13:32:45.171]       a0 07 03 23 93 bf 32 7e ef 54 
[2019-09-24 13:32:51.101] retryTimer_cb Waiting timer: 36 s
[2019-09-24 13:32:57.101] retryTimer_cb Waiting timer: 42 s
[2019-09-24 13:33:03.102] retryTimer_cb Waiting timer: 48 s
[2019-09-24 13:33:09.089] retryTimer_cb Waiting timer: 54 s
[2019-09-24 13:33:15.092] retryTimer_cb Stop(11) 
[2019-09-24 13:33:15.096] _vtsdk_send: UART pbuf=0x10002f80, len=16
[2019-09-24 13:33:15.112] MakeDenyPacketSimple ID(0)[COMM_TIMEOUT] ret(0) send(16):
[2019-09-24 13:33:15.121] 68 10 00 81 00 00 00 00 00 0e 00 02 00 00 91 16 
[2019-09-24 13:33:15.125] retryTimer_cb No connection
[2019-09-24 13:33:15.131] retryTimer_cb stop retryTimer
[2019-09-24 13:33:15.289] >>>>>>
[2019-09-24 13:33:15.296] task_loop: Rx from UART (40) 1000beb0
[2019-09-24 13:33:15.304] 68 28 00 41 05 00 28 80 25 0f 36 10 00 35 00 00 
[2019-09-24 13:33:15.313]       45 23 12 02 00 00 13 01 00 00 00 00 09 7e a0 07 
[2019-09-24 13:33:15.313]       03 23 93 bf 32 7e 83 16 
[2019-09-24 13:33:15.313] vtsdk_calloc 0x1000d2f0(80)
[2019-09-24 13:33:15.322] task_loop Packet Serial Num: 15
[2019-09-24 13:33:15.322] AfnRouterDataForward [13H-F1] -> Rx from DCU, Download packet serial number:15
[2019-09-24 13:33:15.332] AfnRouterDataForward Target: PLC meter
[2019-09-24 13:33:15.332] AfnRouterDataForward dest_Addr: 45 23 12 02 00 00 
[2019-09-24 13:33:15.344] _vtsdk_send: VTSDK_PORT_PLC_ESC pbuf=0x1000c028, len=26
[2019-09-24 13:33:15.344] 0x1000c028 26
[2019-09-24 13:33:15.344] 56 45 23 12 02 00 00 01 00 00 0c 00 01 06 09 7e 
[2019-09-24 13:33:15.351]       a0 07 03 23 93 bf 32 7e e6 54 
[2019-09-24 13:33:15.351] id:45 23 12 02 00 00 
[2019-09-24 13:33:15.351]  spi_idx =0 short addr:00 ca
[2019-09-24 13:33:15.351] spi_idx = 0 dest_addr_short 00ca
[2019-09-24 13:33:15.363] vtapp_send2plc_esc Tx_Seq_Number = 0
[2019-09-24 13:33:15.370] vtapp_send2plc_esc send: (0)(len=26):[VT_PTCL_ATC_QUERY]
[2019-09-24 13:33:15.376] 56 45 23 12 02 00 00 01 00 00 0c 00 01 06 09 7e 
[2019-09-24 13:33:15.383]       a0 07 03 23 93 bf 32 7e e6 54 
[2019-09-24 13:33:15.383] vtsdk_free 0x1000d2f0
[2019-09-24 13:33:18.053] vtmsg: slow down... level is 1 (busy_index=6)
[2019-09-24 13:33:21.327] retryTimer_cb Waiting timer: 6 s
[2019-09-24 13:33:27.336] retryTimer_cb Waiting timer: 12 s
[2019-09-24 13:33:33.366] retryTimer_cb Waiting timer: 18 s
[2019-09-24 13:33:38.863] vtmsg: slow down... level is 1 (busy_index=6)
[2019-09-24 13:33:39.328] retryTimer_cb Waiting timer: 24 s
[2019-09-24 13:33:45.327] retryTimer_cb Waiting timer: 30 s
[2019-09-24 13:33:45.334] retryTimer_cb Retry Counting: 5 
[2019-09-24 13:33:45.338] _vtsdk_send: VTSDK_PORT_PLC_ESC pbuf=0x1000c028, len=26
[2019-09-24 13:33:45.343] 0x1000c028 26
[2019-09-24 13:33:45.352] 56 45 23 12 02 00 00 01 00 00 0c 00 01 06 09 7e 
[2019-09-24 13:33:45.353]       a0 07 03 23 93 bf 32 7e e6 54 
[2019-09-24 13:33:45.359] id:45 23 12 02 00 00 
[2019-09-24 13:33:45.359]  spi_idx =0 short addr:00 ca
[2019-09-24 13:33:45.359] spi_idx = 0 dest_addr_short 00ca
[2019-09-24 13:33:45.370] vtapp_send2plc_esc Tx_Seq_Number = 0
[2019-09-24 13:33:45.381] vtapp_send2plc_esc send: (0)(len=26):[VT_PTCL_ATC_QUERY]
[2019-09-24 13:33:45.387] 56 45 23 12 02 00 00 01 00 00 0c 00 01 06 09 7e 
[2019-09-24 13:33:45.387]       a0 07 03 23 93 bf 32 7e e6 54 
[2019-09-24 13:33:51.330] retryTimer_cb Waiting timer: 36 s
[2019-09-24 13:33:57.338] retryTimer_cb Waiting timer: 42 s
[2019-09-24 13:34:03.338] retryTimer_cb Waiting timer: 48 s
[2019-09-24 13:34:09.328] retryTimer_cb Waiting timer: 54 s
[2019-09-24 13:34:15.329] retryTimer_cb Stop(11) 
[2019-09-24 13:34:15.336] _vtsdk_send: UART pbuf=0x10002f80, len=16
[2019-09-24 13:34:15.351] MakeDenyPacketSimple ID(0)[COMM_TIMEOUT] ret(0) send(16):
[2019-09-24 13:34:15.360] 68 10 00 81 00 00 00 00 00 0f 00 02 00 00 92 16 
[2019-09-24 13:34:15.364] retryTimer_cb No connection
[2019-09-24 13:34:15.368] retryTimer_cb stop retryTimer
[2019-09-24 13:34:15.529] >>>>>>
[2019-09-24 13:34:15.533] task_loop: Rx from UART (40) 1000beb0
[2019-09-24 13:34:15.537] 68 28 00 41 05 00 28 80 25 10 36 10 00 35 00 00 
[2019-09-24 13:34:15.541]       46 23 12 02 00 00 13 01 00 00 00 00 09 7e a0 07 
[2019-09-24 13:34:15.547]       03 23 53 b3 f4 7e fb 16 
[2019-09-24 13:34:15.547] vtsdk_calloc 0x1000d2f0(80)
[2019-09-24 13:34:15.551] task_loop Packet Serial Num: 16
[2019-09-24 13:34:15.555] AfnRouterDataForward [13H-F1] -> Rx from DCU, Download packet serial number:16
[2019-09-24 13:34:15.562] AfnRouterDataForward Target: PLC meter
[2019-09-24 13:34:15.567] AfnRouterDataForward dest_Addr: 46 23 12 02 00 00 
[2019-09-24 13:34:15.571] _vtsdk_send: VTSDK_PORT_PLC_ESC pbuf=0x1000c028, len=26
[2019-09-24 13:34:15.575] 0x1000c028 26
[2019-09-24 13:34:15.575] 56 46 23 12 02 00 00 01 00 00 0c 00 01 06 09 7e 
[2019-09-24 13:34:15.580]       a0 07 03 23 53 b3 f4 7e 5d 54 
[2019-09-24 13:34:15.584] id:46 23 12 02 00 00 
[2019-09-24 13:34:15.589]  spi_idx =0 short addr:00 41
[2019-09-24 13:34:15.589] spi_idx = 0 dest_addr_short 0041
[2019-09-24 13:34:15.602] vtapp_send2plc_esc Tx_Seq_Number = 0
[2019-09-24 13:34:15.610] vtapp_send2plc_esc send: (0)(len=26):[VT_PTCL_ATC_QUERY]
[2019-09-24 13:34:15.614] 56 46 23 12 02 00 00 01 00 00 0c 00 01 06 09 7e 
[2019-09-24 13:34:15.614]       a0 07 03 23 53 b3 f4 7e 5d 54 
[2019-09-24 13:34:15.620] vtsdk_free 0x1000d2f0
[2019-09-24 13:34:15.766] vtmsg: slow down... level is 1 (busy_index=9)
[2019-09-24 13:34:21.564] retryTimer_cb Waiting timer: 6 s
[2019-09-24 13:34:27.580] retryTimer_cb Waiting timer: 12 s
[2019-09-24 13:34:33.580] retryTimer_cb Waiting timer: 18 s
[2019-09-24 13:34:39.580] retryTimer_cb Waiting timer: 24 s
[2019-09-24 13:34:45.581] retryTimer_cb Waiting timer: 30 s
[2019-09-24 13:34:45.581] retryTimer_cb Retry Counting: 5 
[2019-09-24 13:34:45.581] _vtsdk_send: VTSDK_PORT_PLC_ESC pbuf=0x1000c028, len=26
[2019-09-24 13:34:45.591] 0x1000c028 26
[2019-09-24 13:34:45.591] 56 46 23 12 02 00 00 01 00 00 0c 00 01 06 09 7e 
[2019-09-24 13:34:45.601]       a0 07 03 23 53 b3 f4 7e 5d 54 
[2019-09-24 13:34:45.601] id:46 23 12 02 00 00 
[2019-09-24 13:34:45.601]  spi_idx =0 short addr:00 41
[2019-09-24 13:34:45.601] spi_idx = 0 dest_addr_short 0041
[2019-09-24 13:34:45.621] vtapp_send2plc_esc Tx_Seq_Number = 0
[2019-09-24 13:34:45.621] vtapp_send2plc_esc send: (0)(len=26):[VT_PTCL_ATC_QUERY]
[2019-09-24 13:34:45.641] 56 46 23 12 02 00 00 01 00 00 0c 00 01 06 09 7e 
[2019-09-24 13:34:45.641]       a0 07 03 23 53 b3 f4 7e 5d 54 
[2019-09-24 13:34:51.581] retryTimer_cb Waiting timer: 36 s
[2019-09-24 13:34:57.581] retryTimer_cb Waiting timer: 42 s
[2019-09-24 13:35:03.581] retryTimer_cb Waiting timer: 48 s
[2019-09-24 13:35:09.582] retryTimer_cb Waiting timer: 54 s
[2019-09-24 13:35:15.582] retryTimer_cb Stop(11) 
[2019-09-24 13:35:15.582] _vtsdk_send: UART pbuf=0x10002f80, len=16
[2019-09-24 13:35:15.602] MakeDenyPacketSimple ID(0)[COMM_TIMEOUT] ret(0) send(16):
[2019-09-24 13:35:15.612] 68 10 00 81 00 00 00 00 00 10 00 02 00 00 93 16 
[2019-09-24 13:35:15.622] retryTimer_cb No connection
[2019-09-24 13:35:15.622] retryTimer_cb stop retryTimer
[2019-09-24 13:35:15.702] >>>>>>
[2019-09-24 13:35:15.702] task_loop: Rx from UART (40) 1000beb0
[2019-09-24 13:35:15.712] 68 28 00 41 05 00 28 80 25 11 36 10 00 35 00 00 
[2019-09-24 13:35:15.712]       46 23 12 02 00 00 13 01 00 00 00 00 09 7e a0 07 
[2019-09-24 13:35:15.722]       03 23 53 b3 f4 7e fc 16 
[2019-09-24 13:35:15.722] vtsdk_calloc 0x1000d2f0(80)
[2019-09-24 13:35:15.722] task_loop Packet Serial Num: 17
[2019-09-24 13:35:15.722] AfnRouterDataForward [13H-F1] -> Rx from DCU, Download packet serial number:17
[2019-09-24 13:35:15.732] AfnRouterDataForward Target: PLC meter
[2019-09-24 13:35:15.732] AfnRouterDataForward dest_Addr: 46 23 12 02 00 00 
[2019-09-24 13:35:15.742] _vtsdk_send: VTSDK_PORT_PLC_ESC pbuf=0x1000c028, len=26
[2019-09-24 13:35:15.742] 0x1000c028 26
[2019-09-24 13:35:15.752] 56 46 23 12 02 00 00 01 00 00 0c 00 01 06 09 7e 
[2019-09-24 13:35:15.752]       a0 07 03 23 53 b3 f4 7e 5d 54 
[2019-09-24 13:35:15.762] id:46 23 12 02 00 00 
[2019-09-24 13:35:15.762]  spi_idx =0 short addr:00 41
[2019-09-24 13:35:15.762] spi_idx = 0 dest_addr_short 0041
[2019-09-24 13:35:15.772] vtapp_send2plc_esc Tx_Seq_Number = 0
[2019-09-24 13:35:15.782] vtapp_send2plc_esc send: (0)(len=26):[VT_PTCL_ATC_QUERY]
[2019-09-24 13:35:15.792] 56 46 23 12 02 00 00 01 00 00 0c 00 01 06 09 7e 
[2019-09-24 13:35:15.792]       a0 07 03 23 53 b3 f4 7e 5d 54 
[2019-09-24 13:35:15.792] vtsdk_free 0x1000d2f0
[2019-09-24 13:35:21.732] retryTimer_cb Waiting timer: 6 s
[2019-09-24 13:35:27.732] retryTimer_cb Waiting timer: 12 s
[2019-09-24 13:35:33.734] retryTimer_cb Waiting timer: 18 s
[2019-09-24 13:35:35.954] check white list from spi 0
[2019-09-24 13:35:39.734] retryTimer_cb Waiting timer: 24 s
[2019-09-24 13:35:45.734] retryTimer_cb Waiting timer: 30 s
[2019-09-24 13:35:45.744] retryTimer_cb Retry Counting: 5 
[2019-09-24 13:35:45.744] _vtsdk_send: VTSDK_PORT_PLC_ESC pbuf=0x1000c028, len=26
[2019-09-24 13:35:45.754] 0x1000c028 26
[2019-09-24 13:35:45.754] 56 46 23 12 02 00 00 01 00 00 0c 00 01 06 09 7e 
[2019-09-24 13:35:45.754]       a0 07 03 23 53 b3 f4 7e 5d 54 
[2019-09-24 13:35:45.764] id:46 23 12 02 00 00 
[2019-09-24 13:35:45.764]  spi_idx =0 short addr:00 41
[2019-09-24 13:35:45.774] spi_idx = 0 dest_addr_short 0041
[2019-09-24 13:35:45.794] vtapp_send2plc_esc Tx_Seq_Number = 0
[2019-09-24 13:35:45.794] vtapp_send2plc_esc send: (0)(len=26):[VT_PTCL_ATC_QUERY]
[2019-09-24 13:35:45.794] 56 46 23 12 02 00 00 01 00 00 0c 00 01 06 09 7e 
[2019-09-24 13:35:45.794]       a0 07 03 23 53 b3 f4 7e 5d 54 
[2019-09-24 13:35:51.734] retryTimer_cb Waiting timer: 36 s
[2019-09-24 13:35:57.735] retryTimer_cb Waiting timer: 42 s
[2019-09-24 13:36:03.735] retryTimer_cb Waiting timer: 48 s
[2019-09-24 13:36:09.735] retryTimer_cb Waiting timer: 54 s
[2019-09-24 13:36:15.735] retryTimer_cb Stop(11) 
[2019-09-24 13:36:15.745] _vtsdk_send: UART pbuf=0x10002f80, len=16
[2019-09-24 13:36:15.765] MakeDenyPacketSimple ID(0)[COMM_TIMEOUT] ret(0) send(16):
[2019-09-24 13:36:15.775] 68 10 00 81 00 00 00 00 00 11 00 02 00 00 94 16 
[2019-09-24 13:36:15.775] retryTimer_cb No connection
[2019-09-24 13:36:15.775] retryTimer_cb stop retryTimer
[2019-09-24 13:36:15.845] >>>>>>
[2019-09-24 13:36:15.855] task_loop: Rx from UART (40) 1000beb0
[2019-09-24 13:36:15.855] 68 28 00 41 05 00 28 80 25 12 36 10 00 35 00 00 
[2019-09-24 13:36:15.865]       46 23 12 02 00 00 13 01 00 00 00 00 09 7e a0 07 
[2019-09-24 13:36:15.865]       03 23 53 b3 f4 7e fd 16 
[2019-09-24 13:36:15.875] vtsdk_calloc 0x1000d2f0(80)
[2019-09-24 13:36:15.875] task_loop Packet Serial Num: 18
[2019-09-24 13:36:15.875] AfnRouterDataForward [13H-F1] -> Rx from DCU, Download packet serial number:18
[2019-09-24 13:36:15.885] AfnRouterDataForward Target: PLC meter
[2019-09-24 13:36:15.885] AfnRouterDataForward dest_Addr: 46 23 12 02 00 00 
[2019-09-24 13:36:15.885] _vtsdk_send: VTSDK_PORT_PLC_ESC pbuf=0x1000c028, len=26
[2019-09-24 13:36:15.895] 0x1000c028 26
[2019-09-24 13:36:15.895] 56 46 23 12 02 00 00 01 00 00 0c 00 01 06 09 7e 
[2019-09-24 13:36:15.905]       a0 07 03 23 53 b3 f4 7e 5d 54 
[2019-09-24 13:36:15.915] id:46 23 12 02 00 00 
[2019-09-24 13:36:15.915]  spi_idx =0 short addr:00 41
[2019-09-24 13:36:15.915] spi_idx = 0 dest_addr_short 0041
[2019-09-24 13:36:15.925] vtapp_send2plc_esc Tx_Seq_Number = 0
[2019-09-24 13:36:15.935] vtapp_send2plc_esc send: (0)(len=26):[VT_PTCL_ATC_QUERY]
[2019-09-24 13:36:15.945] 56 46 23 12 02 00 00 01 00 00 0c 00 01 06 09 7e 
[2019-09-24 13:36:15.945]       a0 07 03 23 53 b3 f4 7e 5d 54 
[2019-09-24 13:36:15.945] vtsdk_free 0x1000d2f0
[2019-09-24 13:36:21.886] retryTimer_cb Waiting timer: 6 s
[2019-09-24 13:36:27.886] retryTimer_cb Waiting timer: 12 s
[2019-09-24 13:36:33.889] retryTimer_cb Waiting timer: 18 s
[2019-09-24 13:36:39.889] retryTimer_cb Waiting timer: 24 s
[2019-09-24 13:36:42.789] vtmsg: slow down... level is 1 (busy_index=6)
[2019-09-24 13:36:45.889] retryTimer_cb Waiting timer: 30 s
[2019-09-24 13:36:45.889] retryTimer_cb Retry Counting: 5 
[2019-09-24 13:36:45.899] _vtsdk_send: VTSDK_PORT_PLC_ESC pbuf=0x1000c028, len=26
[2019-09-24 13:36:45.899] 0x1000c028 26
[2019-09-24 13:36:45.909] 56 46 23 12 02 00 00 01 00 00 0c 00 01 06 09 7e 
[2019-09-24 13:36:45.909]       a0 07 03 23 53 b3 f4 7e 5d 54 
[2019-09-24 13:36:45.909] id:46 23 12 02 00 00 
[2019-09-24 13:36:45.919]  spi_idx =0 short addr:00 41
[2019-09-24 13:36:45.919] spi_idx = 0 dest_addr_short 0041
[2019-09-24 13:36:45.929] vtapp_send2plc_esc Tx_Seq_Number = 0
[2019-09-24 13:36:45.939] vtapp_send2plc_esc send: (0)(len=26):[VT_PTCL_ATC_QUERY]
[2019-09-24 13:36:45.959] 56 46 23 12 02 00 00 01 00 00 0c 00 01 06 09 7e 
[2019-09-24 13:36:45.959]       a0 07 03 23 53 b3 f4 7e 5d 54 
[2019-09-24 13:36:51.889] retryTimer_cb Waiting timer: 36 s
[2019-09-24 13:36:57.875] retryTimer_cb Waiting timer: 42 s
[2019-09-24 13:37:03.874] retryTimer_cb Waiting timer: 48 s
[2019-09-24 13:37:09.876] retryTimer_cb Waiting timer: 54 s
[2019-09-24 13:37:15.876] retryTimer_cb Stop(11) 
[2019-09-24 13:37:15.881] _vtsdk_send: UART pbuf=0x10002f80, len=16
[2019-09-24 13:37:15.897] MakeDenyPacketSimple ID(0)[COMM_TIMEOUT] ret(0) send(16):
[2019-09-24 13:37:15.908] 68 10 00 81 00 00 00 00 00 12 00 02 00 00 95 16 
[2019-09-24 13:37:15.912] retryTimer_cb No connection
[2019-09-24 13:37:15.916] retryTimer_cb stop retryTimer
[2019-09-24 13:37:16.077] >>>>>>
[2019-09-24 13:37:16.081] task_loop: Rx from UART (40) 1000beb0
[2019-09-24 13:37:16.085] 68 28 00 41 05 00 28 80 25 13 36 10 00 35 00 00 
[2019-09-24 13:37:16.112]       11 26 12 02 00 00 13 01 00 00 00 00 09 7e a0 07 
[2019-09-24 13:37:16.118]       03 23 93 bf 32 7e 56 16 
[2019-09-24 13:37:16.118] vtsdk_calloc 0x1000d2f0(80)
[2019-09-24 13:37:16.118] task_loop Packet Serial Num: 19
[2019-09-24 13:37:16.118] AfnRouterDataForward [13H-F1] -> Rx from DCU, Download packet serial number:19
[2019-09-24 13:37:16.118] AfnRouterDataForward Target: PLC meter
[2019-09-24 13:37:16.118] AfnRouterDataForward dest_Addr: 11 26 12 02 00 00 
[2019-09-24 13:37:16.118] _vtsdk_send: VTSDK_PORT_PLC_ESC pbuf=0x1000c028, len=26
[2019-09-24 13:37:16.149] 0x1000c028 26
[2019-09-24 13:37:16.149] 56 11 26 12 02 00 00 01 00 00 0c 00 01 06 09 7e 
[2019-09-24 13:37:16.180]       a0 07 03 23 93 bf 32 7e b5 54 
[2019-09-24 13:37:16.180] id:11 26 12 02 00 00 
[2019-09-24 13:37:16.180]  spi_idx =0 short addr:00 02
[2019-09-24 13:37:16.180] spi_idx = 0 dest_addr_short 0002
[2019-09-24 13:37:16.180] vtapp_send2plc_esc Tx_Seq_Number = 0
[2019-09-24 13:37:16.180] vtapp_send2plc_esc send: (0)(len=26):[VT_PTCL_ATC_QUERY]
[2019-09-24 13:37:16.218] 56 11 26 12 02 00 00 01 00 00 0c 00 01 06 09 7e 
[2019-09-24 13:37:16.218]       a0 07 03 23 93 bf 32 7e b5 54 
[2019-09-24 13:37:16.218] vtsdk_free 0x1000d2f0
[2019-09-24 13:37:18.489] vtmsg: slow down... level is 1 (busy_index=6)
[2019-09-24 13:37:19.549] revcommand not found !
[2019-09-24 13:37:20.238] 
[2019-09-24 13:37:20.241] vt# vre retryTimer_cb Waiting timer: 6 s
[2019-09-24 13:37:22.215]  er
[2019-09-24 13:37:22.654] 
[2019-09-24 13:37:22.654] SW Version : V1.0 03e02962@(2019/06/08 10:29:59)
[2019-09-24 13:37:22.657] Start Time : 78277.807 sec
[2019-09-24 13:37:22.662] 
[2019-09-24 13:37:22.662] vt# retryTimer_cb Waiting timer: 12 s
[2019-09-24 13:37:34.116] retryTimer_cb Waiting timer: 18 s
[2019-09-24 13:37:40.112] retryTimer_cb Waiting timer: 24 s
[2019-09-24 13:37:46.113] retryTimer_cb Waiting timer: 30 s
[2019-09-24 13:37:46.119] retryTimer_cb Retry Counting: 5 
[2019-09-24 13:37:46.121] _vtsdk_send: VTSDK_PORT_PLC_ESC pbuf=0x1000c028, len=26
[2019-09-24 13:37:46.127] 0x1000c028 26
[2019-09-24 13:37:46.129] 56 11 26 12 02 00 00 01 00 00 0c 00 01 06 09 7e 
[2019-09-24 13:37:46.132]       a0 07 03 23 93 bf 32 7e b5 54 
[2019-09-24 13:37:46.135] id:11 26 12 02 00 00 
[2019-09-24 13:37:46.137]  spi_idx =0 short addr:00 02
[2019-09-24 13:37:46.140] spi_idx = 0 dest_addr_short 0002
[2019-09-24 13:37:46.152] vtapp_send2plc_esc Tx_Seq_Number = 0
[2019-09-24 13:37:46.159] vtapp_send2plc_esc send: (0)(len=26):[VT_PTCL_ATC_QUERY]
[2019-09-24 13:37:46.163] 56 11 26 12 02 00 00 01 00 00 0c 00 01 06 09 7e 
[2019-09-24 13:37:46.167]       a0 07 03 23 93 bf 32 7e b5 54 
[2019-09-24 13:37:52.113] retryTimer_cb Waiting timer: 36 s
[2019-09-24 13:37:58.127] retryTimer_cb Waiting timer: 42 s
[2019-09-24 13:38:04.117] retryTimer_cb Waiting timer: 48 s
[2019-09-24 13:38:10.114] retryTimer_cb Waiting timer: 54 s
[2019-09-24 13:38:16.114] retryTimer_cb Stop(11) 
[2019-09-24 13:38:16.118] _vtsdk_send: UART pbuf=0x10002f80, len=16
[2019-09-24 13:38:16.135] MakeDenyPacketSimple ID(0)[COMM_TIMEOUT] ret(0) send(16):
[2019-09-24 13:38:16.143] 68 10 00 81 00 00 00 00 00 13 00 02 00 00 96 16 
[2019-09-24 13:38:16.147] retryTimer_cb No connection
[2019-09-24 13:38:16.149] retryTimer_cb stop retryTimer
[2019-09-24 13:38:16.296] >>>>>>
[2019-09-24 13:38:16.300] task_loop: Rx from UART (40) 1000beb0
[2019-09-24 13:38:16.303] 68 28 00 41 05 00 28 80 25 14 36 10 00 35 00 00 
[2019-09-24 13:38:16.307]       13 26 12 02 00 00 13 01 00 00 00 00 09 7e a0 07 
[2019-09-24 13:38:16.315]       03 23 53 b3 f4 7e cf 16 
[2019-09-24 13:38:16.316] vtsdk_calloc 0x1000d2f0(80)
[2019-09-24 13:38:16.318] task_loop Packet Serial Num: 20
[2019-09-24 13:38:16.321] AfnRouterDataForward [13H-F1] -> Rx from DCU, Download packet serial number:20
[2019-09-24 13:38:16.328] AfnRouterDataForward Target: PLC meter
[2019-09-24 13:38:16.330] AfnRouterDataForward dest_Addr: 13 26 12 02 00 00 
[2019-09-24 13:38:16.335] _vtsdk_send: VTSDK_PORT_PLC_ESC pbuf=0x1000c028, len=26
[2019-09-24 13:38:16.340] 0x1000c028 26
[2019-09-24 13:38:16.341] 56 13 26 12 02 00 00 01 00 00 0c 00 01 06 09 7e 
[2019-09-24 13:38:16.345]       a0 07 03 23 53 b3 f4 7e 2d 54 
[2019-09-24 13:38:16.349] id:13 26 12 02 00 00 
[2019-09-24 13:38:16.351]  spi_idx =0 short addr:00 6b
[2019-09-24 13:38:16.353] spi_idx = 0 dest_addr_short 006b
[2019-09-24 13:38:16.365] vtapp_send2plc_esc Tx_Seq_Number = 0
[2019-09-24 13:38:16.370] vtapp_send2plc_esc send: (0)(len=26):[VT_PTCL_ATC_QUERY]
[2019-09-24 13:38:16.375] 56 13 26 12 02 00 00 01 00 00 0c 00 01 06 09 7e 
[2019-09-24 13:38:16.380]       a0 07 03 23 53 b3 f4 7e 2d 54 
[2019-09-24 13:38:16.383] vtsdk_free 0x1000d2f0
[2019-09-24 13:38:22.350] retryTimer_cb Waiting timer: 6 s
[2019-09-24 13:38:28.350] retryTimer_cb Waiting timer: 12 s
[2019-09-24 13:38:34.350] retryTimer_cb Waiting timer: 18 s
[2019-09-24 13:38:40.350] retryTimer_cb Waiting timer: 24 s
[2019-09-24 13:38:46.334] retryTimer_cb Waiting timer: 30 s
[2019-09-24 13:38:46.338] retryTimer_cb Retry Counting: 5 
[2019-09-24 13:38:46.343] _vtsdk_send: VTSDK_PORT_PLC_ESC pbuf=0x1000c028, len=26
[2019-09-24 13:38:46.347] 0x1000c028 26
[2019-09-24 13:38:46.348] 56 13 26 12 02 00 00 01 00 00 0c 00 01 06 09 7e 
[2019-09-24 13:38:46.352]       a0 07 03 23 53 b3 f4 7e 2d 54 
[2019-09-24 13:38:46.355] id:13 26 12 02 00 00 
[2019-09-24 13:38:46.358]  spi_idx =0 short addr:00 6b
[2019-09-24 13:38:46.361] spi_idx = 0 dest_addr_short 006b
[2019-09-24 13:38:46.374] vtapp_send2plc_esc Tx_Seq_Number = 0
[2019-09-24 13:38:46.380] vtapp_send2plc_esc send: (0)(len=26):[VT_PTCL_ATC_QUERY]
[2019-09-24 13:38:46.383] 56 13 26 12 02 00 00 01 00 00 0c 00 01 06 09 7e 
[2019-09-24 13:38:46.387]       a0 07 03 23 53 b3 f4 7e 2d 54 
[2019-09-24 13:38:52.341] retryTimer_cb Waiting timer: 36 s
[2019-09-24 13:38:58.341] retryTimer_cb Waiting timer: 42 s
[2019-09-24 13:39:04.341] retryTimer_cb Waiting timer: 48 s
[2019-09-24 13:39:10.330] retryTimer_cb Waiting timer: 54 s
[2019-09-24 13:39:16.330] retryTimer_cb Stop(11) 
[2019-09-24 13:39:16.336] _vtsdk_send: UART pbuf=0x10002f80, len=16
[2019-09-24 13:39:16.352] MakeDenyPacketSimple ID(0)[COMM_TIMEOUT] ret(0) send(16):
[2019-09-24 13:39:16.361] 68 10 00 81 00 00 00 00 00 14 00 02 00 00 97 16 
[2019-09-24 13:39:16.365] retryTimer_cb No connection
[2019-09-24 13:39:16.367] retryTimer_cb stop retryTimer
[2019-09-24 13:39:16.521] >>>>>>
[2019-09-24 13:39:16.525] task_loop: Rx from UART (40) 1000beb0
[2019-09-24 13:39:16.528] 68 28 00 41 05 00 28 80 25 15 36 10 00 35 00 00 
[2019-09-24 13:39:16.532]       13 26 12 02 00 00 13 01 00 00 00 00 09 7e a0 07 
[2019-09-24 13:39:16.538]       03 23 53 b3 f4 7e d0 16 
[2019-09-24 13:39:16.540] vtsdk_calloc 0x1000d2f0(80)
[2019-09-24 13:39:16.542] task_loop Packet Serial Num: 21
[2019-09-24 13:39:16.547] AfnRouterDataForward [13H-F1] -> Rx from DCU, Download packet serial number:21
[2019-09-24 13:39:16.552] AfnRouterDataForward Target: PLC meter
[2019-09-24 13:39:16.555] AfnRouterDataForward dest_Addr: 13 26 12 02 00 00 
[2019-09-24 13:39:16.560] _vtsdk_send: VTSDK_PORT_PLC_ESC pbuf=0x1000c028, len=26
[2019-09-24 13:39:16.565] 0x1000c028 26
[2019-09-24 13:39:16.567] 56 13 26 12 02 00 00 01 00 00 0c 00 01 06 09 7e 
[2019-09-24 13:39:16.570]       a0 07 03 23 53 b3 f4 7e 2d 54 
[2019-09-24 13:39:16.573] id:13 26 12 02 00 00 
[2019-09-24 13:39:16.576]  spi_idx =0 short addr:00 6b
[2019-09-24 13:39:16.577] spi_idx = 0 dest_addr_short 006b
[2019-09-24 13:39:16.591] vtapp_send2plc_esc Tx_Seq_Number = 0
[2019-09-24 13:39:16.595] vtapp_send2plc_esc send: (0)(len=26):[VT_PTCL_ATC_QUERY]
[2019-09-24 13:39:16.600] 56 13 26 12 02 00 00 01 00 00 0c 00 01 06 09 7e 
[2019-09-24 13:39:16.604]       a0 07 03 23 53 b3 f4 7e 2d 54 
[2019-09-24 13:39:16.606] vtsdk_free 0x1000d2f0
[2019-09-24 13:39:22.573] retryTimer_cb Waiting timer: 6 s
[2019-09-24 13:39:28.557] retryTimer_cb Waiting timer: 12 s
[2019-09-24 13:39:34.557] retryTimer_cb Waiting timer: 18 s
[2019-09-24 13:39:40.556] retryTimer_cb Waiting timer: 24 s
[2019-09-24 13:39:46.556] retryTimer_cb Waiting timer: 30 s
[2019-09-24 13:39:46.561] retryTimer_cb Retry Counting: 5 
[2019-09-24 13:39:46.566] _vtsdk_send: VTSDK_PORT_PLC_ESC pbuf=0x1000c028, len=26
[2019-09-24 13:39:46.571] 0x1000c028 26
[2019-09-24 13:39:46.573] 56 13 26 12 02 00 00 01 00 00 0c 00 01 06 09 7e 
[2019-09-24 13:39:46.575]       a0 07 03 23 53 b3 f4 7e 2d 54 
[2019-09-24 13:39:46.578] id:13 26 12 02 00 00 
[2019-09-24 13:39:46.580]  spi_idx =0 short addr:00 6b
[2019-09-24 13:39:46.583] spi_idx = 0 dest_addr_short 006b
[2019-09-24 13:39:46.594] vtapp_send2plc_esc Tx_Seq_Number = 0
[2019-09-24 13:39:46.600] vtapp_send2plc_esc send: (0)(len=26):[VT_PTCL_ATC_QUERY]
[2019-09-24 13:39:46.605] 56 13 26 12 02 00 00 01 00 00 0c 00 01 06 09 7e 
[2019-09-24 13:39:46.609]       a0 07 03 23 53 b3 f4 7e 2d 54 
[2019-09-24 13:39:52.575] retryTimer_cb Waiting timer: 36 s
[2019-09-24 13:39:58.575] retryTimer_cb Waiting timer: 42 s
[2019-09-24 13:40:04.575] retryTimer_cb Waiting timer: 48 s
[2019-09-24 13:40:10.558] retryTimer_cb Waiting timer: 54 s
[2019-09-24 13:40:16.558] retryTimer_cb Stop(11) 
[2019-09-24 13:40:16.561] _vtsdk_send: UART pbuf=0x10002f80, len=16
[2019-09-24 13:40:16.579] MakeDenyPacketSimple ID(0)[COMM_TIMEOUT] ret(0) send(16):
[2019-09-24 13:40:16.586] 68 10 00 81 00 00 00 00 00 15 00 02 00 00 98 16 
[2019-09-24 13:40:16.590] retryTimer_cb No connection
[2019-09-24 13:40:16.593] retryTimer_cb stop retryTimer
[2019-09-24 13:40:16.683] >>>>>>
[2019-09-24 13:40:16.685] task_loop: Rx from UART (40) 1000beb0
[2019-09-24 13:40:16.688] 68 28 00 41 05 00 28 80 25 16 36 10 00 35 00 00 
[2019-09-24 13:40:16.693]       13 26 12 02 00 00 13 01 00 00 00 00 09 7e a0 07 
[2019-09-24 13:40:16.698]       03 23 53 b3 f4 7e d1 16 
[2019-09-24 13:40:16.700] vtsdk_calloc 0x1000d2f0(80)
[2019-09-24 13:40:16.703] task_loop Packet Serial Num: 22
[2019-09-24 13:40:16.710] AfnRouterDataForward [13H-F1] -> Rx from DCU, Download packet serial number:22
[2019-09-24 13:40:16.713] AfnRouterDataForward Target: PLC meter
[2019-09-24 13:40:16.716] AfnRouterDataForward dest_Addr: 13 26 12 02 00 00 
[2019-09-24 13:40:16.722] _vtsdk_send: VTSDK_PORT_PLC_ESC pbuf=0x1000c028, len=26
[2019-09-24 13:40:16.726] 0x1000c028 26
[2019-09-24 13:40:16.727] 56 13 26 12 02 00 00 01 00 00 0c 00 01 06 09 7e 
[2019-09-24 13:40:16.731]       a0 07 03 23 53 b3 f4 7e 2d 54 
[2019-09-24 13:40:16.735] id:13 26 12 02 00 00 
[2019-09-24 13:40:16.737]  spi_idx =0 short addr:00 6b
[2019-09-24 13:40:16.739] spi_idx = 0 dest_addr_short 006b
[2019-09-24 13:40:16.752] vtapp_send2plc_esc Tx_Seq_Number = 0
[2019-09-24 13:40:16.756] vtapp_send2plc_esc send: (0)(len=26):[VT_PTCL_ATC_QUERY]
[2019-09-24 13:40:16.761] 56 13 26 12 02 00 00 01 00 00 0c 00 01 06 09 7e 
[2019-09-24 13:40:16.765]       a0 07 03 23 53 b3 f4 7e 2d 54 
[2019-09-24 13:40:16.769] vtsdk_free 0x1000d2f0
[2019-09-24 13:40:22.727] retryTimer_cb Waiting timer: 6 s
[2019-09-24 13:40:28.727] retryTimer_cb Waiting timer: 12 s
[2019-09-24 13:40:34.727] retryTimer_cb Waiting timer: 18 s
[2019-09-24 13:40:40.727] retryTimer_cb Waiting timer: 24 s
