
[2019-09-21 16:59:53.481] Receive Beacon
[2019-09-21 16:59:53.491] Beacon state 0
[2019-09-21 16:59:53.491] Beacon LQI 67, LinkCost 255
[2019-09-21 16:59:53.491] route_cost table[0] 0133 < receive 0244, Ignore Beacon
[2019-09-21 16:59:53.491] Receive Beacon
[2019-09-21 16:59:53.491] Beacon state 0
[2019-09-21 16:59:53.491] Beacon LQI 32, LinkCost 34
[2019-09-21 16:59:53.491] route_cost table[0] 0133 < receive 0167, Ignore Beacon
[2019-09-21 16:59:53.491] Receive Beacon
[2019-09-21 16:59:53.491] Beacon state 0
[2019-09-21 16:59:53.491] Beacon LQI 28, LinkCost 35
[2019-09-21 16:59:53.491] route_cost table[0] 0133 < receive 0167, Ignore Beacon
[2019-09-21 16:59:53.491] Receive Beacon
[2019-09-21 16:59:53.491] Beacon state 0
[2019-09-21 16:59:53.491] Beacon LQI 96, LinkCost 255
[2019-09-21 16:59:53.491] route_cost table[0] 0133 < receive 0218, Ignore Beacon
[2019-09-21 16:59:53.491] Receive Beacon
[2019-09-21 16:59:53.491] Beacon state 0
[2019-09-21 16:59:53.491] Beacon LQI 99, LinkCost 24
[2019-09-21 16:59:53.491] route_cost table[0] 0133 < receive 0216, Ignore Beacon
[2019-09-21 16:59:53.491] Receive Beacon
[2019-09-21 16:59:53.491] Beacon state 0
[2019-09-21 16:59:53.491] Beacon LQI 79, LinkCost 27
[2019-09-21 16:59:53.491] route_cost table[0] 0133 < receive 0136, Ignore Beacon
[2019-09-21 16:59:53.491] Receive Beacon
[2019-09-21 16:59:53.491] Beacon state 0
[2019-09-21 16:59:53.491] Beacon LQI 66, LinkCost 29
[2019-09-21 16:59:53.491] route_cost table[0] 0133 < receive 0153, Ignore Beacon
[2019-09-21 16:59:53.491] Receive Beacon
[2019-09-21 16:59:53.491] Beacon state 0
[2019-09-21 16:59:53.491] Beacon LQI 34, LinkCost 34
[2019-09-21 16:59:53.491] route_cost table[0] 0133 < receive 015B, Ignore Beacon
[2019-09-21 16:59:53.491] Receive Beacon
[2019-09-21 16:59:53.491] Beacon state 0
[2019-09-21 16:59:53.491] Beacon LQI 102, LinkCost 255
[2019-09-21 16:59:53.491] route_cost table[0] 0133 < receive 0217, Ignore Beacon
[2019-09-21 16:59:53.491] Receive Beacon
[2019-09-21 16:59:53.491] Beacon state 0
[2019-09-21 16:59:53.491] Beacon LQI 51, LinkCost 255
[2019-09-21 16:59:53.491] route_cost table[0] 0133 < receive 0233, Ignore Beacon
[2019-09-21 16:59:53.491] Receive Beacon
[2019-09-21 16:59:53.491] Beacon state 0
[2019-09-21 16:59:53.491] Beacon LQI 92, LinkCost 25
[2019-09-21 16:59:53.491] route_cost table[0] 0133 < receive 0135, Ignore Beacon
[2019-09-21 16:59:53.491] Receive Beacon
[2019-09-21 16:59:53.491] Beacon state 0
[2019-09-21 16:59:53.491] Beacon LQI 93, LinkCost 255
[2019-09-21 16:59:53.491] route_cost table[0] 0133 < receive 021A, Ignore Beacon
[2019-09-21 16:59:53.491] Receive Beacon
[2019-09-21 16:59:53.491] Beacon state 0
[2019-09-21 16:59:53.491] Beacon LQI 40, LinkCost 33
[2019-09-21 16:59:53.491] route_cost table[0] 0133 < receive 014A, Ignore Beacon
[2019-09-21 16:59:53.491] Receive Beacon
[2019-09-21 16:59:53.491] Beacon state 0
[2019-09-21 16:59:53.491] Beacon LQI 80, LinkCost 27
[2019-09-21 16:59:53.491] route_cost table[0] 0133 < receive 0135, Ignore Beacon
[2019-09-21 16:59:53.491] Receive Beacon
[2019-09-21 16:59:53.491] Beacon state 0
[2019-09-21 16:59:53.491] Beacon LQI 52, LinkCost 255
[2019-09-21 16:59:53.491] route_cost table[0] 0133 < receive 0252, Ignore Beacon
[2019-09-21 16:59:54.331] Receive Beacon
[2019-09-21 16:59:54.331] Beacon state 0
[2019-09-21 16:59:54.341] Beacon LQI 44, LinkCost 33
[2019-09-21 16:59:54.341] route_cost table[0] 0133 < receive 014A, Ignore Beacon
[2019-09-21 16:59:54.591] Receive Beacon
[2019-09-21 16:59:54.591] Beacon state 0
[2019-09-21 16:59:54.591] Beacon LQI 28, LinkCost 255
[2019-09-21 16:59:54.591] route_cost table[0] 0133 < receive 0245, Ignore Beacon
[2019-09-21 16:59:54.661] 
[2019-09-21 16:59:54.661] vt# 
[2019-09-21 16:59:54.781] vt# PAN:38f7 LBA:0x0744 R_C:0x011a L_C: 0x19, Priority 0
[2019-09-21 16:59:54.921] adpm_discovery_comfirm_cb: Select PAN 38f7
[2019-09-21 16:59:54.921] adpm_discovery_comfirm_cb: History PAN 38f7, join cnt = 1
[2019-09-21 16:59:54.931] Choose Beacon Table[0].join_cost 0133 (0x38F7), Join Wait 20 sec
[2019-09-21 16:59:55.231] reboot
[2019-09-21 16:59:56.811] 
[2019-09-21 16:59:56.811] vtmm_flush_nvram(1170) nvram_rom= 0x0007f000 0x0007e000, ptr = 0x20001214, size = 1892 chk = 0xdcb628c6
[2019-09-21 16:59:56.881] [0x54000020] <- 0x02000080__info_block = 0x000ff000
[2019-09-21 16:59:56.901] __info_h0    = 0x000ff030
[2019-09-21 16:59:56.901] __info_h1    = 0x000ff2b0
[2019-09-21 16:59:56.901] __info_hb0   = 0x000ff0b0
[2019-09-21 16:59:56.901] __info_hb1   = 0x000ff330
[2019-09-21 16:59:56.911] 
[2019-09-21 16:59:56.911] bbp_reloc    = 0x00000001
[2019-09-21 16:59:56.911] 
[2019-09-21 16:59:56.911] 
[2019-09-21 16:59:56.911]   PHY_CR1		a00000c0	<- 00000000
[2019-09-21 16:59:56.911]   vma)a0200000 lma)0005f800 vma_size)000000d4 lma_size)000000e0
[2019-09-21 16:59:56.921]   vma)a0200400 lma)0005f8e0 vma_size)0000016c lma_size)00000170
[2019-09-21 16:59:56.921]   vma)a020057c lma)0005fa50 vma_size)00000008 lma_size)00000010
[2019-09-21 16:59:56.931]   vma)a020059c lma)0005fa60 vma_size)00000008 lma_size)00000010
[2019-09-21 16:59:56.931]   vma)a02005bc lma)0005fa70 vma_size)00000008 lma_size)00000010
[2019-09-21 16:59:56.941]   vma)a02005dc lma)0005fa80 vma_size)0000000c lma_size)00000010
[2019-09-21 16:59:56.941]   vma)a02005fc lma)0005fa90 vma_size)00000004 lma_size)00000010
[2019-09-21 16:59:56.951]   vma)a020061c lma)0005faa0 vma_size)00000008 lma_size)00000010
[2019-09-21 16:59:56.951]   vma)a0200638 lma)0005fab0 vma_size)00000004 lma_size)00000010
[2019-09-21 16:59:56.961]   vma)a020063c lma)0005fac0 vma_size)00000018 lma_size)00000020
[2019-09-21 16:59:56.961]   vma)a020065c lma)0005fae0 vma_size)00000008 lma_size)00000010
[2019-09-21 16:59:56.971]   vma)a0220000 lma)0005faf0 vma_size)00000010 lma_size)00000010
[2019-09-21 16:59:56.981]   vma)a0240000 lma)73826577 vma_size)00000348 lma_size)00000000
[2019-09-21 16:59:56.981] (decompress) get config ... target vma:a0240000 target size:348
[2019-09-21 16:59:56.991]   vma)76907765 lma)0005fb00 vma_size)0000017c lma_size)00000180
[2019-09-21 16:59:57.001] (decompress) bbp image done ... outsize:348
[2019-09-21 16:59:57.001]   vma)a0220020 lma)73826577 vma_size)000003e0 lma_size)00000000
[2019-09-21 16:59:57.011] (decompress) get config ... target vma:a0220020 target size:3e0
[2019-09-21 16:59:57.011]   vma)76907765 lma)0005fc80 vma_size)00000180 lma_size)00000180
[2019-09-21 16:59:57.021] (decompress) bbp image done ... outsize:3e0
[2019-09-21 16:59:57.031]   vma)a0200678 lma)73826577 vma_size)00016310 lma_size)00000000
[2019-09-21 16:59:57.031] (decompress) get config ... target vma:a0200678 target size:16310
[2019-09-21 16:59:57.041]   vma)76907765 lma)0005fe00 vma_size)0000f0a4 lma_size)0000f0b0
[2019-09-21 16:59:57.421] (decompress) bbp image done ... outsize:1630d
[2019-09-21 16:59:57.431] 
[2019-09-21 16:59:57.431] heap size internal 1200 remain)023c 
[2019-09-21 16:59:57.431] heap size total    b100 remain)b100
[2019-09-21 16:59:57.431] pool size total    efe8 remain)efe8 min)efe8
[2019-09-21 16:59:57.441] 
[2019-09-21 16:59:57.441] Flash status:0000001c, Protect, ret=0
[2019-09-21 16:59:57.441] vtmm_restore_nvram R:0 addr= 0x0007f000, ptr = 0x20001214, size = 1892
[2019-09-21 16:59:57.451] vtmm_restore_nvram cs= 0xdcb628c6, nvcs = 0xdcb628c6  
[2019-09-21 16:59:57.451] 
[2019-09-21 16:59:57.451] Magpie PLC Platform - Copyright (c) 2015 Vango Technologies, Inc.
[2019-09-21 16:59:57.461] 
[2019-09-21 16:59:57.461] Version: v6.1.3.102_6.0.0.0 2019/05/21 09:44:37
[2019-09-21 16:59:57.461] reset		: hw_reset)0 watchdog)0 dormant)0 power_off)0
[2019-09-21 16:59:57.461] remap		: 2
[2019-09-21 16:59:57.471] hw-strap	: 0x13 pll_bypass)pll xtal)24M bootstrap)efc ate_spi)gpio jtag)gpio/mcu
[2019-09-21 16:59:57.471] clkin_mux	: AHB[1:0] 0x0 APB[3:2] 0x1
[2019-09-21 16:59:57.481] pwmtmr_clk	: apb_clk
[2019-09-21 16:59:57.481] 
[2019-09-21 16:59:57.481] xtal_clk	: 24000000
[2019-09-21 16:59:57.481] clk_in		: 128000000
[2019-09-21 16:59:57.481] fclk		: 128000000
[2019-09-21 16:59:57.481] hclk		: 128000000
[2019-09-21 16:59:57.491] pclk		: 32000000
[2019-09-21 16:59:57.491] uart_uclk	: 32000000
[2019-09-21 16:59:57.491] ssp_sclk	: 32000000
[2019-09-21 16:59:57.491] pwmtmr_extclk	: 500000
[2019-09-21 16:59:57.491] wdt_extclk	: 32000000
[2019-09-21 16:59:57.501] scu_clk		: 100000
[2019-09-21 16:59:57.501] rtc_clk		: 32000
[2019-09-21 16:59:57.501] 
[2019-09-21 16:59:57.501] 
[2019-09-21 16:59:57.501] vt# 
[2019-09-21 16:59:57.501] Release Ver: E01
[2019-09-21 16:59:57.501] 
[2019-09-21 16:59:57.501] >> task_init: as meter
[2019-09-21 16:59:57.511] 
[2019-09-21 16:59:57.511] as FCC
[2019-09-21 16:59:57.511] 
[2019-09-21 16:59:57.511] query dlt-645 2007 id loop @ 9600 bps parity:none
[2019-09-21 16:59:57.511] send(16)
[2019-09-21 16:59:57.511] 
[2019-09-21 16:59:57.511]       fe fe fe fe 68 aa aa aa aa aa aa 68 13 00 df 16 
[2019-09-21 16:59:57.511] 
[2019-09-21 16:59:58.531] recv(0)
[2019-09-21 16:59:58.531] 
[2019-09-21 16:59:58.531] 
[2019-09-21 16:59:58.531] query dlt-645 2007 id loop @ 4800 bps parity:none
[2019-09-21 16:59:58.541] send(16)
[2019-09-21 16:59:58.541] 
[2019-09-21 16:59:58.541]       fe fe fe fe 68 aa aa aa aa aa aa 68 13 00 df 16 
[2019-09-21 16:59:58.541] 
[2019-09-21 16:59:59.571] recv(0)
[2019-09-21 16:59:59.571] 
[2019-09-21 16:59:59.571] 
[2019-09-21 16:59:59.571] query dlt-645 2007 id loop @ 2400 bps parity:none
[2019-09-21 16:59:59.581] send(16)
[2019-09-21 16:59:59.581] 
[2019-09-21 16:59:59.581]       fe fe fe fe 68 aa aa aa aa aa aa 68 13 00 df 16 
[2019-09-21 16:59:59.581] 
[2019-09-21 17:00:00.641] recv(0)
[2019-09-21 17:00:00.651] 
[2019-09-21 17:00:00.651] 
[2019-09-21 17:00:01.141] query dlms id @ 9600 bps parity:none
[2019-09-21 17:00:01.151] >> query_meter_dlms_hdlc_id [init]
[2019-09-21 17:00:01.151] send(9)
[2019-09-21 17:00:01.151] 
[2019-09-21 17:00:01.151]       7e a0 07 03 21 53 03 c7 7e 
[2019-09-21 17:00:01.161] 
[2019-09-21 17:00:01.301] apprecv(0)
[2019-09-21 17:00:02.161] 
[2019-09-21 17:00:02.161] 
[2019-09-21 17:00:02.161] >> query_meter_dlms_hdlc_id [connect]
[2019-09-21 17:00:02.171] send(9)
[2019-09-21 17:00:02.171] 
[2019-09-21 17:00:02.171]       7e a0 07 03 21 93 0f 01 7e 
[2019-09-21 17:00:02.171] 
[2019-09-21 17:00:03.041] _recv(0)
[2019-09-21 17:00:03.191] 
[2019-09-21 17:00:03.191] 
[2019-09-21 17:00:03.191] >> query_meter_dlms_hdlc_id [disconnect]
[2019-09-21 17:00:03.191] send(9)
[2019-09-21 17:00:03.191] 
[2019-09-21 17:00:03.191]       7e a0 07 03 21 53 03 c7 7e 
[2019-09-21 17:00:03.191] 
[2019-09-21 17:00:03.651] clrecv(0)
[2019-09-21 17:00:04.201] 
[2019-09-21 17:00:04.201] 
[2019-09-21 17:00:04.251] i query dlt-645 2007 id loop @ 9600 bps parity:none
[2019-09-21 17:00:04.701] send(16)
[2019-09-21 17:00:04.701] 
[2019-09-21 17:00:04.701]       fe fe fe fe 68 aa aa aa aa aa aa 68 13 00 df 16 
[2019-09-21 17:00:04.711] 
[2019-09-21 17:00:04.861] fixrecv(0)
[2019-09-21 17:00:05.731] 
[2019-09-21 17:00:05.731] 
[2019-09-21 17:00:05.731] query dlt-645 2007 id loop @ 4800 bps parity:none
[2019-09-21 17:00:05.731] send(16)
[2019-09-21 17:00:05.731] 
[2019-09-21 17:00:05.731]       fe fe fe fe 68 aa aa aa aa aa aa 68 13 00 df 16 
[2019-09-21 17:00:05.741] 
[2019-09-21 17:00:06.401] idrecv(0)
[2019-09-21 17:00:06.771] 
[2019-09-21 17:00:06.771] 
[2019-09-21 17:00:06.771] query dlt-645 2007 id loop @ 2400 bps parity:none
[2019-09-21 17:00:06.771] send(16)
[2019-09-21 17:00:06.771] 
[2019-09-21 17:00:06.771]       fe fe fe fe 68 aa aa aa aa aa aa 68 13 00 df 16 
[2019-09-21 17:00:06.781] 
[2019-09-21 17:00:07.841] recv(0)
[2019-09-21 17:00:07.841] 
[2019-09-21 17:00:07.841] 
[2019-09-21 17:00:07.921] 
[2019-09-21 17:00:07.921] 
[2019-09-21 17:00:07.921]  FIX_MID:54 00 00 43 43 43 
[2019-09-21 17:00:07.921] 
[2019-09-21 17:00:07.921] vt# task_init: wd_cnt = 86400
[2019-09-21 17:00:08.341] task_init: assigned pan id = 0000
[2019-09-21 17:00:08.351] task_init: restore_pan = 0
[2019-09-21 17:00:08.351] task_init: nv meter id >>
[2019-09-21 17:00:08.351] 
[2019-09-21 17:00:08.351]       54 00 00 43 43 43 
[2019-09-21 17:00:08.351] 
[2019-09-21 17:00:08.351] ChipVer	: V6306 
[2019-09-21 17:00:08.351] System Init, LBD
[2019-09-21 17:00:08.361]   macMaxFrameRetries = 3
[2019-09-21 17:00:08.361]   macMaxRobustFrameRetries = 3
[2019-09-21 17:00:08.361]   macMaxSegmentFrameRetries = 3
[2019-09-21 17:00:08.361] 
[2019-09-21 17:00:08.361]   PHY_CR1		a00000c0	<- 00001003
[2019-09-21 17:00:08.371] [A00000C8] -> 00000000 bbp busy ...
[2019-09-21 17:00:08.471] bbp ready ~
[2019-09-21 17:00:08.471] set_vango_band_freq_range:(init/total/perGrp) 64/36/3
[2019-09-21 17:00:08.481] set bandplan 3, modulation 0
[2019-09-21 17:00:08.481]   macMaxFrameRetries = 3
[2019-09-21 17:00:08.481]   macMaxRobustFrameRetries = 3
[2019-09-21 17:00:08.491]   macMaxSegmentFrameRetries = 3
[2019-09-21 17:00:08.491] set bandplan: 3
[2019-09-21 17:00:08.501] set modulation: 0
[2019-09-21 17:00:08.511] Clear tone mask
[2019-09-21 17:00:08.521] Bandplan as FCC
[2019-09-21 17:00:08.531] set pmb syncp sym: 8
[2019-09-21 17:00:08.541] set pmb match sym: 3
[2019-09-21 17:00:08.551] set TDP FIR3 scale_max=134 scale_min=10 thr=15, start_scale
[2019-09-21 17:00:08.561] set LD gain select: 12V
[2019-09-21 17:00:08.581] set PGA mode: 0
[2019-09-21 17:00:08.591] set urgetnIn_en 1 
[2019-09-21 17:00:08.601] set apdt param: 1 20 1 32 20 500 2 1 10 3 9 6 9 6
[2019-09-21 17:00:08.621] set ant param: 1 24 5 30
[2019-09-21 17:00:08.631] set pmb det idle gain misc: 00000054 00000024 0000002a 0000002a 00000002
[2019-09-21 17:00:08.651] set max fa cnt in rx :10
[2019-09-21 17:00:08.661] set syncm inv det ratio :55
[2019-09-21 17:00:08.671] set ack tx additional gain :0 dB
[2019-09-21 17:00:08.691] set modulation: 0
[2019-09-21 17:00:08.701] 
[2019-09-21 17:00:08.701]   PHY_CR1		a00000c0	<- 00011003
[2019-09-21 17:00:08.701] ChipVer	: V6306 
[2019-09-21 17:00:08.711] Eable SWTD 86549938
[2019-09-21 17:00:08.711] Role = (1)....as LBD
[2019-09-21 17:00:08.711] task_init: nv_table_t.wd_cnt(86400)
[2019-09-21 17:00:08.711] >> holley_send_3088(58)
[2019-09-21 17:00:08.711] 
[2019-09-21 17:00:08.711]       68 34 34 68 5a 99 99 01 00 05 88 30 00 aa aa aa 
[2019-09-21 17:00:08.721]       aa aa aa aa aa aa aa aa aa aa aa aa aa aa aa aa 
[2019-09-21 17:00:08.721]       aa aa aa aa aa aa aa aa aa aa aa aa aa aa aa aa 
[2019-09-21 17:00:08.731]       aa aa aa aa 25 9b 6a 4d a7 16 
[2019-09-21 17:00:08.731] 
[2019-09-21 17:00:09.001] 
[2019-09-21 17:00:09.001] Receive beacon_request
[2019-09-21 17:00:09.001]     ->form: 379909FFFE020000
[2019-09-21 17:00:09.301] >> holley_request_4011(25)
[2019-09-21 17:00:09.301] 
[2019-09-21 17:00:09.301]       68 13 13 68 08 99 99 01 00 05 11 40 00 00 03 00 
[2019-09-21 17:00:09.311]       00 1c 80 01 ff 02 00 32 16 
[2019-09-21 17:00:09.311] 
[2019-09-21 17:00:09.341] vtmm_flush_nvram(1170) nvram_rom= 0x0007f000 0x0007e000, ptr = 0x20001214, size = 1892 chk = 0xdcb82bc8
[2019-09-21 17:00:09.611] 
[2019-09-21 17:00:09.611] Send Beacon Request
[2019-09-21 17:00:09.611] vtmac_pkt_submit() Tx pause(wiat bbp 907 ms)
[2019-09-21 17:00:10.511] bbp adaptive scale ready
[2019-09-21 17:00:14.041] Receive Beacon
[2019-09-21 17:00:14.041] Beacon state 0
[2019-09-21 17:00:14.041] Beacon LQI 60, LinkCost 30
[2019-09-21 17:00:14.051] Beacone table[0]: PAN 38F7, Addr 077B, R_C 0129, LC 1E, Priority 0
[2019-09-21 17:00:14.931] Receive Beacon
[2019-09-21 17:00:14.931] Beacon state 0
[2019-09-21 17:00:14.931] Beacon LQI 58, LinkCost 30
[2019-09-21 17:00:14.931] Beacone table[0]: PAN 38F7, Addr 0883, R_C 0129, LC 1E, Priority 0
[2019-09-21 17:00:15.241] Receive Beacon
[2019-09-21 17:00:15.241] Beacon state 0
[2019-09-21 17:00:15.241] Beacon LQI 92, LinkCost 25
[2019-09-21 17:00:15.251] Beacone table[0]: PAN 38F7, Addr 0744, R_C 011A, LC 19, Priority 0
[2019-09-21 17:00:18.491] Receive Beacon
[2019-09-21 17:00:18.491] Beacon state 0
[2019-09-21 17:00:18.491] Beacon LQI 95, LinkCost 255
[2019-09-21 17:00:18.491] route_cost table[0] 0133 < receive 0216, Ignore Beacon
[2019-09-21 17:00:21.931] Receive Beacon
[2019-09-21 17:00:21.931] Beacon state 0
[2019-09-21 17:00:21.941] Beacon LQI 102, LinkCost 255
[2019-09-21 17:00:21.941] route_cost table[0] 0133 < receive 0216, Ignore Beacon
[2019-09-21 17:00:25.071] Receive Beacon
[2019-09-21 17:00:25.081] Beacon state 0
[2019-09-21 17:00:25.081] Beacon LQI 92, LinkCost 255
[2019-09-21 17:00:25.081] route_cost table[0] 0133 < receive 0219, Ignore Beacon
[2019-09-21 17:00:25.611] Receive Beacon
[2019-09-21 17:00:25.621] Beacon state 0
[2019-09-21 17:00:25.621] Beacon LQI 77, LinkCost 27
[2019-09-21 17:00:25.621] route_cost table[0] 0133 < receive 0139, Ignore Beacon
[2019-09-21 17:00:26.871] Receive Beacon
[2019-09-21 17:00:26.881] Beacon state 0
[2019-09-21 17:00:26.881] Beacon LQI 78, LinkCost 27
[2019-09-21 17:00:26.881] route_cost table[0] 0133 < receive 0135, Ignore Beacon
[2019-09-21 17:00:27.111] 
[2019-09-21 17:00:27.111] Receive beacon_request
[2019-09-21 17:00:27.111]     ->form: 162612FFFE020000
[2019-09-21 17:00:28.641] Receive Beacon
[2019-09-21 17:00:28.641] Beacon state 0
[2019-09-21 17:00:28.641] Beacon LQI 64, LinkCost 255
[2019-09-21 17:00:28.641] route_cost table[0] 0133 < receive 0233, Ignore Beacon
[2019-09-21 17:00:30.971] Receive Beacon
[2019-09-21 17:00:30.971] Beacon state 0
[2019-09-21 17:00:30.971] Beacon LQI 31, LinkCost 255
[2019-09-21 17:00:30.981] route_cost table[0] 0133 < receive 0252, Ignore Beacon
[2019-09-21 17:00:34.583] PAN:38f7 LBA:0x0744 R_C:0x011a L_C: 0x19, Priority 0
[2019-09-21 17:00:34.593] adpm_discovery_comfirm_cb: Select PAN 38f7
[2019-09-21 17:00:34.593] adpm_discovery_comfirm_cb: History PAN 38f7, join cnt = 1
[2019-09-21 17:00:34.603] Choose Beacon Table[0].join_cost 0133 (0x38F7), Join Wait 23 sec
[2019-09-21 17:00:57.713] Join PAN 38F7 by 0744, Please Wait...
[2019-09-21 17:01:23.713] ReplaceJoinFail[0] = FFFF
[2019-09-21 17:01:23.723] JoinFail[0] = 38F7
[2019-09-21 17:01:23.733] 
[2019-09-21 17:01:23.733] Send Beacon Request
[2019-09-21 17:01:24.833] Receive Beacon
[2019-09-21 17:01:24.833] Beacon state 1
[2019-09-21 17:01:24.843] Beacon LQI 99, LinkCost 255
[2019-09-21 17:01:24.843] Beacone table[0]: PAN 38F7, Addr 05CB, R_C 0119, LC FF, Priority 1
[2019-09-21 17:01:28.613] Receive Beacon
[2019-09-21 17:01:28.613] Beacon state 1
[2019-09-21 17:01:28.613] Beacon LQI 112, LinkCost 255
[2019-09-21 17:01:28.613] Beacone table[0]: PAN 38F7, Addr 07C5, R_C 0118, LC FF, Priority 1
[2019-09-21 17:01:32.213] Receive Beacon
[2019-09-21 17:01:32.213] Beacon state 1
[2019-09-21 17:01:32.213] Beacon LQI 42, LinkCost 33
[2019-09-21 17:01:32.223] Beacone table[0]: PAN 38F7, Addr 07B8, R_C 0139, LC 21, Priority 1
[2019-09-21 17:01:33.093] 
[2019-09-21 17:01:33.093] Receive beacon_request
[2019-09-21 17:01:33.093]     ->form: 162612FFFE020000
[2019-09-21 17:01:35.153] Receive Beacon
[2019-09-21 17:01:35.153] Beacon state 1
[2019-09-21 17:01:35.153] Beacon LQI 56, LinkCost 31
[2019-09-21 17:01:35.153] Beacone table[0]: PAN 38F7, Addr 08F3, R_C 011A, LC 1F, Priority 1
[2019-09-21 17:01:35.353] Receive Beacon
[2019-09-21 17:01:35.353] Beacon state 1
[2019-09-21 17:01:35.363] Beacon LQI 31, LinkCost 35
[2019-09-21 17:01:35.363] route_cost table[0] 0139 < receive 0165, Ignore Beacon
[2019-09-21 17:01:35.803] Receive Beacon
[2019-09-21 17:01:35.803] Beacon state 1
[2019-09-21 17:01:35.813] Beacon LQI 106, LinkCost 255
[2019-09-21 17:01:35.813] route_cost table[0] 0139 < receive 0216, Ignore Beacon
[2019-09-21 17:01:35.833] Receive Beacon
[2019-09-21 17:01:35.843] Beacon state 1
[2019-09-21 17:01:35.843] Beacon LQI 74, LinkCost 255
[2019-09-21 17:01:35.843] route_cost table[0] 0139 < receive 0254, Ignore Beacon
[2019-09-21 17:01:37.193] Receive Beacon
[2019-09-21 17:01:37.193] Beacon state 1
[2019-09-21 17:01:37.193] Beacon LQI 28, LinkCost 255
[2019-09-21 17:01:37.193] route_cost table[0] 0139 < receive 0245, Ignore Beacon
[2019-09-21 17:01:37.693] Receive Beacon
[2019-09-21 17:01:37.693] Beacon state 1
[2019-09-21 17:01:37.693] Beacon LQI 91, LinkCost 255
[2019-09-21 17:01:37.703] route_cost table[0] 0139 < receive 0219, Ignore Beacon
[2019-09-21 17:01:37.983] Receive Beacon
[2019-09-21 17:01:37.983] Beacon state 1
[2019-09-21 17:01:37.993] Beacon LQI 94, LinkCost 255
[2019-09-21 17:01:37.993] route_cost table[0] 0139 < receive 021A, Ignore Beacon
[2019-09-21 17:01:38.073] Receive Beacon
[2019-09-21 17:01:38.073] Beacon state 1
[2019-09-21 17:01:38.083] Beacon LQI 74, LinkCost 255
[2019-09-21 17:01:38.083] route_cost table[0] 0139 < receive 0252, Ignore Beacon
[2019-09-21 17:01:39.343] Receive Beacon
[2019-09-21 17:01:39.343] Beacon state 1
[2019-09-21 17:01:39.343] Beacon LQI 86, LinkCost 255
[2019-09-21 17:01:39.353] route_cost table[0] 0139 < receive 0252, Ignore Beacon
[2019-09-21 17:01:42.143] Receive Beacon
[2019-09-21 17:01:42.143] Beacon state 1
[2019-09-21 17:01:42.143] Beacon LQI 78, LinkCost 255
[2019-09-21 17:01:42.143] route_cost table[0] 0139 < receive 0264, Ignore Beacon
[2019-09-21 17:01:46.803] Receive Beacon
[2019-09-21 17:01:46.803] Beacon state 1
[2019-09-21 17:01:46.803] Beacon LQI 68, LinkCost 255
[2019-09-21 17:01:46.803] route_cost table[0] 0139 < receive 0244, Ignore Beacon
[2019-09-21 17:01:47.443] Receive Beacon
[2019-09-21 17:01:47.453] Beacon state 1
[2019-09-21 17:01:47.453] Beacon LQI 99, LinkCost 255
[2019-09-21 17:01:47.453] route_cost table[0] 0139 < receive 0217, Ignore Beacon
[2019-09-21 17:01:47.763] PAN:38f7 LBA:0x08f3 R_C:0x011a L_C: 0x1f, Priority 1
[2019-09-21 17:01:47.763] adpm_discovery_comfirm_cb: All Priority Low, Ignore Priority
[2019-09-21 17:01:47.773] adpm_discovery_comfirm_cb: Mini join  PAN 38f7, join cnt = 1
[2019-09-21 17:01:47.773] adpm_discovery_comfirm_cb: Select PAN 38f7
[2019-09-21 17:01:47.783] adpm_discovery_comfirm_cb: History PAN 38f7, join cnt = 2
[2019-09-21 17:01:47.783] Choose Beacon Table[0].join_cost 0139 (0x38F7), Join Wait 8 sec
[2019-09-21 17:01:56.013] Join PAN 38F7 by 08F3, Please Wait...
[2019-09-21 17:02:12.863] 
[2019-09-21 17:02:12.863] vt# 
[2019-09-21 17:02:13.073] vt# 
[2019-09-21 17:02:22.056] Send Beacon Request
[2019-09-21 17:02:23.686] Receive Beacon
[2019-09-21 17:02:23.686] Beacon state 2
[2019-09-21 17:02:23.686] Beacon LQI 87, LinkCost 255
[2019-09-21 17:02:23.686] Beacone table[0]: PAN 38F7, Addr 091E, R_C 011A, LC FF, Priority 2
[2019-09-21 17:02:25.936] Receive Beacon
[2019-09-21 17:02:25.946] Beacon state 2
[2019-09-21 17:02:25.946] Beacon LQI 72, LinkCost 28
[2019-09-21 17:02:25.946] Beacone table[0]: PAN 38F7, Addr 084E, R_C 0133, LC 1C, Priority 2
[2019-09-21 17:02:28.596] Receive Beacon
[2019-09-21 17:02:28.606] Beacon state 2
[2019-09-21 17:02:28.606] Beacon LQI 28, LinkCost 35
[2019-09-21 17:02:28.606] Beacone table[0]: PAN 38F7, Addr 0883, R_C 0129, LC 23, Priority 2
[2019-09-21 17:02:29.916] Receive Beacon
[2019-09-21 17:02:29.916] Beacon state 2
[2019-09-21 17:02:29.916] Beacon LQI 103, LinkCost 255
[2019-09-21 17:02:29.926] route_cost table[0] 014C < receive 0218, Ignore Beacon
[2019-09-21 17:02:33.256] 
[2019-09-21 17:02:33.256] Receive beacon_request
[2019-09-21 17:02:33.256]     ->form: 162612FFFE020000
[2019-09-21 17:02:35.306] Receive Beacon
[2019-09-21 17:02:35.306] Beacon state 2
[2019-09-21 17:02:35.306] Beacon LQI 29, LinkCost 35
[2019-09-21 17:02:35.306] route_cost table[0] 014C < receive 0167, Ignore Beacon
[2019-09-21 17:02:36.456] Receive Beacon
[2019-09-21 17:02:36.456] Beacon state 0
[2019-09-21 17:02:36.456] Beacon LQI 30, LinkCost 255
[2019-09-21 17:02:36.466] Beacone table[1]: PAN 40F7, Addr 14FE, R_C 0066, LC FF, Priority 0
[2019-09-21 17:02:38.556] Receive Beacon
[2019-09-21 17:02:38.566] Beacon state 2
[2019-09-21 17:02:38.566] Beacon LQI 92, LinkCost 25
[2019-09-21 17:02:38.566] Beacone table[0]: PAN 38F7, Addr 08CF, R_C 0118, LC 19, Priority 2
[2019-09-21 17:02:39.886] Receive Beacon
[2019-09-21 17:02:39.886] Beacon state 2
[2019-09-21 17:02:39.886] Beacon LQI 50, LinkCost 32
[2019-09-21 17:02:39.896] route_cost table[0] 0131 < receive 0149, Ignore Beacon
[2019-09-21 17:02:41.136] Receive Beacon
[2019-09-21 17:02:41.146] Beacon state 2
[2019-09-21 17:02:41.146] Beacon LQI 28, LinkCost 35
[2019-09-21 17:02:41.146] route_cost table[0] 0131 < receive 015A, Ignore Beacon
[2019-09-21 17:02:42.216] Receive Beacon
[2019-09-21 17:02:42.226] Beacon state 2
[2019-09-21 17:02:42.226] Beacon LQI 37, LinkCost 34
[2019-09-21 17:02:42.226] route_cost table[0] 0131 < receive 013D, Ignore Beacon
[2019-09-21 17:02:42.826] Receive Beacon
[2019-09-21 17:02:42.836] Beacon state 2
[2019-09-21 17:02:42.836] Beacon LQI 93, LinkCost 255
[2019-09-21 17:02:42.836] route_cost table[0] 0131 < receive 0218, Ignore Beacon
[2019-09-21 17:02:42.956] Receive Beacon
[2019-09-21 17:02:42.966] Beacon state 2
[2019-09-21 17:02:42.966] Beacon LQI 91, LinkCost 25
[2019-09-21 17:02:42.966] route_cost table[0] 0131 < receive 0133, Ignore Beacon
[2019-09-21 17:02:46.066] PAN:38f7 LBA:0x08cf R_C:0x0118 L_C: 0x19, Priority 2
[2019-09-21 17:02:46.076] PAN:40f7 LBA:0x14fe R_C:0x0066 L_C: 0xff, Priority 0
[2019-09-21 17:02:46.086] adpm_discovery_comfirm_cb: Select PAN 40f7
[2019-09-21 17:02:46.086] adpm_discovery_comfirm_cb: History PAN 40f7, join cnt = 1
[2019-09-21 17:02:46.086] Choose Beacon Table[1].join_cost 0165 (0x40F7), Join Wait 0 sec
[2019-09-21 17:02:46.096] Join PAN 40F7 by 14FE, Please Wait...
[2019-09-21 17:03:09.281] >> holley_send_heartbeat(20)
[2019-09-21 17:03:09.291] 
[2019-09-21 17:03:09.291]       68 0e 0e 68 5a 99 99 06 82 05 55 30 00 aa aa 00 
[2019-09-21 17:03:09.291]       01 00 77 16 
[2019-09-21 17:03:09.291] 
[2019-09-21 17:03:12.101] ReplaceJoinFail[1] = FFFF
[2019-09-21 17:03:12.101] JoinFail[1] = 40F7
[2019-09-21 17:03:12.121] 
[2019-09-21 17:03:12.121] Send Beacon Request
[2019-09-21 17:03:14.041] Receive Beacon
[2019-09-21 17:03:14.051] Beacon state 2
[2019-09-21 17:03:14.051] Beacon LQI 28, LinkCost 35
[2019-09-21 17:03:14.051] Beacone table[0]: PAN 38F7, Addr 08A9, R_C 0146, LC 23, Priority 2
[2019-09-21 17:03:14.371] Receive Beacon
[2019-09-21 17:03:14.381] Beacon state 2
[2019-09-21 17:03:14.381] Beacon LQI 100, LinkCost 24
[2019-09-21 17:03:14.381] Beacone table[0]: PAN 38F7, Addr 0001, R_C 00FF, LC 18, Priority 2
[2019-09-21 17:03:16.031] Receive Beacon
[2019-09-21 17:03:16.041] Beacon state 2
[2019-09-21 17:03:16.041] Beacon LQI 91, LinkCost 255
[2019-09-21 17:03:16.041] route_cost table[0] 0117 < receive 021A, Ignore Beacon
[2019-09-21 17:03:21.431] Receive Beacon
[2019-09-21 17:03:21.441] Beacon state 2
[2019-09-21 17:03:21.441] Beacon LQI 52, LinkCost 255
[2019-09-21 17:03:21.441] route_cost table[0] 0117 < receive 0252, Ignore Beacon
[2019-09-21 17:03:23.911] Receive Beacon
[2019-09-21 17:03:23.911] Beacon state 2
[2019-09-21 17:03:23.911] Beacon LQI 99, LinkCost 255
[2019-09-21 17:03:23.921] route_cost table[0] 0117 < receive 0216, Ignore Beacon
[2019-09-21 17:03:24.891] Receive Beacon
[2019-09-21 17:03:24.901] Beacon state 2
[2019-09-21 17:03:24.901] Beacon LQI 53, LinkCost 31
[2019-09-21 17:03:24.901] route_cost table[0] 0117 < receive 0165, Ignore Beacon
[2019-09-21 17:03:25.371] Receive Beacon
[2019-09-21 17:03:25.381] Beacon state 2
[2019-09-21 17:03:25.381] Beacon LQI 96, LinkCost 24
[2019-09-21 17:03:25.381] Beacone table[0]: PAN 38F7, Addr 08C6, R_C 00FF, LC 18, Priority 2
[2019-09-21 17:03:29.581] Receive Beacon
[2019-09-21 17:03:29.591] Beacon state 2
[2019-09-21 17:03:29.591] Beacon LQI 107, LinkCost 23
[2019-09-21 17:03:29.591] route_cost table[0] 0117 < receive 0215, Ignore Beacon
[2019-09-21 17:03:31.881] Receive Beacon
[2019-09-21 17:03:31.891] Beacon state 2
[2019-09-21 17:03:31.891] Beacon LQI 91, LinkCost 255
[2019-09-21 17:03:31.891] route_cost table[0] 0117 < receive 0219, Ignore Beacon
[2019-09-21 17:03:31.961] Receive Beacon
[2019-09-21 17:03:31.971] Beacon state 2
[2019-09-21 17:03:31.971] Beacon LQI 107, LinkCost 23
[2019-09-21 17:03:31.971] Beacone table[0]: PAN 38F7, Addr 08D1, R_C 00FF, LC 17, Priority 2
[2019-09-21 17:03:34.181] Receive Beacon
[2019-09-21 17:03:34.181] Beacon state 2
[2019-09-21 17:03:34.191] Beacon LQI 102, LinkCost 255
[2019-09-21 17:03:34.191] route_cost table[0] 0116 < receive 0217, Ignore Beacon
[2019-09-21 17:03:34.271] 
[2019-09-21 17:03:34.271] Receive beacon_request
[2019-09-21 17:03:34.271]     ->form: 162612FFFE020000
[2019-09-21 17:03:34.481] Receive Beacon
[2019-09-21 17:03:34.491] Beacon state 2
[2019-09-21 17:03:34.491] Beacon LQI 96, LinkCost 24
[2019-09-21 17:03:34.491] route_cost table[0] 0116 < receive 0216, Ignore Beacon
[2019-09-21 17:03:34.671] Receive Beacon
[2019-09-21 17:03:34.671] Beacon state 2
[2019-09-21 17:03:34.671] Beacon LQI 99, LinkCost 255
[2019-09-21 17:03:34.681] route_cost table[0] 0116 < receive 0216, Ignore Beacon
[2019-09-21 17:03:36.121] PAN:38f7 LBA:0x08d1 R_C:0x00ff L_C: 0x17, Priority 2
[2019-09-21 17:03:36.131] adpm_discovery_comfirm_cb: All Priority Low, Ignore Priority
[2019-09-21 17:03:36.141] adpm_discovery_comfirm_cb: Mini join  PAN 38f7, join cnt = 2
[2019-09-21 17:03:36.141] adpm_discovery_comfirm_cb: Select PAN 38f7
[2019-09-21 17:03:36.151] adpm_discovery_comfirm_cb: History PAN 38f7, join cnt = 3
[2019-09-21 17:03:36.151] Choose Beacon Table[0].join_cost 0116 (0x38F7), Join Wait 22 sec
[2019-09-21 17:03:58.163] Join PAN 38F7 by 08D1, Please Wait...
[2019-09-21 17:04:24.213] 
[2019-09-21 17:04:24.213] Send Beacon Request
[2019-09-21 17:04:26.083] Receive Beacon
[2019-09-21 17:04:26.083] Beacon state 2
[2019-09-21 17:04:26.083] Beacon LQI 28, LinkCost 255
[2019-09-21 17:04:26.093] Beacone table[0]: PAN 38F7, Addr 092B, R_C 0153, LC FF, Priority 2
[2019-09-21 17:04:26.783] Receive Beacon
[2019-09-21 17:04:26.783] Beacon state 2
[2019-09-21 17:04:26.783] Beacon LQI 67, LinkCost 29
[2019-09-21 17:04:26.793] Beacone table[0]: PAN 38F7, Addr 0833, R_C 0129, LC 1D, Priority 2
[2019-09-21 17:04:29.253] Receive Beacon
[2019-09-21 17:04:29.263] Beacon state 2
[2019-09-21 17:04:29.263] Beacon LQI 85, LinkCost 26
[2019-09-21 17:04:29.263] Beacone table[0]: PAN 38F7, Addr 0744, R_C 011A, LC 1A, Priority 2
[2019-09-21 17:04:33.443] Receive Beacon
[2019-09-21 17:04:33.453] Beacon state 2
[2019-09-21 17:04:33.453] Beacon LQI 75, LinkCost 255
[2019-09-21 17:04:33.453] route_cost table[0] 0134 < receive 0216, Ignore Beacon
[2019-09-21 17:04:35.383] Receive Beacon
[2019-09-21 17:04:35.393] Beacon state 2
[2019-09-21 17:04:35.393] Beacon LQI 75, LinkCost 28
[2019-09-21 17:04:35.393] route_cost table[0] 0134 < receive 0145, Ignore Beacon
[2019-09-21 17:04:36.043] Receive Beacon
[2019-09-21 17:04:36.043] Beacon state 2
[2019-09-21 17:04:36.043] Beacon LQI 100, LinkCost 255
[2019-09-21 17:04:36.053] route_cost table[0] 0134 < receive 0218, Ignore Beacon
[2019-09-21 17:04:37.423] Receive Beacon
[2019-09-21 17:04:37.433] Beacon state 2
[2019-09-21 17:04:37.433] Beacon LQI 51, LinkCost 32
[2019-09-21 17:04:37.433] route_cost table[0] 0134 < receive 0149, Ignore Beacon
[2019-09-21 17:04:38.993] Receive Beacon
[2019-09-21 17:04:38.993] Beacon state 2
[2019-09-21 17:04:38.993] Beacon LQI 94, LinkCost 25
[2019-09-21 17:04:38.993] Beacone table[0]: PAN 38F7, Addr 08CF, R_C 0118, LC 19, Priority 2
[2019-09-21 17:04:41.913] Receive Beacon
[2019-09-21 17:04:41.923] Beacon state 2
[2019-09-21 17:04:41.923] Beacon LQI 106, LinkCost 23
[2019-09-21 17:04:41.923] route_cost table[0] 0131 < receive 0215, Ignore Beacon
[2019-09-21 17:04:42.883] Receive Beacon
[2019-09-21 17:04:42.883] Beacon state 2
[2019-09-21 17:04:42.883] Beacon LQI 87, LinkCost 255
[2019-09-21 17:04:42.883] route_cost table[0] 0131 < receive 0219, Ignore Beacon
[2019-09-21 17:04:44.403] 
[2019-09-21 17:04:44.403] Receive beacon_request
[2019-09-21 17:04:44.403]     ->form: 162612FFFE020000
[2019-09-21 17:04:45.143] Receive Beacon
[2019-09-21 17:04:45.143] Beacon state 2
[2019-09-21 17:04:45.143] Beacon LQI 56, LinkCost 255
[2019-09-21 17:04:45.153] route_cost table[0] 0131 < receive 025C, Ignore Beacon
[2019-09-21 17:04:45.933] Receive Beacon
[2019-09-21 17:04:45.943] Beacon state 2
[2019-09-21 17:04:45.943] Beacon LQI 28, LinkCost 255
[2019-09-21 17:04:45.943] route_cost table[0] 0131 < receive 0247, Ignore Beacon
[2019-09-21 17:04:46.153] Receive Beacon
[2019-09-21 17:04:46.163] Beacon state 2
[2019-09-21 17:04:46.163] Beacon LQI 37, LinkCost 255
[2019-09-21 17:04:46.163] route_cost table[0] 0131 < receive 0254, Ignore Beacon
[2019-09-21 17:04:46.263] Receive Beacon
[2019-09-21 17:04:46.263] Beacon state 2
[2019-09-21 17:04:46.263] Beacon LQI 103, LinkCost 255
[2019-09-21 17:04:46.273] route_cost table[0] 0131 < receive 0217, Ignore Beacon
[2019-09-21 17:04:46.583] Receive Beacon
[2019-09-21 17:04:46.583] Beacon state 2
[2019-09-21 17:04:46.583] Beacon LQI 51, LinkCost 32
[2019-09-21 17:04:46.603] route_cost table[0] 0131 < receive 0164, Ignore Beacon
[2019-09-21 17:04:46.613] Receive Beacon
[2019-09-21 17:04:46.633] Beacon state 2
[2019-09-21 17:04:46.633] Beacon LQI 33, LinkCost 34
[2019-09-21 17:04:46.633] route_cost table[0] 0131 < receive 0159, Ignore Beacon
[2019-09-21 17:04:48.313] PAN:38f7 LBA:0x08cf R_C:0x0118 L_C: 0x19, Priority 2
[2019-09-21 17:04:48.313] adpm_discovery_comfirm_cb: All Priority Low, Ignore Priority
[2019-09-21 17:04:48.323] adpm_discovery_comfirm_cb: Mini join  PAN 38f7, join cnt = 3
[2019-09-21 17:04:48.333] adpm_discovery_comfirm_cb: Select PAN 38f7
[2019-09-21 17:04:48.333] adpm_discovery_comfirm_cb: History PAN 38f7, join cnt = 4
[2019-09-21 17:04:48.333] Choose Beacon Table[0].join_cost 0131 (0x38F7), Join Wait 3 sec
[2019-09-21 17:04:51.343] Join PAN 38F7 by 08CF, Please Wait...
[2019-09-21 17:05:17.433] 
[2019-09-21 17:05:17.433] Send Beacon Request
[2019-09-21 17:05:20.363] Receive Beacon
[2019-09-21 17:05:20.363] Beacon state 2
[2019-09-21 17:05:20.373] Beacon LQI 79, LinkCost 255
[2019-09-21 17:05:20.373] Beacone table[0]: PAN 38F7, Addr 05CB, R_C 0119, LC FF, Priority 2
[2019-09-21 17:05:20.773] Receive Beacon
[2019-09-21 17:05:20.773] Beacon state 2
[2019-09-21 17:05:20.773] Beacon LQI 44, LinkCost 33
[2019-09-21 17:05:20.783] Beacone table[0]: PAN 38F7, Addr 071E, R_C 0136, LC 21, Priority 2
[2019-09-21 17:05:21.093] Receive Beacon
[2019-09-21 17:05:21.093] Beacon state 2
[2019-09-21 17:05:21.093] Beacon LQI 28, LinkCost 255
[2019-09-21 17:05:21.093] route_cost table[0] 0157 < receive 0252, Ignore Beacon
[2019-09-21 17:05:21.823] Receive Beacon
[2019-09-21 17:05:21.823] Beacon state 2
[2019-09-21 17:05:21.823] Beacon LQI 45, LinkCost 32
[2019-09-21 17:05:21.833] Beacone table[0]: PAN 38F7, Addr 08F3, R_C 011A, LC 20, Priority 2
[2019-09-21 17:05:22.803] Receive Beacon
[2019-09-21 17:05:22.803] Beacon state 2
[2019-09-21 17:05:22.803] Beacon LQI 100, LinkCost 255
[2019-09-21 17:05:22.813] route_cost table[0] 013A < receive 0216, Ignore Beacon
[2019-09-21 17:05:24.093] Receive Beacon
[2019-09-21 17:05:24.103] Beacon state 2
[2019-09-21 17:05:24.103] Beacon LQI 49, LinkCost 32
[2019-09-21 17:05:24.103] route_cost table[0] 013A < receive 0166, Ignore Beacon
[2019-09-21 17:05:24.553] Receive Beacon
[2019-09-21 17:05:24.553] Beacon state 2
[2019-09-21 17:05:24.553] Beacon LQI 96, LinkCost 24
[2019-09-21 17:05:24.563] Beacone table[0]: PAN 38F7, Addr 0744, R_C 011A, LC 18, Priority 2
[2019-09-21 17:05:27.646] Receive Beacon
[2019-09-21 17:05:27.646] Beacon state 2
[2019-09-21 17:05:27.646] Beacon LQI 106, LinkCost 23
[2019-09-21 17:05:27.656] Beacone table[0]: PAN 38F7, Addr 08D1, R_C 00FF, LC 17, Priority 2
[2019-09-21 17:05:27.836] Receive Beacon
[2019-09-21 17:05:27.836] Beacon state 2
[2019-09-21 17:05:27.846] Beacon LQI 100, LinkCost 24
[2019-09-21 17:05:27.846] route_cost table[0] 0116 < receive 0216, Ignore Beacon
[2019-09-21 17:05:28.346] Receive Beacon
[2019-09-21 17:05:28.346] Beacon state 2
[2019-09-21 17:05:28.356] Beacon LQI 51, LinkCost 32
[2019-09-21 17:05:28.356] route_cost table[0] 0116 < receive 0149, Ignore Beacon
[2019-09-21 17:05:30.026] Receive Beacon
[2019-09-21 17:05:30.026] Beacon state 2
[2019-09-21 17:05:30.026] Beacon LQI 81, LinkCost 255
[2019-09-21 17:05:30.036] route_cost table[0] 0116 < receive 0228, Ignore Beacon
[2019-09-21 17:05:32.996] Receive Beacon
[2019-09-21 17:05:33.006] Beacon state 2
[2019-09-21 17:05:33.006] Beacon LQI 84, LinkCost 26
[2019-09-21 17:05:33.006] route_cost table[0] 0116 < receive 0132, Ignore Beacon
[2019-09-21 17:05:34.476] Receive Beacon
[2019-09-21 17:05:34.486] Beacon state 2
[2019-09-21 17:05:34.486] Beacon LQI 91, LinkCost 255
[2019-09-21 17:05:34.486] route_cost table[0] 0116 < receive 0219, Ignore Beacon
[2019-09-21 17:05:34.526] 
[2019-09-21 17:05:34.526] Receive beacon_request
[2019-09-21 17:05:34.526]     ->form: 162612FFFE020000
[2019-09-21 17:05:35.226] Receive Beacon
[2019-09-21 17:05:35.226] Beacon state 2
[2019-09-21 17:05:35.226] Beacon LQI 98, LinkCost 255
[2019-09-21 17:05:35.236] route_cost table[0] 0116 < receive 021A, Ignore Beacon
[2019-09-21 17:05:41.026] Receive Beacon
[2019-09-21 17:05:41.026] Beacon state 2
[2019-09-21 17:05:41.036] Beacon LQI 50, LinkCost 255
[2019-09-21 17:05:41.036] route_cost table[0] 0116 < receive 0264, Ignore Beacon
[2019-09-21 17:05:41.496] PAN:38f7 LBA:0x08d1 R_C:0x00ff L_C: 0x17, Priority 2
[2019-09-21 17:05:41.506] adpm_discovery_comfirm_cb: All Priority Low, Ignore Priority
[2019-09-21 17:05:41.506] adpm_discovery_comfirm_cb: Mini join  PAN 38f7, join cnt = 4
[2019-09-21 17:05:41.516] adpm_discovery_comfirm_cb: Select PAN 38f7
[2019-09-21 17:05:41.516] adpm_discovery_comfirm_cb: History PAN 38f7, join cnt = 5
[2019-09-21 17:05:41.526] Choose Beacon Table[0].join_cost 0116 (0x38F7), Join Wait 17 sec
[2019-09-21 17:05:58.526] Join PAN 38F7 by 08D1, Please Wait...
[2019-09-21 17:06:09.786] >> holley_send_heartbeat(20)
[2019-09-21 17:06:09.796] 
[2019-09-21 17:06:09.796]       68 0e 0e 68 5a 99 99 06 82 05 55 30 00 aa aa 00 
[2019-09-21 17:06:09.796]       01 00 77 16 
[2019-09-21 17:06:09.796] 
[2019-09-21 17:06:24.616] 
[2019-09-21 17:06:24.626] Send Beacon Request
[2019-09-21 17:06:25.876] Receive Beacon
[2019-09-21 17:06:25.876] Beacon state 2
[2019-09-21 17:06:25.876] Beacon LQI 103, LinkCost 255
[2019-09-21 17:06:25.886] Beacone table[0]: PAN 38F7, Addr 07C5, R_C 0118, LC FF, Priority 2
[2019-09-21 17:06:31.053] Receive Beacon
[2019-09-21 17:06:31.053] Beacon state 2
[2019-09-21 17:06:31.063] Beacon LQI 63, LinkCost 30
[2019-09-21 17:06:31.063] Beacone table[0]: PAN 38F7, Addr 08A9, R_C 0146, LC 1E, Priority 2
[2019-09-21 17:06:33.783] 
[2019-09-21 17:06:33.783] Receive beacon_request
[2019-09-21 17:06:33.793]     ->form: 162612FFFE020000
[2019-09-21 17:06:34.443] Receive Beacon
[2019-09-21 17:06:34.443] Beacon state 2
[2019-09-21 17:06:34.443] Beacon LQI 94, LinkCost 255
[2019-09-21 17:06:34.443] route_cost table[0] 0164 < receive 021A, Ignore Beacon
[2019-09-21 17:06:34.923] Receive Beacon
[2019-09-21 17:06:34.923] Beacon state 2
[2019-09-21 17:06:34.933] Beacon LQI 104, LinkCost 23
[2019-09-21 17:06:34.933] route_cost table[0] 0164 < receive 0215, Ignore Beacon
[2019-09-21 17:06:39.093] Receive Beacon
[2019-09-21 17:06:39.093] Beacon state 2
[2019-09-21 17:06:39.103] Beacon LQI 53, LinkCost 31
[2019-09-21 17:06:39.103] Beacone table[0]: PAN 38F7, Addr 07B8, R_C 0139, LC 1F, Priority 2
[2019-09-21 17:06:39.883] Receive Beacon
[2019-09-21 17:06:39.893] Beacon state 2
[2019-09-21 17:06:39.893] Beacon LQI 100, LinkCost 255
[2019-09-21 17:06:39.893] route_cost table[0] 0158 < receive 0216, Ignore Beacon
[2019-09-21 17:06:42.013] Receive Beacon
[2019-09-21 17:06:42.013] Beacon state 2
[2019-09-21 17:06:42.013] Beacon LQI 70, LinkCost 29
[2019-09-21 17:06:42.023] Beacone table[0]: PAN 38F7, Addr 08DD, R_C 011B, LC 1D, Priority 2
[2019-09-21 17:06:42.243] Receive Beacon
[2019-09-21 17:06:42.243] Beacon state 2
[2019-09-21 17:06:42.253] Beacon LQI 42, LinkCost 33
[2019-09-21 17:06:42.253] route_cost table[0] 0138 < receive 0157, Ignore Beacon
[2019-09-21 17:06:42.433] Receive Beacon
[2019-09-21 17:06:42.443] Beacon state 2
[2019-09-21 17:06:42.443] Beacon LQI 51, LinkCost 255
[2019-09-21 17:06:42.443] route_cost table[0] 0138 < receive 0245, Ignore Beacon
[2019-09-21 17:06:42.673] Receive Beacon
[2019-09-21 17:06:42.673] Beacon state 2
[2019-09-21 17:06:42.673] Beacon LQI 93, LinkCost 255
[2019-09-21 17:06:42.673] route_cost table[0] 0138 < receive 0219, Ignore Beacon
[2019-09-21 17:06:42.833] Receive Beacon
[2019-09-21 17:06:42.843] Beacon state 2
[2019-09-21 17:06:42.843] Beacon LQI 48, LinkCost 255
[2019-09-21 17:06:42.843] route_cost table[0] 0138 < receive 0252, Ignore Beacon
[2019-09-21 17:06:44.373] Receive Beacon
[2019-09-21 17:06:44.373] Beacon state 2
[2019-09-21 17:06:44.383] Beacon LQI 106, LinkCost 23
[2019-09-21 17:06:44.383] Beacone table[0]: PAN 38F7, Addr 0917, R_C 00FF, LC 17, Priority 2
[2019-09-21 17:06:46.913] Receive Beacon
[2019-09-21 17:06:46.923] Beacon state 2
[2019-09-21 17:06:46.923] Beacon LQI 30, LinkCost 255
[2019-09-21 17:06:46.923] route_cost table[0] 0116 < receive 0252, Ignore Beacon
[2019-09-21 17:06:47.883] Receive Beacon
[2019-09-21 17:06:47.883] Beacon state 2
[2019-09-21 17:06:47.883] Beacon LQI 78, LinkCost 27
[2019-09-21 17:06:47.883] route_cost table[0] 0116 < receive 0144, Ignore Beacon
[2019-09-21 17:06:48.633] PAN:38f7 LBA:0x0917 R_C:0x00ff L_C: 0x17, Priority 2
[2019-09-21 17:06:48.643] adpm_discovery_comfirm_cb: All Priority Low, Ignore Priority
[2019-09-21 17:06:48.643] adpm_discovery_comfirm_cb: Mini join  PAN 38f7, join cnt = 5
[2019-09-21 17:06:48.653] adpm_discovery_comfirm_cb: Select PAN 38f7
[2019-09-21 17:06:48.653] adpm_discovery_comfirm_cb: History PAN 38f7, join cnt = 6
[2019-09-21 17:06:48.663] Choose Beacon Table[0].join_cost 0116 (0x38F7), Join Wait 1 sec
[2019-09-21 17:06:49.663] Join PAN 38F7 by 0917, Please Wait...
[2019-09-21 17:07:15.678] 
[2019-09-21 17:07:15.678] Send Beacon Request
[2019-09-21 17:07:18.438] Receive Beacon
[2019-09-21 17:07:18.448] Beacon state 2
[2019-09-21 17:07:18.448] Beacon LQI 86, LinkCost 255
[2019-09-21 17:07:18.448] Beacone table[0]: PAN 38F7, Addr 0909, R_C 0129, LC FF, Priority 2
[2019-09-21 17:07:19.048] Receive Beacon
[2019-09-21 17:07:19.058] Beacon state 2
[2019-09-21 17:07:19.058] Beacon LQI 93, LinkCost 255
[2019-09-21 17:07:19.058] Beacone table[0]: PAN 38F7, Addr 08EC, R_C 011B, LC FF, Priority 2
[2019-09-21 17:07:21.528] Receive Beacon
[2019-09-21 17:07:21.538] Beacon state 2
[2019-09-21 17:07:21.538] Beacon LQI 106, LinkCost 255
[2019-09-21 17:07:21.538] Beacone table[0]: PAN 38F7, Addr 07C5, R_C 0118, LC FF, Priority 2
[2019-09-21 17:07:27.648] Receive Beacon
[2019-09-21 17:07:27.648] Beacon state 2
[2019-09-21 17:07:27.648] Beacon LQI 94, LinkCost 255
[2019-09-21 17:07:27.658] Beacone table[0]: PAN 38F7, Addr 05EF, R_C 0117, LC FF, Priority 2
[2019-09-21 17:07:29.458] Receive Beacon
[2019-09-21 17:07:29.458] Beacon state 2
[2019-09-21 17:07:29.458] Beacon LQI 69, LinkCost 29
[2019-09-21 17:07:29.468] Beacone table[0]: PAN 38F7, Addr 084E, R_C 0133, LC 1D, Priority 2
[2019-09-21 17:07:32.768] Receive Beacon
[2019-09-21 17:07:32.768] Beacon state 2
[2019-09-21 17:07:32.778] Beacon LQI 66, LinkCost 255
[2019-09-21 17:07:32.778] route_cost table[0] 0150 < receive 0247, Ignore Beacon
[2019-09-21 17:07:34.028] Receive Beacon
[2019-09-21 17:07:34.028] Beacon state 2
[2019-09-21 17:07:34.028] Beacon LQI 84, LinkCost 26
[2019-09-21 17:07:34.028] Beacone table[0]: PAN 38F7, Addr 08CF, R_C 0118, LC 1A, Priority 2
[2019-09-21 17:07:35.068] Receive Beacon
[2019-09-21 17:07:35.068] Beacon state 2
[2019-09-21 17:07:35.068] Beacon LQI 84, LinkCost 255
[2019-09-21 17:07:35.068] route_cost table[0] 0132 < receive 0218, Ignore Beacon
[2019-09-21 17:07:35.948] 
[2019-09-21 17:07:35.948] Receive beacon_request
[2019-09-21 17:07:35.948]     ->form: 162612FFFE020000
[2019-09-21 17:07:37.398] Receive Beacon
[2019-09-21 17:07:37.398] Beacon state 2
[2019-09-21 17:07:37.408] Beacon LQI 28, LinkCost 35
[2019-09-21 17:07:37.408] route_cost table[0] 0132 < receive 0168, Ignore Beacon
[2019-09-21 17:07:37.718] Receive Beacon
[2019-09-21 17:07:37.718] Beacon state 2
[2019-09-21 17:07:37.728] Beacon LQI 74, LinkCost 255
[2019-09-21 17:07:37.728] route_cost table[0] 0132 < receive 0264, Ignore Beacon
[2019-09-21 17:07:38.128] Receive Beacon
[2019-09-21 17:07:38.128] Beacon state 2
[2019-09-21 17:07:38.128] Beacon LQI 92, LinkCost 25
[2019-09-21 17:07:38.128] route_cost table[0] 0132 < receive 0133, Ignore Beacon
[2019-09-21 17:07:39.698] PAN:38f7 LBA:0x08cf R_C:0x0118 L_C: 0x1a, Priority 2
[2019-09-21 17:07:39.708] adpm_discovery_comfirm_cb: All Priority Low, Ignore Priority
[2019-09-21 17:07:39.708] adpm_discovery_comfirm_cb: Mini join  PAN 38f7, join cnt = 6
[2019-09-21 17:07:39.718] adpm_discovery_comfirm_cb: Select PAN 38f7
[2019-09-21 17:07:39.718] adpm_discovery_comfirm_cb: History PAN 38f7, join cnt = 7
[2019-09-21 17:07:39.728] Choose Beacon Table[0].join_cost 0132 (0x38F7), Join Wait 22 sec
[2019-09-21 17:08:01.733] Join PAN 38F7 by 08CF, Please Wait...
[2019-09-21 17:08:27.796] 
[2019-09-21 17:08:27.796] Send Beacon Request
[2019-09-21 17:08:35.498] Receive Beacon
[2019-09-21 17:08:35.508] Beacon state 2
[2019-09-21 17:08:35.508] Beacon LQI 51, LinkCost 32
[2019-09-21 17:08:35.508] Beacone table[0]: PAN 38F7, Addr 0883, R_C 0129, LC 20, Priority 2
[2019-09-21 17:08:37.818] Receive Beacon
[2019-09-21 17:08:37.818] Beacon state 2
[2019-09-21 17:08:37.828] Beacon LQI 29, LinkCost 35
[2019-09-21 17:08:37.828] route_cost table[0] 0149 < receive 014C, Ignore Beacon
[2019-09-21 17:08:39.588] Receive Beacon
[2019-09-21 17:08:39.588] Beacon state 2
[2019-09-21 17:08:39.598] Beacon LQI 96, LinkCost 255
[2019-09-21 17:08:39.598] route_cost table[0] 0149 < receive 021A, Ignore Beacon
[2019-09-21 17:08:40.198] Receive Beacon
[2019-09-21 17:08:40.198] Beacon state 2
[2019-09-21 17:08:40.208] Beacon LQI 35, LinkCost 34
[2019-09-21 17:08:40.208] route_cost table[0] 0149 < receive 014B, Ignore Beacon
[2019-09-21 17:08:40.928] Receive Beacon
[2019-09-21 17:08:40.928] Beacon state 2
[2019-09-21 17:08:40.938] Beacon LQI 30, LinkCost 35
[2019-09-21 17:08:40.938] route_cost table[0] 0149 < receive 015C, Ignore Beacon
[2019-09-21 17:08:40.998] 
[2019-09-21 17:08:41.008] Receive beacon_request
[2019-09-21 17:08:41.008]     ->form: 162612FFFE020000
[2019-09-21 17:08:41.863] Receive Beacon
[2019-09-21 17:08:41.863] Beacon state 2
[2019-09-21 17:08:41.873] Beacon LQI 109, LinkCost 22
[2019-09-21 17:08:41.873] route_cost table[0] 0149 < receive 0214, Ignore Beacon
[2019-09-21 17:08:44.445] Receive Beacon
[2019-09-21 17:08:44.445] Beacon state 2
[2019-09-21 17:08:44.445] Beacon LQI 68, LinkCost 255
[2019-09-21 17:08:44.455] route_cost table[0] 0149 < receive 0252, Ignore Beacon
[2019-09-21 17:08:44.975] Receive Beacon
[2019-09-21 17:08:44.975] Beacon state 2
[2019-09-21 17:08:44.975] Beacon LQI 66, LinkCost 29
[2019-09-21 17:08:44.975] Beacone table[0]: PAN 38F7, Addr 08F3, R_C 011A, LC 1D, Priority 2
[2019-09-21 17:08:48.115] Receive Beacon
[2019-09-21 17:08:48.125] Beacon state 2
[2019-09-21 17:08:48.125] Beacon LQI 62, LinkCost 255
[2019-09-21 17:08:48.125] route_cost table[0] 0137 < receive 0228, Ignore Beacon
[2019-09-21 17:08:48.795] Receive Beacon
[2019-09-21 17:08:48.805] Beacon state 2
[2019-09-21 17:08:48.805] Beacon LQI 90, LinkCost 25
[2019-09-21 17:08:48.805] Beacone table[0]: PAN 38F7, Addr 08CF, R_C 0118, LC 19, Priority 2
[2019-09-21 17:08:49.865] Receive Beacon
[2019-09-21 17:08:49.865] Beacon state 2
[2019-09-21 17:08:49.875] Beacon LQI 84, LinkCost 255
[2019-09-21 17:08:49.875] route_cost table[0] 0131 < receive 0219, Ignore Beacon
[2019-09-21 17:08:51.915] PAN:38f7 LBA:0x08cf R_C:0x0118 L_C: 0x19, Priority 2
[2019-09-21 17:08:51.925] adpm_discovery_comfirm_cb: All Priority Low, Ignore Priority
[2019-09-21 17:08:51.925] adpm_discovery_comfirm_cb: Mini join  PAN 38f7, join cnt = 7
[2019-09-21 17:08:51.935] adpm_discovery_comfirm_cb: Select PAN 38f7
[2019-09-21 17:08:51.935] adpm_discovery_comfirm_cb: History PAN 38f7, join cnt = 8
[2019-09-21 17:08:51.935] Choose Beacon Table[0].join_cost 0131 (0x38F7), Join Wait 5 sec
[2019-09-21 17:08:56.948] Join PAN 38F7 by 08CF, Please Wait...
[2019-09-21 17:09:10.288] >> holley_send_heartbeat(20)
[2019-09-21 17:09:10.288] 
[2019-09-21 17:09:10.288]       68 0e 0e 68 5a 99 99 06 82 05 55 30 00 aa aa 00 
[2019-09-21 17:09:10.298]       01 00 77 16 
[2019-09-21 17:09:10.298] 
[2019-09-21 17:09:23.008] 
[2019-09-21 17:09:23.008] Send Beacon Request
[2019-09-21 17:09:24.548] Receive Beacon
[2019-09-21 17:09:24.558] Beacon state 2
[2019-09-21 17:09:24.558] Beacon LQI 95, LinkCost 255
[2019-09-21 17:09:24.558] Beacone table[0]: PAN 38F7, Addr 08EC, R_C 011B, LC FF, Priority 2
[2019-09-21 17:09:26.328] Receive Beacon
[2019-09-21 17:09:26.338] Beacon state 2
[2019-09-21 17:09:26.338] Beacon LQI 94, LinkCost 25
[2019-09-21 17:09:26.338] Beacone table[0]: PAN 38F7, Addr 0744, R_C 011A, LC 19, Priority 2
[2019-09-21 17:09:27.098] Receive Beacon
[2019-09-21 17:09:27.108] Beacon state 2
[2019-09-21 17:09:27.108] Beacon LQI 38, LinkCost 34
[2019-09-21 17:09:27.108] route_cost table[0] 0133 < receive 014B, Ignore Beacon
[2019-09-21 17:09:27.268] Receive Beacon
[2019-09-21 17:09:27.268] Beacon state 2
[2019-09-21 17:09:27.278] Beacon LQI 94, LinkCost 255
[2019-09-21 17:09:27.278] route_cost table[0] 0133 < receive 0216, Ignore Beacon
[2019-09-21 17:09:31.878] Receive Beacon
[2019-09-21 17:09:31.878] Beacon state 2
[2019-09-21 17:09:31.878] Beacon LQI 34, LinkCost 34
[2019-09-21 17:09:31.888] route_cost table[0] 0133 < receive 015B, Ignore Beacon
[2019-09-21 17:09:33.217] Receive Beacon
[2019-09-21 17:09:33.217] Beacon state 2
[2019-09-21 17:09:33.217] Beacon LQI 54, LinkCost 31
[2019-09-21 17:09:33.227] route_cost table[0] 0133 < receive 0148, Ignore Beacon
[2019-09-21 17:09:34.147] Receive Beacon
[2019-09-21 17:09:34.147] Beacon state 2
[2019-09-21 17:09:34.147] Beacon LQI 75, LinkCost 255
[2019-09-21 17:09:34.157] route_cost table[0] 0133 < receive 0254, Ignore Beacon
[2019-09-21 17:09:34.167] Receive Beacon
[2019-09-21 17:09:34.167] Beacon state 2
[2019-09-21 17:09:34.167] Beacon LQI 88, LinkCost 26
[2019-09-21 17:09:34.177] Beacone table[0]: PAN 38F7, Addr 08CF, R_C 0118, LC 1A, Priority 2
[2019-09-21 17:09:35.097] Receive Beacon
[2019-09-21 17:09:35.097] Beacon state 2
[2019-09-21 17:09:35.097] Beacon LQI 59, LinkCost 255
[2019-09-21 17:09:35.097] route_cost table[0] 0132 < receive 0252, Ignore Beacon
[2019-09-21 17:09:36.187] Receive Beacon
[2019-09-21 17:09:36.197] Beacon state 2
[2019-09-21 17:09:36.197] Beacon LQI 104, LinkCost 255
[2019-09-21 17:09:36.197] route_cost table[0] 0132 < receive 0217, Ignore Beacon
[2019-09-21 17:09:36.797] Receive Beacon
[2019-09-21 17:09:36.797] Beacon state 2
[2019-09-21 17:09:36.797] Beacon LQI 46, LinkCost 32
[2019-09-21 17:09:36.797] route_cost table[0] 0132 < receive 0165, Ignore Beacon
[2019-09-21 17:09:40.777] Receive Beacon
[2019-09-21 17:09:40.787] Beacon state 2
[2019-09-21 17:09:40.787] Beacon LQI 106, LinkCost 255
[2019-09-21 17:09:40.787] route_cost table[0] 0132 < receive 0218, Ignore Beacon
[2019-09-21 17:09:43.637] Receive Beacon
[2019-09-21 17:09:43.647] Beacon state 2
[2019-09-21 17:09:43.647] Beacon LQI 48, LinkCost 32
[2019-09-21 17:09:43.647] route_cost table[0] 0132 < receive 0174, Ignore Beacon
[2019-09-21 17:09:44.037] 
[2019-09-21 17:09:44.037] Receive beacon_request
[2019-09-21 17:09:44.047]     ->form: 162612FFFE020000
[2019-09-21 17:09:44.857] Receive Beacon
[2019-09-21 17:09:44.867] Beacon state 2
[2019-09-21 17:09:44.867] Beacon LQI 90, LinkCost 25
[2019-09-21 17:09:44.867] route_cost table[0] 0132 < receive 015C, Ignore Beacon
[2019-09-21 17:09:44.997] Receive Beacon
[2019-09-21 17:09:45.007] Beacon state 2
[2019-09-21 17:09:45.007] Beacon LQI 56, LinkCost 31
[2019-09-21 17:09:45.007] route_cost table[0] 0132 < receive 0148, Ignore Beacon
[2019-09-21 17:09:45.237] Receive Beacon
[2019-09-21 17:09:45.237] Beacon state 2
[2019-09-21 17:09:45.237] Beacon LQI 63, LinkCost 255
[2019-09-21 17:09:45.237] route_cost table[0] 0132 < receive 0252, Ignore Beacon
[2019-09-21 17:09:45.417] Receive Beacon
[2019-09-21 17:09:45.427] Beacon state 2
[2019-09-21 17:09:45.427] Beacon LQI 111, LinkCost 22
[2019-09-21 17:09:45.427] Beacone table[0]: PAN 38F7, Addr 0917, R_C 00FF, LC 16, Priority 2
[2019-09-21 17:09:46.107] Receive Beacon
[2019-09-21 17:09:46.107] Beacon state 2
[2019-09-21 17:09:46.107] Beacon LQI 55, LinkCost 255
[2019-09-21 17:09:46.117] route_cost table[0] 0115 < receive 0252, Ignore Beacon
[2019-09-21 17:09:46.527] Receive Beacon
[2019-09-21 17:09:46.527] Beacon state 2
[2019-09-21 17:09:46.527] Beacon LQI 53, LinkCost 31
[2019-09-21 17:09:46.527] route_cost table[0] 0115 < receive 0173, Ignore Beacon
[2019-09-21 17:09:47.017] PAN:38f7 LBA:0x0917 R_C:0x00ff L_C: 0x16, Priority 2
[2019-09-21 17:09:47.017] adpm_discovery_comfirm_cb: All Priority Low, Ignore Priority
[2019-09-21 17:09:47.027] adpm_discovery_comfirm_cb: Mini join  PAN 38f7, join cnt = 8
[2019-09-21 17:09:47.037] adpm_discovery_comfirm_cb: Select PAN 38f7
[2019-09-21 17:09:47.037] adpm_discovery_comfirm_cb: History PAN 38f7, join cnt = 9
[2019-09-21 17:09:47.037] Choose Beacon Table[0].join_cost 0115 (0x38F7), Join Wait 0 sec
[2019-09-21 17:09:47.047] Join PAN 38F7 by 0917, Please Wait...
[2019-09-21 17:10:13.047] 
[2019-09-21 17:10:13.047] Send Beacon Request
[2019-09-21 17:10:14.517] Receive Beacon
[2019-09-21 17:10:14.517] Beacon state 2
[2019-09-21 17:10:14.517] Beacon LQI 87, LinkCost 255
[2019-09-21 17:10:14.527] Beacone table[0]: PAN 38F7, Addr 091E, R_C 011A, LC FF, Priority 2
[2019-09-21 17:10:17.467] Receive Beacon
[2019-09-21 17:10:17.467] Beacon state 2
[2019-09-21 17:10:17.467] Beacon LQI 42, LinkCost 255
[2019-09-21 17:10:17.467] route_cost table[0] 0219 < receive 025C, Ignore Beacon
[2019-09-21 17:10:26.577] Receive Beacon
[2019-09-21 17:10:26.587] Beacon state 2
[2019-09-21 17:10:26.587] Beacon LQI 95, LinkCost 255
[2019-09-21 17:10:26.587] route_cost table[0] 0219 < receive 021A, Ignore Beacon
[2019-09-21 17:10:29.367] Receive Beacon
[2019-09-21 17:10:29.377] Beacon state 2
[2019-09-21 17:10:29.377] Beacon LQI 33, LinkCost 34
[2019-09-21 17:10:29.377] Beacone table[0]: PAN 38F7, Addr 08A9, R_C 0146, LC 22, Priority 2
[2019-09-21 17:10:33.577] Receive Beacon
[2019-09-21 17:10:33.577] Beacon state 2
[2019-09-21 17:10:33.577] Beacon LQI 98, LinkCost 255
[2019-09-21 17:10:33.587] route_cost table[0] 0168 < receive 0217, Ignore Beacon
[2019-09-21 17:10:35.437] Receive Beacon
[2019-09-21 17:10:35.447] Beacon state 2
[2019-09-21 17:10:35.447] Beacon LQI 92, LinkCost 255
[2019-09-21 17:10:35.447] route_cost table[0] 0168 < receive 0219, Ignore Beacon
[2019-09-21 17:10:37.047] PAN:38f7 LBA:0x08a9 R_C:0x0146 L_C: 0x22, Priority 2
[2019-09-21 17:10:37.057] adpm_discovery_comfirm_cb: All Priority Low, Ignore Priority
[2019-09-21 17:10:37.067] adpm_discovery_comfirm_cb: Mini join  PAN 38f7, join cnt = 9
[2019-09-21 17:10:37.067] adpm_discovery_comfirm_cb: Select PAN 38f7
[2019-09-21 17:10:37.077] adpm_discovery_comfirm_cb: History PAN 38f7, join cnt = 10
[2019-09-21 17:10:37.077] Choose Beacon Table[0].join_cost 0168 (0x38F7), Join Wait 0 sec
[2019-09-21 17:10:37.107] Join PAN 38F7 by 08A9, Please Wait...
[2019-09-21 17:10:38.647] Tx Packet Give Up (TxCMP, nack_or_ackto = 3)
[2019-09-21 17:10:39.507] Robust retry fail
[2019-09-21 17:10:39.517] Set Neighbor Table[36] : 0x08A9 tmr valid time to zero
[2019-09-21 17:10:39.517] Add 08A9 to BlackList[0]
[2019-09-21 17:10:52.237] 
[2019-09-21 17:10:52.237] Receive beacon_request
[2019-09-21 17:10:52.247]     ->form: 162612FFFE020000
[2019-09-21 17:11:03.637] 
[2019-09-21 17:11:03.637] Send Beacon Request
[2019-09-21 17:11:04.247] Receive Beacon
[2019-09-21 17:11:04.247] Beacon state 2
[2019-09-21 17:11:04.257] Beacon LQI 87, LinkCost 255
[2019-09-21 17:11:04.257] Beacone table[0]: PAN 38F7, Addr 057A, R_C 0145, LC FF, Priority 2
[2019-09-21 17:11:08.117] Receive Beacon
[2019-09-21 17:11:08.127] Beacon state 2
[2019-09-21 17:11:08.127] Beacon LQI 38, LinkCost 34
[2019-09-21 17:11:08.127] Beacone table[0]: PAN 38F7, Addr 071E, R_C 0136, LC 22, Priority 2
[2019-09-21 17:11:08.547] Receive Beacon
[2019-09-21 17:11:08.557] Beacon state 2
[2019-09-21 17:11:08.557] Beacon LQI 93, LinkCost 255
[2019-09-21 17:11:08.557] route_cost table[0] 0158 < receive 021A, Ignore Beacon
[2019-09-21 17:11:08.834] Receive Beacon
[2019-09-21 17:11:08.834] Beacon state 2
[2019-09-21 17:11:08.844] Beacon LQI 41, LinkCost 255
[2019-09-21 17:11:08.844] route_cost table[0] 0158 < receive 025C, Ignore Beacon
[2019-09-21 17:11:09.627] Receive Beacon
[2019-09-21 17:11:09.627] Beacon state 2
[2019-09-21 17:11:09.627] Beacon LQI 56, LinkCost 31
[2019-09-21 17:11:09.637] Beacone table[0]: PAN 38F7, Addr 0883, R_C 0129, LC 1F, Priority 2
[2019-09-21 17:11:13.129] Receive Beacon
[2019-09-21 17:11:13.129] Beacon state 2
[2019-09-21 17:11:13.139] Beacon LQI 60, LinkCost 255
[2019-09-21 17:11:13.139] route_cost table[0] 0148 < receive 0264, Ignore Beacon
[2019-09-21 17:11:13.659] Receive Beacon
[2019-09-21 17:11:13.659] Beacon state 2
[2019-09-21 17:11:13.659] Beacon LQI 93, LinkCost 25
[2019-09-21 17:11:13.669] Beacone table[0]: PAN 38F7, Addr 0744, R_C 011A, LC 19, Priority 2
[2019-09-21 17:11:15.499] Receive Beacon
[2019-09-21 17:11:15.509] Beacon state 2
[2019-09-21 17:11:15.509] Beacon LQI 45, LinkCost 32
[2019-09-21 17:11:15.509] route_cost table[0] 0133 < receive 0164, Ignore Beacon
[2019-09-21 17:11:16.419] Receive Beacon
[2019-09-21 17:11:16.419] Beacon state 2
[2019-09-21 17:11:16.419] Beacon LQI 109, LinkCost 22
[2019-09-21 17:11:16.429] Beacone table[0]: PAN 38F7, Addr 0917, R_C 00FF, LC 16, Priority 2
[2019-09-21 17:11:17.809] Receive Beacon
[2019-09-21 17:11:17.809] Beacon state 2
[2019-09-21 17:11:17.809] Beacon LQI 54, LinkCost 255
[2019-09-21 17:11:17.819] route_cost table[0] 0115 < receive 0247, Ignore Beacon
[2019-09-21 17:11:19.479] Receive Beacon
[2019-09-21 17:11:19.489] Beacon state 2
[2019-09-21 17:11:19.489] Beacon LQI 64, LinkCost 29
[2019-09-21 17:11:19.489] route_cost table[0] 0115 < receive 0146, Ignore Beacon
[2019-09-21 17:11:19.819] Receive Beacon
[2019-09-21 17:11:19.829] Beacon state 2
[2019-09-21 17:11:19.829] Beacon LQI 85, LinkCost 26
[2019-09-21 17:11:19.829] route_cost table[0] 0115 < receive 0132, Ignore Beacon
[2019-09-21 17:11:27.639] PAN:38f7 LBA:0x0917 R_C:0x00ff L_C: 0x16, Priority 2
[2019-09-21 17:11:27.649] adpm_discovery_comfirm_cb: All Priority Low, Ignore Priority
[2019-09-21 17:11:27.659] adpm_discovery_comfirm_cb: Mini join  PAN 38f7, join cnt = 10
[2019-09-21 17:11:27.659] adpm_discovery_comfirm_cb: Select PAN 38f7
[2019-09-21 17:11:27.659] adpm_discovery_comfirm_cb: History PAN 38f7, join cnt = 11
[2019-09-21 17:11:27.669] Choose Beacon Table[0].join_cost 0115 (0x38F7), Join Wait 14 sec
[2019-09-21 17:11:41.689] Join PAN 38F7 by 0917, Please Wait...
[2019-09-21 17:11:57.349] 
[2019-09-21 17:11:57.349] Receive beacon_request
[2019-09-21 17:11:57.359]     ->form: 162612FFFE020000
[2019-09-21 17:12:07.698] 
[2019-09-21 17:12:07.698] Send Beacon Request
[2019-09-21 17:12:09.138] Receive Beacon
[2019-09-21 17:12:09.138] Beacon state 2
[2019-09-21 17:12:09.138] Beacon LQI 51, LinkCost 255
[2019-09-21 17:12:09.148] Beacone table[0]: PAN 38F7, Addr 090C, R_C 0146, LC FF, Priority 2
[2019-09-21 17:12:10.788] >> holley_send_heartbeat(20)
[2019-09-21 17:12:10.788] 
[2019-09-21 17:12:10.788]       68 0e 0e 68 5a 99 99 06 82 05 55 30 00 aa aa 00 
[2019-09-21 17:12:10.798]       01 00 77 16 
[2019-09-21 17:12:10.798] 
[2019-09-21 17:12:11.728] Receive Beacon
[2019-09-21 17:12:11.728] Beacon state 2
[2019-09-21 17:12:11.728] Beacon LQI 99, LinkCost 24
[2019-09-21 17:12:11.728] Beacone table[0]: PAN 38F7, Addr 0001, R_C 00FF, LC 18, Priority 2
[2019-09-21 17:12:11.768] Receive Beacon
[2019-09-21 17:12:11.768] Beacon state 2
[2019-09-21 17:12:11.768] Beacon LQI 83, LinkCost 26
[2019-09-21 17:12:11.768] route_cost table[0] 0117 < receive 0151, Ignore Beacon
[2019-09-21 17:12:11.928] Receive Beacon
[2019-09-21 17:12:11.928] Beacon state 2
[2019-09-21 17:12:11.928] Beacon LQI 99, LinkCost 255
[2019-09-21 17:12:11.928] route_cost table[0] 0117 < receive 0216, Ignore Beacon
[2019-09-21 17:12:12.108] Receive Beacon
[2019-09-21 17:12:12.108] Beacon state 2
[2019-09-21 17:12:12.108] Beacon LQI 85, LinkCost 255
[2019-09-21 17:12:12.108] route_cost table[0] 0117 < receive 0219, Ignore Beacon
[2019-09-21 17:12:12.188] Receive Beacon
[2019-09-21 17:12:12.188] Beacon state 2
[2019-09-21 17:12:12.188] Beacon LQI 92, LinkCost 255
[2019-09-21 17:12:12.188] route_cost table[0] 0117 < receive 0244, Ignore Beacon
[2019-09-21 17:12:12.278] Receive Beacon
[2019-09-21 17:12:12.278] Beacon state 2
[2019-09-21 17:12:12.278] Beacon LQI 43, LinkCost 33
[2019-09-21 17:12:12.278] route_cost table[0] 0117 < receive 0163, Ignore Beacon
[2019-09-21 17:12:12.918] Receive Beacon
[2019-09-21 17:12:12.918] Beacon state 2
[2019-09-21 17:12:12.918] Beacon LQI 99, LinkCost 255
[2019-09-21 17:12:12.928] route_cost table[0] 0117 < receive 0218, Ignore Beacon
[2019-09-21 17:12:13.728] Receive Beacon
[2019-09-21 17:12:13.728] Beacon state 2
[2019-09-21 17:12:13.728] Beacon LQI 72, LinkCost 255
[2019-09-21 17:12:13.738] route_cost table[0] 0117 < receive 0252, Ignore Beacon
[2019-09-21 17:12:13.948] Receive Beacon
[2019-09-21 17:12:13.948] Beacon state 2
[2019-09-21 17:12:13.958] Beacon LQI 55, LinkCost 255
[2019-09-21 17:12:13.958] route_cost table[0] 0117 < receive 0231, Ignore Beacon
[2019-09-21 17:12:14.268] Receive Beacon
[2019-09-21 17:12:14.278] Beacon state 2
[2019-09-21 17:12:14.278] Beacon LQI 100, LinkCost 24
[2019-09-21 17:12:14.278] route_cost table[0] 0117 < receive 0216, Ignore Beacon
[2019-09-21 17:12:14.848] Receive Beacon
[2019-09-21 17:12:14.848] Beacon state 2
[2019-09-21 17:12:14.848] Beacon LQI 107, LinkCost 255
[2019-09-21 17:12:14.858] route_cost table[0] 0117 < receive 0217, Ignore Beacon
[2019-09-21 17:12:15.518] Receive Beacon
[2019-09-21 17:12:15.518] Beacon state 2
[2019-09-21 17:12:15.518] Beacon LQI 109, LinkCost 22
[2019-09-21 17:12:15.528] Beacone table[0]: PAN 38F7, Addr 0917, R_C 00FF, LC 16, Priority 2
[2019-09-21 17:12:18.318] Receive Beacon
[2019-09-21 17:12:18.328] Beacon state 2
[2019-09-21 17:12:18.328] Beacon LQI 42, LinkCost 33
[2019-09-21 17:12:18.328] route_cost table[0] 0115 < receive 014A, Ignore Beacon
[2019-09-21 17:12:20.318] Receive Beacon
[2019-09-21 17:12:20.328] Beacon state 2
[2019-09-21 17:12:20.328] Beacon LQI 28, LinkCost 35
[2019-09-21 17:12:20.328] route_cost table[0] 0115 < receive 0169, Ignore Beacon
[2019-09-21 17:12:20.328] Add Neighbor Table Fail(BlackList 0x08A9)
[2019-09-21 17:12:21.438] Receive Beacon
[2019-09-21 17:12:21.438] Beacon state 2
[2019-09-21 17:12:21.438] Beacon LQI 78, LinkCost 255
[2019-09-21 17:12:21.448] route_cost table[0] 0115 < receive 0252, Ignore Beacon
[2019-09-21 17:12:23.628] Receive Beacon
[2019-09-21 17:12:23.638] Beacon state 2
[2019-09-21 17:12:23.638] Beacon LQI 56, LinkCost 255
[2019-09-21 17:12:23.638] route_cost table[0] 0115 < receive 0254, Ignore Beacon
[2019-09-21 17:12:23.928] Receive Beacon
[2019-09-21 17:12:23.928] Beacon state 2
[2019-09-21 17:12:23.928] Beacon LQI 106, LinkCost 23
[2019-09-21 17:12:23.938] route_cost table[0] 0115 < receive 0133, Ignore Beacon
[2019-09-21 17:12:28.228] Receive Beacon
[2019-09-21 17:12:28.228] Beacon state 2
[2019-09-21 17:12:28.228] Beacon LQI 28, LinkCost 255
[2019-09-21 17:12:28.228] route_cost table[0] 0115 < receive 0239, Ignore Beacon
[2019-09-21 17:12:29.548] Receive Beacon
[2019-09-21 17:12:29.548] Beacon state 2
[2019-09-21 17:12:29.548] Beacon LQI 92, LinkCost 255
[2019-09-21 17:12:29.558] route_cost table[0] 0115 < receive 021A, Ignore Beacon
[2019-09-21 17:12:31.698] PAN:38f7 LBA:0x0917 R_C:0x00ff L_C: 0x16, Priority 2
[2019-09-21 17:12:31.698] adpm_discovery_comfirm_cb: All Priority Low, Ignore Priority
[2019-09-21 17:12:31.708] adpm_discovery_comfirm_cb: Mini join  PAN 38f7, join cnt = 11
[2019-09-21 17:12:31.718] adpm_discovery_comfirm_cb: Select PAN 38f7
[2019-09-21 17:12:31.728] adpm_discovery_comfirm_cb: History PAN 38f7, join cnt = 12
[2019-09-21 17:12:31.728] Choose Beacon Table[0].join_cost 0115 (0x38F7), Join Wait 0 sec
[2019-09-21 17:12:31.728] Join PAN 38F7 by 0917, Please Wait...
[2019-09-21 17:12:57.773] 
[2019-09-21 17:12:57.773] Send Beacon Request
[2019-09-21 17:12:58.833] Receive Beacon
[2019-09-21 17:12:58.843] Beacon state 2
[2019-09-21 17:12:58.843] Beacon LQI 46, LinkCost 32
[2019-09-21 17:12:58.843] Beacone table[0]: PAN 38F7, Addr 07B8, R_C 0139, LC 20, Priority 2
[2019-09-21 17:13:05.225] Receive Beacon
[2019-09-21 17:13:05.225] Beacon state 2
[2019-09-21 17:13:05.225] Beacon LQI 106, LinkCost 255
[2019-09-21 17:13:05.225] route_cost table[0] 0159 < receive 0217, Ignore Beacon
[2019-09-21 17:13:05.665] Receive Beacon
[2019-09-21 17:13:05.665] Beacon state 2
[2019-09-21 17:13:05.665] Beacon LQI 28, LinkCost 255
[2019-09-21 17:13:05.675] route_cost table[0] 0159 < receive 0247, Ignore Beacon
[2019-09-21 17:13:06.255] Receive Beacon
[2019-09-21 17:13:06.265] Beacon state 2
[2019-09-21 17:13:06.265] Beacon LQI 65, LinkCost 255
[2019-09-21 17:13:06.265] route_cost table[0] 0159 < receive 0254, Ignore Beacon
[2019-09-21 17:13:06.395] 
[2019-09-21 17:13:06.395] Receive beacon_request
[2019-09-21 17:13:06.395]     ->form: 162612FFFE020000
[2019-09-21 17:13:08.735] Receive Beacon
[2019-09-21 17:13:08.745] Beacon state 2
[2019-09-21 17:13:08.745] Beacon LQI 87, LinkCost 26
[2019-09-21 17:13:08.745] Beacone table[0]: PAN 38F7, Addr 0744, R_C 011A, LC 1A, Priority 2
[2019-09-21 17:13:09.725] Receive Beacon
[2019-09-21 17:13:09.735] Beacon state 2
[2019-09-21 17:13:09.735] Beacon LQI 99, LinkCost 24
[2019-09-21 17:13:09.735] Beacone table[0]: PAN 38F7, Addr 08C6, R_C 011C, LC 18, Priority 2
[2019-09-21 17:13:09.935] Receive Beacon
[2019-09-21 17:13:09.935] Beacon state 2
[2019-09-21 17:13:09.935] Beacon LQI 45, LinkCost 32
[2019-09-21 17:13:09.945] route_cost table[0] 0134 < receive 0149, Ignore Beacon
[2019-09-21 17:13:10.875] Receive Beacon
[2019-09-21 17:13:10.885] Beacon state 2
[2019-09-21 17:13:10.885] Beacon LQI 53, LinkCost 31
[2019-09-21 17:13:10.885] route_cost table[0] 0134 < receive 0163, Ignore Beacon
[2019-09-21 17:13:10.965] Receive Beacon
[2019-09-21 17:13:10.965] Beacon state 2
[2019-09-21 17:13:10.965] Beacon LQI 75, LinkCost 28
[2019-09-21 17:13:10.975] route_cost table[0] 0134 < receive 015F, Ignore Beacon
[2019-09-21 17:13:13.245] Receive Beacon
[2019-09-21 17:13:13.255] Beacon state 2
[2019-09-21 17:13:13.255] Beacon LQI 61, LinkCost 30
[2019-09-21 17:13:13.255] route_cost table[0] 0134 < receive 0147, Ignore Beacon
[2019-09-21 17:13:13.395] Receive Beacon
[2019-09-21 17:13:13.395] Beacon state 2
[2019-09-21 17:13:13.395] Beacon LQI 88, LinkCost 255
[2019-09-21 17:13:13.395] route_cost table[0] 0134 < receive 021A, Ignore Beacon
[2019-09-21 17:13:15.235] Receive Beacon
[2019-09-21 17:13:15.245] Beacon state 2
[2019-09-21 17:13:15.245] Beacon LQI 106, LinkCost 23
[2019-09-21 17:13:15.245] Beacone table[0]: PAN 38F7, Addr 0917, R_C 00FF, LC 17, Priority 2
[2019-09-21 17:13:16.690] Receive Beacon
[2019-09-21 17:13:16.690] Beacon state 2
[2019-09-21 17:13:16.690] Beacon LQI 53, LinkCost 255
[2019-09-21 17:13:16.690] route_cost table[0] 0116 < receive 0252, Ignore Beacon
[2019-09-21 17:13:17.310] Receive Beacon
[2019-09-21 17:13:17.310] Beacon state 2
[2019-09-21 17:13:17.310] Beacon LQI 66, LinkCost 255
[2019-09-21 17:13:17.310] route_cost table[0] 0116 < receive 0252, Ignore Beacon
[2019-09-21 17:13:17.740] Receive Beacon
[2019-09-21 17:13:17.740] Beacon state 2
[2019-09-21 17:13:17.740] Beacon LQI 58, LinkCost 30
[2019-09-21 17:13:17.740] route_cost table[0] 0116 < receive 0139, Ignore Beacon
[2019-09-21 17:13:19.210] Receive Beacon
[2019-09-21 17:13:19.210] Beacon state 2
[2019-09-21 17:13:19.210] Beacon LQI 98, LinkCost 255
[2019-09-21 17:13:19.220] route_cost table[0] 0116 < receive 0218, Ignore Beacon
[2019-09-21 17:13:19.240] Receive Beacon
[2019-09-21 17:13:19.250] Beacon state 2
[2019-09-21 17:13:19.250] Beacon LQI 88, LinkCost 26
[2019-09-21 17:13:19.250] route_cost table[0] 0116 < receive 0132, Ignore Beacon
[2019-09-21 17:13:19.780] Receive Beacon
[2019-09-21 17:13:19.780] Beacon state 2
[2019-09-21 17:13:19.790] Beacon LQI 107, LinkCost 23
[2019-09-21 17:13:19.790] Beacone table[0]: PAN 38F7, Addr 0001, R_C 00FF, LC 17, Priority 2
[2019-09-21 17:13:21.750] Receive Beacon
[2019-09-21 17:13:21.760] Beacon state 2
[2019-09-21 17:13:21.760] Beacon LQI 42, LinkCost 255
[2019-09-21 17:13:21.760] route_cost table[0] 0116 < receive 0254, Ignore Beacon
[2019-09-21 17:13:21.780] PAN:38f7 LBA:0x0001 R_C:0x00ff L_C: 0x17, Priority 2
[2019-09-21 17:13:21.780] adpm_discovery_comfirm_cb: All Priority Low, Ignore Priority
[2019-09-21 17:13:21.790] adpm_discovery_comfirm_cb: Mini join  PAN 38f7, join cnt = 12
[2019-09-21 17:13:21.790] adpm_discovery_comfirm_cb: Select PAN 38f7
[2019-09-21 17:13:21.800] adpm_discovery_comfirm_cb: History PAN 38f7, join cnt = 13
[2019-09-21 17:13:21.800] Choose Beacon Table[0].join_cost 0116 (0x38F7), Join Wait 19 sec
[2019-09-21 17:13:40.920] Join PAN 38F7 by 0001, Please Wait...
[2019-09-21 17:14:05.470] 
[2019-09-21 17:14:05.470] Receive beacon_request
[2019-09-21 17:14:05.480]     ->form: 162612FFFE020000
[2019-09-21 17:14:07.000] 
[2019-09-21 17:14:07.000] Send Beacon Request
[2019-09-21 17:14:07.600] Receive Beacon
[2019-09-21 17:14:07.600] Beacon state 2
[2019-09-21 17:14:07.610] Beacon LQI 69, LinkCost 255
[2019-09-21 17:14:07.610] Beacone table[0]: PAN 38F7, Addr 092D, R_C 0155, LC FF, Priority 2
[2019-09-21 17:14:07.920] Receive Beacon
[2019-09-21 17:14:07.930] Beacon state 2
[2019-09-21 17:14:07.930] Beacon LQI 90, LinkCost 255
[2019-09-21 17:14:07.930] Beacone table[0]: PAN 38F7, Addr 0912, R_C 0144, LC FF, Priority 2
[2019-09-21 17:14:08.640] Receive Beacon
[2019-09-21 17:14:08.640] Beacon state 2
[2019-09-21 17:14:08.640] Beacon LQI 87, LinkCost 255
[2019-09-21 17:14:08.650] route_cost table[0] 0243 < receive 0252, Ignore Beacon
[2019-09-21 17:14:08.800] Receive Beacon
[2019-09-21 17:14:08.800] Beacon state 2
[2019-09-21 17:14:08.810] Beacon LQI 99, LinkCost 24
[2019-09-21 17:14:08.810] Beacone table[0]: PAN 38F7, Addr 0768, R_C 01FE, LC 18, Priority 2
[2019-09-21 17:14:08.840] Receive Beacon
[2019-09-21 17:14:08.850] Beacon state 2
[2019-09-21 17:14:08.850] Beacon LQI 61, LinkCost 30
[2019-09-21 17:14:08.850] Beacone table[0]: PAN 38F7, Addr 076A, R_C 0137, LC 1E, Priority 2
[2019-09-21 17:14:09.200] Receive Beacon
[2019-09-21 17:14:09.200] Beacon state 2
[2019-09-21 17:14:09.210] Beacon LQI 86, LinkCost 255
[2019-09-21 17:14:09.210] route_cost table[0] 0155 < receive 0219, Ignore Beacon
[2019-09-21 17:14:11.020] 
[2019-09-21 17:14:11.020] Receive beacon_request
[2019-09-21 17:14:11.030]     ->form: 409909FFFE020000
[2019-09-21 17:14:11.130] Receive Beacon
[2019-09-21 17:14:11.130] Beacon state 2
[2019-09-21 17:14:11.140] Beacon LQI 33, LinkCost 255
[2019-09-21 17:14:11.140] route_cost table[0] 0155 < receive 025C, Ignore Beacon
[2019-09-21 17:14:12.490] Receive Beacon
[2019-09-21 17:14:12.490] Beacon state 2
[2019-09-21 17:14:12.490] Beacon LQI 54, LinkCost 31
[2019-09-21 17:14:12.500] Beacone table[0]: PAN 38F7, Addr 08DD, R_C 011B, LC 1F, Priority 2
[2019-09-21 17:14:14.500] Receive Beacon
[2019-09-21 17:14:14.510] Beacon state 2
[2019-09-21 17:14:14.510] Beacon LQI 54, LinkCost 255
[2019-09-21 17:14:14.510] route_cost table[0] 013A < receive 0245, Ignore Beacon
[2019-09-21 17:14:15.400] Receive Beacon
[2019-09-21 17:14:15.410] Beacon state 2
[2019-09-21 17:14:15.410] Beacon LQI 45, LinkCost 255
[2019-09-21 17:14:15.410] route_cost table[0] 013A < receive 0252, Ignore Beacon
[2019-09-21 17:14:15.790] Receive Beacon
[2019-09-21 17:14:15.800] Beacon state 2
[2019-09-21 17:14:15.800] Beacon LQI 77, LinkCost 255
[2019-09-21 17:14:15.800] route_cost table[0] 013A < receive 0252, Ignore Beacon
[2019-09-21 17:14:20.600] Receive Beacon
[2019-09-21 17:14:20.600] Beacon state 2
[2019-09-21 17:14:20.610] Beacon LQI 99, LinkCost 255
[2019-09-21 17:14:20.610] route_cost table[0] 013A < receive 0217, Ignore Beacon
[2019-09-21 17:14:23.370] Receive Beacon
[2019-09-21 17:14:23.380] Beacon state 2
[2019-09-21 17:14:23.380] Beacon LQI 42, LinkCost 33
[2019-09-21 17:14:23.380] route_cost table[0] 013A < receive 014A, Ignore Beacon
[2019-09-21 17:14:24.590] Receive Beacon
[2019-09-21 17:14:24.590] Beacon state 2
[2019-09-21 17:14:24.590] Beacon LQI 65, LinkCost 255
[2019-09-21 17:14:24.600] route_cost table[0] 013A < receive 0254, Ignore Beacon
[2019-09-21 17:14:24.650] Receive Beacon
[2019-09-21 17:14:24.660] Beacon state 2
[2019-09-21 17:14:24.660] Beacon LQI 61, LinkCost 255
[2019-09-21 17:14:24.660] route_cost table[0] 013A < receive 0244, Ignore Beacon
[2019-09-21 17:14:25.910] Receive Beacon
[2019-09-21 17:14:25.910] Beacon state 2
[2019-09-21 17:14:25.920] Beacon LQI 103, LinkCost 255
[2019-09-21 17:14:25.920] route_cost table[0] 013A < receive 0216, Ignore Beacon
[2019-09-21 17:14:28.280] Receive Beacon
[2019-09-21 17:14:28.290] Beacon state 2
[2019-09-21 17:14:28.290] Beacon LQI 30, LinkCost 255
[2019-09-21 17:14:28.290] route_cost table[0] 013A < receive 0231, Ignore Beacon
[2019-09-21 17:14:31.020] PAN:38f7 LBA:0x08dd R_C:0x011b L_C: 0x1f, Priority 2
[2019-09-21 17:14:31.030] adpm_discovery_comfirm_cb: All Priority Low, Ignore Priority
[2019-09-21 17:14:31.030] adpm_discovery_comfirm_cb: Mini join  PAN 38f7, join cnt = 13
[2019-09-21 17:14:31.040] adpm_discovery_comfirm_cb: Select PAN 38f7
[2019-09-21 17:14:31.040] adpm_discovery_comfirm_cb: History PAN 38f7, join cnt = 14
[2019-09-21 17:14:31.050] Choose Beacon Table[0].join_cost 013A (0x38F7), Join Wait 3 sec
[2019-09-21 17:14:34.180] Join PAN 38F7 by 08DD, Please Wait...
[2019-09-21 17:14:35.340] Tx Packet Give Up (TxCMP, nack_or_ackto = 3)
[2019-09-21 17:14:38.550] Robust retry fail
[2019-09-21 17:14:38.550] Set Neighbor Table[35] : 0x08DD tmr valid time to zero
[2019-09-21 17:14:38.560] Add 08DD to BlackList[1]
[2019-09-21 17:15:00.780] 
[2019-09-21 17:15:00.780] Send Beacon Request
[2019-09-21 17:15:02.540] Receive Beacon
[2019-09-21 17:15:02.550] Beacon state 2
[2019-09-21 17:15:02.550] Beacon LQI 98, LinkCost 255
[2019-09-21 17:15:02.550] Beacone table[0]: PAN 38F7, Addr 05CB, R_C 0119, LC FF, Priority 2
[2019-09-21 17:15:04.190] Receive Beacon
[2019-09-21 17:15:04.200] Beacon state 2
[2019-09-21 17:15:04.200] Beacon LQI 95, LinkCost 25
[2019-09-21 17:15:04.200] Beacone table[0]: PAN 38F7, Addr 08CF, R_C 0118, LC 19, Priority 2
[2019-09-21 17:15:06.450] Receive Beacon
[2019-09-21 17:15:06.450] Beacon state 2
[2019-09-21 17:15:06.450] Beacon LQI 98, LinkCost 255
[2019-09-21 17:15:06.460] route_cost table[0] 0131 < receive 0216, Ignore Beacon
[2019-09-21 17:15:11.290] >> holley_send_heartbeat(20)
[2019-09-21 17:15:11.290] 
[2019-09-21 17:15:11.290]       68 0e 0e 68 5a 99 99 06 82 05 55 30 00 aa aa 00 
[2019-09-21 17:15:11.300]       01 00 77 16 
[2019-09-21 17:15:11.300] 
[2019-09-21 17:15:12.840] TDP_FIR3_SCALE
[2019-09-21 17:15:12.840]     fir3_scale               : 0x00000086(134)
[2019-09-21 17:15:12.850]     fir3_scale_max           : 0x00000086(134)
[2019-09-21 17:15:12.850]     fir3_scale_min           : 0x0000000A(10)
[2019-09-21 17:15:12.850]     fir3_tx_success_cnt      : 0x00000036(54)
[2019-09-21 17:15:12.860]     fir3_add_3db_thr         : 0x0000000F(15)
[2019-09-21 17:15:12.860]     urgent_in_cnt            : 0x00000000(0)
[2019-09-21 17:15:12.870]     ot_event_cnt             : 0x00000000(0)
[2019-09-21 17:15:12.870]     start_specific_tx_scale  : 0x00000086(134)
[2019-09-21 17:15:12.870]     last_abnormal_tx_scale   : 0x00000086(134)
[2019-09-21 17:15:12.890] PHY_RX_MIB_CNT
[2019-09-21 17:15:12.890]     preamb_det                  : 9548
[2019-09-21 17:15:12.890]     syncm_det_success           : 8729 (Fail 819)
[2019-09-21 17:15:12.900]     fch_crc_correct             : 7908
[2019-09-21 17:15:12.900]     ack_nack_fch_correct        : 732
[2019-09-21 17:15:12.910]     ACK/NACK/Unmatch_correct    : 13 / 0 / 2
[2019-09-21 17:15:12.910]     data_fch_correct            : 7176
[2019-09-21 17:15:12.910]     data_correct                : 6522 (Fail 654)
[2019-09-21 17:15:12.920]     apdt_basic_time_block(btb)  : 1379
[2019-09-21 17:15:12.920]     apdt_preamb_det_scale       : 20 (Max 22, Min 0)
[2019-09-21 17:15:12.920]     apdt_preamb_noise_thr       : 30 (Max 30, Min0)
[2019-09-21 17:15:12.930]     apdt_latched_fa_cnt_per_btb : 0 (AVG 0.59)
[2019-09-21 17:15:12.930]     apdt_scale_event            : 1(Up), 2(Dn)
[2019-09-21 17:15:12.940]     apdt_huge_fa_in_rx_event    : 0
[2019-09-21 17:15:12.940]     syncm_location              :    0     1     2     3     4     5
[2019-09-21 17:15:12.950]                                    360  8001   171    46    38   113 (counter)
[2019-09-21 17:15:12.950]     FCH Error                   : 0, (format 00 00 00 00  00 00 00 00)
[2019-09-21 17:15:12.970] PHY_TX_MIB_CNT               Data     ACK    NACK
[2019-09-21 17:15:12.980]     mac_send_cnt         :     37       1      11
[2019-09-21 17:15:12.980]     mac_abort_cnt        :      0       0       0
[2019-09-21 17:15:12.990]     mac_drop_cnt         :      0       0
[2019-09-21 17:15:12.990]     retransmit_cnt       : 5
[2019-09-21 17:15:12.990]     data_param_err_cnt   : 0
[2019-09-21 17:15:13.970] Receive Beacon
[2019-09-21 17:15:13.970] Beacon state 2
[2019-09-21 17:15:13.970] Beacon LQI 44, LinkCost 33
[2019-09-21 17:15:13.980] route_cost table[0] 0131 < receive 0154, Ignore Beacon
[2019-09-21 17:15:14.300] Receive Beacon
[2019-09-21 17:15:14.310] Beacon state 2
[2019-09-21 17:15:14.310] Beacon LQI 58, LinkCost 30
[2019-09-21 17:15:14.310] route_cost table[0] 0131 < receive 0157, Ignore Beacon
[2019-09-21 17:15:15.630] 
[2019-09-21 17:15:15.630] Receive beacon_request
[2019-09-21 17:15:15.640]     ->form: 162612FFFE020000
[2019-09-21 17:15:16.430] Receive Beacon
[2019-09-21 17:15:16.440] Beacon state 2
[2019-09-21 17:15:16.440] Beacon LQI 84, LinkCost 26
[2019-09-21 17:15:16.440] route_cost table[0] 0131 < receive 015D, Ignore Beacon
[2019-09-21 17:15:17.630] Receive Beacon
[2019-09-21 17:15:17.630] Beacon state 2
[2019-09-21 17:15:17.630] Beacon LQI 94, LinkCost 255
[2019-09-21 17:15:17.640] route_cost table[0] 0131 < receive 021A, Ignore Beacon
[2019-09-21 17:15:18.020] Receive Beacon
[2019-09-21 17:15:18.020] Beacon state 2
[2019-09-21 17:15:18.020] Beacon LQI 95, LinkCost 255
[2019-09-21 17:15:18.030] route_cost table[0] 0131 < receive 01FE, Ignore Beacon
[2019-09-21 17:15:18.980] Receive Beacon
[2019-09-21 17:15:18.980] Beacon state 2
[2019-09-21 17:15:18.990] Beacon LQI 57, LinkCost 255
[2019-09-21 17:15:18.990] route_cost table[0] 0131 < receive 0245, Ignore Beacon
[2019-09-21 17:15:19.290] 
[2019-09-21 17:15:19.290] Receive beacon_request
[2019-09-21 17:15:19.290]     ->form: 409909FFFE020000
[2019-09-21 17:15:19.360] Receive Beacon
[2019-09-21 17:15:19.370] Beacon state 2
[2019-09-21 17:15:19.370] Beacon LQI 44, LinkCost 255
[2019-09-21 17:15:19.370] route_cost table[0] 0131 < receive 025C, Ignore Beacon
[2019-09-21 17:15:19.540] Receive Beacon
[2019-09-21 17:15:19.550] Beacon state 2
[2019-09-21 17:15:19.550] Beacon LQI 98, LinkCost 255
[2019-09-21 17:15:19.550] route_cost table[0] 0131 < receive 0243, Ignore Beacon
[2019-09-21 17:15:19.570] Receive Beacon
[2019-09-21 17:15:19.570] Beacon state 2
[2019-09-21 17:15:19.570] Beacon LQI 93, LinkCost 25
[2019-09-21 17:15:19.580] route_cost table[0] 0131 < receive 0133, Ignore Beacon
[2019-09-21 17:15:19.620] Receive Beacon
[2019-09-21 17:15:19.630] Beacon state 2
[2019-09-21 17:15:19.630] Beacon LQI 99, LinkCost 255
[2019-09-21 17:15:19.630] route_cost table[0] 0131 < receive 0218, Ignore Beacon
[2019-09-21 17:15:20.240] Receive Beacon
[2019-09-21 17:15:20.240] Beacon state 2
[2019-09-21 17:15:20.240] Beacon LQI 39, LinkCost 255
[2019-09-21 17:15:20.250] route_cost table[0] 0131 < receive 0242, Ignore Beacon
[2019-09-21 17:15:22.320] Receive Beacon
[2019-09-21 17:15:22.330] Beacon state 2
[2019-09-21 17:15:22.330] Beacon LQI 46, LinkCost 255
[2019-09-21 17:15:22.330] route_cost table[0] 0131 < receive 0252, Ignore Beacon
[2019-09-21 17:15:23.240] Receive Beacon
[2019-09-21 17:15:23.240] Beacon state 2
[2019-09-21 17:15:23.240] Beacon LQI 64, LinkCost 29
[2019-09-21 17:15:23.250] route_cost table[0] 0131 < receive 0138, Ignore Beacon
[2019-09-21 17:15:23.250] Add Neighbor Table Fail(BlackList 0x08DD)
[2019-09-21 17:15:24.170] Receive Beacon
[2019-09-21 17:15:24.170] Beacon state 2
[2019-09-21 17:15:24.180] Beacon LQI 55, LinkCost 255
[2019-09-21 17:15:24.180] route_cost table[0] 0131 < receive 0233, Ignore Beacon
[2019-09-21 17:15:24.210] Receive Beacon
[2019-09-21 17:15:24.220] Beacon state 2
[2019-09-21 17:15:24.220] Beacon LQI 79, LinkCost 255
[2019-09-21 17:15:24.220] route_cost table[0] 0131 < receive 0254, Ignore Beacon
[2019-09-21 17:15:25.030] PAN:38f7 LBA:0x08cf R_C:0x0118 L_C: 0x19, Priority 2
[2019-09-21 17:15:25.040] adpm_discovery_comfirm_cb: All Priority Low, Ignore Priority
[2019-09-21 17:15:25.050] adpm_discovery_comfirm_cb: Mini join  PAN 38f7, join cnt = 14
[2019-09-21 17:15:25.050] adpm_discovery_comfirm_cb: Select PAN 38f7
[2019-09-21 17:15:25.060] adpm_discovery_comfirm_cb: History PAN 38f7, join cnt = 15
[2019-09-21 17:15:25.060] Choose Beacon Table[0].join_cost 0131 (0x38F7), Join Wait 16 sec
[2019-09-21 17:15:41.170] Join PAN 38F7 by 08CF, Please Wait...
[2019-09-21 17:16:04.180] 
[2019-09-21 17:16:04.180] Receive beacon_request
[2019-09-21 17:16:04.190]     ->form: 250810FFFE020000
[2019-09-21 17:16:07.180] 
[2019-09-21 17:16:07.180] Send Beacon Request
[2019-09-21 17:16:08.800] Receive Beacon
[2019-09-21 17:16:08.800] Beacon state 2
[2019-09-21 17:16:08.800] Beacon LQI 78, LinkCost 255
[2019-09-21 17:16:08.810] Beacone table[0]: PAN 38F7, Addr 092D, R_C 0155, LC FF, Priority 2
[2019-09-21 17:16:13.960] Receive Beacon
[2019-09-21 17:16:13.960] Beacon state 2
[2019-09-21 17:16:13.960] Beacon LQI 90, LinkCost 25
[2019-09-21 17:16:13.960] Beacone table[0]: PAN 38F7, Addr 08CF, R_C 0118, LC 19, Priority 2
[2019-09-21 17:16:14.950] Receive Beacon
[2019-09-21 17:16:14.960] Beacon state 2
[2019-09-21 17:16:14.960] Beacon LQI 42, LinkCost 255
[2019-09-21 17:16:14.960] route_cost table[0] 0131 < receive 0239, Ignore Beacon
[2019-09-21 17:16:16.550] Receive Beacon
[2019-09-21 17:16:16.550] Beacon state 2
[2019-09-21 17:16:16.560] Beacon LQI 95, LinkCost 255
[2019-09-21 17:16:16.560] route_cost table[0] 0131 < receive 0319, Ignore Beacon
[2019-09-21 17:16:18.830] Receive Beacon
[2019-09-21 17:16:18.830] Beacon state 2
[2019-09-21 17:16:18.840] Beacon LQI 92, LinkCost 255
[2019-09-21 17:16:18.840] route_cost table[0] 0131 < receive 0219, Ignore Beacon
[2019-09-21 17:16:19.480] Receive Beacon
[2019-09-21 17:16:19.490] Beacon state 2
[2019-09-21 17:16:19.490] Beacon LQI 95, LinkCost 255
[2019-09-21 17:16:19.490] route_cost table[0] 0131 < receive 01FE, Ignore Beacon
[2019-09-21 17:16:20.150] Receive Beacon
[2019-09-21 17:16:20.150] Beacon state 2
[2019-09-21 17:16:20.150] Beacon LQI 90, LinkCost 255
[2019-09-21 17:16:20.160] route_cost table[0] 0131 < receive 0216, Ignore Beacon
