bandplan FCC
analog_gain 60
digital_gain 12
27528
-7696
-29792
29788
-1848
-11384
14776
-29792
12032
29020
-29792
15596
9960
-28696
29788
-14988
-20524
29788
-24100
-7600
17352
-17464
19352
-7876
-28404
27956
17120
-26016
9172
-12952
2544
28656
-29792
9392
21048
-29792
17660
4464
-9924
29788
-29792
-12700
29788
-24068
4376
13244
-26144
28184
-1728
-29792
27900
-2464
-4992
24964
-29792
1492
25048
-29792
15212
17652
-20524
15308
-19292
-14604
29788
-12472
-10520
15916
-29792
21684
21484
-29792
19136
-3512
-20684
29788
-3984
-5652
16508
-29792
2956
29788
-17332
7268
-7356
-17900
29788
-8112
-28496
17964
-12840
9184
21608
-26992
16400
1984
-29792
24328
1624
-7560
23684
-29792
-9556
29788
-13420
4920
-2684
-27756
29788
-1016
-29792
29572
-10060
-9936
26368
-22044
16028
8740
-29792
21124
7156
-15032
26172
-21392
-5852
24264
-15688
-5692
13436
-14468
17456
4508
-29792
29788
-2024
-20032
22768
-18000
6468
23328
-29792
6888
21072
-15252
13600
-13304
-13592
29788
-15888
-19076
26204
-18668
9408
12752
-28056
29732
-8420
-26824
25060
-8660
5136
20076
-29792
944
27604
-20680
9684
1760
-20068
29788
-14896
-18440
29788
-20420
4948
19504
-27808
10572
13816
-29792
16388
9564
-9612
22552
-29792
-2036
29788
-17500
1092
-1428
-18548
29788
100
-19304
19924
-17348
-4704
17956
-21288
19612
11824
-29792
16640
3224
-7988
20684
-25428
-8516
29788
-12832
-10400
10296
-14964
24636
3108
-29792
18376
108
-488
16932
-21344
11388
8308
-29792
17960
13704
-18584
14128
-12936
-17604
29788
2144
-14716
3648
-26224
19736
16736
-24012
17300
-3184
-17028
20304
-15776
2204
25776
-29792
1412
16520
-14468
17420
-9112
-21752
29788
-4772
-11244
11104
-24248
12760
22612
-24468
9052
1220
-19036
22852
-8984
-5044
25668
-26116
-7108
17368
-7868
19532
-7712
-29792
25064
4816
-6208
11208
-28228
4268
29788
-19820
-4212
15920
-26544
15300
-1272
-15740
29788
-14588
-13136
6156
-20628
23740
14688
-29792
12812
3488
-13932
18212
-16736
-4776
29788
-13672
-10548
2792
-19884
22084
12604
-17128
16628
-15560
-19000
26816
-5372
6948
10420
-29792
8900
19996
-4604
19232
-25532
-22856
29788
-144
-104
11696
-28152
8440
13816
-21952
22792
-1328
-22332
16968
-9188
2760
23488
-28516
-3296
20604
-9576
11568
-12236
-23620
29788
5656
-9040
8112
-24732
6720
27684
-26756
3144
8852
-17784
25728
-14256
-11360
29788
-17608
-6384
6756
-15424
18828
7056
-25836
17768
896
-10692
16536
-20860
1464
25804
-20516
-184
7860
-18512
24108
-532
-23364
26816
-17292
-12264
27424
-13948
13676
1352
-28956
9508
12224
-4540
13104
-16760
-17212
29788
-10956
1172
7228
-28712
23204
8384
-27276
14916
-1380
-4532
23432
-23632
-4592
23148
-21268
6548
7332
-14040
21340
-10416
-23404
28572
-2620
-4296
10780
-29792
11536
20148
-13964
10832
-10644
-16236
29788
-11836
-14864
24440
-18872
8404
18840
-29792
18812
9048
-21220
13524
-3944
-28
10552
-16168
-6808
26188
-13496
6540
1712
-27272
24908
2584
-16420
17296
-13836
-3700
26384
-25148
3728
14468
-22248
17624
-2508
-13832
26304
-19788
-12188
28684
-15264
6640
6020
-29792
19632
12732
-12748
13700
-18172
-12096
29384
-11376
-4404
11168
-20028
20036
7648
-29036
22692
-6240
-21476
29788
-12260
596
13424
-25096
4896
12340
-8244
15052
-9384
-23192
27960
-3984
-5012
12296
-26108
11640
19700
-21708
10340
-7032
-16892
29788
-4860
-11928
18328
-20940
364
14928
-22524
19472
7724
-23728
20532
-8492
-8408
23160
-25484
-684
22480
-19512
14328
2272
-28056
26620
-6764
-544
20908
-29792
5408
29788
-19444
-1604
8224
-6172
3760
-3884
-376
11016
-12884
-11684
29788
-21668
-4684
21200
-29792
14440
-5600
3544
29788
-29792
-7616
24060
-18600
-9348
22060
-10536
8908
10248
-27212
17020
-12888
-5128
29788
-25372
-9884
7444
-26188
16724
17292
5884
6748
-25752
-16320
26192
-12028
-6976
29788
-26040
-3536
22872
-25392
11972
-4364
-12116
29788
-21732
4136
9684
-29792
3784
28052
7872
-12544
-8924
-19160
25940
-10388
-8972
29788
-29612
-4764
17460
-19360
13672
-8052
-2992
21020
-19992
-2008
21768
-18268
-15088
29788
-4852
-4748
4192
-26276
24332
-6872
-8908
29788
-29792
-6436
26832
-24092
-596
7116
656
15768
-9200
-12788
13072
-14440
-10476
29788
-18756
-11288
19460
-29544
17088
-3668
-988
29788
-29792
-14328
26980
-9956
-3548
22172
-11396
-7788
5572
-13356
21508
-11308
-15232
29788
-19044
-17660
18240
-22932
17220
5440
-9704
25152
-25236
-11312
28132
-11716
-17864
25100
-4152
-8316
11552
-18328
18604
-5160
-17848
29788
-17428
-12108
19196
-27076
1764
19560
5064
10068
-15784
-23196
22048
664
-21892
29788
-9584
-12376
22364
-19804
7384
-1744
-9736
29788
-20756
-14376
21724
-17280
-5224
25808
4856
-7752
-4872
-22120
18116
2676
-20844
29788
-15008
-19080
24332
-15616
3764
-3068
-10300
28496
-8672
-13968
18016
-17668
-17332
29788
4916
-10224
4920
-28600
16560
4168
-19928
29788
-12988
-24480
22416
-15684
3280
-264
-4872
25352
-8052
-13312
5928
2640
-29360
29788
10708
-27764
23988
-29792
11224
17460
-14316
29788
-26180
-26264
29788
-784
-6784
11884
-10676
720
2008
-9288
19832
-8632
-27044
29788
-268
-22708
20884
-23608
4304
11200
-10492
29788
-17632
-29384
22036
-1480
-11244
24544
-492
-16720
4888
-14328
16660
9288
-25288
29788
-11008
-27688
29788
-16916
-1108
10792
5376
11396
-15936
-19724
15964
9608
-24740
22776
1048
-20684
19948
-6980
7296
2156
-29792
28220
2052
-22152
24772
-15132
-17852
16160
15528
10840
-9720
-28300
4220
13096
-18900
29788
3572
-29792
18076
-7356
6376
10008
-29624
23068
5848
-22340
19060
-10228
-18332
18788
15460
-636
-1132
-29792
7432
21172
-25648
24660
6184
-29144
18100
-676
-13332
14772
-15036
17040
7524
-27188
17432
-416
-28928
22168
21384
-17388
11128
-21784
-3168
19604
-27556
29788
7272
-29792
26884
-1592
-15440
12516
-10704
14608
9164
-23004
5188
8824
-29792
19580
29788
-29792
6908
-15164
-9040
29788
-25844
22232
13560
-29792
27124
8016
-29792
24048
2892
-5580
11472
-19644
-852
23120
-26284
10972
26316
-29792
22128
-3076
-21080
29788
-23608
17796
16108
-29792
17884
14124
-25200
13728
9444
-19572
18504
-9236
-5332
23132
-29792
12936
29788
-29792
11796
540
-24332
29788
-9208
10852
14236
-29792
10764
22416
-29792
15400
26272
-26688
18332
-16420
-15188
29788
-26316
7312
24924
-29792
13832
10032
-26420
27840
-2468
-1068
15736
-29792
-432
28764
-29792
12316
29680
-29792
19724
-3348
-22632
28856
-24088
8732
29788
-29792
9312
2816
-29792
27148
15652
-1900
5848
-29792
-6144
29788
-29764
10732
29788
-29792
14240
5244
-28456
28172
-17048
3996
29788
-29792
140
15176
-29792
12248
29788
-7148
6848
-24988
-21476
29788
-23820
9860
29788
-29792
9432
15472
-25308
24388
-17172
-5120
29788
-27692
-3012
18012
-29792
3544
29788
-16364
5196
-1636
-29792
29788
-18540
-4628
29788
-29792
3424
21372
-29792
15588
5708
-8132
29788
-22556
-12632
28048
-29792
-4076
29788
-22816
2932
6392
-29792
29252
-10584
-2172
29788
-29792
-280
18924
-29792
16740
18684
-4732
12044
-11580
-23604
21208
-6324
-14540
29788
-25116
-6308
13212
-29792
29788
-1292
-10272
29788
-29792
-12444
29788
-21652
848
23636
-26916
10056
8632
-20432
29788
-19884
-21408
29788
-22472
208
26656
-29792
13404
3908
-10480
29788
-21132
-20824
25576
-26188
-11924
29788
-14356
-1800
7976
-29792
29788
-9716
-26616
29788
-21740
-4020
20996
-29792
7604
11848
4448
20752
-18680
-27668
29068
-9148
-21104
29788
-19888
-7936
22852
-29012
22112
-4300
-26476
29788
-14956
-14916
28104
-29128
-480
24628
-10736
13536
-4980
-29312
27664
-5664
-27316
29788
-16272
-16244
29788
-29792
17340
5296
-29492
29788
-15992
-15816
29788
-24968
-16312
29788
-1252
-8716
11124
-29792
20420
-1908
-22156
29788
-25120
-19504
29788
-24684
2276
8152
-23288
29788
-5884
-29792
29788
-14824
-21576
29788
-3784
-13436
13908
-29792
19624
9484
-29792
29788
-9912
-24688
29788
-25624
-9576
12884
-22456
29788
8472
-27772
21916
-11624
-29792
29788
3784
-19704
24840
-29792
8960
17204
-29792
29788
-5052
-29792
29788
-18036
-11620
29788
-18912
16052
4908
-29792
27404
-3372
-29792
29788
3120
-25624
29788
-29020
-2568
18704
-23596
29788
-8236
-29792
28376
-3372
-17616
28712
-9488
-6664
17632
-29792
20188
10892
-29792
29788
4836
-29792
28824
-23372
-2544
27600
-29744
29600
120
-29792
29788
-4452
-29792
21896
6108
-3188
26116
-29292
-5528
12544
-28676
29788
11204
-29792
22292
-20656
-12192
29788
-8104
21920
-6268
-29792
20584
11252
-27904
29524
5576
-27476
23564
-20900
8888
21588
-29792
23568
11528
-29792
29128
-8400
-20868
25788
-11420
14336
9352
-29792
12072
15224
-29792
26900
14524
-29792
27504
-16100
-5460
22688
-29792
20568
14920
-29792
28228
-7964
-28552
27316
6952
3504
5464
-29792
808
25164
-29792
24704
19848
-29792
25920
-12424
-14540
29528
-25180
16044
14152
-29792
18912
7224
-27568
23928
9612
-15256
15608
-23020
-1700
27436
-29792
21800
23024
-29792
24336
-92
-17260
28284
-28332
11908
19340
-29792
21564
6604
-29792
16640
21412
-12820
11384
-19648
-11172
29176
-29092
17952
26820
-29792
6752
5336
-13516
15480
-5280
-3296
25940
-28328
2912
17400
-29792
14596
29788
-14292
2392
-6168
-20644
19880
-13600
19064
23104
-29792
13516
5844
-15508
10796
-4652
13876
4548
-13760
1196
3784
-21864
8392
29788
-21532
-4828
-5148
-8464
22948
-18640
17896
14580
-29792
8620
-1916
-2864
-2072
8476
19192
-20908
-13460
11588
9860
-17420
6380
21544
-12448
-12076
6076
-1632
-2128
-4532
12568
13140
-23876
4972
2332
-2128
-5732
8932
15296
-18180
364
-144
-1248
-8520
40
27312
-6544
-6148
-2832
-10152
-1064
-1804
29788
1992
-25508
-4112
-3852
10476
-2668
16044
6636
-27840
3520
5388
6084
-9772
-4628
20512
-9444
-512
3328
-7248
-6160
-1368
17052
4220
-11916
4112
-6344
-504
-6468
7776
21420
-21936
5556
-5104
-3284
-2972
3420
25420
-18644
-7612
4748
3104
-5896
-8480
24156
-3988
-5404
1852
-10552
-4032
-6368
25716
12904
-17868
-6644
-5756
2860
-4748
13472
19772
-22404
-8332
2820
1956
-1572
-368
23248
-14516
-11516
9020
-1784
3524
-17680
16168
19668
-25844
-3028
3428
6572
-12696
14148
19592
-29792
6172
-4932
5224
-3524
-3668
25196
-9884
-8692
-4504
1356
-2016
-4144
28136
2940
-25308
-6836
4548
9764
-5664
8208
7788
-22176
6524
4352
104
-4592
-8112
24200
-5416
-8544
1520
-4388
-5784
-5028
29552
3148
-19760
-3372
-3688
4580
-3676
20128
7088
-28384
680
5356
7048
-8744
-3084
21376
-10624
-7576
8168
-360
-8240
-9364
21416
-64
-10264
9188
-1668
-4972
-18852
14704
19364
-10116
2832
-5496
-7848
-12620
11140
29788
-13404
-8584
-2964
-7040
-2204
632
27108
-648
-13808
-4832
-5996
4524
-7752
22960
11312
-26280
-3560
-736
6140
-2804
9492
18000
-23388
-10676
2736
8064
4776
-360
13616
-20364
-15024
14008
10804
724
-16240
11692
4980
-11992
8380
-1924
-3612
-13652
11552
21536
-17036
-1696
672
-684
-10108
-644
29788
-6724
-14292
-2952
-1040
3176
-8052
21988
6556
-22720
-1808
2300
3828
-7672
14412
15552
-23500
-7220
2900
6792
-3400
-3424
21424
-9812
-9016
3504
-3124
1936
-10424
18100
11848
-21776
-4936
8388
2520
-4448
-1088
14676
-20184
808
18336
-1336
-10944
-14964
23684
-4744
608
3992
-8992
-7008
-5000
28864
-452
-20240
2564
2156
560
-8324
13732
8856
-16432
2844
200
2032
-13996
756
28200
-13084
-3816
3196
-7800
-3144
-3200
25032
5044
-23352
-8648
4420
8712
-3992
14408
3676
-23648
3248
10596
-8000
-6528
8552
23640
-17984
-14120
5812
-9172
15776
-3924
16896
-7008
-18040
8984
-1176
1528
-12652
18692
6052
-16736
4960
700
-1484
-11960
9868
22380
-13184
-8576
-3820
-2240
-1572
4172
28376
-11776
-21128
5440
524
4868
-8060
14028
6028
-18608
7116
548
-3152
-15460
7980
27640
-10840
-3296
-5336
-10852
3784
4032
16232
-5948
-11036
6380
-6140
8520
-16620
11100
12672
-15724
11932
-7228
-3052
-13052
12340
22592
-13876
-3784
-7652
-2464
-2032
5796
27964
-14956
-15940
2808
1236
3520
-9108
20480
-2536
-16860
12444
-1872
-5700
-13636
14752
20076
-13732
-3972
-2944
-2568
-6920
9036
25480
-14320
-12500
-3040
-132
3816
-6700
26944
1228
-23736
1724
-1488
4480
-8688
11832
18396
-18200
-5064
-3924
184
-3916
11188
26120
-17860
-18696
-3628
7872
9288
-3544
14072
-8876
-17412
5376
5300
7124
-10344
12432
7744
-24716
3468
3664
2184
-6716
3312
19528
-17600
448
3664
-4596
-2980
-5180
22496
-5384
-12040
4812
3324
-4176
-17080
19648
14136
-12980
100
-5804
-3784
-5856
13892
25248
-24184
-12500
912
4544
6100
-5780
19828
-8368
-16488
8532
5980
-5588
-17548
19772
12464
-10756
2740
-9496
-5144
-9628
16368
27096
-15612
-11100
-9380
-248
4116
5876
26400
-14364
-22332
652
4488
7260
-7728
21392
-3568
-20448
10544
-6344
2404
-4132
9964
14856
-19628
-4804
1404
3808
-4260
7044
12968
-19416
-496
7012
6356
-12428
-4240
11848
1668
-5936
968
4860
-12500
-5708
17960
16228
-15944
-10536
-5140
5864
760
4952
20532
-19580
-15928
8984
11544
-3020
-13700
19996
-3984
-11568
8776
-3432
-2744
-11044
18364
13520
-15972
-1948
-5428
2196
-5820
9560
21348
-17800
-8344
-4284
2072
3560
-120
22584
-11404
-11084
-2024
-2212
7984
-5160
10384
6896
-9932
-10800
5320
-3316
-2168
13044
13640
-14080
-10784
2992
2392
-3520
-3772
26696
-12556
-13972
4160
-1056
7280
-5572
14880
-1536
-17292
2572
4776
4548
-16084
7516
20588
-15068
-3736
1900
-568
-7724
804
27808
-14372
-13672
4808
4000
2656
-14688
19784
-1644
-11964
3832
-396
12344
-25420
8960
21428
-9108
-11200
4264
896
-17684
17688
18404
-11044
-16236
1512
1816
6056
-1568
13100
-6640
-18116
12464
3668
1856
-19736
9016
15888
-11836
6180
-1108
-3280
-18352
8732
28004
-11328
-5760
-3100
-7872
-6552
8364
26796
-3508
-18360
-4392
-1516
2004
-1064
19964
8096
-28216
-2888
6124
4800
-7932
4404
20872
-15192
-1396
-5064
-1128
-5000
-580
29788
-11416
-14324
-3460
-1700
10344
-3220
15196
-1816
-19092
1184
7140
3572
-13260
6188
13080
-10856
3936
3124
-7524
-12012
-952
29788
-3336
-14004
-5568
-10360
4256
260
29496
940
-26312
-2376
864
8920
-6480
12464
3432
-21308
4708
8320
6924
-15200
-7268
17820
-1352
-252
5032
-8432
-14404
-2384
29188
6948
-16236
-8160
-5284
1756
-1056
23572
3284
-25168
6252
-256
1288
-6824
3660
19292
-13560
-2980
-1816
1668
-7468
-2280
26576
-8772
-4784
484
-6896
-7272
-3868
29788
6992
-22228
-11488
-4804
8212
5128
16540
11712
-29792
-6860
7032
3616
372
3468
17456
-19896
-9372
7464
5820
-2836
-14044
25552
536
-15416
3256
-2800
-540
-8732
18424
10804
-18900
-5396
3176
4872
-9508
8072
23352
-18696
-12556
2256
1552
3276
-5992
21728
-4900
-15984
6036
-2504
1536
-9780
19384
7840
-16992
-2560
-3052
6788
-15296
17244
19136
-21848
2068
-6100
1848
-3824
684
19956
-9024
-6852
2052
-1180
-7592
-5248
22588
8780
-8172
-10256
-18668
15200
-4708
19916
6184
-18792
1516
-13136
18348
-15080
9024
22448
-22360
-5056
696
8472
-4796
-4632
17168
-10892
-6600
8952
4544
-6976
-13520
15428
7256
-9208
5160
-5992
-5396
-5848
11476
20388
-16640
-6144
-532
-24
-2464
860
23764
-13392
-11184
1936
3316
1264
-11388
22404
-4876
-12860
7796
-2472
6424
-19636
10968
21016
-16452
-732
-9848
9856
-11768
10288
26116
-25368
-4468
-4184
2952
2108
732
25904
-11404
-22980
196
5040
9296
-8340
15896
-140
-20292
10772
1868
720
-17288
11112
15424
-15488
4320
-2844
824
-7548
1868
21012
-5020
-11752
-6472
2776
-176
592
22528
-7172
-17584
2832
2360
544
-11576
17340
20124
-27116
-624
-616
-64
-5980
7580
25356
-26020
6600
-8172
-760
-2784
-384
29788
-19904
-11112
-1544
1892
5092
-4580
20656
-7244
-20632
1476
11900
6444
-12700
5736
6352
-16732
13140
8888
-12508
-16160
-2904
29788
120
-4296
-2956
-15072
-5364
6656
27592
-9332
-10360
-1732
-4472
3712
-9312
23128
4328
-18140
-3244
6244
5068
-14956
12676
8208
-14444
3640
4
-3296
-6968
1904
24380
-4456
-10024
1068
-7892
-7848
304
28508
-4748
-13644
1360
-7148
8000
-7424
20596
5792
-26020
-1552
484
11472
-4580
7576
7052
-25200
6492
9892
3296
-11972
-5200
18660
-6120
808
64
-9444
-3912
-2416
23836
2380
-13580
764
-8824
936
-264
18560
2924
-24896
1404
6108
12876
-11744
-1100
14104
-20380
5148
11048
-2340
-16300
1480
24220
-11096
-640
-448
-4508
-6388
-7628
29788
1960
-15148
-3180
-2892
-748
-6860
22156
11260
-23596
-1856
-72
2988
-3264
3972
20540
-21332
-4020
3892
2084
-36
-6304
24488
-15512
-11548
5636
-1984
3836
-2728
19064
-5716
-11704
-940
660
1844
-12260
17680
13024
-16116
-4312
-2256
148
-4104
10000
19464
-18500
-2584
2776
-6268
-3796
-4616
25732
-4760
-11076
6904
-5076
-4076
-9100
24392
2544
-9292
1520
-13920
-3108
-6316
26896
17848
-19160
-13524
-5364
7876
-2228
12804
11096
-23604
-4464
10576
7788
-8792
-10828
16340
-4588
-5204
18684
-3832
-18760
-10356
24580
8168
-16844
5228
-7316
6416
-13152
17420
17036
-29792
8700
-12888
12168
-2296
3232
17656
-24624
-900
4328
11352
-10636
-8124
20180
-8972
-4984
7760
808
-9616
-11032
21776
6912
-13988
2128
-2512
-2056
-7264
17360
14460
-26196
-2628
-1524
7628
4756
828
15292
-24756
-4988
5400
6412
3900
-10148
17920
-16428
-8080
19580
2964
-16856
-8384
20032
2392
-12712
14228
-7856
-17376
7364
12780
16304
-20528
-4464
344
-1216
-4116
10452
22736
-24868
-10236
6416
2524
-24
3256
18036
-17096
-11396
4548
8016
-3332
-16328
28192
-5840
-11024
12060
-2332
-2256
-20756
17544
13244
-9672
544
-10840
3092
-6108
14552
17040
-19664
-7500
-188
6332
-5908
6508
21156
-23996
-10724
7872
9828
-7664
1148
13732
-12048
-2156
1220
8696
-9316
-14580
19692
5008
-9572
9364
-9048
-7796
-7148
20744
18072
-18776
-7052
-8600
5652
-3940
15004
22684
-29088
-14560
2528
14132
7008
-3664
10172
-16636
-14272
12156
13740
-3972
-18260
13508
5396
-10640
14160
-3900
-9776
-12916
11844
21412
-11912
420
-8792
-3380
-6008
11228
28320
-20540
-11328
-4348
2832
2008
8060
20828
-22368
-12140
2256
8460
2008
-9072
15800
-3108
-7020
5948
-336
-8956
-17680
22884
17268
-14064
556
-5584
-2988
-11436
10228
27364
-13888
-7904
-8408
512
-524
7340
28208
-21664
-16928
380
6336
6776
-4384
22644
-15108
-15848
4776
2960
7468
-13752
15928
2420
-13716
8324
-1360
-7628
-8956
15240
12608
-10068
-1940
-5044
1064
-7596
8724
19780
-18600
-6632
3536
-440
1236
-932
23000
-13508
-17284
7280
-1504
4800
-5196
24220
-10432
-24208
10108
9032
8800
-22684
9648
7816
-9848
11232
-4832
-3796
-19796
12644
22680
-6360
-1500
-7996
-3784
-9712
5948
26476
-3012
-15548
-10036
-2140
7432
3164
23852
-7696
-24792
4036
1028
7344
-7028
14392
1596
-19396
9036
-3776
4412
-11132
12132
14776
-19036
6932
-6792
-2632
-9596
10708
26448
-17752
-6792
-7072
3596
-2712
4864
27408
-13972
-15048
-6204
3664
4268
-3560
24988
-7100
-23248
8844
2428
2272
-8444
8816
10960
-14252
552
-332
664
-12580
5956
23520
-8404
-2288
-12396
-860
-2680
10904
15744
-7492
-12544
-15844
21444
-3472
2156
20028
-20752
-13296
7524
9292
928
-9592
13908
-5916
-13452
9148
7776
-2544
-14688
11392
5560
-7148
8944
-4740
-6340
-13568
6392
26504
-8448
2544
-10144
-10348
-1540
2260
29540
-12532
-8236
-3920
-3536
3280
1056
29512
-16904
-18876
-3084
1888
16268
-2256
11944
-7752
-18040
9060
-4280
15000
-11408
-3408
21656
-23020
8260
5872
-8248
-14868
8364
23404
-7144
2856
-9176
-11448
-6668
2240
29788
-5396
-22000
-5488
1180
7988
64
23012
-14508
-21284
10056
-380
6336
-13564
17376
9952
-20352
8048
-424
-9728
-16680
21780
21764
-5052
-7120
-20068
-3444
-4632
22524
24476
-17972
-7264
-14200
2920
3500
9216
15568
-14116
-13164
-4252
13024
-3484
3656
17852
-13460
-15440
5748
3792
5792
-12872
13536
3444
-17864
8992
2132
4176
-18676
6908
16836
-11532
5588
-968
-5212
-15128
7612
21084
-7664
-3060
-2476
-1288
-8320
3664
25132
-11232
-14024
-636
3076
2552
-3048
19552
-8884
-12768
2528
812
6744
-12328
18424
-1060
-19368
13324
-2884
6800
-13956
624
14460
-11636
10268
-312
-3320
-18500
5336
29268
-13920
-1540
-5872
-4392
-5632
8736
29044
-15732
-16392
-4516
4708
2812
3116
22396
-11836
-18516
748
5292
2588
-8992
16220
3864
-14480
5264
2584
-2908
-17552
8600
21004
-10660
6656
-6236
-11800
-11996
18116
26364
-17276
-3216
-17264
2784
5868
10048
24588
-25204
-19656
-3424
17860
7848
-3936
12808
-19740
-8032
11548
11104
-2348
-22864
8164
7340
-1180
13208
-3940
-13656
-15556
16836
16856
-8200
2420
-9052
-4860
-8744
11884
22124
-15560
-5644
-2868
1984
-3308
7328
22068
-25244
-6772
5220
188
2988
-4388
19940
-12412
-8332
6192
-300
1436
-14112
22704
-2448
-13160
6576
1200
-4252
-18040
23768
14996
-16596
-3904
2040
-1828
-12844
14460
14828
-13580
-2808
-3272
5648
-7792
-1024
25264
-10084
-8060
-3140
-2936
292
-372
25172
-11184
-7976
-5204
-248
7320
-13456
26244
-4580
-11452
7640
-9632
-2584
-7480
20240
7648
-11272
932
-7452
-1764
-9664
22500
13916
-18796
-5444
-7116
1328
9432
10056
3164
-17720
-5604
10356
-3788
5404
-5068
15160
-5252
-18540
9268
2360
-880
-7832
23488
-9976
-11128
9984
-5548
-588
-11880
24736
2260
-17028
5540
-3904
1520
-12308
19984
11048
-20504
-1200
-2240
6500
-9612
17408
12124
-23936
-796
-2152
5380
-4460
4316
17472
-11288
-8744
1132
5276
-9236
-1764
22044
-12128
144
11520
-18500
-7876
-4016
28736
1972
-7288
4432
-21884
4332
-9272
29628
3040
-17556
3140
-14488
6264
-5016
25888
11100
-28856
-5824
-2524
12064
-1332
8800
5704
-25932
5268
11128
5228
-14364
-2156
17452
-12520
4
7740
148
-12328
-5264
18800
-3796
-1984
4976
-852
-11584
-11824
27180
3024
-12612
1612
-2580
-220
-14264
28576
7744
-29792
5348
4124
8204
-14952
21220
404
-21144
10252
-8856
11812
-12148
6320
14580
-13752
2672
-1732
5752
-16836
-576
26072
-10016
-5724
-764
1424
-4664
2044
16888
-12632
-5856
6180
-2084
-1696
-6308
19088
-1352
-12752
1616
-240
3172
-13640
18660
10820
-21076
4616
-920
-764
-11132
13460
17308
-21028
344
1940
5092
-13296
3700
17168
-16116
6460
136
2320
-12880
-4404
27344
-12212
-536
-4440
-3676
-2256
3896
25796
-10668
-14368
-6912
2804
1780
-416
26528
-4892
-19568
-3784
-2284
8676
-4960
19500
5628
-29420
8744
1464
-1384
-5080
9136
9788
-19236
9924
-144
-16
-12332
6072
22104
-19516
932
-3480
516
-6196
3460
28128
-15924
-5104
-4528
-3784
-2704
2512
27924
-10316
-11296
-3364
-620
-2364
-5948
28476
716
-14076
-2864
-4672
-1668
-3740
25536
-96
-18312
-2744
3276
3864
-10596
18680
11716
-22184
-3432
-2172
2464
544
8772
18972
-20868
-11500
-536
5232
-1660
9204
22472
-22868
-7408
-4060
4716
1256
-2504
27284
-20912
-7648
3396
1120
1912
-2804
21680
-19088
-8348
4152
7872
5228
-18912
15856
-2584
-10212
10040
5968
-5180
-19932
16988
10972
-10512
4436
-6680
-5068
-9488
13524
27080
-12724
-16388
-7864
5900
-2076
12780
22328
-26624
-10544
3468
4120
2540
-68
16628
-17248
-5272
6940
2424
-1688
-10784
15224
-9556
7976
6624
-12168
-5172
-12028
25872
4660
-2388
-3184
-15660
-1620
-5008
23776
12132
-15528
-288
-13220
-5820
6612
11996
22996
-25528
-8740
4944
-1220
-4240
9476
16632
-22220
-876
3680
4628
-4972
-4088
16700
-13084
-300
8408
-1980
-11320
-5748
24396
-6276
-2812
-3196
-2804
2852
-14368
29788
-2232
-15480
7628
-10148
-6112
-4692
29252
4904
-13684
-7528
-9652
6956
-3548
27664
3520
-29792
4044
172
-7748
5644
22164
8856
-29792
1996
11860
4580
-1432
-8072
14916
-19652
4628
10816
-776
-12820
-8656
25216
-608
564
-2632
-12316
-10876
-1800
29788
-872
-17344
-9556
-5028
3632
2616
29788
-12944
-21780
-1552
812
14584
-7908
15424
-7784
-22732
7828
12176
9744
-11968
7052
-6716
-11844
6324
3944
8492
-15340
7860
17836
-21396
-8256
8848
6316
-9560
4932
21896
-24008
-1700
2724
260
-5184
-1336
27588
-17176
-5540
5468
-4128
-4144
-1080
25080
-10812
-14920
1804
-1004
9228
-3492
18436
-11472
-19380
10104
4764
4312
-15824
17852
2224
-15744
7656
924
-3508
-19276
19932
14076
-7288
4564
-10300
-6004
-18192
18800
23848
-10712
-3008
-12904
-2204
-3516
14448
24096
-17476
-11864
-6756
-1984
8556
13448
14584
-24956
-12020
3516
6912
6284
-4032
17168
-15028
-12960
9980
5164
-1452
-15052
19244
-2860
-7780
10900
-3004
-7008
-15564
26504
3372
-12788
5580
-5588
720
-15480
19844
12860
-18540
1648
-2556
3340
-10980
15532
11064
-18136
-3116
-20
8028
-9176
7324
13300
-12540
-5992
-732
4872
-5016
4796
15460
-14180
-3084
2284
-836
-7424
-6236
29788
-4292
-10180
2976
-11200
-2772
-2468
29788
-4564
-15948
-1180
-8448
7552
68
24492
-7976
-20316
-68
-552
12860
-7144
17508
-328
-25904
188
7436
10684
-12968
14788
3100
-16544
4724
-64
3540
-17152
10108
16520
-9304
1324
-2844
-3280
-17696
13216
24656
-9396
-5388
-8756
-1832
-6120
10472
27052
-17720
-16176
-236
-464
10544
5292
17032
-17600
-22796
7512
10168
5600
-11756
19120
-11024
-14272
16520
-32
-768
-16900
16280
3524
-9868
9324
404
-7840
-22780
23376
14384
-8376
4848
-9864
-4320
-16272
20516
20604
-17128
-3340
-9408
3264
-5880
16056
18680
-19948
-3424
-5192
740
-6688
4496
29788
-10912
-21324
-832
-1716
8376
2056
24264
-13332
-29208
17476
-3492
5672
-5744
16452
-8052
-15816
16004
-796
1708
-17288
16928
-904
-8448
14708
-6568
-7744
-15760
26540
8896
-12852
528
-10852
2352
-9372
26340
11016
-22812
-4596
-6532
5236
-3024
24244
8020
-26372
-7892
1404
13276
-9880
11880
11428
-21724
520
2824
3712
-6284
5288
2808
-6600
4636
3148
-7232
-4272
1768
12196
2500
-14200
4500
-6412
-428
876
23308
-4432
-20732
-152
-788
4780
1384
25404
-13632
-20148
2476
1928
8332
-8876
21888
-5172
-20492
7148
4532
1668
-11892
18220
-2372
-15360
6316
4868
7196
-22668
9088
12500
-10920
7312
-632
-2188
-18664
11412
18920
-7952
-7760
-4436
11368
-18124
6424
25108
-6588
-15832
-1028
-956
-9292
19020
14428
-10092
-16816
1952
4868
-3796
7256
15972
-17692
-9556
8036
2948
3892
-12712
14652
-9004
-9264
17548
180
-3828
-17600
21892
2408
-12600
5516
-5764
-544
-12728
24516
8404
-13516
-2668
-9444
3800
-6080
24384
9712
-21812
-11496
-3200
10480
-3232
18572
7960
-23328
-5600
3956
9720
-7928
6820
6924
-20308
4964
9344
1504
-13268
980
15136
-9180
5608
980
-5348
-13208
-3704
28464
-2388
-5108
-944
-11788
-9136
5008
29788
-2624
-16224
-10092
-10036
4848
2236
29788
-4840
-23380
-7968
-752
12848
-7264
27052
-7952
-23648
3580
4228
9844
-11248
13156
-7044
-12108
10476
6744
5280
-25576
12816
9356
-12680
6776
-452
-40
-15580
11660
14644
-9996
1052
-5132
-1224
-11644
10144
21936
-11664
-1876
-5172
-5180
-12508
11064
27772
-8596
-6668
-8796
-3940
-5176
6776
28412
-15072
-12196
744
-916
3084
-3392
24524
-13892
-16156
9328
2672
648
-11340
20632
-6020
-9860
7060
-1672
-3396
-12236
25292
2264
-10508
-2152
-1056
-2752
-16120
26708
10172
-10224
-3968
-9216
-1656
-7684
26288
9072
-16888
-4808
-7716
6080
-3360
17208
9124
-24640
-5324
5136
10512
-5208
6756
5392
-22836
5132
10568
4236
-12756
-4620
15332
-10352
3924
9520
-4904
-15920
-3880
27108
-3316
-3092
-2048
-8444
-11208
1196
29788
-9900
-10872
-5064
-4820
5084
-2124
27088
-9968
-15712
-4388
-152
7648
2648
16344
-16628
-7872
1748
8312
-4136
2332
7828
-7708
-2064
-7696
12196
-3420
-10576
16544
3620
-15256
8648
3460
-8976
-12796
12756
15424
-11136
4056
-2456
-9936
-14580
16836
24076
-13260
-188
-4748
-8372
-11916
10848
29788
-12664
-11804
-8440
-1208
3096
8720
24748
-18104
-14864
-4096
6760
2288
16
21344
-18656
-7448
-3268
18160
364
-27328
29788
-12580
2480
3560
80
-9244
-21192
29788
-6176
5788
1180
-8732
-11792
-6108
29788
3392
-14844
-12576
7636
-2592
-2160
29040
-9084
-20992
-1872
8196
8032
-7992
13104
-1268
-18636
2812
7272
6560
-15884
3424
18684
-14604
4520
2188
-7316
-13400
5452
29128
-12236
-1780
-7068
-9060
-3076
10304
26768
-18912
-7580
6664
-8544
-12196
15408
29448
-25836
-724
-8380
-6568
10752
1400
28060
-22240
-10768
-2968
6524
3940
-5940
28336
-20084
-15004
6112
5788
3148
-10000
17852
-7888
-7108
6016
3292
-8088
-10928
23092
1180
-13804
-3872
9568
-6760
-8940
29352
-824
-15680
-2892
-2312
64
-6004
21492
9148
-21872
-2680
-1568
4440
-8140
20172
16900
-29532
-876
-7388
9072
-1720
6748
12920
-21428
5136
-1628
4484
-9060
7476
17580
-18596
-4164
840
7544
-18828
7660
24616
-11712
1808
-5028
-7292
-15316
13864
29788
-13688
-6708
-10000
-2920
-3940
4304
29788
-13436
-15164
-4148
-1796
-412
4796
24112
-13704
-15308
-2792
11616
1704
-6152
14492
-5092
-13952
4252
13764
-8860
-11052
16136
-2432
-8748
5880
2676
-3656
-10300
17232
1368
-12272
9836
-264
-5780
-20368
22492
10716
-15104
12864
-8620
-6580
-13608
22044
16108
-17584
-1508
-7448
3704
-7860
20728
12368
-28040
-6624
5964
13428
-8888
11204
5452
-23444
-408
3624
15344
-11140
60
13144
-16836
6644
-484
1368
-15800
5356
28232
-15832
-268
-5228
-1840
-9816
5008
25536
-9976
-8244
-2516
-1064
-6496
9212
24000
-13072
-21600
5892
5544
-4832
4276
18536
-11212
-16004
3920
5148
908
-4712
22280
-9548
-17736
6548
4444
-3560
-15324
28272
68
-10736
5648
-5208
-1356
-17408
21788
7040
-9016
7076
-13300
-3088
-8312
24956
10448
-23900
5388
-3232
-1676
-4804
21340
2232
-20856
-448
-3244
7700
-3552
27300
-5916
-26720
1108
6504
11540
-19764
27236
-12400
-13868
11012
56
12400
-25076
7976
11712
-7508
3500
4268
-3592
-21848
6232
27876
-13232
648
-52
-10880
-5316
9836
25432
-14476
-12788
-6564
2960
1824
8948
25580
-21256
-19180
-724
3164
8752
10380
15048
-22944
-14976
4260
7156
5612
-7992
17980
-9836
-9728
5640
96
6576
-14108
12472
-8200
-1652
19172
-15940
3180
-15200
17584
10228
-13860
4812
-13900
996
-3512
27364
4196
-19752
-7444
-8132
8904
3772
21952
484
-24796
-6756
5164
4208
-3908
15912
4096
-13704
-2664
-956
4364
-9380
14484
-188
-10104
8412
-4484
5988
-14820
6376
15000
-15548
4812
3096
-4872
-11440
10084
20324
-19444
1804
-8432
5224
-1300
-2388
25656
-11056
-9216
-6444
5032
-14952
14912
26324
-19176
-7168
-4436
6816
-3576
20
14576
-11168
-3280
-744
11980
-6756
-11812
18256
-9556
2764
3860
836
-10656
-10084
28920
-10696
-1780
-4252
-1884
4936
-10112
28088
-9688
-11716
716
-1984
-3040
2564
23136
-11836
-12440
1468
4700
3656
-12164
12136
10396
-18652
-1136
11356
-4728
-13332
16168
6660
-12340
4428
-960
-2320
-13076
13680
17116
-12076
-10440
2632
2948
-14496
22524
9564
-17120
-1724
-5916
1220
-3468
17680
11408
-22400
-208
-3532
8120
-9448
7952
19608
-27100
7744
500
-260
-9348
4924
18864
-18724
4520
444
2040
-12196
5728
19848
-19516
-3664
6788
6212
-15232
4044
18076
-11540
-3188
-1704
7204
-11504
-304
24260
-11552
-6044
-2888
604
-12108
12396
29232
-17748
-8436
-10352
2344
1060
4956
24580
-17336
-16392
5908
3736
2388
-100
12304
-16060
-8688
20364
-1804
-6716
-14900
14956
1900
-3784
14488
-8264
-9260
-13528
21896
10652
-8700
1460
-14428
-11352
-628
29788
10332
-23320
-11608
-8904
4356
2496
29788
-1376
-27244
-2076
-1080
13576
-5080
13056
-10312
-13524
12148
1920
13208
-20724
5120
1628
-10712
9860
2740
6288
-19168
10604
9408
-15320
10872
-8748
180
-5288
6344
16876
-10760
-1668
-7520
-496
-8216
13556
19448
-13472
-6112
-1696
-1656
-9840
10528
17380
-7324
-8892
-2092
2388
-6084
8276
16392
-16536
-10976
6164
7368
-3924
1576
12240
-18208
6068
-11240
7860
8640
-10328
19248
-23648
13592
-6720
4048
-5412
-11884
29788
-16972
5232
-4064
-4244
-1092
-12008
29788
-2756
-15316
2484
-7684
-5708
5280
29788
-17808
-14460
-852
5864
10180
-4652
14116
-15216
-16668
5044
23624
-4900
-18168
17144
-7704
-4588
9956
4232
-14000
-11368
24008
3896
-3160
-7024
-8124
-6164
-2000
29788
1724
-7632
-16844
-5584
6636
-968
21092
5068
-19696
-12500
13780
-1892
-6720
14632
3496
-22820
15300
9828
-13312
-7300
7172
8856
-11304
4060
2580
2840
-19380
4292
21300
-11156
8584
-852
-17732
-12276
21216
17620
-9080
-2924
-16184
1884
-6056
17000
24824
-20612
-6656
-12676
4176
2048
17400
9828
-29792
4796
-3572
12772
-684
-12
8748
-23452
5116
5996
8456
-10532
2968
13748
-23408
4156
1384
3072
-428
-3120
21736
-12812
-6796
-920
-2256
-7176
9152
22168
-13516
-6488
-4424
2572
-2128
1572
12424
-176
-10636
-4832
11580
-7732
-3856
15784
-12672
-2024
10940
-124
-6648
-4776
14244
-7808
-1572
-1264
3064
-704
-13948
25776
-2620
-6360
-36
-10332
-4764
584
29788
-4516
-19072
-2852
-5208
6988
-5428
25980
-668
-27556
7936
-528
5844
-5044
12592
-7628
-10888
8492
3816
6168
-21940
18148
1408
-17824
10876
5340
-6848
-13584
26008
4052
-13700
-4344
-7080
2492
-4420
28644
2428
-18724
-7588
-3248
5664
-6276
29788
-4572
-21156
424
-456
9468
-9612
14104
-3184
-12752
7040
5616
4860
-18204
7136
4808
-13408
19512
980
-10356
-14356
3316
21632
-4888
3556
-3480
-13336
-10924
16640
19740
-9976
-6340
-8512
-7984
4744
20652
12556
-18700
-10548
-2332
1852
-516
15552
9708
-26844
7516
-860
2828
-1592
1512
4448
-14460
14084
-624
5700
-17760
-4056
20976
-11268
8240
-3996
-2916
-9108
6340
25592
-18248
-6064
-11164
4584
7996
4008
25588
-24012
-21284
5632
9352
9136
-6308
8112
-9520
-12936
19980
1468
-5468
-12716
2140
6124
7468
11060
-7556
-23592
-2296
20560
936
7956
-8000
-13140
-6788
10680
23216
-5124
-10752
-19196
5876
3816
8092
24716
-16332
-16376
-7336
5844
7384
2116
17836
-14944
-15000
6860
5800
-560
-11504
18544
-5184
-5616
8932
-5980
-2488
-10480
22256
-4032
-14928
12720
-3280
2524
-15296
24664
-4468
-16468
15060
-13500
2720
-1732
21860
-8448
-13928
3372
-2476
11328
-7100
6556
-5492
-1216
6916
-1576
-8564
-8212
18664
-5176
7864
528
-10004
-5288
-7580
17516
2672
3704
-6380
-11336
3216
1216
15472
-10380
-8416
6900
-6088
9208
6140
-2268
-13364
-3400
4748
13336
1776
-10708
-1260
-9160
9148
11304
-4024
-9924
252
3076
2724
6696
-6528
-3116
-4748
1748
6436
-68
4096
-5196
-4384
-1680
7648
1392
-3172
3548
-10112
3168
5440
64
336
-6844
-3184
6120
4708
1204
-332
-5052
-1372
-316
808
-2680
6016
-3668
-2456
7356
1616
4592
-8612
-8428
-2128
6264
10044
-1532
-1088
-6320
-1040
5756
-9164
8048
828
-3692
4040
-1804
3800
-2952
-5168
-2184
3848
3316
5072
-4328
-5196
424
1444
-612
7336
64
-10372
4688
-752
-92
3312
-3352
-1076
112
4240
124
-160
-2012
-2740
3664
-5416
7456
1892
-9300
1280
2068
3872
-1384
-4088
-92
3932
3500
968
-4068
-8152
-1048
4524
1160
9916
-404
-12808
1996
624
9392
136
-9988
-4944
-1220
11820
4716
-1376
-5504
-6800
4900
-1008
1880
7508
-8368
-1196
3272
2068
-900
-4516
-4072
3348
6392
5476
-2272
-9668
-1648
948
1136
3596
4956
-7268
1336
4136
2472
-3468
-13712
-444
7508
12844
5300
-7028
-12572
-10524
9124
9516
4792
5908
-15080
-10048
6268
6520
4960
-2068
-6364
-1180
2296
2204
1056
-1024
-932
1728
-3896
-4860
8672
-1012
1692
1352
-4184
972
-5168
748
3196
6024
1332
-8460
-2504
-76
6916
316
-8332
5340
-2816
3636
10968
-5112
-9640
-6740
-28
10200
8672
-2584
-7976
-5836
3644
8356
3292
-9248
-3096
-2984
7272
10872
-4648
-8948
-8824
5100
8892
7356
-1152
-11412
-4804
3352
7808
1800
-9500
4204
-1984
-508
9340
-2432
-5032
-5972
-32
6800
8224
-2140
-7276
-4808
-1852
9648
5516
-7752
1380
-5144
-1404
9952
172
-2456
-5072
-3456
4796
5880
-68
-3748
-3396
-372
5468
208
-10348
7008
3748
528
4252
-6560
-4808
-5736
4240
8644
3084
-4008
-5348
1448
3476
2564
-5008
-11360
10156
5440
1368
3552
-11940
-4740
836
7400
6860
-2944
-4716
-3116
972
3356
2976
-964
-10120
5948
4428
-1508
1244
-5392
332
276
2492
1568
-1188
-140
-1120
1672
220
-2792
-2480
-4584
11616
6140
-6344
-2496
-6536
612
4152
4468
1304
-4128
-1448
-408
1484
-780
412
-60
-3772
9348
-2436
-5960
2732
-436
3184
-2076
-1008
-660
64
1672
184
668
-644
1468
-1800
-6736
8148
804
-6012
4164
2780
1764
-5444
-4980
-856
3692
5588
2960
-708
-6820
-1664
76
-2708
10992
-1496
-7264
4832
-1020
528
-844
-2080
-1576
1804
5044
3756
-1812
-7680
-2348
-1624
-2076
14016
4448
-3768
-5540
-7872
1172
2372
8336
3024
-5848
-4348
-2268
2756
4824
2004
-4444
-9076
8292
1660
2980
2212
-7292
-880
-3364
3092
3024
500
-1084
-68
2416
-2500
228
-2372
-5480
11444
1280
-4592
-320
-5028
3656
4032
-760
-7188
-2096
6892
7288
2712
-6320
-5112
-7740
-5660
15936
7172
-144
-1168
-9900
-3988
-308
5732
7628
2076
-4396
-7892
-3948
2048
10604
2712
-7556
844
-6008
2304
8904
776
-4176
-9984
-1408
6544
9220
2608
-6548
-7624
-3684
10348
4164
-7240
2580
-5956
1188
5956
500
912
-3860
-2792
-1248
2848
3176
1608
-1760
-1564
540
-8232
-2248
14988
652
-1100
-496
-6620
-1000
-1108
-76
1736
5240
3040
940
-5240
-8628
3716
652
3224
8748
-6864
-5008
-8
1320
1416
556
-1860
-1880
5084
3104
288
-4032
-5100
2752
-4008
388
8192
-2512
2372
504
-3632
-1532
-3512
2392
6732
1168
-3720
-6368
-2736
7664
6988
-6892
-1868
-168
-3596
9596
2176
-1908
-5864
-6932
2792
4104
4632
664
1156
-4308
-4372
2044
-6052
9312
7628
-8744
-2348
-3200
2444
5956
664
-5972
-3832
3240
6724
5244
-5940
-8944
-1280
-3908
11348
9084
-5128
-328
-6192
-2408
-3784
3248
7556
5252
1604
-9904
-7060
-2260
5624
9956
-2232
1428
-3740
-8768
3940
3976
3060
-1412
-3400
-1760
1924
1764
416
-284
-1792
820
-568
-3292
7164
-1792
-3848
3004
-2372
4948
900
-6508
-3440
1728
5780
4012
-520
-6400
-1720
-1748
-640
11652
-4864
-4276
3900
2308
1536
-5876
-3436
-3532
3544
7136
6448
-1024
-9436
-3424
-7620
4984
16756
292
-2388
-8396
-8520
-528
7580
10732
-700
-5892
-5964
-2136
6948
5356
-204
-10416
-6112
11256
4568
1860
-3796
-6160
-3308
64
6716
5008
2040
-2948
-7316
-4688
1744
8812
-384
12
-512
-8700
6168
2636
2488
-2504
-8340
1788
5024
2420
736
-1536
-5916
584
1700
-3116
8040
3348
-7824
-308
-1152
1672
4004
764
-7908
-3736
4596
4912
7496
-4436
-7508
-3392
-4108
14832
4800
-9732
-2676
-768
5292
40
-2496
-2828
940
3644
2880
340
-4200
2024
-5024
-7492
11116
120
3368
2652
-9612
1204
-808
812
2800
236
-2056
1196
1836
-4456
512
-968
264
9908
-7904
-5528
6420
2500
2932
-5628
-7032
-1472
6544
7096
680
-4096
-4700
3748
-7480
-1116
12432
-1376
1740
-4772
-5484
1080
1776
5764
272
-6460
-2716
5972
2924
-1516
1224
-10308
-684
11760
-4388
3040
1776
-3356
-2400
-3392
-440
1464
7388
1420
-2748
-2616
-2680
2528
-6472
4776
6548
76
2500
-11568
-3928
2236
5644
8460
-1132
-9864
-2892
5868
1640
396
-1452
-7556
8672
2076
-7116
3136
784
1468
-3100
-2372
580
7308
1740
-8008
-1612
-232
5572
2056
-10960
3768
3520
3388
4564
-7328
-5036
-2112
6528
80
-2928
3252
636
2504
-2688
-424
-4672
-3492
9072
-2692
3944
4044
-2196
-7616
-8580
4436
10688
7472
-10928
-7168
5884
4848
4044
-12316
-7616
12112
1284
4284
656
-7692
-2964
1340
-252
1340
6872
204
-3888
-3932
-1304
6740
-4052
-1896
2020
-4884
11920
5268
-8880
-10056
-1712
9600
6868
-1364
-9164
-2352
3136
4656
6452
-11420
1872
1792
-7548
7440
3436
4476
-6484
-11712
-264
8916
10100
-952
-7276
-4664
2604
-2096
-5520
14104
2060
-4132
-2792
-9608
4412
8832
5012
-6236
-9048
-3176
9652
8392
-4724
-1204
-8372
-7188
13128
3536
5520
4136
-16112
-8964
-3008
9192
17788
1728
-11224
-11924
644
8928
7320
-7916
-2736
7732
-9328
884
3388
2624
2960
-7848
-3548
4448
6788
16
-6092
-3260
2844
7580
-9512
-6008
8732
3092
4736
-5240
-5672
1448
5128
136
-9416
-672
7500
6076
-312
-6184
-3224
-6092
7684
2684
500
9596
-7784
-7316
-6912
4964
11324
-1544
-4684
-3048
6256
5100
-4976
-10176
-5872
17196
5424
-6776
-1860
-2356
-1100
-4184
5348
5508
5076
-4876
-11652
2356
7896
4708
-9604
-11584
13036
9392
704
-7380
-11472
4196
7076
1428
-3752
664
3272
-2304
-5516
-1116
10628
-556
-8196
2252
-1728
8064
376
-9192
-1296
6484
3588
-8368
-1812
6992
6472
-5036
-8704
2372
100
9192
-3280
-13756
10272
8012
88
-9552
-6012
6760
4708
-2944
-3076
7180
2004
-9196
-4012
-3772
13324
7516
-10772
120
3996
-204
-9400
-3544
7512
9340
420
-10988
-4172
8404
6316
-8712
-10692
15700
5460
-6572
-6792
-3960
12644
2288
-10380
-6164
8052
9068
-96
-6132
-6040
6244
-3072
-6476
9372
3040
1620
-6308
-5568
5888
4244
-2376
-8804
1472
13112
3644
-10696
-8380
4636
-2100
3952
5196
-1496
10252
-11012
-13908
3308
12324
7740
-7676
-11376
3188
11216
-4176
-4652
1304
-3076
8188
-1176
-6308
10640
-3248
-9364
-4208
7476
11872
-4004
-11236
-200
10644
3416
-6908
-12168
884
20924
-5416
-10144
6636
1588
-3848
-7956
3164
10256
3872
-9720
-7016
10296
4064
-5860
-13240
1144
22872
-24
-10328
-5764
3372
1688
-7772
-1116
12752
13152
-13128
-15120
740
10416
9116
-13280
-852
12716
-4780
-7752
-6100
11712
10876
-7040
-13084
-2228
13896
2396
-6548
-1104
6256
556
-14460
-1600
12008
7852
-4808
-6408
4720
-1412
-2780
-6664
1984
15752
116
-11884
-6156
10932
2676
-12660
3060
5188
9560
-1504
-17568
424
11816
1852
-9844
-1060
9148
4528
-6664
-10176
9056
4220
-6596
-2012
1736
13880
-5456
-14580
-924
9268
7636
-6284
-5432
6576
6276
-9156
-9696
7728
4524
1768
-2996
-6088
11392
-376
-12068
-1384
12804
2628
-11264
-3548
5928
9912
-3808
-9176
1784
136
2408
-4660
2268
16460
-5140
-15624
-7808
11776
12684
-6276
-8572
4960
7584
-10256
-2616
2996
1596
6992
-12984
2964
16236
-5124
-13980
-4472
12308
4876
-8392
-3432
7584
8092
-8856
-9180
1260
11596
3908
-15600
3064
8548
184
-8196
-4140
11972
1188
-11844
-1616
13620
3448
-7752
-6980
-5056
14664
-1304
-10236
14236
1932
-8332
-11852
1096
19436
2824
-15036
-7144
7812
6264
488
-2844
-3924
4364
-9084
-3280
20136
6620
-13940
-19320
2464
22096
4132
-10940
-2684
2308
-1932
-1780
-1444
5520
8316
-15468
-2424
18044
4984
-15276
-17360
8120
17364
4384
-7244
-3844
-784
-8620
-2268
6552
19144
1940
-24476
-3364
12032
7252
-8324
-5244
6572
2032
-7032
-1312
11752
3712
-10820
-10220
-48
19188
1516
-11360
4996
-740
-8388
-6708
10028
15056
-2212
-19132
-4928
18736
7268
-6972
-12528
-596
10920
-7392
448
11004
1844
-9544
-9804
7724
6944
-3844
-3164
6060
5900
-10276
-9264
760
14340
5792
-16668
3348
9736
-4156
-8808
672
10300
-276
-10560
-416
13288
1024
-13324
-5584
6332
16304
-4328
-11680
1424
112
1872
-3300
8640
6688
-15372
-9508
10748
13808
-3392
-10100
-5360
3048
9740
-6644
1244
9116
-4832
-10292
-676
10328
-312
-8148
1884
11836
2028
-16320
-4508
7064
5192
4992
-7164
2724
-376
-8188
2324
8492
2636
-13620
-5936
12680
12344
-6360
-9496
552
-4392
2544
1760
6252
13300
-13224
-13328
1384
6508
1108
-2880
6684
7184
-2556
-14236
-1048
6320
-4072
5640
4748
4416
-6868
-14988
2564
12224
9092
-9008
-7592
4596
1476
-3584
316
7448
-5880
-7748
6928
6444
4448
-12240
-6520
12768
4948
-9348
-8808
6384
6128
-1108
-372
3140
60
-16160
1124
19196
2540
-6024
-14252
2144
9356
-2464
-1624
2416
3156
-7764
608
8700
4884
-11968
-15292
15968
9428
-5812
-4548
1048
4712
-6328
-5208
5624
9464
-2644
-7280
3292
2320
-3320
-11768
3784
19532
-5476
-6332
1688
-392
-5096
-2584
8980
5640
-5932
-10728
5176
10688
-1504
-5916
-9180
8556
6332
-11032
9868
5080
-7560
-8844
-2376
9636
3868
-2704
904
3888
-6760
-6896
6364
4212
2432
-12100
-2576
14596
4148
-5204
-8848
2216
-3000
-2104
12116
8880
-6212
-15144
-2240
3084
5428
9500
-172
576
-10604
-10680
6452
12988
2812
-12892
-4180
7728
3704
-2532
2104
2920
-16904
-184
15620
5528
-1136
-14864
-1332
1972
2804
3716
5360
2420
-14104
-4296
8904
10476
-8760
-13592
13884
2992
-6516
820
1520
5416
-7312
-6512
7088
8164
-5508
-6488
6288
644
-3036
-7028
4148
12120
-9596
620
6552
-1180
-9584
-6400
11784
4388
-3020
-3140
1232
-64
-3412
3824
-1376
3864
-1788
-3768
9100
-6996
-7128
3800
7664
1816
-9544
-1712
8168
2620
-5004
1988
-944
-10004
5192
2816
5312
2112
-10272
3196
2852
-4232
-4028
3872
7772
-3000
-5132
2500
3040
-8676
-2260
11720
1652
-3252
-6016
3880
4992
-8516
-3076
4404
3180
-916
2004
2524
-2920
-3848
-8688
10716
8360
-11544
3116
2948
-2784
-5776
1696
5548
1924
216
-3576
-584
-3776
-1196
6348
3480
516
-9976
-1488
7272
2260
2248
-2476
-3892
-7712
-1836
13596
10780
-6592
-9688
-4468
-5660
5992
15628
3192
-3088
-15260
-7476
12244
6244
-2236
-1800
-2444
-4336
3704
7948
4024
-6068
-20472
5764
18664
260
372
-6512
-9128
-4532
6492
12028
3868
-6712
-9628
2716
3060
-48
-1992
180
8004
-7072
-424
3436
-3404
-2388
216
10108
-712
-9364
-1728
4460
1560
440
5124
-7640
-7404
4120
5604
8952
-3868
-10452
-2036
4460
1056
2052
4032
-5300
-6208
6008
9116
-3916
-16516
3660
10176
1388
784
-2356
428
-6052
-1208
3192
1592
72
-540
4320
1524
-2120
-12216
-660
12564
-3200
5604
3272
-10248
-3424
-880
6196
2016
-3540
1860
3580
-1796
-7876
4412
-964
532
5132
-724
404
-8212
544
4336
4340
-3684
-5708
7180
-1108
-928
552
1892
-3524
-9884
12996
4344
-4692
-272
-3160
1168
-4524
204
8140
2396
-4920
-1952
1816
-3852
2676
-880
-124
7248
-8292
2572
3288
-6016
-416
3648
2752
-5648
-572
3664
3248
-2012
-2200
2456
-9252
-932
9828
2844
2572
-6420
-2108
-872
-4420
2652
6696
3800
-4220
-1940
-2268
-1432
-2572
136
15180
-2012
-9588
1904
-1636
-1876
1396
5364
504
-6292
-3064
6444
5524
-4360
-1172
-3964
-828
5296
-2040
5848
-3116
-5716
3228
308
-2988
112
7216
2320
-4816
-3664
2532
-1216
-10232
10332
8840
-4496
-2648
-5500
3228
196
1864
4480
-2352
-9500
-2104
12232
5148
-2596
-11936
-6832
11692
3272
6908
2392
-15548
-6480
3540
7248
3208
-700
552
-1292
-6060
-1448
10052
-5516
-1952
6224
-2984
1072
-4692
2276
2684
-2744
-644
2400
1596
-5116
3004
3044
272
-4812
-7788
9356
-768
-1340
7372
180
-4472
-6704
3176
2544
-2324
120
4168
1044
-3232
3464
-5340
-6512
4804
4884
8344
-3472
-8116
-4184
180
4736
1836
3892
-3780
-4320
5576
4652
-4384
-13596
5832
8104
-204
5684
-6840
-5432
-1892
2296
7464
-1232
-4056
2008
6872
-3624
-6348
-6220
-3784
14700
5996
2584
-5548
-14708
4160
4620
1984
1624
-552
-1916
-4780
2200
6096
1152
-11200
1396
9024
-5500
2316
3408
-440
-4040
-5932
232
4008
512
3452
6964
-3932
-8064
-3164
-2476
11028
2700
-2916
2000
-10828
-1624
10880
4216
-6008
-3576
-528
1540
3468
3164
1540
-12808
-7492
13904
6480
-956
-2852
-5380
-2052
-52
5632
7760
-7248
-8540
3632
4528
2360
-156
-8224
3088
1344
-2464
11276
-2636
-7984
-3108
-60
1616
3128
7904
312
-8416
-5052
5840
1548
-6144
6808
-2344
-720
3288
-476
200
-8808
1620
7208
3416
-2896
-3364
1528
-2912
784
-2428
2548
4720
-5176
2428
-1276
1392
3276
0
-4776
-9196
4080
9144
1328
-2384
1388
-6444
-8376
12832
4176
-4348
-1296
-1452
4080
-4128
-2100
-276
760
2660
3644
5476
-4900
-7148
-6428
2900
8560
16
6140
-1800
-10784
-2572
3840
3828
-1700
3292
4900
-4560
-3532
-1496
-916
-7812
8032
16468
-3780
-6344
-11704
-156
5512
4812
6532
-4136
-5104
-4184
1760
3964
3760
-2188
-7100
4352
-3016
5880
6740
-6748
-4628
-2496
812
1396
5388
1452
-2232
-2572
60
3876
-8404
868
10204
-6016
-1460
1228
2328
456
-4152
-1304
328
992
3904
7768
-7452
-7456
224
-2924
9072
2472
64
412
-7664
-1304
5996
2144
-6344
-1236
4536
1344
44
2416
-2480
-11252
940
17536
-2224
-8448
-2076
572
4808
1568
-696
-5016
-4440
2044
9880
6640
-5744
-8472
-11848
3696
10664
9872
4660
-12112
-5336
-8368
1928
9716
6656
3536
-7500
-8980
-1024
7676
-2668
-1592
11472
-5012
-3764
1308
-2728
1376
-2504
5760
104
-6064
2996
3768
-1100
-2840
1592
-6888
2672
7936
-1144
1516
-9912
-1504
9648
1388
-5296
-780
892
-3616
3284
5804
1052
-5580
-8112
6368
192
20
8244
-852
-4056
-10256
612
6268
312
5428
3568
-3536
-9588
1572
-732
-1136
13516
-2732
-4988
-5796
1236
6884
0
-1928
-6500
3756
2420
3068
4612
-4840
-7828
-6064
8384
2952
-1304
5756
-1108
-3416
-1384
544
-4668
-1420
7368
5520
920
-7948
-5040
-804
-1708
15224
364
-8820
-2156
2656
6104
-5592
-2292
-2048
-8
5560
6076
-236
-8992
-3704
-3920
10580
9704
-8312
-1256
-4660
-3432
6792
5584
-4568
-3248
1212
1268
3948
1828
-2840
-10984
-6928
16400
6752
-2452
-1388
-7164
-2416
3024
4112
604
-164
-5608
1264
1712
-356
7408
-8496
-6112
6292
3348
6368
-1508
-5864
-9616
-2120
8948
8372
1968
-6300
-4472
-3040
5296
2504
-4404
6256
-4728
-4440
4964
1924
1604
-1988
-3400
-2788
2488
3440
2112
2688
-7008
-1660
-4052
796
12628
-2488
-2928
-2452
220
1100
1600
-1648
-4868
684
1596
7388
2728
-2284
-7156
-12512
6692
10548
6308
2040
-11344
-6176
-2444
3544
8592
1944
-2388
-4972
-452
2588
3164
-5828
-5652
13480
-2736
-1560
2824
-6240
-2068
164
5216
-632
2516
344
-4136
-672
-580
4196
-3348
948
376
-2936
7036
-212
-4396
-3112
-832
3144
5016
-1604
-3588
2368
-156
1536
-1032
-9356
5992
2972
392
4520
-2480
-4244
-5308
516
3756
7148
2896
-5264
-6472
-1948
5060
-3112
2856
9156
-6760
-2820
-916
-728
3544
2136
-2028
-1384
-2164
-3492
8788
5128
-2144
-7504
-10172
9984
5808
296
2828
-7764
-4132
-184
2420
4860
3316
-1448
-1420
-4548
-5480
9484
-1844
-2296
5244
-5492
4368
1320
-532
-1716
-7356
744
3784
6400
1896
-3328
-4968
-2172
3116
-5572
9136
3352
-5692
2192
-5580
2260
868
-1212
648
-1460
828
1984
3320
-1124
348
-6076
-5164
10152
-5588
872
7840
-1636
64
-5764
-3412
656
3528
4868
3288
-3260
-6064
800
-6796
4904
5440
-1172
7556
-3928
-5280
-4488
-2504
4148
7756
3836
-2588
-5520
-6356
3352
84
-2448
12652
424
-6760
-2224
-1440
2148
-816
1304
-576
-1492
5216
1320
-1468
-2280
-2748
-7304
5276
10520
-744
1552
-9096
-4500
880
3120
8348
1744
-6132
-7364
1288
3884
6576
-80
-9468
984
-1472
-1040
9784
5108
-4320
-8608
-4888
1748
4656
7884
4804
-8972
-8496
2212
-88
5396
7272
-7820
-2852
-416
2000
5392
-3640
-3908
-512
3348
4088
-304
-2640
-980
-3176
-5520
10756
2404
-4040
2624
-3376
516
-2252
1584
-1232
-984
4320
2184
1468
-6364
-928
-5436
1180
14428
-3724
-2012
-3352
-4284
4472
3784
304
-4432
-3916
-1616
8708
8440
-2096
-7812
-17052
4096
14956
6808
6800
-12316
-13876
-2668
6948
10208
2868
-1344
-6860
-2956
200
6592
-3128
-6872
11028
-1128
-1148
-728
-3256
1876
-2040
-1164
3192
3480
-980
1340
-1924
-3568
1472
-8048
6388
8292
-5200
3496
-4576
-1592
-356
444
2696
-2604
1476
1480
2036
-844
-1120
-4928
-6664
9424
3932
2468
-384
-5588
-3356
-1956
4088
2968
1396
-1900
1336
-2760
-560
2688
-8040
3944
6288
-3132
3464
-4848
-2800
4780
-92
-1072
-3432
-152
3012
6228
120
-3532
-9476
-8372
17916
9056
-2616
-8576
-9724
4236
4084
5972
-1364
-5564
-1664
3756
4788
-2128
-1368
-9800
1692
10756
-1272
3696
-3116
-7764
-168
2740
2040
-60
556
24
2412
-132
-2156
-1040
-11004
7148
9488
768
-584
-7976
-2320
-204
5272
1368
392
-128
-2740
2300
-2404
1932
-6092
-760
12028
-5468
968
-700
-2728
3992
-3164
-136
84
-3988
748
8484
4120
-1400
-6392
-16024
5268
11232
5240
6648
-7372
-9516
-6860
3912
10056
620
-3260
-2348
2632
4392
184
-10628
-8360
11656
4484
5812
2320
-13204
-5612
3000
3424
2460
3604
-2684
-2636
-1372
2384
5192
-9284
280
6036
-2220
1308
-1592
412
-912
320
324
-3412
1104
3220
4928
1108
-6392
-10984
-192
14352
3112
368
-4276
-8536
-844
644
6876
5216
-1804
-2832
-2960
-3464
1772
6336
-5100
1396
3312
-5608
3148
2812
-528
-4976
-3196
3216
3680
2392
-1448
-3320
-2040
2380
2120
-5740
4784
-144
1600
-160
-4776
7056
-2132
-5352
-3004
2344
4876
4132
244
-3696
-1112
-7648
2600
7576
-4380
1708
3120
2172
-4596
-6032
-2548
2560
8604
3576
-608
-6008
-6564
-1628
2252
10640
2372
-6088
-3872
-1984
2500
5956
1164
-5296
-8648
-1428
11308
11112
-1836
-11784
-9656
-2368
13508
10084
-3776
-296
-7516
-16932
17804
1740
4040
5624
-18064
3412
-488
8604
2420
-11864
-1240
2148
5440
6676
-1220
-8556
-7500
4816
5828
2696
-368
-3708
-3084
1772
5088
-8000
-2536
10180
-2268
2300
500
-5548
-456
-3256
4208
3712
-780
-400
-2044
-2792
-268
6188
-372
1184
-6576
-3596
9428
4388
-4656
-6484
2324
-4868
6472
1520
1024
9312
-19788
9840
-5736
-5692
15076
-4376
6452
-8232
-1448
172
-760
4764
-1512
-1392
-1732
2480
4036
3016
-3124
-14840
180
9928
4320
7780
-2320
-8564
-11092
-1504
11344
8456
532
-6600
-2512
-3376
2416
3328
-3260
4048
-3216
348
972
2332
2124
-5828
-1488
-4680
3660
8852
5168
-7416
-6976
3024
-13124
11600
8840
1092
8056
-23308
-928
-532
9080
9436
-3484
-3168
-10984
1800
5372
10480
852
-14780
-1852
-816
5000
10248
932
-5708
-10192
304
3096
6916
3884
-6116
-784
-1968
372
-2620
1576
7796
-5888
388
3108
-1340
-2648
-2180
888
988
4408
-144
-2876
-2824
2136
2916
-6420
6168
1268
-2080
-6300
2640
6632
-2520
1144
-13252
11196
744
52
5228
-6484
2524
-12472
-380
11304
5324
1584
-4600
-5356
-4220
-1976
8264
5104
-1520
-2608
-3732
60
4044
712
-8476
4104
1716
448
8640
-3292
-6760
-7436
2072
7220
5036
-632
-6560
-1228
812
6172
-2732
-7276
5860
-2824
3608
5352
-200
-6280
-8336
5592
3860
1104
-5312
5696
-372
4860
-5112
-10644
8576
-6668
9236
5860
-3224
-3616
-6760
-2332
2968
10240
3884
-5516
-6664
-3164
5708
1756
-5424
7844
-2816
-3188
4548
84
-64
-3884
-1132
-2248
1852
6344
2736
880
-7692
-7596
-2748
12588
10252
-6148
-4088
-7076
148
3692
3992
972
-5480
384
4584
3784
-5904
-4888
-212
2060
3284
436
2556
-1500
-1952
-4896
8488
-5596
-1320
4008
-2940
2948
-36
4940
-3664
-8640
-1344
9224
868
304
1444
-3280
-2280
-1108
1136
-2744
2000
5408
2772
456
-5416
-7312
-7772
12144
8728
464
1104
-9272
-5020
-1528
3896
6448
2876
-4820
-2824
484
352
5644
-4544
-3732
3788
-3672
3084
4492
-620
-1044
3004
-14648
-5916
13576
10448
5768
-8448
-4604
-16640
-2064
15896
11348
3920
-6428
-13396
-7156
6468
8748
6664
-1220
-9736
-7192
4888
8260
7360
-11716
-12508
8512
3440
9840
3536
-11952
-9472
-2248
9964
9196
-504
-8032
-3400
3196
-412
1276
-3296
4320
2332
-3624
4652
-5856
-1120
668
1368
2132
-4256
3608
24
-1032
816
6112
-13008
-4468
16212
1704
-4380
-8124
2700
-1604
9440
-1796
-7440
820
-1724
7564
5568
-1800
-6464
-11964
2628
9836
2732
5536
-1852
-4740
-10568
-2420
6924
6772
8000
-4856
-9932
-3248
5200
1680
2000
2104
-9512
2504
7888
3608
-4684
-10324
-5392
3252
13468
7884
-1160
-11552
-9268
1980
356
8156
8712
-6984
-7480
5480
6724
-13444
712
3040
1880
3996
-488
2256
-12076
5152
-2412
440
10360
-6200
-1428
-636
-308
4804
-96
-4612
-2236
1192
-1036
5032
4864
-2056
-2472
-13272
3056
13708
-544
2860
-5008
-7532
-2284
3248
5796
2108
-1568
-6000
4672
1944
-3336
-8
-7756
7476
4900
-1400
1156
-3452
-2744
-6056
3496
5516
5928
-2724
400
-2720
-13996
13724
-3304
-172
3664
-1196
6040
-6184
1260
-6108
732
2272
3412
1040
-3304
172
-216
4620
-2444
-11012
8112
3504
-4404
4768
2048
-1648
-3104
-3824
-3608
4032
4644
5224
1944
-8140
-5708
-4708
7068
9828
-1992
-992
-3084
-3472
-240
1480
-20
720
580
2816
488
-1372
424
-3204
-9360
5100
8320
8088
-576
-18184
2036
1164
5580
-2732
4412
2168
-6596
3600
-5332
7140
-7408
-1692
10024
-4748
32
2180
-492
-2240
-312
256
-2304
1504
-20
3116
4340
1156
-3988
-17192
3804
11196
4372
7404
-6788
-11336
-6064
4780
7256
8208
-1664
-8832
-240
-1536
5072
-228
-5416
4148
-4516
4712
8144
-1428
-6732
-8500
-2412
4952
18284
1572
-16132
-6108
212
12140
-9224
7840
5072
-11700
4952
-4420
7704
-2416
-4828
-2252
292
5000
4628
3008
-5948
-1628
-9236
-4620
18752
3040
-4000
-904
-4996
-1916
-896
2172
3304
812
-668
1012
-1580
-180
-312
-6640
4716
4028
-3596
6804
-480
-5928
-1560
-876
-932
460
5396
3664
3552
-2736
-7508
-11232
-5332
25264
4652
-6420
-1780
-8584
1436
-3628
10976
-3112
1116
860
-6640
2972
-76
8548
-10240
-3084
7144
-4992
5252
5228
172
-6480
-8288
-2464
5324
8404
5340
2908
-10948
-8072
-2736
-2224
18700
5956
-6716
-3208
-8596
688
3748
3256
-3184
-340
3788
1628
2836
-6824
-1804
-9136
3908
18876
-4476
-1792
-5160
-6676
-1204
7680
9624
-10492
-1892
-2016
7728
1392
-64
4604
-25132
11380
4748
2752
9776
-7308
-4012
-10636
-2656
7844
11684
2872
-932
-7364
-11516
4452
-292
3924
14216
-10200
-4936
932
1068
5828
-5564
-5580
-2196
6496
10228
4320
-7412
-10792
-5108
-6472
19412
11792
-6168
-4016
-8840
-2048
1576
5588
988
-632
308
3196
1056
-8180
2092
-4968
-7604
20740
928
1264
-11900
-6120
7680
-2980
7984
-4816
2912
-2156
-204
-184
-56
1988
-9312
6608
6756
-4012
1700
-3608
-3764
-544
3176
5172
1544
-8096
-5200
8724
6892
456
-13332
-11684
13504
13304
3548
-6620
-14568
-8292
6888
15376
5780
-5928
-10296
-940
2808
2864
4992
-9540
1380
3720
-3464
7612
-5592
1208
-1524
-7660
8092
6472
2696
-13944
-1096
-152
10056
5764
-13220
6388
-12336
4716
10040
-424
2392
-8484
-5520
-512
8144
3112
1780
-2088
-8628
-1244
-1204
15624
2552
-13632
1236
-3536
2296
3576
1260
2080
-3380
-1820
116
384
-556
-548
2776
420
-1636
-4
2548
-1320
-5164
2348
3904
2040
-3104
-4592
-2276
2608
13784
-7824
-6760
-744
3904
5300
-2948
4464
-13148
4732
2736
-2040
2964
-1172
2704
-2204
-1412
532
164
-1008
2580
1804
-4296
-3824
1360
3980
4052
404
-1712
-5520
-6096
2824
9936
4904
-4800
-8076
-5004
1860
8580
7752
-748
-8748
-9452
352
8000
6548
3940
-4032
-9856
-5076
1480
9296
9484
-2456
-8568
-10400
6900
8448
-6748
4828
300
-2400
-6764
8456
-2312
-4580
8592
-2512
4212
-7924
-3668
2972
1932
4832
972
-3256
-5044
-1496
3840
5476
176
-4652
-3032
-3040
3664
9604
-472
-5108
-7220
-3764
7776
9068
8
-6484
-5148
-2260
5188
5904
-84
-4000
-4948
-876
4756
6668
-748
-5520
-2944
-3008
3020
7756
1556
-6388
-5764
6828
-2588
1780
4676
-2504
-5032
-4748
10640
-3224
4492
-2224
-5880
1696
1216
2980
-1848
544
-2612
292
2316
1340
-1344
-3076
0
1888
2780
176
-4140
-1384
1228
1224
5352
-356
-7292
-2684
3384
3132
908
-8
-1636
308
-116
-3888
-584
4312
2916
1844
-4188
-6192
-1852
6400
9168
-1156
-9788
-6500
-176
14020
11092
-15456
-8000
-944
7444
2828
9280
-6744
-14244
5908
-1792
10796
1068
-1268
-5152
-9460
5188
8120
2852
-2676
-7004
-2900
3560
5024
2984
-2560
-5244
-3468
3240
4668
3276
-1744
-5540
-1216
-1172
3056
5360
-136
-3980
-1100
-736
-796
644
4260
5304
-6024
-6376
-256
1348
7508
1032
-736
-5100
-4972
1604
3932
13960
-11740
-14816
8704
9756
-56
-2024
352
-16196
7444
7796
4780
96
-12448
-3380
4176
7324
248
4328
-8952
-5220
220
4980
10880
-3960
-8108
-4608
1088
6104
7320
-2404
-7688
-5384
5004
10880
-1320
-8352
-5596
2076
5784
2996
924
-3060
-1908
-2840
1708
1544
-1792
3400
3240
-4044
-4212
-980
2528
6608
-4500
6284
-1116
-17808
2004
11356
12372
-8624
-1904
-11112
-5020
14968
4444
7664
-12852
-9768
-712
6724
10308
-1084
-4704
-3092
-2632
-420
3820
5652
-64
-6576
-3616
4388
1844
2272
-940
-5332
-76
1996
5272
664
-7120
-5556
7388
2664
2768
780
-9932
-4172
4500
8184
3032
-980
-10712
-4012
5172
2428
6076
2340
-4892
-10480
4284
684
2040
6044
-1224
-9880
4600
7440
-7420
3932
-8776
1400
5380
2880
2612
-7784
-3516
2540
3492
236
-540
636
-2668
964
876
1660
-1260
-3760
-772
2428
4136
444
-1668
-5512
-2272
4576
8732
2272
-10732
-7804
-712
9896
10328
-1960
-8100
-11800
3620
7880
7360
1980
-10852
-6656
3104
6504
3028
-948
-2320
-5036
-3948
7880
4512
-2652
-224
-3292
-1292
600
1424
2264
1156
-1008
-2420
-2360
-2156
5416
5484
3656
-8788
-12260
2616
8848
7912
2476
-7944
-9964
-1348
6852
8016
3980
-7716
-6788
-2436
1496
8568
4528
-852
-7000
-9516
624
12344
7272
-3344
-7960
-5372
-1880
5624
8404
184
-2084
-7392
-3444
5964
-416
5588
8552
-12216
-16912
8484
10556
10996
-10632
-2852
-3664
-7492
10580
2552
9920
-8392
-9212
-2952
1456
8932
5744
1292
-6728
-9908
-1184
6768
8272
1472
-5400
-6760
-5340
6980
9984
524
-4764
-9112
-2020
6688
6656
2564
-4624
-6884
-1832
-992
8696
5352
-3780
-4840
-4764
4660
2908
1964
-548
-4792
-3160
2880
3292
-1356
4060
1864
-9192
1500
-3976
5620
1000
2420
6508
-11836
-2932
-2816
5888
5256
4868
-5136
-6224
1160
-1484
2504
3972
992
-1940
-7936
2612
6380
-3712
2220
316
92
212
-7124
940
2236
4120
3284
-1800
-7240
-2940
3800
6448
3652
-9584
-2452
3096
1176
4220
-3304
-2844
2224
-1736
2580
876
-4184
3836
-684
328
7608
-20940
3004
14128
248
1156
-8348
340
-3672
6280
3576
1244
-10032
-3368
5352
3844
9348
-10704
-2128
-2800
-5936
18048
4644
-10324
-5760
-8272
8072
14776
-5952
424
-9584
-8396
18432
-468
620
-4108
-16544
13088
6052
-488
9432
-17512
-7116
10412
-4220
18420
-3140
-19236
9076
-11420
10300
18732
-18064
1800
-6032
-13012
29788
-6744
-14008
11428
-17216
13616
3456
-5708
6692
-13336
-1120
13280
-4008
6016
-1132
-23128
19736
-796
-4764
19224
-26204
3532
12184
-13152
21000
-12308
-17636
20912
-8480
10904
7764
-28508
13008
-3148
-3184
28120
-25528
-860
7988
-19104
28732
-6808
-12452
21900
-25204
4732
10896
-20240
28592
-7248
-11508
18036
-29792
13060
13428
-16660
29788
-20540
-23316
23128
-10564
23924
7052
-29792
3760
-13224
8724
29788
-22952
1552
372
-27020
29788
-7516
-8472
23048
-29792
14820
12048
-29148
29788
-9712
-8216
21604
-29792
16252
15076
-21824
27168
-17108
-16384
24876
-19356
18680
9136
-29792
21564
-8556
-1388
27984
-29792
8904
2436
-19240
29788
-11556
-13844
13240
-26320
21404
11848
-25704
28284
-18992
-12556
29788
-27012
17060
8856
-27960
26852
-16452
-13044
28636
-17444
14488
4932
-29792
24888
-8788
-372
28540
-29792
3032
5160
-14688
29788
-14536
-16708
22216
-28920
16076
12100
-22764
28524
-22076
-7264
27696
-29156
20616
4188
-26820
29788
-22344
-6024
29788
-27444
19836
5384
-29792
21180
-13808
7076
29788
-29792
7508
768
-22096
29788
-8440
-20500
21072
-23028
21348
7492
-29792
29788
-21356
2688
21864
-29792
14156
11128
-11908
29788
-19168
-17316
18828
-23812
25192
9488
-29792
22984
-19364
2828
29788
-29792
16596
-1776
-28180
29788
-14708
-5444
27020
-29792
18140
3956
-29792
29128
-11964
500
25052
-29792
8476
2952
-13244
29788
-19260
-15276
15916
-19512
26952
4880
-29792
21388
-11668
796
21472
-29792
15832
6228
-23996
29788
-20952
-4404
22636
-29792
23528
512
-22676
29788
-20636
-1100
22224
-29792
21268
4000
-23728
29788
-25332
-5632
29788
-24616
21280
-1312
-29792
21688
-12480
12628
23960
-29792
5472
-4880
-8564
29788
-18752
-7824
12916
-29792
29388
5552
-22944
27884
-26828
2856
24648
-29792
18116
3664
-14920
29788
-17944
-12316
9448
-24436
29788
4472
-28772
29788
-29792
-676
24668
-29792
29788
-3196
-25600
26984
-25856
2200
27300
-25804
24356
-2940
-29288
20740
-18028
16464
22968
-29792
12740
-9712
-8712
29788
-23700
-5800
5380
-25376
29788
-544
-22972
20956
-27732
12012
22196
-29792
22540
-9684
-14156
29788
-27252
5080
14980
-29792
28652
-11144
-20592
29788
-13412
8592
10152
-29792
22488
-9380
-14020
29788
-29144
11944
7664
-29792
29788
-10616
-6716
26900
-29792
7000
15652
-25168
29788
-7992
-15108
24480
-29792
11512
17104
-21700
29788
-17824
-16756
27060
-23040
16680
8756
-29792
20976
-4036
1024
27332
-29792
5612
7504
-20980
29788
-16356
-14300
22428
-26860
21240
10688
-29052
28108
-16708
-8944
24296
-29792
24104
6812
-25836
29788
-25196
-9200
25828
-23540
26236
2792
-29792
22404
-23112
8180
29788
-29356
13000
-13560
-19728
29788
-15676
2444
16924
-29792
21276
340
-20400
29788
-24092
2552
22600
-29792
23148
1120
-17368
29788
-29188
-3048
22080
-28180
27828
-2292
-21684
27516
-28628
8220
21520
-29792
28236
-6924
-19172
29788
-29792
10924
17992
-29792
26116
-16116
-11024
29788
-19880
5964
8684
-29792
19012
2568
-8864
29036
-29792
7128
6624
-22308
29788
-12860
-14200
15536
-25936
22648
12432
-29316
28272
-15724
-10384
29148
-29792
14040
8612
-23488
29788
-19124
-8376
26108
-29792
17944
3728
-29060
29788
-15632
-5284
25276
-29792
18560
4088
-23204
29788
-22196
-6624
22924
-29792
28828
-412
-18080
29788
-29792
4056
29788
-23380
16408
-1456
-18384
25016
-20364
-5128
28164
-29760
23924
-5212
-16880
29788
-29792
4976
23632
-29792
21600
-3932
-13260
29788
-29792
4092
26028
-29028
21516
-11496
-18052
29788
-22444
15448
14216
-29792
19908
-2292
-4828
23988
-29792
13260
18412
-25676
29788
-17876
-16192
24008
-27320
26800
11508
-29792
19552
-15220
7748
27188
-29792
18680
808
-29696
29788
-5968
-19772
20076
-28336
20564
13128
-29792
28144
-14092
-4648
29000
-29792
18692
1944
-29792
29788
-19968
-8860
24292
-23304
26192
-3324
-28764
29428
-18764
1552
24692
-29792
19632
-3368
-21340
29788
-25312
-3868
23184
-26420
26252
-6740
-22608
29788
-24416
7744
21604
-29792
20340
-13228
-11636
29788
-29792
8980
19836
-29792
25220
-13304
-15000
27344
-26336
19808
16568
-29792
17372
-14308
-2172
29788
-29792
10180
10916
-28608
29788
-15188
-8640
26644
-29792
20772
7796
-29792
28996
-11268
-2024
26888
-29792
20292
3684
-27248
29788
-21768
-3704
24464
-26652
24272
132
-29640
29324
-19020
776
22936
-29792
28148
-1960
-24800
29788
-24292
48
11864
-24848
29788
-6576
-28292
29788
-19288
9540
13128
-25568
19360
-21808
-4124
29788
-23424
-900
13532
-28700
29788
-11108
-17520
29788
-29792
9388
18340
-29792
26540
-11412
-8044
29788
-29792
9368
21236
-21364
27724
-19928
-13496
28732
-29792
20356
14720
-29792
21548
-15796
304
29788
-29792
16976
2456
-29792
29788
-15132
-1840
25740
-29792
22944
5128
-29792
29788
-18232
-6968
25356
-29792
25968
-4768
-16056
29788
-27640
-9800
19596
-15956
29788
-1252
-29792
29016
-21244
3040
23744
-29224
23708
-10632
-17312
29788
-26228
-584
17860
-26720
28972
-11112
-19056
29788
-29792
8580
19532
-29792
24952
-13336
-11632
29788
-29792
6808
19032
-24152
27192
-15068
-14348
26580
-29792
20552
18060
-28664
18136
-19952
-296
29788
-29792
8944
9584
-24284
29788
-4964
-10080
7128
-26176
19952
12104
-29792
27592
-9092
-7072
23812
-29792
21156
8488
-27124
29788
-20724
-13332
19280
-21264
29788
-84
-29792
29740
-23120
-2660
28232
-29792
23372
-5340
-23220
29788
-24328
-5172
20652
-28192
25428
-6512
-15580
29788
-29792
4192
23188
-29792
16648
-6048
-5148
29788
-29792
4156
17980
-29616
29788
-7876
-20972
21976
-24964
22472
18292
-29792
16348
-6436
-5064
29788
-29792
9200
14364
-29792
29788
-10228
-19232
22612
-28604
22112
13224
-29792
29788
-14836
-12316
29788
-28368
21240
2296
-29792
29788
-16180
-5892
29788
-29228
16608
1384
-29256
29788
-19380
-4436
28324
-29792
16108
-240
-16296
29788
-23168
-8204
17480
-24564
26292
1440
-23476
23064
-24508
11852
23324
-29792
17364
100
-9768
29788
-29432
-1108
16456
-26972
29788
-6240
-26260
25348
-19036
18536
14648
-29792
23220
-8960
-9332
29788
-27152
8232
6004
-28396
29788
-7540
-16508
27796
-29792
12624
13876
-29792
29788
-15836
-14956
29788
-29332
7568
6540
-21628
29788
-16648
-14784
27180
-27392
17996
8868
-26220
24224
-18600
-3732
29788
-29792
9204
9432
-25416
29788
-26220
-5748
27472
-29792
29788
3236
-27136
19772
-26148
11696
26648
-29792
24920
2424
-28772
29788
-21492
2840
19384
-29792
28416
3240
-25048
29788
-21352
3744
17520
-29792
29788
-7084
-28676
29788
-20688
5348
16036
-29792
29788
-7932
-21740
29788
-26360
5416
15716
-29792
29788
-12664
-18300
29788
-28776
-9096
19324
-21232
29788
-16380
-12712
29400
-29792
19868
15372
-28184
27592
-12440
-14772
29788
-29792
10028
21924
-27232
23740
-21896
-6944
29788
-29792
19964
7464
-29792
28580
-9952
-4204
24236
-29792
17724
9584
-29072
29788
-16716
-6540
22336
-29792
25888
7508
-29792
29348
-19276
-4620
29236
-29792
17672
1000
-24036
29788
-21800
-7196
25196
-29792
25560
5372
-23264
23728
-28908
9148
24864
-24880
19032
-7168
-23300
29788
-22404
-2896
20468
-28744
27892
-3688
-13700
26972
-29792
5076
20008
-26952
29788
-6844
-23136
29324
-28856
11492
19952
-29792
29788
-8248
-17128
26968
-28820
15800
18868
-29792
23004
-7552
-15040
29788
-24996
12716
8004
-29792
29788
-8764
-15628
29788
-26968
13616
9896
-29792
29788
-11220
-13592
29788
-29792
10304
9688
-19736
29788
-20112
-18960
27424
-23116
20160
8400
-29792
27272
-15652
-1844
29788
-29792
7992
3788
-14904
29788
-20308
-11796
20208
-29792
24940
13836
-26960
23824
-29792
-2256
29788
-29792
23156
1976
-29792
29788
-19684
2952
21116
-29792
27820
7392
-27124
29788
-24616
5216
24968
-29792
28848
-3220
-29408
29788
-21408
-812
17336
-29792
29788
-312
-29460
29612
-18920
5080
20460
-29792
27768
-4600
-22716
29788
-24868
-3996
19440
-20524
28164
-8008
-23296
28104
-24908
5456
21916
-26792
26712
-12176
-24204
29788
-23492
7196
18504
-29792
24944
-9420
-11844
29788
-29792
7572
17264
-28104
26248
-16256
-4244
29788
-29792
4344
16040
-26068
29788
-14804
-10056
28616
-29792
21636
16888
-29792
20644
-13284
-3444
28888
-29792
17508
15648
-29792
29788
-18388
-8864
29576
-29792
19064
9368
-29792
27180
-6956
-4180
26836
-29792
17068
7032
-29792
29788
-14452
-12712
22520
-23252
27060
780
-29792
29788
-11404
-6604
26692
-29792
18952
836
-24964
29788
-19220
-11120
16004
-23684
29788
-232
-27884
29788
-23120
-1812
25036
-29792
19544
-3356
-14300
29788
-26436
-9324
18328
-20756
27712
-8604
-26472
29788
-21792
7372
29788
-29792
6976
-3976
-11296
29788
-26640
-5164
21544
-29792
25916
4232
-18968
27740
-29792
4100
29788
-29792
16248
-6348
-16840
29788
-26500
3536
23032
-29792
23292
2068
-15924
28952
-29792
8468
21796
-29792
20216
-1372
-12180
29788
-27368
9156
8720
-29792
29788
-852
-18040
16032
-26220
16816
17548
-29792
29788
-6004
-27848
28852
-25460
16160
15340
-29792
29788
-10184
-19592
29256
-24352
12028
11604
-29792
29788
-8624
-24520
29788
-28772
16732
11768
-29792
29788
-15836
-17664
29788
-19232
12988
7448
-29792
26420
-7464
-5116
29788
-28452
-8092
-28
-8104
29788
-15452
-21248
20784
-22404
19160
14320
-29792
25072
-23188
-6416
29788
-29476
9860
1624
-20076
29788
-22928
-10020
29788
-29792
14532
6480
-22728
29788
-26488
-3904
29788
-29792
15468
3664
-20192
29788
-25776
-4728
29788
-29792
19292
7628
-24888
24416
-26764
5032
29788
-29792
14064
-2652
-19012
29788
-23084
-2040
25596
-29792
21944
8640
-23152
22348
-22492
9144
23272
-29792
12324
13424
-11188
26208
-28976
956
20960
-29792
29704
1028
-27776
22820
-16904
14088
20296
-29792
17980
1608
-19696
28384
-22484
7836
18792
-29792
28708
2308
-24064
23924
-24000
10692
17596
-29792
28236
-3380
-19300
29788
-22664
7732
10456
-29792
29788
-996
-22628
25832
-22868
12668
18128
-29792
24184
1404
-17828
29788
-24188
1600
14224
-29792
29788
2204
-27784
21216
-14312
15788
15288
-29792
25736
3656
-23052
29788
-25084
4148
15680
-29792
29788
-6264
-24392
29788
-20928
11188
9280
-29792
29788
-1516
-15956
29788
-27136
4164
6188
-29604
29788
-7288
-18808
24252
-29700
16084
16804
-29792
28808
-9748
-17584
29788
-23756
4904
7576
-29792
29788
-6016
-20448
28144
-22316
13496
10528
-29792
29788
-9248
-21924
29224
-27712
16592
18744
-29792
29788
-10716
-24328
28336
-15676
16576
6048
-29792
29788
-3752
-17600
29788
-29056
10912
10276
-29792
29788
-10764
-16816
29788
-25952
13900
4632
-29792
29788
-5212
-9276
28024
-29792
8368
5120
-23624
29788
-10456
-24048
11476
-16532
29788
9896
-29792
29788
-13604
-17008
29788
-27940
20184
4096
-29792
29788
-18596
-13864
27508
-15016
18888
-9248
-29792
29788
-9592
-8976
29788
-29732
14860
-3948
-29064
29788
-13100
-14408
22836
-25552
21264
5228
-29792
29788
-14476
-17000
29788
-29792
22584
7612
-29792
29788
-18864
-15020
19288
-18488
29360
1444
-29792
26908
-9292
-1976
26552
-29792
15520
4780
-25400
29788
-16548
-12464
12568
-28880
29788
7436
-29792
25440
-14720
-3536
23496
-29792
28444
4948
-29792
29788
-11496
-5548
17820
-26228
25120
6100
-29792
13816
-2008
12068
12680
-29792
21888
1804
-22912
29788
-18748
-4932
11872
-29792
29788
6712
-29792
22660
-16396
3984
25048
-29792
23728
-176
-29792
29788
-17696
3132
12848
-29792
29788
9344
-29792
16236
-18812
8804
28312
-29792
20244
5948
-28644
26472
-18800
8556
23768
-29792
19632
4072
-23564
27988
-18816
2496
21940
-29792
22624
14808
-22760
19152
-23936
10708
23124
-29792
20580
4544
-15020
28432
-29492
6656
29788
-29792
5776
-544
-7252
29788
-28212
-5076
27180
-29792
20132
124
-20340
29788
-28200
7284
28572
-29792
10368
-5696
-6828
29788
-29792
-6952
29788
-23924
21200
-3908
-22980
29788
-29792
1872
29788
-29792
13408
-7344
-10232
29788
-24448
-11716
21484
-26308
23156
48
-27032
29788
-27060
-7016
29788
-26164
23924
-15964
-21648
29788
-17800
-12964
10852
-21348
29788
928
-26596
29788
-24600
-10024
21776
-25208
29788
-5108
-29792
29788
-17960
-540
18892
-25000
26168
-8456
-28504
29788
-10284
1172
5900
-29792
29788
13016
-20844
27844
-22876
-4576
15860
-29344
29788
5272
-29792
18784
-17436
14952
23568
-29792
25420
5388
-29792
29788
-22324
5388
27468
-29792
23464
7600
-25732
22268
-23172
12492
28372
-29792
8900
9984
-11436
29788
-29776
-12280
29788
-23920
18224
1512
-22468
28212
-29792
4932
29788
-29792
6056
-4624
-11216
29788
-23788
-12588
25444
-25936
20924
-3252
-21360
29788
-29792
-9432
28220
-25064
26032
-6324
-27984
29788
-19632
-11972
20288
-22384
27340
-3156
-29168
29788
-20140
-2440
24140
-29792
26892
-564
-29792
29788
-13644
-5980
15060
-29792
29788
12404
-29792
15696
-12984
6100
22520
-29792
13472
29788
-29792
10700
-15676
-2336
29788
-29792
12792
10128
-29792
22168
-10520
4228
23924
-29792
15700
12424
-23464
22780
-24164
-684
29788
-29792
5764
332
-24112
29788
-21416
-416
29788
-29792
7608
-6592
-13700
29788
-20244
-14612
17096
-24044
25380
3508
-29792
29788
-15400
-20340
26544
-26848
22420
4464
-29792
29788
-12176
-10936
19480
-28912
26384
4212
-29792
26528
-384
-1380
22696
-29792
5252
25020
-23916
22272
-14356
192
21724
-29792
26308
16464
-26876
12288
-21944
8440
29788
-29792
9972
8644
-23588
29788
-22884
-10068
29788
-29792
14964
7100
-25512
29788
-20344
-3536
29788
-24528
-3656
-7668
-12512
29788
-10108
-22700
15308
-21196
22404
6676
-29792
29788
-15140
-17988
28792
-29792
22636
9964
-29792
29788
-13924
-8336
27236
-29084
22872
9380
-29792
17564
-6508
3816
28632
-29792
4716
18524
-20740
29276
-18884
-3800
29788
-29792
15788
19524
-22840
28056
-23932
-2252
29788
-29792
4836
14924
-15756
29788
-20140
-20892
26584
-17772
19400
4664
-29792
29788
-10632
-8720
29788
-29792
12664
3012
-29792
29788
-8004
-18236
13880
-25148
27684
12876
-29792
22984
-4488
-9132
21472
-29792
16844
22128
-29792
24044
-13736
-8692
29788
-29792
10216
21176
-25200
22720
-22416
-7556
29788
-29792
2344
14964
-21880
29788
-18092
-17360
29788
-27400
14428
9792
-29792
29788
-8272
-14276
29788
-27712
12948
2660
-29792
29788
-8628
-20924
16036
-19328
27052
15016
-29792
13736
-3252
-84
27900
-29792
4796
14224
-21948
29788
-13068
-13416
27700
-29792
10116
20220
-25164
26704
-19368
-14780
29788
-25672
832
7268
-22660
29788
-14436
-19124
29788
-20744
11244
8324
-29792
29788
-9464
-28260
29788
-23364
7592
8836
-29792
29788
-8328
-18872
20844
-29792
20468
23420
-29792
12548
-9104
-2036
29788
-29792
-1976
17396
-23240
29788
-10728
-20228
29788
-27964
6832
19368
-29792
24132
-13716
-15964
29788
-19132
1444
5288
-29792
29788
4
-22636
29236
-19624
6916
16228
-29792
22652
4092
-13704
29788
-29792
4044
19380
-29792
29788
4032
-22280
19120
-29792
17000
29788
-29792
8756
-10588
-12784
29788
-21112
-3192
8496
-28464
29788
-5768
-29644
29788
-13872
1516
10828
-29792
29788
4956
-26712
29028
-25084
3680
25136
-29792
27044
2228
-27312
29788
-25964
6748
29788
-29792
16972
1224
-22052
29788
-23588
-7076
27356
-28280
21172
-2476
-29204
29788
-17816
-5068
24640
-29792
23968
1472
-25924
29788
-18532
-14632
17336
-22948
27532
13604
-29792
16240
-13300
2904
29788
-29792
14536
-328
-22808
29788
-20072
-6896
26164
-29792
16464
7752
-27932
29788
-17828
-7320
29788
-29792
13696
80
-26344
29788
-13204
-17400
22236
-27320
24432
11796
-29792
24352
-12796
-5212
29788
-29792
8192
13284
-26972
29384
-12844
-13556
29788
-29792
8848
19152
-23196
29788
-23276
-18356
29788
-27484
2740
14096
-19912
29788
-9516
-28088
22864
-17856
15376
20408
-29792
18108
552
-13180
29788
-29316
8020
22036
-29792
20476
-9944
-10792
29788
-28032
4872
13224
-29792
27920
-7040
-14548
29788
-28200
2724
16656
-25692
29788
-6864
-24380
23800
-19984
15556
18340
-29792
19788
-692
-16556
29788
-25200
104
22192
-29792
23844
4512
-20504
29680
-27616
-1004
25236
-29672
19824
-224
-20084
29788
-19424
-11044
15300
-22764
27260
468
-28712
25864
-9504
920
12504
-29792
25316
8620
-29792
20636
-16992
928
29788
-29792
7204
-5208
-23692
29788
-13232
-5180
23060
-29792
11360
904
-15236
29788
-16308
-21268
10880
-18740
29788
11512
-29792
18588
-18772
100
29788
-29792
12076
11048
-19780
26980
-19392
-11664
29424
-21524
11912
1420
-27096
29532
-9944
-6460
24404
-23808
7176
5692
-22656
28648
-7800
-17040
20008
-18808
18560
12060
-29792
14128
-9952
248
29788
-24264
-2208
8976
-20176
20292
-6388
-9648
26160
-22596
3672
9360
-24188
29400
-3908
-18576
25308
-24492
1304
15972
-20656
26704
-6272
-20432
20304
-16672
13736
12932
-29792
10780
-1976
1104
29764
-27392
-7572
12960
-16768
25376
-8440
-18428
29788
-18180
1240
11356
-28396
23040
2208
-14320
21312
-24584
4564
21436
-26832
20104
-3720
-17032
23984
-23932
8956
21364
-29792
12516
1844
-10348
27824
-17944
-10392
6360
-14044
29788
-524
-26376
12152
-10688
14984
16700
-29792
5416
6760
-6400
29380
-19044
-12556
13156
-20240
25100
3592
-21676
20004
-20064
-472
26260
-20420
12436
-2436
-27472
26384
-3908
-1156
17908
-29792
13560
6088
-21324
24224
-13644
632
18608
-29792
13208
9216
-13524
22904
-18648
-11408
17448
-12024
17764
-1828
-20912
22616
-13340
-4232
23872
-27280
10904
7708
-21744
29788
-15512
-13296
17196
-18496
22156
-2240
-25036
22604
-10364
4128
26184
-22304
-12340
-4116
-1660
29788
-4804
-19848
21652
-22080
-5820
27652
-18680
17260
-9832
-16564
28024
-29792
13888
24048
-28548
19592
-7524
-9444
7232
-20944
22816
11992
-24588
17540
4444
-28976
16640
1280
-2776
7404
-22288
29456
-1940
-29792
29788
-15300
680
21684
-20156
10168
-26040
1828
29788
-21664
-9836
13216
-10596
3532
-4408
-10236
24292
-8724
-252
25616
-29792
-572
20368
-14052
28820
-18888
-736
13808
-29792
29788
4320
-20812
25672
-10716
-3368
-1604
-16928
22268
8040
-17548
26160
-10188
-29792
22348
-2032
16700
15148
-29792
20936
-24224
-9368
29788
-27956
-2432
9932
-4460
22120
-27128
-2876
19516
-19176
21232
13304
-29792
-9724
6764
13148
23720
-24488
2908
12596
-29792
25104
5312
-18184
21352
-15460
15196
-1976
-29792
28664
-2132
-8728
24092
-12912
-13708
-5508
-2712
29160
916
-19500
19916
-21532
-12396
29788
-16960
7352
-4296
-14188
29788
-28984
-1992
24492
-27764
26176
6844
-18644
-1224
-25644
23912
24716
-29612
9952
14044
-29792
12324
4168
-5104
17592
-27040
17224
5400
-29792
29788
-5304
-11324
20304
-19876
17052
-12136
-23004
29788
-9536
-3200
23380
-13616
-10272
1176
-8284
16836
-2892
-7940
29788
-29792
-19804
26516
-14836
29788
-3028
-22556
11932
-29792
26332
27468
-29792
14396
-4812
-7444
12260
-19224
9244
12436
-17192
22016
5272
-29792
15764
4924
4656
14476
-29792
29788
-3392
-29792
29788
-17136
-3540
17828
-16860
18372
-19160
-11956
29788
-17804
1200
24848
-24576
-10208
2740
-7148
29100
-9056
-6368
26628
-29792
5552
21552
-26172
20736
-12152
1492
25624
-29792
16624
11204
-23552
29788
-7352
-24060
1340
-8096
27176
11912
-29792
20216
2840
-29792

vt# 
