bandplan FCC

preamble section 0
240
-3160
-2872
-540
1604
4120
2516
-248
-3208
-4532
-1968
1724
4652
4272
936
-3580
-5888
-3436
1308
5796
5708
1136
-4128
-6836
-3724
2096
6288
5724
80
-5016
-6096
-2272
3288
5452
3612
-1256
-4992
-3788
840
3780
2412
-768
-2508
-1080
1232
1872
348
-2396
-2056
928
2708
2048
-1264
-2780
-1444
572
2500
1284
-784
-1396
-816
856
248
-48
72
-388
808
192
-768
-364
-276
532
348
-56
492
-64
-444
-516
-476
152
684
848
240
-784
-716
64
-168
-144
604
824
120
-872
-372
340
-192
-192
-248
444
1380
-112
-1284
-968
396
1200
-128
-516
436
692
-628
-1764
152
2024
660
-1308
-572
1008
-300
-1668
256
2112
740
-1784
-756
1580
-16
-2080
-300
2224
936
-1332
-120
888
-1300
-1700
1300
2136
-532
-1216
1016
224
-2364
-168
2316
276
-920
260
404
-1404
-992
2040
880
-1516
292
548
-1064
-284
1096
160
-1224
484
1200
-692
-452
372
-768
-516
1256
668
-748
152
260
-896
-192
268
-364
944
1276
-1340
-976
748
-588
-176
1500
-372
-748
1128
-724
-952
1364
-784
-492
1780
-992
-260
1428
-1732
-460
1404
-1056
716
1540
-1928
160
756
-2072
1284
660
-1316
2348
-468
-1840
1152
-1748
-32
2636
-984
540
692
-2476
420
-260
-792
3540
-808
-1668
1700
-2380
716
1168
-2308
2652
-620
-676
2492
-3208
484
240
-1968
3324
-332
468
764
-3580
460
-588
444
3104
-452
716
-1580
-2556
396
-596
2016
2136
276
agc_result_db 39
afe_gain      0
id_gain       0
afe_att       0
comp_gain     0
decim_gain    0
comp_coeff    0
decim_coeff   0
inv_tone_cnt  0

preamble section 1
-1040
-1204
-192
1908
-1040
1360
1384
-2196
144
-1396
392
2400
-644
-528
-80
-1284
236
676
1052
144
-236
-168
-1532
440
-548
420
1308
52
1304
-944
-3384
972
632
-32
2656
-1080
132
-300
-1792
696
-132
-120
740
-1064
1008
1316
-456
988
-1184
-1440
-1612
12
1824
512
1520
1512
-924
-1880
-2388
-404
1080
556
2920
-384
-1356
872
-1240
-740
428
-192
656
284
-1064
-68
552
1748
388
-436
-1620
-2452
-80
1296
1996
2012
568
-1488
-2616
-2300
264
1508
2592
1236
256
-920
-3004
-868
1028
384
248
1356
-328
-556
336
992
-612
-1336
-168
-284
-32
316
1808
528
-584
-972
-116
16
-1764
256
2752
-560
124
604
-2288
1248
-500
-632
1208
-2064
828
2040
-304
1228
-1700
-1312
648
-1908
1664
1280
-1480
448
920
656
1276
-2120
-2520
492
-1216
1032
3564
388
232
-764
-2792
-60
-2184
1324
3336
-344
932
-1140
-844
-364
-880
1384
-236
-620
1940
-1132
-576
-40
28
2072
-548
-864
-456
-1180
184
1676
700
96
-1136
-316
-188
-256
292
-412
2172
-380
-592
760
-1660
-212
-396
-1444
2216
2032
-308
668
104
-2324
-2688
1172
-792
1444
3656
-524
136
-1644
-2224
684
-928
748
2332
-756
960
56
-1880
-984
288
508
1200
652
-1076
104
-1456
-84
2812
-144
-1384
-480
-1444
1524
948
-916
716
8
824
-372
-844
-428
-1088
-412
684
1544
2232
172
-1744
-1216
-2084
-352
1276
1128
1656
2048
-708
-2704
agc_result_db 57
afe_gain      0
id_gain       0
afe_att       0
comp_gain     0
decim_gain    0
comp_coeff    0
decim_coeff   0
inv_tone_cnt  0

preamble section 2
-384
772
3204
120
-548
-1848
-2040
-992
300
2396
3052
516
-2100
-2360
-2104
288
3304
2216
-280
-1868
-2956
-260
2544
2396
1300
-1716
-4856
-1812
1340
4764
4728
-1332
-4116
-3996
-2300
2568
4996
2316
88
-3452
-3664
292
1192
904
1152
200
920
-196
-1564
-1072
-1996
360
3984
2680
-612
-3164
-3712
-556
2356
3056
1928
-1608
-2372
772
-32
-516
-144
-1316
904
2096
544
-76
-1188
-1248
156
-292
-720
1880
772
-212
772
-1024
-460
-188
-1304
-492
1420
1492
1096
-956
-2424
740
1208
-604
-20
-852
-360
976
292
1920
640
-2520
-1496
-1636
260
3288
2004
-564
-1580
-256
608
-968
-2252
420
1692
-404
1168
3312
-960
-2132
-1328
-3036
72
2392
1308
3168
2124
-2424
-3936
-4372
668
2728
2756
4028
276
-4220
-3800
56
744
2012
1664
212
-1252
-2412
1372
1976
-1032
-308
-220
-1744
648
1632
832
756
-1936
-760
-748
28
2100
-624
-404
1540
-996
-64
188
-2396
1228
1208
-16
1708
-1488
-2248
284
156
2140
1284
-2712
-1064
1348
480
840
-76
-1768
-400
-380
-512
3628
1252
-2212
308
-1980
-1756
1660
132
1712
1588
-1108
-180
-1980
-1624
664
1176
2960
776
-2116
-2492
-1132
796
1960
2336
-724
-824
-1292
-1872
1360
956
456
592
-1352
84
116
-436
1268
-556
-408
276
-644
-196
72
-196
1948
1736
-1140
-740
-3116
-3128
2144
3460
3484
2468
-3144
-5356
-2300
20
3976
2976
-1380
676
-1560
-728
2188
-2084
-880
1064
-1916
160
agc_result_db 60
afe_gain      0
id_gain       0
afe_att       0
comp_gain     0
decim_gain    0
comp_coeff    0
decim_coeff   0
inv_tone_cnt  0

preamble section 3
240
-3160
-2872
-540
1604
4120
2516
-248
-3208
-4532
-1968
1724
4652
4272
936
-3580
-5888
-3436
1308
5796
5708
1136
-4128
-6836
-3724
2096
6288
5724
80
-5016
-6096
-2272
3288
5452
3612
-1256
-4992
-3788
840
3780
2412
-768
-2508
-1080
1232
1872
348
-2396
-2056
928
2708
2048
-1264
-2780
-1444
572
2500
1284
-784
-1396
-816
856
248
-48
72
-388
808
192
-768
-364
-276
532
348
-56
492
-64
-444
-516
-476
152
684
848
240
-784
-716
64
-168
-144
604
824
120
-872
-372
340
-192
-192
-248
444
1380
-112
-1284
-968
396
1200
-128
-516
436
692
-628
-1764
152
2024
660
-1308
-572
1008
-300
-1668
256
2112
740
-1784
-756
1580
-16
-2080
-300
2224
936
-1332
-120
888
-1300
-1700
1300
2136
-532
-1216
1016
224
-2364
-168
2316
276
-920
260
404
-1404
-992
2040
880
-1516
292
548
-1064
-284
1096
160
-1224
484
1200
-692
-452
372
-768
-516
1256
668
-748
152
260
-896
-192
268
-364
944
1276
-1340
-976
748
-588
-176
1500
-372
-748
1128
-724
-952
1364
-784
-492
1780
-992
-260
1428
-1732
-460
1404
-1056
716
1540
-1928
160
756
-2072
1284
660
-1316
2348
-468
-1840
1152
-1748
-32
2636
-984
540
692
-2476
420
-260
-792
3540
-808
-1668
1700
-2380
716
1168
-2308
2652
-620
-676
2492
-3208
484
240
-1968
3324
-332
468
764
-3580
460
-588
444
3104
-452
716
-1580
-2556
396
-596
2016
2136
276
agc_result_db 39
afe_gain      0
id_gain       0
afe_att       0
comp_gain     0
decim_gain    0
comp_coeff    0
decim_coeff   0
inv_tone_cnt  0

preamble section 4
1324
280
-2256
-1952
-596
1864
1704
892
-524
-1896
-1432
276
1420
1736
176
-1496
-1916
-1088
1800
2496
1588
-664
-2112
-2544
-1324
724
2604
2752
224
-1772
-2320
-800
1428
2656
288
-1688
-3336
-1416
1976
3648
3128
-972
-3008
-3368
-992
1480
2732
1132
-380
-856
-404
632
20
-1032
-828
-72
364
1144
272
292
-268
92
-252
-988
-304
24
660
868
88
-948
-312
388
672
-200
-160
-476
-332
-112
-160
1156
1200
396
-1188
-1860
-1392
816
1528
1612
504
-216
-820
-1896
-908
-92
772
1480
1748
36
-256
-1500
-1760
-1200
164
2376
1912
396
-916
-756
-724
-672
-1164
548
1440
1136
216
-472
-420
-708
-600
-8
1552
188
-1352
-1196
1052
1316
396
156
100
-804
-2500
-536
1476
1196
192
1376
1000
-1544
-2692
-340
332
-460
1608
2364
348
-1644
-296
-260
-1708
-1064
1852
1116
260
1104
152
-1552
-1988
120
408
612
1088
948
-856
-192
-140
-1172
-124
360
-20
180
1320
-228
-196
148
-628
-792
628
-60
-900
508
896
612
80
-216
-1220
280
128
-888
8
56
4
1860
1480
-848
-552
-2244
-2296
736
2132
2356
2140
-2320
-2912
332
-208
160
1048
-284
268
1352
-1096
656
-452
-2132
844
628
-188
1076
-532
-576
1104
-840
164
316
-472
480
-936
-1836
1880
1076
860
1188
-2304
-108
-1580
-1804
2036
264
1440
2676
-960
24
-2904
-3132
364
-208
4888
3452
-948
-2516
-3644
-820
976
1052
2460
652
agc_result_db 57
afe_gain      0
id_gain       0
afe_att       0
comp_gain     0
decim_gain    0
comp_coeff    0
decim_coeff   0
inv_tone_cnt  0

vt# [S->SB] Send_Keepalive(seq:32,len:6, time:4096)
[S->SB] Send_Keepalive(seq:32,len:6, time:4096)
[S->SB] Send_Keepalive(seq:32,len:6, time:4096)
[S->SB] Send_Keepalive(seq:32,len:6, time:4096)
cmd delete route
add task tcip (priority 4) size 24
dcu delete route success
cmd delete route
dcu delete route success
LR F,G RERR
RERR dest is myself, Stop RERR
task_loop: DCU PKT received (30)

      03 00 45 00 56 40 21 12 02 00 00 01 00 00 0c 00 
      01 06 09 7e a0 07 03 23 93 bf 32 7e df 54 
cmd search route
dcu search route success
cmd search route
dcu search route success
Send RREQ, Dest 0x0045, Seq 5139, Flag 0
Wait RREP(0x008a) Timeout
cmd delete route
dcu delete route success

