240
-3160
-2872
-540
1604
4120
2516
-248
-3208
-4532
-1968
1724
4652
4272
936
-3580
-5888
-3436
1308
5796
5708
1136
-4128
-6836
-3724
2096
6288
5724
80
-5016
-6096
-2272
3288
5452
3612
-1256
-4992
-3788
840
3780
2412
-768
-2508
-1080
1232
1872
348
-2396
-2056
928
2708
2048
-1264
-2780
-1444
572
2500
1284
-784
-1396
-816
856
248
-48
72
-388
808
192
-768
-364
-276
532
348
-56
492
-64
-444
-516
-476
152
684
848
240
-784
-716
64
-168
-144
604
824
120
-872
-372
340
-192
-192
-248
444
1380
-112
-1284
-968
396
1200
-128
-516
436
692
-628
-1764
152
2024
660
-1308
-572
1008
-300
-1668
256
2112
740
-1784
-756
1580
-16
-2080
-300
2224
936
-1332
-120
888
-1300
-1700
1300
2136
-532
-1216
1016
224
-2364
-168
2316
276
-920
260
404
-1404
-992
2040
880
-1516
292
548
-1064
-284
1096
160
-1224
484
1200
-692
-452
372
-768
-516
1256
668
-748
152
260
-896
-192
268
-364
944
1276
-1340
-976
748
-588
-176
1500
-372
-748
1128
-724
-952
1364
-784
-492
1780
-992
-260
1428
-1732
-460
1404
-1056
716
1540
-1928
160
756
-2072
1284
660
-1316
2348
-468
-1840
1152
-1748
-32
2636
-984
540
692
-2476
420
-260
-792
3540
-808
-1668
1700
-2380
716
1168
-2308
2652
-620
-676
2492
-3208
484
240
-1968
3324
-332
468
764
-3580
460
-588
444
3104
-452
716
-1580
-2556
396
-596
2016
2136
276
