bandplan FCC

preamble section 0
-880
-268
764
-176
-64
-912
-40
396
564
1024
-732
-308
-444
-1240
660
1040
412
176
-200
-652
-764
48
32
644
880
-176
-80
-840
-660
388
136
776
460
-756
-628
64
508
332
-300
-580
176
248
112
388
-476
-160
112
-660
768
732
-652
-596
-580
992
1300
-816
-920
-556
332
1516
-208
-928
-208
64
936
72
-668
-420
-856
776
1700
412
-944
-1952
-224
1208
732
380
-880
-260
1064
112
-1248
-1516
532
1952
912
-88
-936
-1200
-912
-240
1444
1968
1024
-1208
-2668
-1308
644
2032
1756
232
-660
-2184
-2088
428
2396
2668
168
-2040
-2748
-1340
1604
2780
2136
-484
-3176
-3016
-72
3428
3412
80
-3032
-3612
-508
3272
3812
380
-3864
-3984
248
4436
4128
-756
-5336
-4280
1992
5828
3104
-2856
-5232
-1660
3256
4332
32
-4016
-2500
1652
3532
960
-2548
-2564
104
2788
1492
-1824
-1508
644
1264
-168
-1208
-136
904
904
-756
-1628
660
1952
-168
-1912
-596
1240
936
-176
-888
-260
792
-120
-1104
644
1692
-936
-1800
468
1240
740
-548
-1620
112
1524
-340
-960
1324
16
-1604
668
548
-152
136
-1040
308
1516
-840
-888
864
-380
-516
1136
-300
-240
404
-864
644
-8
-944
1316
-136
-872
768
-104
-460
168
-120
292
208
-500
756
-444
-1332
1604
-32
-532
992
-1516
232
532
-136
1436
-1856
-176
856
-1452
2032
80
-1096
692
-1284
516
64
40
1200
-1380
556
16
-1128
1348
agc_result_db 30
afe_gain      0
id_gain       0
afe_att       0
comp_gain     0
decim_gain    0
comp_coeff    0
decim_coeff   0
inv_tone_cnt  0

preamble section 1
-880
-268
764
-176
-64
-912
-40
396
564
1024
-732
-308
-444
-1240
660
1040
412
176
-200
-652
-764
48
32
644
880
-176
-80
-840
-660
388
136
776
460
-756
-628
64
508
332
-300
-580
176
248
112
388
-476
-160
112
-660
768
732
-652
-596
-580
992
1300
-816
-920
-556
332
1516
-208
-928
-208
64
936
72
-668
-420
-856
776
1700
412
-944
-1952
-224
1208
732
380
-880
-260
1064
112
-1248
-1516
532
1952
912
-88
-936
-1200
-912
-240
1444
1968
1024
-1208
-2668
-1308
644
2032
1756
232
-660
-2184
-2088
428
2396
2668
168
-2040
-2748
-1340
1604
2780
2136
-484
-3176
-3016
-72
3428
3412
80
-3032
-3612
-508
3272
3812
380
-3864
-3984
248
4436
4128
-756
-5336
-4280
1992
5828
3104
-2856
-5232
-1660
3256
4332
32
-4016
-2500
1652
3532
960
-2548
-2564
104
2788
1492
-1824
-1508
644
1264
-168
-1208
-136
904
904
-756
-1628
660
1952
-168
-1912
-596
1240
936
-176
-888
-260
792
-120
-1104
644
1692
-936
-1800
468
1240
740
-548
-1620
112
1524
-340
-960
1324
16
-1604
668
548
-152
136
-1040
308
1516
-840
-888
864
-380
-516
1136
-300
-240
404
-864
644
-8
-944
1316
-136
-872
768
-104
-460
168
-120
292
208
-500
756
-444
-1332
1604
-32
-532
992
-1516
232
532
-136
1436
-1856
-176
856
-1452
2032
80
-1096
692
-1284
516
64
40
1200
-1380
556
16
-1128
1348
agc_result_db 30
afe_gain      0
id_gain       0
afe_att       0
comp_gain     0
decim_gain    0
comp_coeff    0
decim_coeff   0
inv_tone_cnt  0

preamble section 2
-3904
-9700
-6492
1484
7920
7328
4256
-2724
-10692
-9216
-1308
10596
12960
4960
-6540
-14192
-10096
676
11668
15008
7388
-7200
-18480
-14508
2864
17424
17780
3436
-13248
-19200
-9700
8304
20368
14852
-6944
-21376
-15296
6112
22400
14644
-7860
-22544
-13596
9860
22608
12144
-11732
-22788
-9040
13780
21472
3716
-14884
-17072
-380
16660
11564
-4896
-13940
-5500
7216
9216
-112
-7232
-3452
5152
4540
-3636
-5856
-112
7564
2880
-4944
-4412
1952
4304
-896
-4740
-1120
4788
4224
-516
-6460
-3452
4756
3716
-2176
-2332
1636
784
-1024
-396
1232
192
-1292
-1136
-460
3340
1484
-3264
-1700
1516
708
-112
1968
-1008
-3636
1324
1968
-224
224
-1008
-1024
2332
1104
-4304
-628
3516
32
864
380
-3620
944
880
-3296
1748
3340
-912
48
412
-2896
548
-508
-1732
4256
316
-2032
2364
-348
-3532
-516
160
2000
4144
-1652
-3232
-1136
-548
3572
1340
-2832
1120
-1824
-1420
4692
-708
-1152
348
-1952
112
-612
992
3404
-912
-176
-1452
-3168
2524
-16
-208
2524
-1452
-48
832
-1716
-224
756
880
-800
-1792
492
1024
3372
-1056
-4304
1684
224
-224
1808
-2032
-976
2096
-332
548
1668
-1572
-2444
444
-1748
2128
3888
-2224
864
-1184
-2144
1104
-1104
-460
2708
1556
160
-628
-4896
-16
3500
-992
1324
1684
-444
-64
-5008
-1524
3920
444
4176
-316
-3764
192
-4492
960
4772
476
2256
-3420
-3072
412
-80
3936
32
-1136
128
-2476
1292
-380
-784
1588
-848
2396
1700
-1200
-2992
-4788
596
4960
4564
1732
agc_result_db 51
afe_gain      0
id_gain       0
afe_att       0
comp_gain     0
decim_gain    0
comp_coeff    0
decim_coeff   0
inv_tone_cnt  0

preamble section 3
-1208
-2508
-1380
-880
2008
5952
2160
-2492
-4508
-4216
-128
2232
3888
4240
944
-2856
-6136
-4444
1764
5256
4888
1588
-2340
-5008
-5144
232
5856
5484
540
-4804
-5460
-1200
4240
5856
992
-4080
-4856
-2016
2460
5328
3764
-2596
-5944
-2332
2596
4184
1256
-2772
-3444
324
3976
2788
-1612
-4224
-2896
832
4128
4112
-232
-4364
-2880
708
1764
748
-112
-256
532
1256
-104
-1700
-1912
-356
1016
1364
1960
1176
-1748
-2904
-984
992
1412
708
-56
-784
692
1324
-1048
-2176
-1096
992
1652
1008
732
-444
-1636
-1404
-492
1104
1808
564
-1096
-1112
700
888
-508
-968
-532
208
548
1324
1200
-1412
-2088
96
1492
208
-1120
-224
808
1024
300
-364
-756
-1412
-1040
904
2324
1364
-1032
-1692
48
332
-880
-372
1048
548
-208
816
1064
-864
-2772
-1548
1348
2668
1492
-428
-1444
-1556
-136
548
16
612
700
-372
-316
856
748
-1644
-2808
240
2780
1748
260
-952
-1936
-976
668
444
224
1224
300
-1756
-136
1968
-208
-2112
-1152
984
1816
888
-380
-1248
-460
308
-444
-340
1072
784
-920
-588
1676
492
-1944
-1356
32
1540
1700
-420
-1264
380
112
-1000
-232
-200
904
1080
-1120
700
1952
-1628
-2856
-1128
1340
3372
920
-1508
-596
-764
-588
-72
-524
1348
1556
-1340
216
1436
-620
-1652
-2944
816
3872
984
16
-1780
-1240
596
-1764
56
1936
1364
1040
-2380
-612
1144
-1976
-604
404
2364
3032
-2452
-2452
-888
-308
2380
604
612
agc_result_db 36
afe_gain      0
id_gain       0
afe_att       0
comp_gain     0
decim_gain    0
comp_coeff    0
decim_coeff   0
inv_tone_cnt  0

preamble section 4
-2920
2596
968
-2808
2548
-3380
64
2808
-452
1832
-2372
-1652
324
612
1484
-580
1604
-1264
-1700
888
-1784
1668
1676
-388
800
-1840
-1364
-984
944
3452
1144
-1436
-3660
-824
1732
1652
2048
-1420
-2064
-1516
420
3740
1032
-700
-3468
-3340
1816
4184
3460
-1524
-5048
-2040
1516
3304
1872
-1524
-3096
-1208
3136
2596
-768
-3256
-2872
2444
4356
1780
-3732
-5620
652
4856
3880
-1532
-4804
-1324
1968
2716
-1016
-2748
1192
3832
1524
-5312
-5200
1612
6248
4176
-2316
-4564
-2772
468
2192
768
1580
2636
-152
-4500
-4960
532
4888
4208
628
-3000
-3660
-2420
1048
4184
3372
216
-4840
-4676
920
4320
4024
-540
-3692
-2676
-452
2580
2580
764
-2832
-3380
1944
3240
912
-2256
-2692
636
1808
1080
-1300
-596
1628
-468
-1580
-96
1316
340
-692
864
372
-2452
-1064
2460
1816
-1264
-816
684
-652
-1120
412
1024
-800
1040
2348
-2800
-2316
1732
1984
-1120
-1628
1428
-396
248
1612
-1508
-1224
1748
276
-2452
740
1968
-1272
-356
1324
-784
-184
1032
-1492
-1000
2300
-224
-1572
1824
-628
-1016
2292
-208
-2872
372
2032
-1176
216
700
-748
1716
-1128
-1764
1692
-652
-604
1112
-136
732
1056
-2676
-944
2460
-1032
644
1192
-2904
1532
284
-2000
3008
-1200
-692
1936
-2628
40
2288
-1572
340
848
-2380
2452
436
-2716
2532
-2216
-372
3700
-3872
2596
276
-3912
5088
-3500
232
3032
-4976
3960
-1500
-316
3644
-5896
3516
388
-3152
4332
-3532
888
912
-1500
3168
agc_result_db 45
afe_gain      0
id_gain       0
afe_att       0
comp_gain     0
decim_gain    0
comp_coeff    0
decim_coeff   0
inv_tone_cnt  0

vt# [S->SB] Send_Keepalive(seq:46,len:6, time:4096)

Receive beacon_request
    ->form: 557606FFFE020000
[S->SB] Send_Keepalive(seq:46,len:6, time:4096)
Send Beacon (RC_COORD 0x0)

Receive beacon_request
    ->form: 319006FFFE020000
Send Beacon (RC_COORD 0x0)
[S->SB] Send_Keepalive(seq:46,len:6, time:4096)
[S->SB] Send_Keepalive(seq:46,len:6, time:4096)

Receive beacon_request
    ->form: 537606FFFE020000
[S->SB] Send_Keepalive(seq:46,len:6, time:4096)

Receive beacon_request
    ->form: 825806FFFE020000

Receive beacon_request
    ->form: 426106FFFE020000

